,slot,source,target,median,var,cnt
0,61,4092524002,34024741,63.13576889038086,31.213376998901367,52
1,123,4092524002,34024741,17.33741569519043,617.8575439453125,32
2,28,4092524002,34024741,15.366704940795898,32.15076446533203,45
3,133,4092524002,34024741,61.13421630859375,36.080284118652344,53
4,245,4092524002,34024741,58.66022491455078,131.6940155029297,101
5,454,4092524002,34024741,39.174560546875,374.860107421875,52
6,178,4092524002,34024741,24.301504135131836,378.1792907714844,49
7,270,4092524002,34024741,64.87106323242188,18.506683349609375,62
8,138,4092524002,34024741,63.385955810546875,44.331932067871094,60
9,266,4092524002,34024741,65.23392486572266,19.878488540649414,40
10,416,4092524002,34024741,61.59281921386719,39.311912536621094,70
11,42,4092524002,34024741,53.11991882324219,235.43661499023438,70
12,106,4092524002,34024741,18.467954635620117,126.7662124633789,50
13,76,4092524002,34024741,66.94116973876953,8.054778099060059,13
14,88,4092524002,34024741,67.51670837402344,1.8404371738433838,4
15,37,4092524002,34024741,14.02377700805664,24.182756423950195,12
16,265,4092524002,34024741,63.42063903808594,40.48963165283203,64
17,27,4092524002,34024741,14.608438491821289,60.19333267211914,61
18,43,4092524002,34024741,59.80263137817383,462.3745422363281,73
19,4,4092524002,34024741,67.3504638671875,18.009326934814453,10
20,284,4092524002,34024741,63.10899353027344,25.975666046142578,56
21,403,4092524002,34024741,64.02387237548828,23.693130493164062,31
22,441,4092524002,34024741,64.8973388671875,,1
23,79,4092524002,34024741,62.804481506347656,31.37891387939453,3
24,83,4092524002,34024741,71.07506561279297,0.4763306677341461,2
25,342,4092524002,34024741,63.52894973754883,23.795169830322266,25
26,121,4092524002,34024741,24.040693283081055,472.2970275878906,65
27,410,4092524002,34024741,61.76519775390625,538.0028076171875,42
28,417,4092524002,34024741,61.92362594604492,32.938629150390625,83
29,476,4092524002,34024741,60.711036682128906,538.4213256835938,37
30,484,4092524002,34024741,14.912736892700195,305.48663330078125,31
31,367,4092524002,34024741,65.447021484375,32.297813415527344,5
32,497,4092524002,34024741,63.81032180786133,27.34347915649414,29
33,38,4092524002,34024741,46.49056625366211,306.0901794433594,40
34,431,4092524002,34024741,65.00968170166016,21.968826293945312,26
35,80,4092524002,34024741,70.2645034790039,,1
36,307,4092524002,34024741,67.54251098632812,5.5860724449157715,2
37,323,4092524002,34024741,66.59454345703125,12.566083908081055,28
38,65,4092524002,34024741,62.761260986328125,19.394651412963867,29
39,458,4092524002,34024741,17.416790008544922,74.84134674072266,61
40,478,4092524002,34024741,58.548988342285156,223.82522583007812,66
41,184,4092524002,34024741,63.101070404052734,35.38410949707031,49
42,23,4092524002,34024741,15.008450508117676,64.11409759521484,53
43,84,4092524002,34024741,68.53254699707031,17.13275909423828,3
44,207,4092524002,34024741,61.79585266113281,23.533166885375977,57
45,362,4092524002,34024741,46.578514099121094,193.4969940185547,9
46,455,4092524002,34024741,20.432600021362305,157.82460021972656,55
47,313,4092524002,34024741,68.72588348388672,25.49536895751953,15
48,401,4092524002,34024741,62.63414001464844,47.65221405029297,41
49,6,4092524002,34024741,63.829833984375,2.2992453575134277,2
50,205,4092524002,34024741,61.53143310546875,41.80406951904297,59
51,464,4092524002,34024741,15.647655487060547,49.7061767578125,32
52,212,4092524002,34024741,63.59197235107422,23.6451416015625,64
53,311,4092524002,34024741,67.80406951904297,15.495823860168457,9
54,247,4092524002,34024741,60.618324279785156,44.72322463989258,70
55,248,4092524002,34024741,56.99180221557617,332.55474853515625,80
56,301,4092524002,34024741,71.28175354003906,1.6248706579208374,2
57,47,4092524002,34024741,13.201112747192383,32.62778854370117,46
58,128,4092524002,34024741,55.920921325683594,474.884033203125,47
59,209,4092524002,34024741,61.621253967285156,42.910919189453125,81
60,413,4092524002,34024741,23.785865783691406,471.5799560546875,54
61,470,4092524002,34024741,18.839771270751953,236.96807861328125,32
62,348,4092524002,34024741,56.1697883605957,264.90130615234375,48
63,360,4092524002,34024741,21.84892463684082,318.4473876953125,5
64,181,4092524002,34024741,59.741844177246094,167.10267639160156,38
65,211,4092524002,34024741,62.4287109375,29.9456729888916,78
66,434,4092524002,34024741,64.58969116210938,16.155725479125977,14
67,471,4092524002,34024741,17.080095291137695,273.50299072265625,18
68,502,4092524002,34024741,62.09385681152344,34.068992614746094,20
69,29,4092524002,34024741,14.560466766357422,52.37628936767578,69
70,57,4092524002,34024741,53.386287689208984,389.9154052734375,57
71,163,4092524002,34024741,57.07852554321289,95.06531524658203,29
72,63,4092524002,34024741,61.29622268676758,29.12739372253418,36
73,116,4092524002,34024741,31.01756477355957,501.9765930175781,47
74,146,4092524002,34024741,64.26189422607422,35.587806701660156,45
75,486,4092524002,34024741,16.23025131225586,401.47467041015625,66
76,322,4092524002,34024741,66.14967346191406,19.93290138244629,30
77,327,4092524002,34024741,65.87175750732422,19.989234924316406,28
78,459,4092524002,34024741,17.743850708007812,82.05867004394531,64
79,122,4092524002,34024741,16.49325180053711,386.9282531738281,54
80,201,4092524002,34024741,57.86227035522461,149.34320068359375,103
81,285,4092524002,34024741,61.4271240234375,32.610904693603516,71
82,463,4092524002,34024741,13.070627212524414,28.581100463867188,52
83,16,4092524002,34024741,68.2577896118164,45.68533706665039,4
84,18,4092524002,34024741,57.00351333618164,26.460433959960938,17
85,74,4092524002,34024741,63.229190826416016,41.685909271240234,21
86,238,4092524002,34024741,61.543182373046875,36.814910888671875,68
87,196,4092524002,34024741,15.116226196289062,543.8648071289062,52
88,229,4092524002,34024741,66.46925354003906,,1
89,310,4092524002,34024741,70.22954559326172,4.84431266784668,2
90,20,4092524002,34024741,57.343727111816406,220.21018981933594,31
91,89,4092524002,34024741,64.0177230834961,25.06989288330078,9
92,252,4092524002,34024741,62.316139221191406,396.91412353515625,35
93,391,4092524002,34024741,61.61335754394531,369.483642578125,68
94,193,4092524002,34024741,23.412160873413086,481.78765869140625,69
95,3,4092524002,34024741,68.05628204345703,16.5478572845459,15
96,243,4092524002,34024741,63.00014114379883,66.13115692138672,75
97,251,4092524002,34024741,64.7470932006836,38.518795013427734,52
98,483,4092524002,34024741,48.83724594116211,502.2495422363281,35
99,258,4092524002,34024741,65.33039855957031,46.20144271850586,49
100,99,4092524002,34024741,17.431617736816406,70.3692855834961,66
101,161,4092524002,34024741,66.07182312011719,34.18329620361328,8
102,298,4092524002,34024741,71.2232666015625,12.09730052947998,6
103,191,4092524002,34024741,32.542701721191406,539.125,46
104,222,4092524002,34024741,69.16496276855469,0.00018895091488957405,2
105,277,4092524002,34024741,21.96144676208496,473.2180480957031,34
106,336,4092524002,34024741,66.38545227050781,16.74651527404785,36
107,428,4092524002,34024741,64.91200256347656,42.48102951049805,45
108,474,4092524002,34024741,35.915565490722656,463.5389404296875,25
109,337,4092524002,34024741,65.53101348876953,40.784950256347656,31
110,155,4092524002,34024741,65.06660461425781,15.266003608703613,2
111,39,4092524002,34024741,48.788482666015625,449.9671325683594,42
112,200,4092524002,34024741,60.84294509887695,71.16722869873047,69
113,305,4092524002,34024741,65.74229431152344,14.17229175567627,2
114,68,4092524002,34024741,64.34732055664062,32.91158676147461,44
115,203,4092524002,34024741,63.342987060546875,39.92765808105469,53
116,396,4092524002,34024741,64.97866821289062,33.314056396484375,34
117,19,4092524002,34024741,57.585968017578125,28.186283111572266,30
118,45,4092524002,34024741,19.56464195251465,362.0879211425781,51
119,105,4092524002,34024741,32.954551696777344,372.7806396484375,44
120,58,4092524002,34024741,54.533634185791016,86.54008483886719,79
121,60,4092524002,34024741,63.88359832763672,29.721582412719727,43
122,286,4092524002,34024741,61.27008056640625,27.83998680114746,44
123,423,4092524002,34024741,63.67657470703125,27.11071014404297,53
124,475,4092524002,34024741,26.302160263061523,581.1823120117188,40
125,226,4092524002,34024741,71.2396469116211,,1
126,380,4092524002,34024741,32.49017333984375,211.19708251953125,34
127,7,4092524002,34024741,59.00177001953125,24.032442092895508,2
128,17,4092524002,34024741,62.52028274536133,19.55604362487793,11
129,73,4092524002,34024741,64.51847839355469,27.050756454467773,28
130,164,4092524002,34024741,51.50798797607422,262.8577575683594,30
131,319,4092524002,34024741,68.00318908691406,27.75101089477539,22
132,344,4092524002,34024741,63.183860778808594,25.518978118896484,62
133,160,4092524002,34024741,64.8282699584961,35.22677230834961,7
134,187,4092524002,34024741,21.598819732666016,409.742431640625,52
135,296,4092524002,34024741,66.76100158691406,11.18218994140625,8
136,224,4092524002,34024741,65.28050994873047,15.111306190490723,5
137,259,4092524002,34024741,64.35917663574219,45.85484313964844,40
138,34,4092524002,34024741,20.556852340698242,123.51590728759766,31
139,477,4092524002,34024741,62.75621032714844,121.68358612060547,40
140,72,4092524002,34024741,64.06991577148438,40.316741943359375,26
141,101,4092524002,34024741,16.36892318725586,58.63576126098633,56
142,213,4092524002,34024741,61.358760833740234,52.56734848022461,86
143,425,4092524002,34024741,64.78765106201172,21.082929611206055,40
144,171,4092524002,34024741,16.336265563964844,53.07132339477539,70
145,281,4092524002,34024741,62.00251770019531,32.130882263183594,34
146,334,4092524002,34024741,66.42274475097656,16.74410629272461,29
147,249,4092524002,34024741,61.87451171875,39.92378234863281,64
148,449,4092524002,34024741,62.60423278808594,22.65430450439453,4
149,473,4092524002,34024741,40.71017837524414,254.7104034423828,45
150,204,4092524002,34024741,62.59701156616211,46.33180236816406,74
151,402,4092524002,34024741,64.24716186523438,26.683340072631836,38
152,92,4092524002,34024741,61.926475524902344,378.13165283203125,32
153,280,4092524002,34024741,58.137367248535156,251.65614318847656,50
154,324,4092524002,34024741,62.30231857299805,18.355295181274414,22
155,399,4092524002,34024741,64.28559875488281,24.025625228881836,48
156,411,4092524002,34024741,63.554725646972656,635.21630859375,44
157,432,4092524002,34024741,65.6500473022461,19.28246307373047,20
158,489,4092524002,34024741,60.091487884521484,32.289329528808594,71
159,44,4092524002,34024741,55.2685546875,373.3808898925781,85
160,151,4092524002,34024741,71.06807708740234,0.1853315830230713,3
161,309,4092524002,34024741,66.45506286621094,8.971246719360352,6
162,25,4092524002,34024741,16.763263702392578,63.62727355957031,47
163,140,4092524002,34024741,62.156890869140625,27.749961853027344,55
164,144,4092524002,34024741,62.897953033447266,29.079687118530273,25
165,482,4092524002,34024741,15.048297882080078,115.98301696777344,43
166,503,4092524002,34024741,62.25926971435547,43.662803649902344,23
167,384,4092524002,34024741,17.546314239501953,68.1264419555664,53
168,56,4092524002,34024741,20.846797943115234,258.8163146972656,41
169,90,4092524002,34024741,58.541221618652344,11.098701477050781,21
170,130,4092524002,34024741,58.41484832763672,400.40728759765625,85
171,424,4092524002,34024741,61.16159439086914,26.45350456237793,41
172,494,4092524002,34024741,62.472389221191406,24.705123901367188,30
173,291,4092524002,34024741,60.22447204589844,48.35892868041992,26
174,142,4092524002,34024741,63.92778778076172,44.389671325683594,45
175,36,4092524002,34024741,15.279264450073242,166.5124053955078,22
176,46,4092524002,34024741,17.70845603942871,105.30882263183594,57
177,299,4092524002,34024741,68.50189208984375,5.178613662719727,3
178,183,4092524002,34024741,63.62795639038086,241.39620971679688,37
179,422,4092524002,34024741,65.94319152832031,27.361364364624023,56
180,77,4092524002,34024741,62.36674118041992,43.63275146484375,5
181,91,4092524002,34024741,59.4229621887207,101.27333068847656,25
182,302,4092524002,34024741,69.59284973144531,2.405707359313965,4
183,376,4092524002,34024741,69.35740661621094,0.15908342599868774,3
184,166,4092524002,34024741,19.831890106201172,299.4314270019531,54
185,167,4092524002,34024741,17.682029724121094,128.42391967773438,58
186,261,4092524002,34024741,65.95482635498047,26.38377571105957,48
187,398,4092524002,34024741,62.298614501953125,30.99359703063965,60
188,407,4092524002,34024741,58.94752883911133,288.3152770996094,54
189,263,4092524002,34024741,67.60287475585938,21.314342498779297,39
190,168,4092524002,34024741,16.52413558959961,126.05258178710938,52
191,397,4092524002,34024741,64.03645324707031,30.059261322021484,42
192,52,4092524002,34024741,10.499305725097656,23.6666316986084,25
193,70,4092524002,34024741,65.28950500488281,26.02423858642578,24
194,195,4092524002,34024741,17.222150802612305,547.6395874023438,51
195,297,4092524002,34024741,67.54336547851562,17.360755920410156,4
196,320,4092524002,34024741,66.73897552490234,23.625503540039062,29
197,287,4092524002,34024741,59.772132873535156,37.58466720581055,34
198,450,4092524002,34024741,60.21305847167969,21.162424087524414,28
199,485,4092524002,34024741,13.604270935058594,113.08528137207031,36
200,446,4092524002,34024741,65.31552124023438,,1
201,216,4092524002,34024741,59.249847412109375,62.706756591796875,37
202,358,4092524002,34024741,43.012657165527344,300.22802734375,29
203,71,4092524002,34024741,65.95592498779297,29.83382225036621,28
204,306,4092524002,34024741,66.98081970214844,9.687417984008789,4
205,338,4092524002,34024741,64.77660369873047,33.25565719604492,35
206,356,4092524002,34024741,60.67795944213867,33.3187141418457,27
207,50,4092524002,34024741,11.792757034301758,82.60675811767578,38
208,51,4092524002,34024741,12.82261848449707,121.32140350341797,30
209,127,4092524002,34024741,62.7619514465332,480.7344665527344,40
210,143,4092524002,34024741,62.641937255859375,41.054405212402344,41
211,331,4092524002,34024741,64.19127655029297,65.07315063476562,42
212,443,4092524002,34024741,62.769508361816406,67.70797729492188,4
213,49,4092524002,34024741,13.370458602905273,67.76406860351562,36
214,282,4092524002,34024741,61.186058044433594,38.98384475708008,24
215,429,4092524002,34024741,63.607086181640625,25.026029586791992,27
216,499,4092524002,34024741,64.67538452148438,33.0755500793457,41
217,59,4092524002,34024741,56.9075927734375,50.67000961303711,50
218,117,4092524002,34024741,50.965946197509766,413.6045227050781,38
219,370,4092524002,34024741,62.45683670043945,,1
220,96,4092524002,34024741,14.809967994689941,78.99271392822266,52
221,107,4092524002,34024741,16.183536529541016,260.7325134277344,28
222,197,4092524002,34024741,14.250458717346191,181.26370239257812,43
223,235,4092524002,34024741,67.83281707763672,15.366631507873535,33
224,241,4092524002,34024741,56.646453857421875,244.67665100097656,69
225,246,4092524002,34024741,53.493995666503906,231.99879455566406,61
226,279,4092524002,34024741,33.72609329223633,471.9350891113281,49
227,332,4092524002,34024741,65.68504333496094,22.04944610595703,39
228,374,4092524002,34024741,63.44804000854492,,1
229,500,4092524002,34024741,62.6312255859375,36.83700180053711,41
230,32,4092524002,34024741,16.329757690429688,37.14059066772461,53
231,54,4092524002,34024741,9.527067184448242,103.10327911376953,20
232,129,4092524002,34024741,55.88393020629883,450.1011962890625,65
233,188,4092524002,34024741,30.229164123535156,339.95684814453125,57
234,175,4092524002,34024741,18.21044158935547,284.7300109863281,43
235,192,4092524002,34024741,14.168390274047852,282.6900634765625,46
236,361,4092524002,34024741,19.44696807861328,83.1209487915039,12
237,233,4092524002,34024741,68.29542541503906,16.80390167236328,4
238,383,4092524002,34024741,18.263444900512695,37.48481750488281,41
239,433,4092524002,34024741,65.2577133178711,16.873592376708984,13
240,276,4092524002,34024741,57.676063537597656,471.2276916503906,50
241,304,4092524002,34024741,67.24419403076172,,1
242,41,4092524002,34024741,55.44886016845703,103.3412094116211,64
243,257,4092524002,34024741,60.633811950683594,267.5245361328125,65
244,40,4092524002,34024741,52.67597198486328,161.40237426757812,50
245,453,4092524002,34024741,51.2831916809082,216.3065185546875,34
246,468,4092524002,34024741,20.25405502319336,93.54415893554688,27
247,278,4092524002,34024741,33.24658966064453,408.3461608886719,39
248,388,4092524002,34024741,26.029197692871094,429.0633544921875,56
249,150,4092524002,34024741,69.16800689697266,34.96379470825195,3
250,210,4092524002,34024741,64.35214233398438,37.844879150390625,42
251,487,4092524002,34024741,19.97051239013672,356.29962158203125,40
252,176,4092524002,34024741,15.071449279785156,129.7112579345703,60
253,194,4092524002,34024741,14.878288269042969,414.1419372558594,63
254,272,4092524002,34024741,63.91679382324219,74.82967376708984,54
255,369,4092524002,34024741,65.63790893554688,,1
256,390,4092524002,34024741,62.568641662597656,191.4272918701172,54
257,451,4092524002,34024741,55.914493560791016,30.3736515045166,37
258,496,4092524002,34024741,64.251708984375,36.36149215698242,32
259,501,4092524002,34024741,64.7293472290039,25.592182159423828,23
260,217,4092524002,34024741,64.60822296142578,30.49199676513672,32
261,462,4092524002,34024741,12.651620864868164,34.35134506225586,48
262,93,4092524002,34024741,55.00965118408203,165.22540283203125,43
263,109,4092524002,34024741,22.828407287597656,572.0387573242188,31
264,137,4092524002,34024741,62.414588928222656,32.0166130065918,38
265,289,4092524002,34024741,60.066368103027344,26.48805809020996,33
266,341,4092524002,34024741,62.07606887817383,46.676177978515625,32
267,400,4092524002,34024741,64.43304443359375,19.86442756652832,48
268,0,4092524002,34024741,63.72334289550781,14.063206672668457,18
269,94,4092524002,34024741,38.347999572753906,319.5404968261719,38
270,103,4092524002,34024741,16.07655143737793,52.15439987182617,39
271,148,4092524002,34024741,66.14458465576172,19.192001342773438,16
272,112,4092524002,34024741,56.699859619140625,588.021240234375,31
273,173,4092524002,34024741,16.083541870117188,128.55079650878906,74
274,244,4092524002,34024741,61.25482940673828,35.10593795776367,74
275,378,4092524002,34024741,58.644962310791016,24.735031127929688,27
276,316,4092524002,34024741,68.88064575195312,14.603568077087402,19
277,318,4092524002,34024741,65.33757019042969,18.816116333007812,23
278,352,4092524002,34024741,60.0538330078125,36.518253326416016,40
279,414,4092524002,34024741,56.48151397705078,335.7906188964844,40
280,491,4092524002,34024741,64.50688171386719,34.77295684814453,47
281,267,4092524002,34024741,64.77446746826172,23.69158172607422,60
282,308,4092524002,34024741,66.67792510986328,34.378787994384766,2
283,170,4092524002,34024741,16.172088623046875,74.5284194946289,62
284,260,4092524002,34024741,65.11121368408203,20.279436111450195,51
285,364,4092524002,34024741,65.9669189453125,24.63120460510254,6
286,498,4092524002,34024741,62.561180114746094,25.180461883544922,38
287,48,4092524002,34024741,16.22859764099121,127.88700103759766,38
288,159,4092524002,34024741,70.44046020507812,,1
289,394,4092524002,34024741,62.102386474609375,27.77107810974121,58
290,125,4092524002,34024741,33.2207145690918,435.5700988769531,43
291,230,4092524002,34024741,70.38078308105469,0.9300065040588379,2
292,255,4092524002,34024741,59.155574798583984,318.7370910644531,43
293,256,4092524002,34024741,64.6778793334961,32.93693923950195,45
294,418,4092524002,34024741,64.48033905029297,29.846845626831055,50
295,488,4092524002,34024741,58.349971771240234,543.080322265625,41
296,321,4092524002,34024741,66.23619079589844,23.489280700683594,24
297,66,4092524002,34024741,63.87541198730469,54.46375274658203,38
298,420,4092524002,34024741,65.2033462524414,63.8119010925293,39
299,31,4092524002,34024741,15.65585994720459,65.26181030273438,47
300,157,4092524002,34024741,59.95669937133789,58.220951080322266,2
301,385,4092524002,34024741,21.577707290649414,373.7831115722656,62
302,102,4092524002,34024741,16.708574295043945,47.5181884765625,51
303,221,4092524002,34024741,65.75920867919922,9.197962760925293,6
304,225,4092524002,34024741,67.07333374023438,8.814319610595703,4
305,353,4092524002,34024741,60.69488525390625,34.03438949584961,44
306,355,4092524002,34024741,60.19658279418945,33.28374481201172,42
307,379,4092524002,34024741,57.96504211425781,23.670732498168945,37
308,30,4092524002,34024741,13.86941909790039,45.418914794921875,45
309,329,4092524002,34024741,66.17713928222656,17.378433227539062,26
310,5,4092524002,34024741,68.08605194091797,14.810601234436035,3
311,97,4092524002,34024741,16.268123626708984,46.870479583740234,57
312,104,4092524002,34024741,17.89118003845215,316.40185546875,49
313,139,4092524002,34024741,61.5745964050293,30.875362396240234,55
314,172,4092524002,34024741,16.905458450317383,142.00784301757812,64
315,440,4092524002,34024741,67.70521545410156,3.978480100631714,2
316,152,4092524002,34024741,63.610958099365234,,1
317,234,4092524002,34024741,68.99011993408203,19.827938079833984,10
318,456,4092524002,34024741,15.051822662353516,71.63470458984375,48
319,268,4092524002,34024741,66.49688720703125,23.37366485595703,44
320,67,4092524002,34024741,63.798362731933594,27.735530853271484,35
321,108,4092524002,34024741,24.767112731933594,684.8146362304688,33
322,202,4092524002,34024741,55.00897979736328,83.23230743408203,116
323,236,4092524002,34024741,66.27780151367188,32.145599365234375,38
324,363,4092524002,34024741,67.30457305908203,49.46980285644531,9
325,26,4092524002,34024741,15.796119689941406,35.34212875366211,65
326,131,4092524002,34024741,62.52125549316406,142.48155212402344,48
327,147,4092524002,34024741,63.77488327026367,21.564531326293945,27
328,480,4092524002,34024741,54.73369216918945,436.8849182128906,49
329,169,4092524002,34024741,16.998987197875977,250.18988037109375,73
330,350,4092524002,34024741,61.74653625488281,97.68004608154297,30
331,365,4092524002,34024741,68.42057800292969,18.765615463256836,8
332,377,4092524002,34024741,59.90220642089844,35.69816589355469,6
333,381,4092524002,34024741,28.523832321166992,171.5636444091797,25
334,326,4092524002,34024741,61.69247055053711,36.07893371582031,38
335,437,4092524002,34024741,68.821044921875,8.328125953674316,2
336,314,4092524002,34024741,68.9769287109375,12.530808448791504,14
337,240,4092524002,34024741,59.81005096435547,208.92550659179688,57
338,292,4092524002,34024741,63.074188232421875,26.987258911132812,24
339,371,4092524002,34024741,71.30400085449219,73.98241424560547,4
340,141,4092524002,34024741,63.73826217651367,38.46266555786133,40
341,186,4092524002,34024741,62.74127960205078,40.1806640625,42
342,189,4092524002,34024741,58.24657440185547,190.2151336669922,26
343,465,4092524002,34024741,16.047290802001953,45.68524932861328,41
344,118,4092524002,34024741,63.61088180541992,41.323509216308594,35
345,113,4092524002,34024741,59.22053527832031,479.97222900390625,37
346,328,4092524002,34024741,65.41475677490234,13.636673927307129,17
347,404,4092524002,34024741,64.24775695800781,23.54317855834961,41
348,408,4092524002,34024741,64.60418701171875,197.969970703125,48
349,22,4092524002,34024741,30.01239776611328,107.39523315429688,37
350,421,4092524002,34024741,64.3570556640625,29.52604103088379,57
351,452,4092524002,34024741,51.021339416503906,186.7102813720703,33
352,481,4092524002,34024741,29.966629028320312,553.8314819335938,56
353,64,4092524002,34024741,62.65646743774414,27.70937156677246,39
354,290,4092524002,34024741,60.43832015991211,30.85883140563965,24
355,295,4092524002,34024741,67.29066467285156,26.298479080200195,5
356,330,4092524002,34024741,66.21501159667969,21.9746036529541,36
357,156,4092524002,34024741,65.44703674316406,4.580459117889404,4
358,228,4092524002,34024741,63.16751480102539,,1
359,436,4092524002,34024741,67.80753326416016,22.039379119873047,8
360,218,4092524002,34024741,65.43338012695312,27.159587860107422,31
361,275,4092524002,34024741,59.93965148925781,527.1235961914062,47
362,466,4092524002,34024741,18.851476669311523,442.1448974609375,32
363,1,4092524002,34024741,68.5012435913086,29.05344581604004,19
364,206,4092524002,34024741,61.77187728881836,28.543094635009766,52
365,492,4092524002,34024741,63.532142639160156,27.45733070373535,51
366,493,4092524002,34024741,64.79281616210938,34.6370964050293,27
367,179,4092524002,34024741,26.8266544342041,427.28009033203125,60
368,98,4092524002,34024741,16.452348709106445,38.28329086303711,68
369,115,4092524002,34024741,30.33806610107422,473.749267578125,42
370,354,4092524002,34024741,60.32516098022461,36.9027099609375,44
371,10,4092524002,34024741,66.28744506835938,,1
372,190,4092524002,34024741,35.068485260009766,411.5627746582031,49
373,469,4092524002,34024741,21.06710433959961,196.30703735351562,30
374,110,4092524002,34024741,18.764963150024414,322.00347900390625,27
375,111,4092524002,34024741,24.92913246154785,503.7837219238281,37
376,427,4092524002,34024741,62.725948333740234,31.490135192871094,39
377,457,4092524002,34024741,15.656055450439453,45.81974792480469,40
378,346,4092524002,34024741,58.43406295776367,267.9456787109375,31
379,271,4092524002,34024741,62.66533660888672,178.41757202148438,64
380,386,4092524002,34024741,16.89237403869629,61.3073616027832,65
381,149,4092524002,34024741,68.16752624511719,7.713637828826904,9
382,237,4092524002,34024741,66.21781921386719,16.851938247680664,56
383,467,4092524002,34024741,19.840608596801758,86.9593505859375,29
384,495,4092524002,34024741,63.23391342163086,31.909212112426758,23
385,33,4092524002,34024741,20.21902847290039,71.00091552734375,43
386,208,4092524002,34024741,63.33108901977539,35.607566833496094,64
387,300,4092524002,34024741,66.4691390991211,0.04133865609765053,2
388,382,4092524002,34024741,21.542816162109375,218.64877319335938,33
389,75,4092524002,34024741,68.88420104980469,13.398926734924316,14
390,283,4092524002,34024741,63.981815338134766,34.548736572265625,39
391,343,4092524002,34024741,65.07748413085938,18.855785369873047,37
392,126,4092524002,34024741,56.14654541015625,680.503662109375,31
393,439,4092524002,34024741,52.6217155456543,,1
394,412,4092524002,34024741,55.19936752319336,602.5630493164062,37
395,199,4092524002,34024741,59.3424072265625,271.5265197753906,58
396,215,4092524002,34024741,59.40777587890625,44.04193115234375,44
397,438,4092524002,34024741,73.20550537109375,,1
398,114,4092524002,34024741,59.64516067504883,263.6591491699219,27
399,136,4092524002,34024741,61.837181091308594,18.78968620300293,49
400,21,4092524002,34024741,36.1489143371582,266.9112548828125,35
401,461,4092524002,34024741,16.217086791992188,58.099979400634766,50
402,177,4092524002,34024741,18.75952911376953,438.2767639160156,51
403,393,4092524002,34024741,61.9661979675293,81.54641723632812,59
404,389,4092524002,34024741,56.2056884765625,401.21240234375,66
405,395,4092524002,34024741,62.25478744506836,23.46686553955078,43
406,430,4092524002,34024741,63.6021614074707,23.695640563964844,46
407,124,4092524002,34024741,23.36873435974121,563.832763671875,39
408,288,4092524002,34024741,60.3171501159668,42.65095138549805,39
409,35,4092524002,34024741,16.550575256347656,60.19560623168945,33
410,182,4092524002,34024741,61.506534576416016,98.77056121826172,47
411,345,4092524002,34024741,59.48591995239258,40.56123352050781,42
412,119,4092524002,34024741,62.20850372314453,158.19491577148438,61
413,174,4092524002,34024741,20.875028610229492,180.35467529296875,49
414,242,4092524002,34024741,56.95014190673828,310.6464538574219,58
415,253,4092524002,34024741,59.750831604003906,501.35870361328125,50
416,357,4092524002,34024741,58.8880615234375,115.7797622680664,46
417,366,4092524002,34024741,65.87645721435547,15.102961540222168,5
418,359,4092524002,34024741,49.88182067871094,380.8746337890625,24
419,53,4092524002,34024741,12.129345893859863,32.220428466796875,25
420,406,4092524002,34024741,63.89556884765625,34.49221420288086,66
421,165,4092524002,34024741,38.038246154785156,379.2467041015625,36
422,312,4092524002,34024741,71.47185516357422,18.303312301635742,7
423,405,4092524002,34024741,62.711002349853516,36.70771789550781,62
424,479,4092524002,34024741,37.76172637939453,521.9607543945312,58
425,62,4092524002,34024741,62.9992561340332,44.93172836303711,67
426,315,4092524002,34024741,67.33824157714844,5.433276653289795,10
427,100,4092524002,34024741,17.077049255371094,66.28285217285156,65
428,269,4092524002,34024741,63.599082946777344,27.53392219543457,46
429,472,4092524002,34024741,22.315052032470703,271.830078125,35
430,154,4092524002,34024741,69.469482421875,,1
431,317,4092524002,34024741,66.2671890258789,10.086324691772461,16
432,120,4092524002,34024741,32.91897964477539,484.67694091796875,63
433,185,4092524002,34024741,62.97985076904297,31.4910831451416,42
434,293,4092524002,34024741,67.30052185058594,16.985525131225586,17
435,95,4092524002,34024741,22.53076171875,174.6552276611328,57
436,254,4092524002,34024741,58.59333801269531,375.7915954589844,30
437,24,4092524002,34024741,18.57175636291504,51.7437629699707,55
438,69,4092524002,34024741,63.27117919921875,32.948692321777344,42
439,239,4092524002,34024741,54.039398193359375,281.54736328125,60
440,460,4092524002,34024741,13.179341316223145,51.891143798828125,60
441,87,4092524002,34024741,68.95783233642578,,1
442,220,4092524002,34024741,63.97390365600586,26.86998748779297,20
443,294,4092524002,34024741,65.34554290771484,47.479366302490234,15
444,250,4092524002,34024741,57.21016311645508,333.2900390625,70
445,415,4092524002,34024741,65.398681640625,25.882902145385742,32
446,132,4092524002,34024741,59.931217193603516,38.86609649658203,48
447,264,4092524002,34024741,65.16815185546875,29.354251861572266,60
448,8,4092524002,34024741,68.19935607910156,4.09434175491333,2
449,325,4092524002,34024741,63.86977005004883,37.94707107543945,17
450,447,4092524002,34024741,65.7346420288086,,1
451,2,4092524002,34024741,64.90503692626953,23.253250122070312,16
452,262,4092524002,34024741,66.3611068725586,18.16501235961914,63
453,219,4092524002,34024741,66.78033447265625,29.621875762939453,30
454,335,4092524002,34024741,65.70922088623047,19.466148376464844,39
455,387,4092524002,34024741,16.302135467529297,78.0763931274414,52
456,435,4092524002,34024741,69.00547790527344,12.212445259094238,10
457,214,4092524002,34024741,61.679298400878906,97.527587890625,46
458,273,4092524002,34024741,63.91860580444336,23.37404441833496,51
459,145,4092524002,34024741,62.093162536621094,25.052675247192383,42
460,340,4092524002,34024741,63.70935821533203,32.181007385253906,41
461,347,4092524002,34024741,58.162445068359375,314.9767150878906,34
462,349,4092524002,34024741,53.31703567504883,201.5453338623047,31
463,198,4092524002,34024741,45.435550689697266,611.9779052734375,45
464,392,4092524002,34024741,55.09312438964844,329.8655090332031,70
465,419,4092524002,34024741,66.3968505859375,16.75160026550293,45
466,55,4092524002,34024741,23.096492767333984,331.1524963378906,23
467,333,4092524002,34024741,65.10086822509766,50.44337463378906,27
468,409,4092524002,34024741,61.39386749267578,416.9268798828125,48
469,223,4092524002,34024741,67.82142639160156,,1
470,78,4092524002,34024741,65.49935913085938,54.40825653076172,4
471,162,4092524002,34024741,56.55171203613281,69.19024658203125,21
472,426,4092524002,34024741,65.02603912353516,56.08524703979492,51
473,274,4092524002,34024741,59.03166198730469,270.22918701171875,62
474,339,4092524002,34024741,65.83229064941406,21.98296546936035,47
475,180,4092524002,34024741,57.85081481933594,271.42523193359375,46
476,351,4092524002,34024741,59.260066986083984,358.0534973144531,31
477,490,4092524002,34024741,60.85626983642578,33.35344314575195,94
478,134,4092524002,34024741,61.76046371459961,28.456695556640625,54
479,135,4092524002,34024741,62.357784271240234,20.698638916015625,56
480,368,4092524002,34024741,68.873046875,16.71322250366211,3
