,slot,source,target,median,var,cnt
0,26,4297872639,28141635,26.06659507751465,24.13130760192871,97
1,216,4297872639,28141635,55.429325103759766,206.74978637695312,51
2,247,4297872639,28141635,53.37712097167969,79.87339782714844,106
3,410,4297872639,28141635,61.75056457519531,150.9281005859375,82
4,23,4297872639,28141635,25.164749145507812,33.66106033325195,85
5,35,4297872639,28141635,27.826244354248047,213.91754150390625,58
6,480,4297872639,28141635,57.68366622924805,261.14923095703125,72
7,15,4297872639,28141635,67.9334487915039,,1
8,30,4297872639,28141635,23.021217346191406,21.687898635864258,75
9,321,4297872639,28141635,62.6922607421875,55.954917907714844,30
10,418,4297872639,28141635,60.92886734008789,139.18695068359375,91
11,37,4297872639,28141635,49.25360107421875,310.3512268066406,39
12,45,4297872639,28141635,56.634368896484375,101.84149932861328,72
13,110,4297872639,28141635,56.27991485595703,178.0736541748047,54
14,157,4297872639,28141635,65.1966781616211,0.9419376254081726,2
15,159,4297872639,28141635,70.41759490966797,5.397178649902344,2
16,221,4297872639,28141635,66.18213653564453,44.342288970947266,7
17,32,4297872639,28141635,23.872425079345703,22.02005386352539,81
18,191,4297872639,28141635,54.39606475830078,297.5137023925781,91
19,301,4297872639,28141635,55.27972412109375,30.317842483520508,2
20,420,4297872639,28141635,59.98811721801758,69.28585052490234,54
21,189,4297872639,28141635,60.01057434082031,56.98381423950195,60
22,288,4297872639,28141635,50.936927795410156,80.8624038696289,49
23,140,4297872639,28141635,58.267295837402344,47.349609375,65
24,393,4297872639,28141635,61.078086853027344,54.542667388916016,88
25,324,4297872639,28141635,63.45501708984375,41.05107879638672,36
26,57,4297872639,28141635,45.077186584472656,165.21226501464844,102
27,256,4297872639,28141635,62.6629638671875,45.80141830444336,71
28,281,4297872639,28141635,56.224491119384766,59.59202575683594,63
29,7,4297872639,28141635,67.9223861694336,,1
30,43,4297872639,28141635,59.4258918762207,76.78706359863281,93
31,56,4297872639,28141635,40.46858596801758,165.38204956054688,69
32,138,4297872639,28141635,59.19371795654297,50.01036071777344,74
33,173,4297872639,28141635,23.876558303833008,147.6596221923828,109
34,279,4297872639,28141635,45.80625534057617,201.7728729248047,76
35,386,4297872639,28141635,23.59010124206543,30.258895874023438,98
36,270,4297872639,28141635,61.704952239990234,62.04533767700195,83
37,295,4297872639,28141635,67.8759994506836,27.74169921875,10
38,387,4297872639,28141635,23.380088806152344,14.70018482208252,84
39,21,4297872639,28141635,26.854843139648438,36.64274597167969,53
40,61,4297872639,28141635,58.006378173828125,60.0560417175293,77
41,273,4297872639,28141635,59.57496643066406,46.83090591430664,84
42,397,4297872639,28141635,64.10226440429688,44.96832275390625,65
43,34,4297872639,28141635,32.516231536865234,233.13368225097656,54
44,97,4297872639,28141635,24.308122634887695,28.60746192932129,85
45,117,4297872639,28141635,60.31175231933594,50.605892181396484,71
46,170,4297872639,28141635,24.071697235107422,117.33602905273438,96
47,443,4297872639,28141635,69.0266342163086,44.20387649536133,3
48,491,4297872639,28141635,63.53055953979492,60.32522201538086,73
49,1,4297872639,28141635,63.58676528930664,42.056488037109375,26
50,114,4297872639,28141635,59.79817199707031,69.27891540527344,54
51,366,4297872639,28141635,62.550994873046875,19.668537139892578,6
52,126,4297872639,28141635,53.26961898803711,487.29052734375,77
53,287,4297872639,28141635,51.75183868408203,93.9825210571289,40
54,355,4297872639,28141635,48.37992858886719,82.6200180053711,60
55,496,4297872639,28141635,59.13917922973633,41.37863540649414,45
56,147,4297872639,28141635,63.3928337097168,34.62972640991211,27
57,304,4297872639,28141635,65.45945739746094,,1
58,343,4297872639,28141635,63.729248046875,53.78649139404297,48
59,262,4297872639,28141635,64.46214294433594,41.83929443359375,70
60,182,4297872639,28141635,61.04004669189453,76.40998840332031,91
61,376,4297872639,28141635,66.65254974365234,8.764556884765625,3
62,448,4297872639,28141635,68.72022247314453,7.509161949157715,5
63,243,4297872639,28141635,56.920127868652344,232.11082458496094,120
64,276,4297872639,28141635,48.81781005859375,138.12234497070312,105
65,464,4297872639,28141635,20.749990463256836,25.180025100708008,59
66,89,4297872639,28141635,64.18136596679688,143.62400817871094,10
67,328,4297872639,28141635,67.61764526367188,46.274261474609375,25
68,44,4297872639,28141635,56.51222229003906,206.90708923339844,114
69,401,4297872639,28141635,58.675567626953125,65.68629455566406,66
70,6,4297872639,28141635,69.32136535644531,17.880647659301758,5
71,10,4297872639,28141635,71.35688781738281,,1
72,115,4297872639,28141635,56.33523178100586,82.23185729980469,77
73,5,4297872639,28141635,69.31336975097656,148.94122314453125,5
74,77,4297872639,28141635,64.98291015625,10.820134162902832,6
75,469,4297872639,28141635,27.755252838134766,132.36378479003906,51
76,100,4297872639,28141635,23.644920349121094,29.278127670288086,102
77,462,4297872639,28141635,22.91314125061035,21.552101135253906,69
78,478,4297872639,28141635,61.47865295410156,51.26222610473633,96
79,502,4297872639,28141635,63.93320846557617,48.98469161987305,30
80,197,4297872639,28141635,47.54243850708008,270.30963134765625,94
81,352,4297872639,28141635,54.00484085083008,52.644168853759766,49
82,463,4297872639,28141635,23.737581253051758,41.779842376708984,64
83,257,4297872639,28141635,57.81916809082031,111.11006164550781,97
84,349,4297872639,28141635,46.44873046875,113.79686737060547,66
85,503,4297872639,28141635,58.651023864746094,41.1876335144043,30
86,47,4297872639,28141635,47.09653091430664,308.8152160644531,80
87,66,4297872639,28141635,62.07502365112305,69.56715393066406,50
88,78,4297872639,28141635,64.01603698730469,65.33952331542969,4
89,186,4297872639,28141635,59.00148010253906,67.62415313720703,78
90,121,4297872639,28141635,55.97777557373047,68.72745513916016,94
91,312,4297872639,28141635,67.97359466552734,56.10683059692383,18
92,458,4297872639,28141635,22.903879165649414,45.24676513671875,81
93,487,4297872639,28141635,58.19853973388672,126.66860961914062,88
94,432,4297872639,28141635,64.43898010253906,21.75674057006836,28
95,28,4297872639,28141635,22.683616638183594,30.583585739135742,62
96,52,4297872639,28141635,24.267732620239258,188.99234008789062,58
97,192,4297872639,28141635,57.85994338989258,171.66749572753906,62
98,209,4297872639,28141635,56.69340515136719,78.0816421508789,110
99,220,4297872639,28141635,66.29830169677734,26.50809669494629,24
100,3,4297872639,28141635,64.13387298583984,197.39297485351562,18
101,58,4297872639,28141635,36.68833923339844,232.4658203125,120
102,75,4297872639,28141635,64.27913665771484,45.47168731689453,15
103,380,4297872639,28141635,29.51645851135254,35.61869812011719,47
104,479,4297872639,28141635,56.62812042236328,93.84065246582031,86
105,16,4297872639,28141635,69.31155395507812,38.53561782836914,5
106,94,4297872639,28141635,29.003395080566406,39.804107666015625,64
107,284,4297872639,28141635,57.67039489746094,67.7800521850586,73
108,331,4297872639,28141635,61.60607147216797,87.5007553100586,53
109,12,4297872639,28141635,68.75018310546875,,1
110,210,4297872639,28141635,62.10838317871094,49.06033706665039,52
111,258,4297872639,28141635,60.39892578125,35.362998962402344,58
112,392,4297872639,28141635,55.1366081237793,58.31623458862305,108
113,167,4297872639,28141635,27.249011993408203,65.28138732910156,80
114,251,4297872639,28141635,59.84468078613281,84.98729705810547,95
115,118,4297872639,28141635,61.87470626831055,33.56859588623047,59
116,206,4297872639,28141635,56.57476806640625,50.86638259887695,94
117,412,4297872639,28141635,60.11402130126953,66.80684661865234,60
118,450,4297872639,28141635,36.30155944824219,125.08595275878906,32
119,68,4297872639,28141635,59.70990753173828,66.97915649414062,61
120,113,4297872639,28141635,60.951698303222656,53.024925231933594,70
121,296,4297872639,28141635,65.56027221679688,26.233543395996094,11
122,223,4297872639,28141635,67.78868865966797,9.202237129211426,3
123,176,4297872639,28141635,25.0916748046875,139.3555145263672,98
124,266,4297872639,28141635,64.13201904296875,32.67804718017578,78
125,291,4297872639,28141635,51.808631896972656,52.46555709838867,30
126,336,4297872639,28141635,65.68750762939453,27.27963638305664,45
127,348,4297872639,28141635,49.099021911621094,74.92489624023438,72
128,445,4297872639,28141635,59.367794036865234,62.12316131591797,2
129,136,4297872639,28141635,59.92076110839844,51.07106399536133,67
130,449,4297872639,28141635,62.41079330444336,26.747770309448242,7
131,363,4297872639,28141635,62.25413131713867,244.39300537109375,12
132,400,4297872639,28141635,62.88501739501953,49.42501449584961,81
133,377,4297872639,28141635,56.84143829345703,22.687950134277344,9
134,411,4297872639,28141635,62.601890563964844,47.683746337890625,72
135,416,4297872639,28141635,60.57496643066406,51.90510177612305,103
136,271,4297872639,28141635,59.63105010986328,48.603416442871094,105
137,294,4297872639,28141635,64.65956115722656,15.997748374938965,13
138,341,4297872639,28141635,60.89494323730469,54.69602584838867,49
139,476,4297872639,28141635,60.086822509765625,79.11882781982422,58
140,72,4297872639,28141635,60.798423767089844,103.55728149414062,34
141,368,4297872639,28141635,61.47698211669922,72.51309967041016,2
142,468,4297872639,28141635,25.53570556640625,184.88919067382812,55
143,17,4297872639,28141635,59.66037368774414,75.96771240234375,15
144,451,4297872639,28141635,28.44806480407715,41.014610290527344,51
145,471,4297872639,28141635,55.8094367980957,302.0301818847656,36
146,82,4297872639,28141635,66.66986846923828,,1
147,300,4297872639,28141635,64.04789733886719,42.62617111206055,3
148,145,4297872639,28141635,61.354068756103516,40.887386322021484,50
149,149,4297872639,28141635,66.38160705566406,13.95239543914795,14
150,297,4297872639,28141635,64.15846252441406,4.998873710632324,3
151,409,4297872639,28141635,62.084312438964844,40.748497009277344,81
152,2,4297872639,28141635,64.29180145263672,159.4239501953125,19
153,119,4297872639,28141635,59.700836181640625,59.365440368652344,88
154,414,4297872639,28141635,61.9323616027832,79.34687042236328,54
155,33,4297872639,28141635,28.257314682006836,226.90341186523438,73
156,254,4297872639,28141635,58.42601776123047,95.38097381591797,77
157,316,4297872639,28141635,68.12670135498047,17.33644676208496,27
158,41,4297872639,28141635,59.52193069458008,61.1093864440918,107
159,65,4297872639,28141635,61.68062973022461,41.341243743896484,47
160,141,4297872639,28141635,61.8011360168457,70.75530242919922,55
161,369,4297872639,28141635,66.2286605834961,20.192184448242188,2
162,465,4297872639,28141635,23.849164962768555,78.70279693603516,67
163,93,4297872639,28141635,30.127330780029297,46.617210388183594,55
164,104,4297872639,28141635,24.013944625854492,281.3542785644531,77
165,112,4297872639,28141635,58.29096221923828,73.65065002441406,51
166,144,4297872639,28141635,61.929630279541016,41.31389617919922,33
167,350,4297872639,28141635,52.481163024902344,76.59015655517578,53
168,125,4297872639,28141635,57.02061462402344,315.9627685546875,67
169,160,4297872639,28141635,70.54692077636719,26.57676887512207,6
170,201,4297872639,28141635,47.533103942871094,164.3115997314453,166
171,329,4297872639,28141635,67.62898254394531,51.80398941040039,39
172,29,4297872639,28141635,22.088855743408203,40.229896545410156,86
173,438,4297872639,28141635,68.15339660644531,4.568418979644775,2
174,388,4297872639,28141635,35.528560638427734,211.41502380371094,119
175,498,4297872639,28141635,59.82415771484375,48.30128860473633,52
176,163,4297872639,28141635,28.742961883544922,78.99956512451172,46
177,268,4297872639,28141635,61.755496978759766,111.52867889404297,68
178,489,4297872639,28141635,53.10707092285156,102.74435424804688,136
179,200,4297872639,28141635,57.09477996826172,94.62255859375,128
180,264,4297872639,28141635,61.811492919921875,51.83097839355469,83
181,133,4297872639,28141635,58.479644775390625,67.40667724609375,72
182,263,4297872639,28141635,65.44210052490234,39.23744201660156,73
183,495,4297872639,28141635,61.43726348876953,48.565284729003906,33
184,230,4297872639,28141635,71.55160522460938,5.737593650817871,2
185,435,4297872639,28141635,68.45162200927734,17.796009063720703,13
186,402,4297872639,28141635,63.369564056396484,64.1664810180664,65
187,79,4297872639,28141635,63.37968444824219,60.09077072143555,2
188,394,4297872639,28141635,59.17858123779297,72.47647857666016,81
189,442,4297872639,28141635,66.65644073486328,9.33446216583252,2
190,67,4297872639,28141635,62.46854782104492,54.07150650024414,59
191,320,4297872639,28141635,65.1773452758789,27.030935287475586,37
192,407,4297872639,28141635,61.409271240234375,49.20863342285156,79
193,184,4297872639,28141635,61.36786651611328,56.325435638427734,71
194,51,4297872639,28141635,49.07774353027344,261.94293212890625,71
195,150,4297872639,28141635,70.5753173828125,0.17598792910575867,3
196,207,4297872639,28141635,60.195960998535156,46.56863021850586,84
197,278,4297872639,28141635,30.920886993408203,161.1180419921875,89
198,156,4297872639,28141635,67.74958038330078,1.3461803197860718,4
199,242,4297872639,28141635,37.47983169555664,247.6331329345703,110
200,315,4297872639,28141635,65.92328643798828,22.118797302246094,13
201,396,4297872639,28141635,60.80720520019531,63.92146682739258,68
202,481,4297872639,28141635,58.27573776245117,337.3576354980469,95
203,342,4297872639,28141635,61.25002670288086,50.03921890258789,46
204,364,4297872639,28141635,64.4266357421875,21.418909072875977,20
205,474,4297872639,28141635,59.130435943603516,153.44529724121094,65
206,152,4297872639,28141635,69.62336730957031,22.411788940429688,4
207,128,4297872639,28141635,59.15265655517578,154.27549743652344,98
208,162,4297872639,28141635,37.511680603027344,86.58805847167969,27
209,226,4297872639,28141635,71.48162841796875,1.5348436832427979,2
210,398,4297872639,28141635,59.27783203125,88.46493530273438,87
211,472,4297872639,28141635,55.650489807128906,331.73876953125,54
212,92,4297872639,28141635,34.644676208496094,353.3196105957031,50
213,461,4297872639,28141635,22.20711898803711,38.72507095336914,87
214,102,4297872639,28141635,23.563261032104492,30.445032119750977,87
215,229,4297872639,28141635,70.30632781982422,0.11880730092525482,2
216,307,4297872639,28141635,68.64346313476562,4.722978591918945,6
217,372,4297872639,28141635,71.22937774658203,0.06275124847888947,2
218,83,4297872639,28141635,68.41654205322266,0.09399515390396118,2
219,202,4297872639,28141635,34.86805725097656,170.8363037109375,168
220,231,4297872639,28141635,71.14273834228516,,1
221,232,4297872639,28141635,65.17886352539062,17.917926788330078,8
222,98,4297872639,28141635,23.666805267333984,26.8951416015625,89
223,433,4297872639,28141635,65.36026763916016,31.91910171508789,19
224,116,4297872639,28141635,57.62918472290039,44.83747482299805,81
225,441,4297872639,28141635,58.703857421875,,1
226,123,4297872639,28141635,55.815574645996094,512.2077026367188,56
227,289,4297872639,28141635,52.83979797363281,129.44638061523438,48
228,459,4297872639,28141635,22.134159088134766,18.348485946655273,98
229,436,4297872639,28141635,66.38375091552734,10.940248489379883,7
230,54,4297872639,28141635,18.007034301757812,154.35601806640625,35
231,74,4297872639,28141635,65.3377914428711,35.93598175048828,26
232,164,4297872639,28141635,30.326961517333984,136.31277465820312,40
233,99,4297872639,28141635,25.320602416992188,33.77560806274414,96
234,187,4297872639,28141635,56.434696197509766,98.33576202392578,91
235,302,4297872639,28141635,65.92837524414062,15.896783828735352,3
236,455,4297872639,28141635,28.335853576660156,25.857423782348633,114
237,293,4297872639,28141635,60.35060119628906,72.44579315185547,22
238,425,4297872639,28141635,60.332061767578125,43.78128433227539,56
239,18,4297872639,28141635,29.975120544433594,94.17414093017578,22
240,179,4297872639,28141635,56.46171569824219,77.76768493652344,86
241,261,4297872639,28141635,64.09807586669922,51.25514221191406,65
242,238,4297872639,28141635,53.75553512573242,201.28688049316406,98
243,483,4297872639,28141635,62.28824996948242,50.1813850402832,52
244,198,4297872639,28141635,60.30377960205078,215.0882110595703,84
245,213,4297872639,28141635,55.528831481933594,187.49099731445312,94
246,252,4297872639,28141635,57.48249435424805,90.87317657470703,78
247,269,4297872639,28141635,63.75736999511719,40.44630432128906,60
248,280,4297872639,28141635,53.47643280029297,139.04588317871094,91
249,344,4297872639,28141635,58.77449035644531,82.26614379882812,84
250,429,4297872639,28141635,62.97511291503906,37.28433609008789,48
251,137,4297872639,28141635,59.79703903198242,50.238868713378906,62
252,62,4297872639,28141635,55.26626205444336,64.88031005859375,87
253,143,4297872639,28141635,63.3557014465332,88.17233276367188,47
254,218,4297872639,28141635,65.39202880859375,23.4577693939209,32
255,379,4297872639,28141635,29.467668533325195,22.177698135375977,43
256,422,4297872639,28141635,59.750816345214844,81.2756576538086,68
257,95,4297872639,28141635,25.441913604736328,38.309165954589844,98
258,127,4297872639,28141635,53.563392639160156,376.7267150878906,76
259,434,4297872639,28141635,66.0748062133789,28.71808624267578,23
260,259,4297872639,28141635,63.19092559814453,38.898887634277344,69
261,330,4297872639,28141635,63.218238830566406,47.75703430175781,47
262,203,4297872639,28141635,59.99811553955078,89.51144409179688,94
263,234,4297872639,28141635,66.365966796875,14.171934127807617,16
264,326,4297872639,28141635,57.849769592285156,84.06240844726562,51
265,424,4297872639,28141635,57.495635986328125,61.88138198852539,67
266,255,4297872639,28141635,60.596282958984375,52.35833740234375,88
267,50,4297872639,28141635,48.14503479003906,317.114990234375,76
268,120,4297872639,28141635,62.31428909301758,46.56221008300781,88
269,134,4297872639,28141635,58.49509811401367,40.66413879394531,74
270,413,4297872639,28141635,62.54335021972656,65.24160766601562,74
271,151,4297872639,28141635,69.22093200683594,7.548620223999023,4
272,194,4297872639,28141635,56.74990463256836,353.49267578125,101
273,166,4297872639,28141635,25.061967849731445,135.46664428710938,81
274,235,4297872639,28141635,65.11148834228516,17.702465057373047,39
275,155,4297872639,28141635,68.55618286132812,6.118353366851807,5
276,267,4297872639,28141635,62.67018127441406,32.72323226928711,74
277,101,4297872639,28141635,22.538021087646484,19.44969940185547,88
278,430,4297872639,28141635,62.14822006225586,52.38124465942383,54
279,466,4297872639,28141635,22.92620849609375,94.53190612792969,50
280,477,4297872639,28141635,63.44406509399414,55.97324752807617,66
281,214,4297872639,28141635,56.57624816894531,91.61929321289062,54
282,42,4297872639,28141635,57.422706604003906,52.613277435302734,104
283,106,4297872639,28141635,27.452268600463867,305.2914733886719,81
284,131,4297872639,28141635,60.3153076171875,38.966529846191406,69
285,334,4297872639,28141635,65.58512878417969,50.602012634277344,43
286,333,4297872639,28141635,66.13265991210938,65.2583236694336,41
287,427,4297872639,28141635,62.352657318115234,96.92240905761719,47
288,453,4297872639,28141635,30.684051513671875,45.9300422668457,57
289,303,4297872639,28141635,65.5162124633789,,1
290,457,4297872639,28141635,24.354755401611328,52.28717803955078,64
291,80,4297872639,28141635,62.883419036865234,,1
292,325,4297872639,28141635,59.119693756103516,82.20819091796875,25
293,415,4297872639,28141635,64.5658950805664,33.19069290161133,69
294,317,4297872639,28141635,65.31893157958984,23.811433792114258,13
295,353,4297872639,28141635,52.1552848815918,75.96072387695312,59
296,500,4297872639,28141635,59.24909591674805,53.39793395996094,49
297,40,4297872639,28141635,53.843772888183594,143.81353759765625,94
298,96,4297872639,28141635,27.091487884521484,37.733680725097656,99
299,165,4297872639,28141635,28.180662155151367,92.0802230834961,55
300,283,4297872639,28141635,61.129398345947266,39.843055725097656,63
301,25,4297872639,28141635,22.83108139038086,38.96707534790039,71
302,437,4297872639,28141635,67.98739624023438,9.521767616271973,3
303,501,4297872639,28141635,56.030067443847656,41.786800384521484,29
304,338,4297872639,28141635,63.508567810058594,43.61009979248047,40
305,378,4297872639,28141635,33.59783172607422,128.3468017578125,34
306,38,4297872639,28141635,51.259368896484375,113.26927947998047,81
307,132,4297872639,28141635,58.555908203125,49.19641876220703,83
308,139,4297872639,28141635,56.155540466308594,76.5357437133789,67
309,299,4297872639,28141635,66.32701110839844,30.83260726928711,6
310,36,4297872639,28141635,30.762928009033203,126.05722045898438,41
311,215,4297872639,28141635,61.51638412475586,61.60252380371094,65
312,76,4297872639,28141635,65.57675170898438,30.15568733215332,17
313,240,4297872639,28141635,51.402008056640625,181.02369689941406,88
314,371,4297872639,28141635,68.15570831298828,20.89784049987793,3
315,20,4297872639,28141635,26.582632064819336,63.219547271728516,39
316,63,4297872639,28141635,57.21354293823242,71.21405029296875,67
317,88,4297872639,28141635,67.06675720214844,25.447467803955078,4
318,180,4297872639,28141635,63.07411193847656,77.52134704589844,61
319,237,4297872639,28141635,61.135765075683594,39.29759979248047,66
320,419,4297872639,28141635,62.342613220214844,46.32112121582031,70
321,146,4297872639,28141635,61.73347854614258,32.92876434326172,49
322,305,4297872639,28141635,65.59201049804688,5.186771392822266,2
323,129,4297872639,28141635,50.82029724121094,154.0225830078125,112
324,314,4297872639,28141635,68.12326049804688,10.412487030029297,20
325,208,4297872639,28141635,56.8909912109375,53.88050842285156,85
326,311,4297872639,28141635,68.95510864257812,13.890081405639648,18
327,224,4297872639,28141635,64.28949737548828,25.358993530273438,5
328,327,4297872639,28141635,64.48138427734375,66.06150817871094,34
329,354,4297872639,28141635,56.44449996948242,66.26235961914062,62
330,360,4297872639,28141635,27.88764190673828,41.68849563598633,12
331,70,4297872639,28141635,63.53059387207031,26.422077178955078,31
332,188,4297872639,28141635,62.11245346069336,31.036380767822266,74
333,225,4297872639,28141635,68.94059753417969,1.1738708019256592,2
334,275,4297872639,28141635,52.57024002075195,278.9251708984375,100
335,446,4297872639,28141635,62.21607971191406,15.23749828338623,2
336,395,4297872639,28141635,62.33140563964844,48.5979118347168,71
337,444,4297872639,28141635,70.49351501464844,,1
338,177,4297872639,28141635,51.734703063964844,322.234619140625,83
339,318,4297872639,28141635,67.01548767089844,25.178020477294922,30
340,4,4297872639,28141635,69.05624389648438,40.805084228515625,13
341,245,4297872639,28141635,50.177825927734375,142.28973388671875,135
342,362,4297872639,28141635,26.637123107910156,26.71868133544922,15
343,346,4297872639,28141635,55.905357360839844,72.80374145507812,60
344,347,4297872639,28141635,51.5614013671875,81.16220092773438,67
345,467,4297872639,28141635,25.218788146972656,40.304466247558594,48
346,175,4297872639,28141635,22.80264663696289,123.36811065673828,79
347,359,4297872639,28141635,27.156543731689453,32.541988372802734,30
348,373,4297872639,28141635,42.10209274291992,,1
349,428,4297872639,28141635,61.38733673095703,39.70106506347656,55
350,59,4297872639,28141635,53.71085739135742,270.154052734375,67
351,265,4297872639,28141635,62.87776184082031,58.681541442871094,82
352,493,4297872639,28141635,62.08830642700195,45.677677154541016,47
353,73,4297872639,28141635,60.511558532714844,66.53372192382812,42
354,183,4297872639,28141635,61.32722473144531,41.23115158081055,56
355,239,4297872639,28141635,35.70362091064453,181.36033630371094,79
356,244,4297872639,28141635,53.084693908691406,233.29734802246094,121
357,406,4297872639,28141635,62.53565979003906,58.456912994384766,90
358,31,4297872639,28141635,22.76879119873047,26.934362411499023,84
359,423,4297872639,28141635,59.175941467285156,73.6815185546875,69
360,454,4297872639,28141635,28.653602600097656,27.524593353271484,76
361,417,4297872639,28141635,54.3359375,135.47598266601562,127
362,39,4297872639,28141635,42.51438903808594,148.16925048828125,107
363,253,4297872639,28141635,58.17055892944336,75.04254150390625,103
364,367,4297872639,28141635,68.78498840332031,40.72804260253906,7
365,456,4297872639,28141635,24.929649353027344,26.98198699951172,78
366,130,4297872639,28141635,48.97093963623047,132.60928344726562,118
367,199,4297872639,28141635,59.606658935546875,42.50934600830078,116
368,473,4297872639,28141635,60.56262969970703,210.64488220214844,74
369,8,4297872639,28141635,68.58255004882812,,1
370,277,4297872639,28141635,39.90046310424805,196.09048461914062,97
371,292,4297872639,28141635,60.134300231933594,57.265113830566406,34
372,306,4297872639,28141635,67.42200469970703,5.479774475097656,6
373,383,4297872639,28141635,24.00599479675293,34.115325927734375,94
374,452,4297872639,28141635,28.612442016601562,47.39065933227539,44
375,22,4297872639,28141635,28.98949432373047,23.980236053466797,71
376,260,4297872639,28141635,62.45185852050781,56.664573669433594,64
377,290,4297872639,28141635,54.2712516784668,89.29305267333984,35
378,190,4297872639,28141635,59.037322998046875,140.84950256347656,72
379,105,4297872639,28141635,22.66408920288086,268.8151550292969,64
380,248,4297872639,28141635,55.59030532836914,95.69855499267578,112
381,332,4297872639,28141635,63.91429138183594,28.29583168029785,42
382,399,4297872639,28141635,61.8686408996582,40.27283477783203,69
383,492,4297872639,28141635,59.9545783996582,49.8259391784668,65
384,381,4297872639,28141635,26.084287643432617,29.544893264770508,39
385,154,4297872639,28141635,69.43266296386719,3.781270980834961,2
386,169,4297872639,28141635,23.87921142578125,105.37432098388672,123
387,447,4297872639,28141635,66.33229064941406,10.663895606994629,2
388,236,4297872639,28141635,62.91672134399414,97.2099609375,55
389,90,4297872639,28141635,45.182159423828125,223.05657958984375,28
390,64,4297872639,28141635,59.89961624145508,53.874366760253906,51
391,91,4297872639,28141635,28.75389862060547,289.15045166015625,33
392,171,4297872639,28141635,22.249732971191406,73.5703125,103
393,195,4297872639,28141635,54.175804138183594,323.631591796875,98
394,286,4297872639,28141635,52.383689880371094,84.01305389404297,60
395,358,4297872639,28141635,43.56425857543945,187.47215270996094,40
396,335,4297872639,28141635,63.99595642089844,26.195093154907227,45
397,178,4297872639,28141635,59.83260726928711,100.635986328125,74
398,0,4297872639,28141635,64.77879333496094,56.688499450683594,22
399,161,4297872639,28141635,57.92158126831055,79.81255340576172,8
400,148,4297872639,28141635,61.12312698364258,83.75602722167969,24
401,193,4297872639,28141635,58.54715347290039,78.94416809082031,114
402,485,4297872639,28141635,51.84819030761719,322.67169189453125,83
403,69,4297872639,28141635,60.81535339355469,54.7418098449707,52
404,370,4297872639,28141635,62.30708312988281,,1
405,48,4297872639,28141635,53.06953430175781,147.1341094970703,73
406,71,4297872639,28141635,63.49025344848633,33.15614700317383,46
407,84,4297872639,28141635,68.84883880615234,16.90029525756836,2
408,339,4297872639,28141635,64.61288452148438,49.98748016357422,60
409,375,4297872639,28141635,67.5047378540039,174.83920288085938,3
410,382,4297872639,28141635,26.489643096923828,23.27713966369629,59
411,408,4297872639,28141635,62.03521728515625,68.46465301513672,85
412,60,4297872639,28141635,60.787330627441406,65.19544219970703,72
413,282,4297872639,28141635,60.006900787353516,48.606082916259766,49
414,313,4297872639,28141635,67.31752014160156,33.75313949584961,20
415,357,4297872639,28141635,49.19593811035156,53.21665954589844,64
416,440,4297872639,28141635,71.81768798828125,0.004641817882657051,2
417,460,4297872639,28141635,20.775188446044922,29.04926300048828,92
418,109,4297872639,28141635,41.68922424316406,315.3824462890625,58
419,274,4297872639,28141635,55.27788162231445,72.23139953613281,105
420,298,4297872639,28141635,70.21202087402344,1.1222249269485474,4
421,361,4297872639,28141635,24.411422729492188,38.75799560546875,17
422,497,4297872639,28141635,57.8877067565918,62.237831115722656,41
423,222,4297872639,28141635,66.42280578613281,71.02306365966797,4
424,337,4297872639,28141635,61.359405517578125,39.87453079223633,39
425,172,4297872639,28141635,22.13595199584961,91.04871368408203,101
426,272,4297872639,28141635,60.5814323425293,49.762672424316406,91
427,204,4297872639,28141635,61.075164794921875,45.988033294677734,102
428,421,4297872639,28141635,61.16242599487305,52.93492126464844,71
429,365,4297872639,28141635,68.2760238647461,9.385724067687988,10
430,389,4297872639,28141635,55.035728454589844,165.4586639404297,132
431,174,4297872639,28141635,23.942760467529297,80.21485137939453,62
432,24,4297872639,28141635,26.244611740112305,39.708946228027344,91
433,135,4297872639,28141635,59.14447784423828,44.43581008911133,73
434,323,4297872639,28141635,65.00828552246094,44.6695556640625,40
435,351,4297872639,28141635,51.782005310058594,139.33541870117188,49
436,310,4297872639,28141635,67.79658508300781,124.69420623779297,11
437,403,4297872639,28141635,64.58152770996094,57.69867706298828,48
438,53,4297872639,28141635,21.294631958007812,227.16693115234375,45
439,211,4297872639,28141635,58.056793212890625,59.067771911621094,97
440,241,4297872639,28141635,36.0313835144043,238.4181671142578,133
441,181,4297872639,28141635,61.438331604003906,97.39142608642578,65
442,27,4297872639,28141635,23.46779441833496,29.354629516601562,99
443,87,4297872639,28141635,69.46790313720703,12.189302444458008,2
444,122,4297872639,28141635,58.062496185302734,271.5554504394531,72
445,470,4297872639,28141635,55.60295867919922,296.6784973144531,40
446,486,4297872639,28141635,56.78124237060547,123.27379608154297,81
447,103,4297872639,28141635,22.91319465637207,29.157337188720703,83
448,499,4297872639,28141635,63.30937957763672,89.51741027832031,53
449,227,4297872639,28141635,69.96131134033203,0.4028824269771576,2
450,319,4297872639,28141635,67.81818389892578,22.129100799560547,32
451,384,4297872639,28141635,23.9724063873291,45.195152282714844,81
452,494,4297872639,28141635,58.82573699951172,40.08488082885742,42
453,46,4297872639,28141635,56.243927001953125,108.40117645263672,88
454,49,4297872639,28141635,54.41987228393555,240.49205017089844,93
455,228,4297872639,28141635,65.6744613647461,73.14678955078125,2
456,217,4297872639,28141635,59.03864288330078,111.95115661621094,44
457,345,4297872639,28141635,53.545501708984375,159.22291564941406,64
458,246,4297872639,28141635,53.601043701171875,96.43572998046875,111
459,250,4297872639,28141635,60.22357940673828,59.31681823730469,98
460,390,4297872639,28141635,60.99303436279297,57.85308837890625,92
461,490,4297872639,28141635,51.22059631347656,186.37594604492188,129
462,426,4297872639,28141635,62.75030517578125,75.22980499267578,52
463,107,4297872639,28141635,23.99996566772461,326.130615234375,66
464,249,4297872639,28141635,53.511417388916016,192.20761108398438,121
465,308,4297872639,28141635,66.01738739013672,11.356212615966797,7
466,488,4297872639,28141635,59.25724792480469,55.945735931396484,79
467,108,4297872639,28141635,54.79662322998047,449.8050842285156,61
468,196,4297872639,28141635,53.81901550292969,254.8397216796875,108
469,285,4297872639,28141635,56.365875244140625,44.332366943359375,96
470,309,4297872639,28141635,68.99285888671875,24.993064880371094,12
471,185,4297872639,28141635,59.22209167480469,79.37202453613281,72
472,219,4297872639,28141635,61.425594329833984,61.41038513183594,45
473,19,4297872639,28141635,27.456241607666016,23.688508987426758,35
474,55,4297872639,28141635,19.546066284179688,320.27850341796875,45
475,340,4297872639,28141635,58.85972595214844,115.82805633544922,54
476,405,4297872639,28141635,60.48973846435547,66.42289733886719,85
477,482,4297872639,28141635,61.456260681152344,75.00260925292969,86
478,233,4297872639,28141635,69.76705932617188,7.3567214012146,8
479,431,4297872639,28141635,63.506526947021484,53.37771987915039,36
480,475,4297872639,28141635,57.36767578125,168.9233856201172,62
481,124,4297872639,28141635,54.426170349121094,434.9967346191406,66
482,391,4297872639,28141635,59.36296844482422,56.91948318481445,115
483,111,4297872639,28141635,56.92535400390625,51.64207077026367,62
484,212,4297872639,28141635,58.58612823486328,55.736244201660156,83
485,168,4297872639,28141635,25.193002700805664,72.65469360351562,92
486,205,4297872639,28141635,58.55509567260742,46.49617004394531,81
487,356,4297872639,28141635,51.93626403808594,80.11932373046875,47
488,385,4297872639,28141635,21.707674026489258,25.696624755859375,107
489,142,4297872639,28141635,61.02923583984375,60.56097412109375,56
490,404,4297872639,28141635,62.09793472290039,49.57651901245117,57
491,322,4297872639,28141635,66.1983413696289,23.655567169189453,38
492,484,4297872639,28141635,53.88257598876953,264.5998229980469,76
