,slot,source,target,speed
0,0,4092524002,34024741,63.72334289550781
1,1,4092524002,34024741,68.5012435913086
2,2,4092524002,34024741,64.90503692626953
3,3,4092524002,34024741,68.05628204345703
4,4,4092524002,34024741,67.3504638671875
5,5,4092524002,34024741,68.08605194091797
6,6,4092524002,34024741,63.829833984375
7,7,4092524002,34024741,59.00177001953125
8,8,4092524002,34024741,68.19935607910156
9,9,4092524002,34024741,67.56204986572266
10,10,4092524002,34024741,66.28744506835938
11,16,4092524002,34024741,68.2577896118164
12,17,4092524002,34024741,62.52028274536133
13,18,4092524002,34024741,57.00351333618164
14,19,4092524002,34024741,57.585968017578125
15,20,4092524002,34024741,57.343727111816406
16,21,4092524002,34024741,36.1489143371582
17,22,4092524002,34024741,30.01239776611328
18,23,4092524002,34024741,15.008450508117676
19,24,4092524002,34024741,18.57175636291504
20,25,4092524002,34024741,16.763263702392578
21,26,4092524002,34024741,15.796119689941406
22,27,4092524002,34024741,14.608438491821289
23,28,4092524002,34024741,15.366704940795898
24,29,4092524002,34024741,14.560466766357422
25,30,4092524002,34024741,13.86941909790039
26,31,4092524002,34024741,15.65585994720459
27,32,4092524002,34024741,16.329757690429688
28,33,4092524002,34024741,20.21902847290039
29,34,4092524002,34024741,20.556852340698242
30,35,4092524002,34024741,16.550575256347656
31,36,4092524002,34024741,15.279264450073242
32,37,4092524002,34024741,14.02377700805664
33,38,4092524002,34024741,46.49056625366211
34,39,4092524002,34024741,48.788482666015625
35,40,4092524002,34024741,52.67597198486328
36,41,4092524002,34024741,55.44886016845703
37,42,4092524002,34024741,53.11991882324219
38,43,4092524002,34024741,59.80263137817383
39,44,4092524002,34024741,55.2685546875
40,45,4092524002,34024741,19.56464195251465
41,46,4092524002,34024741,17.70845603942871
42,47,4092524002,34024741,13.201112747192383
43,48,4092524002,34024741,16.22859764099121
44,49,4092524002,34024741,13.370458602905273
45,50,4092524002,34024741,11.792757034301758
46,51,4092524002,34024741,12.82261848449707
47,52,4092524002,34024741,10.499305725097656
48,53,4092524002,34024741,12.129345893859863
49,54,4092524002,34024741,9.527067184448242
50,55,4092524002,34024741,23.096492767333984
51,56,4092524002,34024741,20.846797943115234
52,57,4092524002,34024741,53.386287689208984
53,58,4092524002,34024741,54.533634185791016
54,59,4092524002,34024741,56.9075927734375
55,60,4092524002,34024741,63.88359832763672
56,61,4092524002,34024741,63.13576889038086
57,62,4092524002,34024741,62.9992561340332
58,63,4092524002,34024741,61.29622268676758
59,64,4092524002,34024741,62.65646743774414
60,65,4092524002,34024741,62.761260986328125
61,66,4092524002,34024741,63.87541198730469
62,67,4092524002,34024741,63.798362731933594
63,68,4092524002,34024741,64.34732055664062
64,69,4092524002,34024741,63.27117919921875
65,70,4092524002,34024741,65.28950500488281
66,71,4092524002,34024741,65.95592498779297
67,72,4092524002,34024741,64.06991577148438
68,73,4092524002,34024741,64.51847839355469
69,74,4092524002,34024741,63.229190826416016
70,75,4092524002,34024741,68.88420104980469
71,76,4092524002,34024741,66.94116973876953
72,77,4092524002,34024741,62.36674118041992
73,78,4092524002,34024741,65.49935913085938
74,79,4092524002,34024741,62.804481506347656
75,80,4092524002,34024741,70.2645034790039
76,83,4092524002,34024741,71.07506561279297
77,84,4092524002,34024741,68.53254699707031
78,87,4092524002,34024741,68.95783233642578
79,88,4092524002,34024741,67.51670837402344
80,89,4092524002,34024741,64.0177230834961
81,90,4092524002,34024741,58.541221618652344
82,91,4092524002,34024741,59.4229621887207
83,92,4092524002,34024741,61.926475524902344
84,93,4092524002,34024741,55.00965118408203
85,94,4092524002,34024741,38.347999572753906
86,95,4092524002,34024741,22.53076171875
87,96,4092524002,34024741,14.809967994689941
88,97,4092524002,34024741,16.268123626708984
89,98,4092524002,34024741,16.452348709106445
90,99,4092524002,34024741,17.431617736816406
91,100,4092524002,34024741,17.077049255371094
92,101,4092524002,34024741,16.36892318725586
93,102,4092524002,34024741,16.708574295043945
94,103,4092524002,34024741,16.07655143737793
95,104,4092524002,34024741,17.89118003845215
96,105,4092524002,34024741,32.954551696777344
97,106,4092524002,34024741,18.467954635620117
98,107,4092524002,34024741,16.183536529541016
99,108,4092524002,34024741,24.767112731933594
100,109,4092524002,34024741,22.828407287597656
101,110,4092524002,34024741,18.764963150024414
102,111,4092524002,34024741,24.92913246154785
103,112,4092524002,34024741,56.699859619140625
104,113,4092524002,34024741,59.22053527832031
105,114,4092524002,34024741,59.64516067504883
106,115,4092524002,34024741,30.33806610107422
107,116,4092524002,34024741,31.01756477355957
108,117,4092524002,34024741,50.965946197509766
109,118,4092524002,34024741,63.61088180541992
110,119,4092524002,34024741,62.20850372314453
111,120,4092524002,34024741,32.91897964477539
112,121,4092524002,34024741,24.040693283081055
113,122,4092524002,34024741,16.49325180053711
114,123,4092524002,34024741,17.33741569519043
115,124,4092524002,34024741,23.36873435974121
116,125,4092524002,34024741,33.2207145690918
117,126,4092524002,34024741,56.14654541015625
118,127,4092524002,34024741,62.7619514465332
119,128,4092524002,34024741,55.920921325683594
120,129,4092524002,34024741,55.88393020629883
121,130,4092524002,34024741,58.41484832763672
122,131,4092524002,34024741,62.52125549316406
123,132,4092524002,34024741,59.931217193603516
124,133,4092524002,34024741,61.13421630859375
125,134,4092524002,34024741,61.76046371459961
126,135,4092524002,34024741,62.357784271240234
127,136,4092524002,34024741,61.837181091308594
128,137,4092524002,34024741,62.414588928222656
129,138,4092524002,34024741,63.385955810546875
130,139,4092524002,34024741,61.5745964050293
131,140,4092524002,34024741,62.156890869140625
132,141,4092524002,34024741,63.73826217651367
133,142,4092524002,34024741,63.92778778076172
134,143,4092524002,34024741,62.641937255859375
135,144,4092524002,34024741,62.897953033447266
136,145,4092524002,34024741,62.093162536621094
137,146,4092524002,34024741,64.26189422607422
138,147,4092524002,34024741,63.77488327026367
139,148,4092524002,34024741,66.14458465576172
140,149,4092524002,34024741,68.16752624511719
141,150,4092524002,34024741,69.16800689697266
142,151,4092524002,34024741,71.06807708740234
143,152,4092524002,34024741,63.610958099365234
144,153,4092524002,34024741,66.54022216796875
145,154,4092524002,34024741,69.469482421875
146,155,4092524002,34024741,65.06660461425781
147,156,4092524002,34024741,65.44703674316406
148,157,4092524002,34024741,59.95669937133789
149,158,4092524002,34024741,63.45128631591797
150,159,4092524002,34024741,70.44046020507812
151,160,4092524002,34024741,64.8282699584961
152,161,4092524002,34024741,66.07182312011719
153,162,4092524002,34024741,56.55171203613281
154,163,4092524002,34024741,57.07852554321289
155,164,4092524002,34024741,51.50798797607422
156,165,4092524002,34024741,38.038246154785156
157,166,4092524002,34024741,19.831890106201172
158,167,4092524002,34024741,17.682029724121094
159,168,4092524002,34024741,16.52413558959961
160,169,4092524002,34024741,16.998987197875977
161,170,4092524002,34024741,16.172088623046875
162,171,4092524002,34024741,16.336265563964844
163,172,4092524002,34024741,16.905458450317383
164,173,4092524002,34024741,16.083541870117188
165,174,4092524002,34024741,20.875028610229492
166,175,4092524002,34024741,18.21044158935547
167,176,4092524002,34024741,15.071449279785156
168,177,4092524002,34024741,18.75952911376953
169,178,4092524002,34024741,24.301504135131836
170,179,4092524002,34024741,26.8266544342041
171,180,4092524002,34024741,57.85081481933594
172,181,4092524002,34024741,59.741844177246094
173,182,4092524002,34024741,61.506534576416016
174,183,4092524002,34024741,63.62795639038086
175,184,4092524002,34024741,63.101070404052734
176,185,4092524002,34024741,62.97985076904297
177,186,4092524002,34024741,62.74127960205078
178,187,4092524002,34024741,21.598819732666016
179,188,4092524002,34024741,30.229164123535156
180,189,4092524002,34024741,58.24657440185547
181,190,4092524002,34024741,35.068485260009766
182,191,4092524002,34024741,32.542701721191406
183,192,4092524002,34024741,14.168390274047852
184,193,4092524002,34024741,23.412160873413086
185,194,4092524002,34024741,14.878288269042969
186,195,4092524002,34024741,17.222150802612305
187,196,4092524002,34024741,15.116226196289062
188,197,4092524002,34024741,14.250458717346191
189,198,4092524002,34024741,45.435550689697266
190,199,4092524002,34024741,59.3424072265625
191,200,4092524002,34024741,60.84294509887695
192,201,4092524002,34024741,57.86227035522461
193,202,4092524002,34024741,55.00897979736328
194,203,4092524002,34024741,63.342987060546875
195,204,4092524002,34024741,62.59701156616211
196,205,4092524002,34024741,61.53143310546875
197,206,4092524002,34024741,61.77187728881836
198,207,4092524002,34024741,61.79585266113281
199,208,4092524002,34024741,63.33108901977539
200,209,4092524002,34024741,61.621253967285156
201,210,4092524002,34024741,64.35214233398438
202,211,4092524002,34024741,62.4287109375
203,212,4092524002,34024741,63.59197235107422
204,213,4092524002,34024741,61.358760833740234
205,214,4092524002,34024741,61.679298400878906
206,215,4092524002,34024741,59.40777587890625
207,216,4092524002,34024741,59.249847412109375
208,217,4092524002,34024741,64.60822296142578
209,218,4092524002,34024741,65.43338012695312
210,219,4092524002,34024741,66.78033447265625
211,220,4092524002,34024741,63.97390365600586
212,221,4092524002,34024741,65.75920867919922
213,222,4092524002,34024741,69.16496276855469
214,223,4092524002,34024741,67.82142639160156
215,224,4092524002,34024741,65.28050994873047
216,225,4092524002,34024741,67.07333374023438
217,226,4092524002,34024741,71.2396469116211
218,227,4092524002,34024741,67.20358276367188
219,228,4092524002,34024741,63.16751480102539
220,229,4092524002,34024741,66.46925354003906
221,230,4092524002,34024741,70.38078308105469
222,233,4092524002,34024741,68.29542541503906
223,234,4092524002,34024741,68.99011993408203
224,235,4092524002,34024741,67.83281707763672
225,236,4092524002,34024741,66.27780151367188
226,237,4092524002,34024741,66.21781921386719
227,238,4092524002,34024741,61.543182373046875
228,239,4092524002,34024741,54.039398193359375
229,240,4092524002,34024741,59.81005096435547
230,241,4092524002,34024741,56.646453857421875
231,242,4092524002,34024741,56.95014190673828
232,243,4092524002,34024741,63.00014114379883
233,244,4092524002,34024741,61.25482940673828
234,245,4092524002,34024741,58.66022491455078
235,246,4092524002,34024741,53.493995666503906
236,247,4092524002,34024741,60.618324279785156
237,248,4092524002,34024741,56.99180221557617
238,249,4092524002,34024741,61.87451171875
239,250,4092524002,34024741,57.21016311645508
240,251,4092524002,34024741,64.7470932006836
241,252,4092524002,34024741,62.316139221191406
242,253,4092524002,34024741,59.750831604003906
243,254,4092524002,34024741,58.59333801269531
244,255,4092524002,34024741,59.155574798583984
245,256,4092524002,34024741,64.6778793334961
246,257,4092524002,34024741,60.633811950683594
247,258,4092524002,34024741,65.33039855957031
248,259,4092524002,34024741,64.35917663574219
249,260,4092524002,34024741,65.11121368408203
250,261,4092524002,34024741,65.95482635498047
251,262,4092524002,34024741,66.3611068725586
252,263,4092524002,34024741,67.60287475585938
253,264,4092524002,34024741,65.16815185546875
254,265,4092524002,34024741,63.42063903808594
255,266,4092524002,34024741,65.23392486572266
256,267,4092524002,34024741,64.77446746826172
257,268,4092524002,34024741,66.49688720703125
258,269,4092524002,34024741,63.599082946777344
259,270,4092524002,34024741,64.87106323242188
260,271,4092524002,34024741,62.66533660888672
261,272,4092524002,34024741,63.91679382324219
262,273,4092524002,34024741,63.91860580444336
263,274,4092524002,34024741,59.03166198730469
264,275,4092524002,34024741,59.93965148925781
265,276,4092524002,34024741,57.676063537597656
266,277,4092524002,34024741,21.96144676208496
267,278,4092524002,34024741,33.24658966064453
268,279,4092524002,34024741,33.72609329223633
269,280,4092524002,34024741,58.137367248535156
270,281,4092524002,34024741,62.00251770019531
271,282,4092524002,34024741,61.186058044433594
272,283,4092524002,34024741,63.981815338134766
273,284,4092524002,34024741,63.10899353027344
274,285,4092524002,34024741,61.4271240234375
275,286,4092524002,34024741,61.27008056640625
276,287,4092524002,34024741,59.772132873535156
277,288,4092524002,34024741,60.3171501159668
278,289,4092524002,34024741,60.066368103027344
279,290,4092524002,34024741,60.43832015991211
280,291,4092524002,34024741,60.22447204589844
281,292,4092524002,34024741,63.074188232421875
282,293,4092524002,34024741,67.30052185058594
283,294,4092524002,34024741,65.34554290771484
284,295,4092524002,34024741,67.29066467285156
285,296,4092524002,34024741,66.76100158691406
286,297,4092524002,34024741,67.54336547851562
287,298,4092524002,34024741,71.2232666015625
288,299,4092524002,34024741,68.50189208984375
289,300,4092524002,34024741,66.4691390991211
290,301,4092524002,34024741,71.28175354003906
291,302,4092524002,34024741,69.59284973144531
292,303,4092524002,34024741,69.12311553955078
293,304,4092524002,34024741,67.24419403076172
294,305,4092524002,34024741,65.74229431152344
295,306,4092524002,34024741,66.98081970214844
296,307,4092524002,34024741,67.54251098632812
297,308,4092524002,34024741,66.67792510986328
298,309,4092524002,34024741,66.45506286621094
299,310,4092524002,34024741,70.22954559326172
300,311,4092524002,34024741,67.80406951904297
301,312,4092524002,34024741,71.47185516357422
302,313,4092524002,34024741,68.72588348388672
303,314,4092524002,34024741,68.9769287109375
304,315,4092524002,34024741,67.33824157714844
305,316,4092524002,34024741,68.88064575195312
306,317,4092524002,34024741,66.2671890258789
307,318,4092524002,34024741,65.33757019042969
308,319,4092524002,34024741,68.00318908691406
309,320,4092524002,34024741,66.73897552490234
310,321,4092524002,34024741,66.23619079589844
311,322,4092524002,34024741,66.14967346191406
312,323,4092524002,34024741,66.59454345703125
313,324,4092524002,34024741,62.30231857299805
314,325,4092524002,34024741,63.86977005004883
315,326,4092524002,34024741,61.69247055053711
316,327,4092524002,34024741,65.87175750732422
317,328,4092524002,34024741,65.41475677490234
318,329,4092524002,34024741,66.17713928222656
319,330,4092524002,34024741,66.21501159667969
320,331,4092524002,34024741,64.19127655029297
321,332,4092524002,34024741,65.68504333496094
322,333,4092524002,34024741,65.10086822509766
323,334,4092524002,34024741,66.42274475097656
324,335,4092524002,34024741,65.70922088623047
325,336,4092524002,34024741,66.38545227050781
326,337,4092524002,34024741,65.53101348876953
327,338,4092524002,34024741,64.77660369873047
328,339,4092524002,34024741,65.83229064941406
329,340,4092524002,34024741,63.70935821533203
330,341,4092524002,34024741,62.07606887817383
331,342,4092524002,34024741,63.52894973754883
332,343,4092524002,34024741,65.07748413085938
333,344,4092524002,34024741,63.183860778808594
334,345,4092524002,34024741,59.48591995239258
335,346,4092524002,34024741,58.43406295776367
336,347,4092524002,34024741,58.162445068359375
337,348,4092524002,34024741,56.1697883605957
338,349,4092524002,34024741,53.31703567504883
339,350,4092524002,34024741,61.74653625488281
340,351,4092524002,34024741,59.260066986083984
341,352,4092524002,34024741,60.0538330078125
342,353,4092524002,34024741,60.69488525390625
343,354,4092524002,34024741,60.32516098022461
344,355,4092524002,34024741,60.19658279418945
345,356,4092524002,34024741,60.67795944213867
346,357,4092524002,34024741,58.8880615234375
347,358,4092524002,34024741,43.012657165527344
348,359,4092524002,34024741,49.88182067871094
349,360,4092524002,34024741,21.84892463684082
350,361,4092524002,34024741,19.44696807861328
351,362,4092524002,34024741,46.578514099121094
352,363,4092524002,34024741,67.30457305908203
353,364,4092524002,34024741,65.9669189453125
354,365,4092524002,34024741,68.42057800292969
355,366,4092524002,34024741,65.87645721435547
356,367,4092524002,34024741,65.447021484375
357,368,4092524002,34024741,68.873046875
358,369,4092524002,34024741,65.63790893554688
359,370,4092524002,34024741,62.45683670043945
360,371,4092524002,34024741,71.30400085449219
361,374,4092524002,34024741,63.44804000854492
362,375,4092524002,34024741,67.88006591796875
363,376,4092524002,34024741,69.35740661621094
364,377,4092524002,34024741,59.90220642089844
365,378,4092524002,34024741,58.644962310791016
366,379,4092524002,34024741,57.96504211425781
367,380,4092524002,34024741,32.49017333984375
368,381,4092524002,34024741,28.523832321166992
369,382,4092524002,34024741,21.542816162109375
370,383,4092524002,34024741,18.263444900512695
371,384,4092524002,34024741,17.546314239501953
372,385,4092524002,34024741,21.577707290649414
373,386,4092524002,34024741,16.89237403869629
374,387,4092524002,34024741,16.302135467529297
375,388,4092524002,34024741,26.029197692871094
376,389,4092524002,34024741,56.2056884765625
377,390,4092524002,34024741,62.568641662597656
378,391,4092524002,34024741,61.61335754394531
379,392,4092524002,34024741,55.09312438964844
380,393,4092524002,34024741,61.9661979675293
381,394,4092524002,34024741,62.102386474609375
382,395,4092524002,34024741,62.25478744506836
383,396,4092524002,34024741,64.97866821289062
384,397,4092524002,34024741,64.03645324707031
385,398,4092524002,34024741,62.298614501953125
386,399,4092524002,34024741,64.28559875488281
387,400,4092524002,34024741,64.43304443359375
388,401,4092524002,34024741,62.63414001464844
389,402,4092524002,34024741,64.24716186523438
390,403,4092524002,34024741,64.02387237548828
391,404,4092524002,34024741,64.24775695800781
392,405,4092524002,34024741,62.711002349853516
393,406,4092524002,34024741,63.89556884765625
394,407,4092524002,34024741,58.94752883911133
395,408,4092524002,34024741,64.60418701171875
396,409,4092524002,34024741,61.39386749267578
397,410,4092524002,34024741,61.76519775390625
398,411,4092524002,34024741,63.554725646972656
399,412,4092524002,34024741,55.19936752319336
400,413,4092524002,34024741,23.785865783691406
401,414,4092524002,34024741,56.48151397705078
402,415,4092524002,34024741,65.398681640625
403,416,4092524002,34024741,61.59281921386719
404,417,4092524002,34024741,61.92362594604492
405,418,4092524002,34024741,64.48033905029297
406,419,4092524002,34024741,66.3968505859375
407,420,4092524002,34024741,65.2033462524414
408,421,4092524002,34024741,64.3570556640625
409,422,4092524002,34024741,65.94319152832031
410,423,4092524002,34024741,63.67657470703125
411,424,4092524002,34024741,61.16159439086914
412,425,4092524002,34024741,64.78765106201172
413,426,4092524002,34024741,65.02603912353516
414,427,4092524002,34024741,62.725948333740234
415,428,4092524002,34024741,64.91200256347656
416,429,4092524002,34024741,63.607086181640625
417,430,4092524002,34024741,63.6021614074707
418,431,4092524002,34024741,65.00968170166016
419,432,4092524002,34024741,65.6500473022461
420,433,4092524002,34024741,65.2577133178711
421,434,4092524002,34024741,64.58969116210938
422,435,4092524002,34024741,69.00547790527344
423,436,4092524002,34024741,67.80753326416016
424,437,4092524002,34024741,68.821044921875
425,438,4092524002,34024741,73.20550537109375
426,439,4092524002,34024741,52.6217155456543
427,440,4092524002,34024741,67.70521545410156
428,441,4092524002,34024741,64.8973388671875
429,442,4092524002,34024741,63.19507598876953
430,443,4092524002,34024741,62.769508361816406
431,446,4092524002,34024741,65.31552124023438
432,447,4092524002,34024741,65.7346420288086
433,448,4092524002,34024741,63.230316162109375
434,449,4092524002,34024741,62.60423278808594
435,450,4092524002,34024741,60.21305847167969
436,451,4092524002,34024741,55.914493560791016
437,452,4092524002,34024741,51.021339416503906
438,453,4092524002,34024741,51.2831916809082
439,454,4092524002,34024741,39.174560546875
440,455,4092524002,34024741,20.432600021362305
441,456,4092524002,34024741,15.051822662353516
442,457,4092524002,34024741,15.656055450439453
443,458,4092524002,34024741,17.416790008544922
444,459,4092524002,34024741,17.743850708007812
445,460,4092524002,34024741,13.179341316223145
446,461,4092524002,34024741,16.217086791992188
447,462,4092524002,34024741,12.651620864868164
448,463,4092524002,34024741,13.070627212524414
449,464,4092524002,34024741,15.647655487060547
450,465,4092524002,34024741,16.047290802001953
451,466,4092524002,34024741,18.851476669311523
452,467,4092524002,34024741,19.840608596801758
453,468,4092524002,34024741,20.25405502319336
454,469,4092524002,34024741,21.06710433959961
455,470,4092524002,34024741,18.839771270751953
456,471,4092524002,34024741,17.080095291137695
457,472,4092524002,34024741,22.315052032470703
458,473,4092524002,34024741,40.71017837524414
459,474,4092524002,34024741,35.915565490722656
460,475,4092524002,34024741,26.302160263061523
461,476,4092524002,34024741,60.711036682128906
462,477,4092524002,34024741,62.75621032714844
463,478,4092524002,34024741,58.548988342285156
464,479,4092524002,34024741,37.76172637939453
465,480,4092524002,34024741,54.73369216918945
466,481,4092524002,34024741,29.966629028320312
467,482,4092524002,34024741,15.048297882080078
468,483,4092524002,34024741,48.83724594116211
469,484,4092524002,34024741,14.912736892700195
470,485,4092524002,34024741,13.604270935058594
471,486,4092524002,34024741,16.23025131225586
472,487,4092524002,34024741,19.97051239013672
473,488,4092524002,34024741,58.349971771240234
474,489,4092524002,34024741,60.091487884521484
475,490,4092524002,34024741,60.85626983642578
476,491,4092524002,34024741,64.50688171386719
477,492,4092524002,34024741,63.532142639160156
478,493,4092524002,34024741,64.79281616210938
479,494,4092524002,34024741,62.472389221191406
480,495,4092524002,34024741,63.23391342163086
481,496,4092524002,34024741,64.251708984375
482,497,4092524002,34024741,63.81032180786133
483,498,4092524002,34024741,62.561180114746094
484,499,4092524002,34024741,64.67538452148438
485,500,4092524002,34024741,62.6312255859375
486,501,4092524002,34024741,64.7293472290039
487,502,4092524002,34024741,62.09385681152344
488,503,4092524002,34024741,62.25926971435547
