,slot,source,target,median,var,cnt
0,253,31076429,26082405,60.339141845703125,51.016197204589844,74
1,324,31076429,26082405,64.0337142944336,58.23283767700195,77
2,24,31076429,26082405,30.976526260375977,234.48194885253906,136
3,59,31076429,26082405,64.3978271484375,33.081607818603516,107
4,273,31076429,26082405,53.89453125,62.28514862060547,72
5,348,31076429,26082405,54.74286651611328,79.13195037841797,80
6,499,31076429,26082405,70.27616882324219,0.8470370173454285,4
7,194,31076429,26082405,56.35910415649414,48.415802001953125,107
8,201,31076429,26082405,61.93157196044922,55.7651252746582,82
9,376,31076429,26082405,37.49637222290039,267.5869140625,196
10,380,31076429,26082405,57.313751220703125,366.4387512207031,149
11,397,31076429,26082405,55.039852142333984,94.17552947998047,163
12,6,31076429,26082405,50.52687454223633,81.00708770751953,45
13,134,31076429,26082405,64.84922790527344,26.72989273071289,53
14,229,31076429,26082405,46.1505126953125,51.11396026611328,119
15,425,31076429,26082405,67.70780944824219,28.17181396484375,10
16,78,31076429,26082405,53.42914581298828,85.00077056884766,63
17,109,31076429,26082405,35.725833892822266,309.02276611328125,164
18,362,31076429,26082405,69.53523254394531,15.796045303344727,9
19,467,31076429,26082405,54.963958740234375,240.44039916992188,175
20,342,31076429,26082405,58.19229507446289,57.735572814941406,97
21,461,31076429,26082405,59.40538024902344,181.58999633789062,139
22,357,31076429,26082405,68.01702117919922,3.172805070877075,3
23,434,31076429,26082405,61.40958023071289,201.59133911132812,4
24,30,31076429,26082405,60.32998275756836,66.87444305419922,134
25,170,31076429,26082405,57.5128173828125,247.3825225830078,60
26,189,31076429,26082405,41.122169494628906,287.62652587890625,121
27,373,31076429,26082405,29.25304412841797,116.91952514648438,183
28,260,31076429,26082405,51.49393081665039,105.88128662109375,124
29,153,31076429,26082405,41.50353240966797,62.83720397949219,110
30,230,31076429,26082405,46.27247619628906,47.2590446472168,118
31,321,31076429,26082405,62.5545539855957,20.707427978515625,62
32,102,31076429,26082405,58.91468811035156,262.23675537109375,115
33,156,31076429,26082405,28.34849739074707,99.8454818725586,141
34,162,31076429,26082405,33.774784088134766,248.42787170410156,113
35,423,31076429,26082405,66.54059600830078,18.36703109741211,28
36,480,31076429,26082405,54.144100189208984,67.71238708496094,185
37,244,31076429,26082405,54.1939697265625,175.10289001464844,93
38,1,31076429,26082405,62.49560546875,71.19081115722656,2
39,281,31076429,26082405,64.73788452148438,16.89673614501953,29
40,214,31076429,26082405,65.25495910644531,102.74962615966797,5
41,409,31076429,26082405,61.18327713012695,46.262046813964844,120
42,414,31076429,26082405,61.61281967163086,39.9058723449707,115
43,476,31076429,26082405,47.63594055175781,293.4314880371094,204
44,419,31076429,26082405,65.1985855102539,23.721412658691406,51
45,489,31076429,26082405,62.693206787109375,39.44944763183594,113
46,492,31076429,26082405,65.69931030273438,27.430606842041016,67
47,220,31076429,26082405,67.88417053222656,11.06631851196289,10
48,440,31076429,26082405,42.31674575805664,39.898414611816406,113
49,460,31076429,26082405,58.1524772644043,161.91905212402344,127
50,487,31076429,26082405,59.476619720458984,54.67217254638672,113
51,407,31076429,26082405,54.32241439819336,147.89031982421875,171
52,285,31076429,26082405,65.01835632324219,11.826582908630371,4
53,363,31076429,26082405,67.353271484375,50.328922271728516,8
54,427,31076429,26082405,66.5263900756836,23.480484008789062,7
55,474,31076429,26082405,49.67766571044922,346.2563171386719,175
56,149,31076429,26082405,51.30258560180664,157.21502685546875,17
57,337,31076429,26082405,44.11060333251953,129.25013732910156,75
58,45,31076429,26082405,30.982547760009766,230.85279846191406,108
59,125,31076429,26082405,58.48435974121094,65.96212768554688,141
60,217,31076429,26082405,65.55257415771484,7.2971930503845215,5
61,346,31076429,26082405,53.449241638183594,98.06123352050781,53
62,364,31076429,26082405,54.867637634277344,77.81481170654297,15
63,181,31076429,26082405,24.251876831054688,76.63740539550781,73
64,338,31076429,26082405,51.237274169921875,97.7366943359375,69
65,421,31076429,26082405,63.76539611816406,37.71220779418945,48
66,288,31076429,26082405,67.96678924560547,12.454488754272461,4
67,57,31076429,26082405,62.88642883300781,50.670475006103516,124
68,101,31076429,26082405,58.55464172363281,265.0050354003906,102
69,417,31076429,26082405,64.02769470214844,63.709815979003906,88
70,10,31076429,26082405,32.54943084716797,103.40540313720703,134
71,286,31076429,26082405,67.9032211303711,36.425567626953125,3
72,458,31076429,26082405,39.62380599975586,287.8256530761719,111
73,35,31076429,26082405,51.031097412109375,265.53826904296875,204
74,55,31076429,26082405,58.83338165283203,41.68111038208008,147
75,298,31076429,26082405,68.21648406982422,13.713279724121094,17
76,299,31076429,26082405,68.8746566772461,12.973191261291504,13
77,344,31076429,26082405,52.04558563232422,59.1694450378418,69
78,382,31076429,26082405,56.42710876464844,348.4778747558594,170
79,117,31076429,26082405,38.03932571411133,362.00689697265625,156
80,152,31076429,26082405,41.304588317871094,81.52226257324219,85
81,329,31076429,26082405,59.95025634765625,69.72286224365234,79
82,166,31076429,26082405,51.73716735839844,337.19024658203125,66
83,264,31076429,26082405,46.73644256591797,133.4840545654297,96
84,493,31076429,26082405,65.4974365234375,44.975128173828125,40
85,242,31076429,26082405,54.11089324951172,98.8375244140625,93
86,247,31076429,26082405,55.45872497558594,361.1075744628906,80
87,360,31076429,26082405,65.53147888183594,0.15370795130729675,2
88,139,31076429,26082405,65.69002532958984,10.259727478027344,11
89,240,31076429,26082405,58.000118255615234,59.11783218383789,56
90,464,31076429,26082405,62.22068405151367,51.07442092895508,163
91,147,31076429,26082405,67.72314453125,21.24249839782715,10
92,233,31076429,26082405,47.09114074707031,40.38611602783203,137
93,325,31076429,26082405,64.00836181640625,93.77424621582031,74
94,172,31076429,26082405,56.569847106933594,160.072998046875,58
95,448,31076429,26082405,22.907442092895508,50.41044998168945,195
96,103,31076429,26082405,58.662437438964844,273.1871337890625,129
97,138,31076429,26082405,65.60982513427734,12.866220474243164,3
98,231,31076429,26082405,50.693084716796875,110.28433227539062,138
99,497,31076429,26082405,66.54881286621094,32.549007415771484,13
100,41,31076429,26082405,19.833873748779297,119.82596588134766,146
101,70,31076429,26082405,64.6970443725586,6.934338569641113,3
102,192,31076429,26082405,43.27387619018555,115.56131744384766,115
103,249,31076429,26082405,59.999671936035156,79.67267608642578,87
104,292,31076429,26082405,65.43893432617188,118.28768920898438,3
105,441,31076429,26082405,41.579689025878906,63.51575469970703,170
106,19,31076429,26082405,20.823585510253906,248.170654296875,163
107,163,31076429,26082405,26.637582778930664,171.5309295654297,91
108,327,31076429,26082405,62.469947814941406,42.55506896972656,72
109,399,31076429,26082405,29.159576416015625,343.26202392578125,169
110,96,31076429,26082405,32.980224609375,310.2867431640625,116
111,245,31076429,26082405,50.91613006591797,225.95213317871094,83
112,272,31076429,26082405,56.89768981933594,84.29943084716797,87
113,277,31076429,26082405,56.119083404541016,66.40013122558594,51
114,25,31076429,26082405,37.29241943359375,320.56182861328125,89
115,435,31076429,26082405,64.6302490234375,20.84417152404785,9
116,491,31076429,26082405,63.86622619628906,47.98172378540039,93
117,310,31076429,26082405,59.329429626464844,53.886348724365234,77
118,315,31076429,26082405,62.246376037597656,83.87866973876953,42
119,372,31076429,26082405,28.65500831604004,133.5824737548828,183
120,410,31076429,26082405,61.060916900634766,41.77437973022461,123
121,500,31076429,26082405,68.79756927490234,24.999807357788086,7
122,178,31076429,26082405,49.87472152709961,351.1048889160156,81
123,76,31076429,26082405,61.32598876953125,76.39285278320312,17
124,207,31076429,26082405,69.11714172363281,18.514705657958984,36
125,296,31076429,26082405,69.32147216796875,142.44239807128906,14
126,33,31076429,26082405,54.07942199707031,145.30384826660156,193
127,232,31076429,26082405,48.95878982543945,63.922977447509766,123
128,270,31076429,26082405,56.92240905761719,61.29842758178711,70
129,361,31076429,26082405,54.110740661621094,,1
130,282,31076429,26082405,64.74444580078125,124.98028564453125,9
131,309,31076429,26082405,63.096527099609375,84.48286437988281,75
132,405,31076429,26082405,51.75669860839844,83.7818832397461,228
133,167,31076429,26082405,49.796268463134766,427.12646484375,74
134,389,31076429,26082405,61.74140930175781,56.82980728149414,158
135,459,31076429,26082405,56.088279724121094,192.1747589111328,115
136,105,31076429,26082405,58.223548889160156,127.54505920410156,157
137,243,31076429,26082405,53.656097412109375,109.01499938964844,110
138,40,31076429,26082405,20.286224365234375,137.3705291748047,191
139,267,31076429,26082405,53.05735397338867,84.44395446777344,46
140,289,31076429,26082405,68.38075256347656,5.1595683097839355,2
141,37,31076429,26082405,26.75727081298828,103.63282012939453,178
142,426,31076429,26082405,70.99771881103516,1.5917575359344482,2
143,210,31076429,26082405,67.68321228027344,31.635173797607422,5
144,395,31076429,26082405,61.549320220947266,68.99407958984375,171
145,472,31076429,26082405,23.68075942993164,214.40628051757812,168
146,216,31076429,26082405,69.25822448730469,7.920638561248779,2
147,469,31076429,26082405,35.905094146728516,207.00393676757812,172
148,306,31076429,26082405,66.73722076416016,29.90580177307129,51
149,26,31076429,26082405,57.12916564941406,284.08477783203125,104
150,174,31076429,26082405,54.9301872253418,282.7336120605469,88
151,218,31076429,26082405,68.06519317626953,7.109629154205322,4
152,391,31076429,26082405,63.838043212890625,39.15146255493164,126
153,398,31076429,26082405,56.58074951171875,204.58311462402344,151
154,404,31076429,26082405,53.791465759277344,81.94956970214844,191
155,283,31076429,26082405,68.39697265625,33.94028091430664,10
156,312,31076429,26082405,54.12843704223633,70.73497772216797,61
157,65,31076429,26082405,64.17697143554688,21.09560203552246,11
158,122,31076429,26082405,56.83417510986328,169.37342834472656,147
159,145,31076429,26082405,70.63089752197266,,1
160,234,31076429,26082405,48.548828125,51.372676849365234,150
161,336,31076429,26082405,46.45460510253906,144.966552734375,64
162,180,31076429,26082405,24.17008399963379,178.06007385253906,69
163,355,31076429,26082405,68.02662658691406,9.141705513000488,10
164,50,31076429,26082405,58.54402542114258,48.412384033203125,136
165,106,31076429,26082405,49.33511734008789,217.33236694335938,171
166,159,31076429,26082405,25.608383178710938,156.64691162109375,151
167,129,31076429,26082405,61.89105987548828,49.10820007324219,134
168,179,31076429,26082405,42.80414581298828,238.58956909179688,86
169,323,31076429,26082405,64.26097106933594,33.9836540222168,67
170,334,31076429,26082405,45.029029846191406,107.89199829101562,68
171,385,31076429,26082405,61.522178649902344,106.52680969238281,124
172,199,31076429,26082405,59.31559371948242,59.61976623535156,73
173,215,31076429,26082405,68.83733367919922,4.400166034698486,6
174,256,31076429,26082405,65.10096740722656,44.264766693115234,62
175,295,31076429,26082405,69.58863830566406,25.65118408203125,6
176,429,31076429,26082405,70.34037017822266,,1
177,486,31076429,26082405,60.904815673828125,57.51346969604492,110
178,443,31076429,26082405,26.5100040435791,105.8102035522461,148
179,450,31076429,26082405,23.05523681640625,74.15916442871094,144
180,302,31076429,26082405,67.0623550415039,54.97113800048828,31
181,79,31076429,26082405,44.12176513671875,41.248870849609375,91
182,98,31076429,26082405,48.55756378173828,296.3096008300781,116
183,100,31076429,26082405,59.198150634765625,336.58636474609375,102
184,278,31076429,26082405,56.87256622314453,44.43510818481445,58
185,343,31076429,26082405,56.65983963012695,67.33489990234375,68
186,433,31076429,26082405,68.66641998291016,103.57151794433594,3
187,381,31076429,26082405,58.36839294433594,320.0942077636719,164
188,456,31076429,26082405,31.441465377807617,240.079833984375,99
189,13,31076429,26082405,30.866962432861328,157.11878967285156,166
190,104,31076429,26082405,59.48104476928711,202.0617218017578,134
191,190,31076429,26082405,36.531578063964844,243.651123046875,118
192,238,31076429,26082405,48.52536392211914,149.0550079345703,115
193,23,31076429,26082405,26.053987503051758,236.37461853027344,133
194,269,31076429,26082405,55.82164001464844,56.63617706298828,73
195,303,31076429,26082405,67.6785659790039,16.605886459350586,37
196,345,31076429,26082405,52.63653564453125,49.5522575378418,78
197,83,31076429,26082405,30.928003311157227,102.36656951904297,148
198,137,31076429,26082405,66.08218383789062,36.625892639160156,14
199,140,31076429,26082405,65.92485046386719,39.03182601928711,4
200,56,31076429,26082405,60.371246337890625,49.56636047363281,131
201,319,31076429,26082405,64.58402252197266,26.64641571044922,39
202,203,31076429,26082405,64.6366195678711,71.50618743896484,74
203,473,31076429,26082405,46.01207733154297,347.99420166015625,126
204,484,31076429,26082405,60.71330642700195,52.33273696899414,133
205,8,31076429,26082405,45.05269241333008,38.165218353271484,96
206,168,31076429,26082405,59.592105865478516,287.5025634765625,57
207,173,31076429,26082405,54.18719482421875,291.99261474609375,76
208,223,31076429,26082405,59.49231719970703,55.92948532104492,48
209,275,31076429,26082405,51.11848449707031,55.11552810668945,69
210,188,31076429,26082405,33.9127082824707,414.66632080078125,99
211,208,31076429,26082405,67.15933990478516,8.935874938964844,19
212,333,31076429,26082405,42.149620056152344,138.57687377929688,102
213,175,31076429,26082405,59.45555114746094,288.9814147949219,72
214,182,31076429,26082405,21.032323837280273,171.51617431640625,65
215,219,31076429,26082405,70.92202758789062,,1
216,416,31076429,26082405,63.12998580932617,56.18230438232422,107
217,455,31076429,26082405,24.727855682373047,83.35363006591797,95
218,126,31076429,26082405,60.997886657714844,72.79988861083984,119
219,187,31076429,26082405,28.955604553222656,314.2026672363281,150
220,317,31076429,26082405,63.655189514160156,40.6763801574707,51
221,177,31076429,26082405,53.15914535522461,291.6282958984375,100
222,341,31076429,26082405,56.46653366088867,86.4682846069336,98
223,365,31076429,26082405,48.64595413208008,111.51905822753906,31
224,396,31076429,26082405,58.169979095458984,66.59004974365234,185
225,27,31076429,26082405,58.16392517089844,195.7251434326172,125
226,51,31076429,26082405,58.64897155761719,68.97782135009766,160
227,94,31076429,26082405,31.96385955810547,212.7388458251953,162
228,452,31076429,26082405,20.327363967895508,39.773372650146484,105
229,39,31076429,26082405,21.43722152709961,224.77874755859375,178
230,457,31076429,26082405,42.54779052734375,286.26995849609375,107
231,120,31076429,26082405,56.66838455200195,282.4998474121094,141
232,200,31076429,26082405,56.67182922363281,110.3564224243164,81
233,113,31076429,26082405,29.070377349853516,381.53314208984375,201
234,21,31076429,26082405,32.50386428833008,275.3398132324219,131
235,82,31076429,26082405,36.99873733520508,68.25605010986328,131
236,255,31076429,26082405,62.564300537109375,69.07801818847656,86
237,127,31076429,26082405,60.787471771240234,46.97865295410156,131
238,339,31076429,26082405,60.05659103393555,69.90791320800781,66
239,378,31076429,26082405,52.34637451171875,323.237060546875,224
240,86,31076429,26082405,25.45981788635254,262.3985290527344,197
241,235,31076429,26082405,52.022403717041016,122.89988708496094,110
242,237,31076429,26082405,51.8851318359375,79.69041442871094,127
243,239,31076429,26082405,43.90299987792969,168.3050537109375,62
244,390,31076429,26082405,61.87922668457031,47.383644104003906,174
245,449,31076429,26082405,22.414287567138672,48.4598274230957,131
246,14,31076429,26082405,20.331275939941406,61.137630462646484,248
247,114,31076429,26082405,24.6864070892334,342.22735595703125,203
248,465,31076429,26082405,61.62262725830078,42.64609146118164,155
249,466,31076429,26082405,58.429954528808594,111.26644897460938,158
250,121,31076429,26082405,54.91917037963867,299.3446350097656,202
251,368,31076429,26082405,44.35215759277344,75.86780548095703,161
252,169,31076429,26082405,53.31424331665039,153.44427490234375,77
253,328,31076429,26082405,63.478919982910156,36.239749908447266,62
254,377,31076429,26082405,42.867645263671875,289.3067321777344,216
255,202,31076429,26082405,62.37938690185547,39.6942024230957,84
256,20,31076429,26082405,28.143957138061523,285.5954895019531,110
257,154,31076429,26082405,40.30527877807617,78.70857238769531,127
258,276,31076429,26082405,55.06608581542969,50.62770462036133,56
259,445,31076429,26082405,27.214319229125977,97.43854522705078,173
260,49,31076429,26082405,55.296749114990234,51.81880187988281,183
261,148,31076429,26082405,57.30116271972656,47.05358123779297,10
262,165,31076429,26082405,31.437559127807617,306.661376953125,85
263,226,31076429,26082405,48.745384216308594,81.50638580322266,97
264,350,31076429,26082405,64.24066925048828,39.362281799316406,51
265,332,31076429,26082405,56.610618591308594,136.3415069580078,53
266,128,31076429,26082405,60.752403259277344,54.555274963378906,120
267,224,31076429,26082405,44.21583557128906,162.88145446777344,51
268,294,31076429,26082405,71.23279571533203,,1
269,488,31076429,26082405,61.43680191040039,45.967254638671875,121
270,406,31076429,26082405,48.86852264404297,183.45611572265625,204
271,437,31076429,26082405,43.368778228759766,159.8013153076172,23
272,352,31076429,26082405,66.1301040649414,12.937814712524414,29
273,22,31076429,26082405,25.829914093017578,225.4266357421875,124
274,130,31076429,26082405,64.69625854492188,47.428810119628906,104
275,403,31076429,26082405,57.49051284790039,150.97865295410156,180
276,415,31076429,26082405,63.312042236328125,60.886043548583984,107
277,92,31076429,26082405,23.333518981933594,285.43682861328125,121
278,358,31076429,26082405,68.778076171875,131.14739990234375,6
279,481,31076429,26082405,57.50164794921875,67.5910415649414,210
280,108,31076429,26082405,38.8526725769043,270.48553466796875,197
281,379,31076429,26082405,55.73023986816406,351.94189453125,208
282,193,31076429,26082405,56.542728424072266,69.90164947509766,118
283,307,31076429,26082405,66.22840881347656,28.23964500427246,62
284,411,31076429,26082405,61.57991409301758,61.006622314453125,125
285,123,31076429,26082405,61.657936096191406,63.73800277709961,105
286,164,31076429,26082405,29.940046310424805,250.00685119628906,109
287,387,31076429,26082405,62.67340850830078,54.39447784423828,126
288,300,31076429,26082405,69.24788665771484,25.091665267944336,29
289,490,31076429,26082405,63.98767852783203,49.356781005859375,97
290,93,31076429,26082405,27.565975189208984,290.34429931640625,136
291,221,31076429,26082405,65.59956359863281,21.428043365478516,11
292,331,31076429,26082405,46.31751251220703,271.8461608886719,78
293,155,31076429,26082405,33.44566345214844,127.8884048461914,111
294,470,31076429,26082405,28.91325569152832,287.5635070800781,165
295,494,31076429,26082405,66.78804779052734,44.0775260925293,41
296,29,31076429,26082405,58.72810745239258,83.44860076904297,154
297,265,31076429,26082405,47.52781677246094,174.57110595703125,71
298,354,31076429,26082405,65.96015167236328,26.032154083251953,11
299,136,31076429,26082405,68.0888442993164,9.705623626708984,23
300,211,31076429,26082405,64.05607604980469,17.224287033081055,4
301,58,31076429,26082405,64.25993347167969,37.85866928100586,116
302,142,31076429,26082405,64.51947784423828,6.414853096008301,3
303,252,31076429,26082405,63.00245666503906,42.33999252319336,71
304,236,31076429,26082405,56.70170211791992,132.443115234375,92
305,349,31076429,26082405,60.969146728515625,66.48542785644531,59
306,367,31076429,26082405,46.283424377441406,101.83734893798828,120
307,400,31076429,26082405,42.988399505615234,323.2389221191406,160
308,227,31076429,26082405,43.9018669128418,61.0999755859375,99
309,301,31076429,26082405,68.537841796875,78.47574615478516,26
310,371,31076429,26082405,35.54416275024414,106.03703308105469,167
311,15,31076429,26082405,24.05153465270996,124.41449737548828,211
312,77,31076429,26082405,55.922916412353516,80.2760238647461,33
313,485,31076429,26082405,60.97235870361328,56.086936950683594,107
314,268,31076429,26082405,57.00737762451172,62.40873718261719,70
315,447,31076429,26082405,23.167648315429688,81.58692932128906,186
316,81,31076429,26082405,39.067352294921875,83.59435272216797,161
317,318,31076429,26082405,62.20868682861328,89.71150970458984,55
318,111,31076429,26082405,20.762266159057617,389.9809875488281,211
319,271,31076429,26082405,55.655052185058594,68.36463165283203,74
320,394,31076429,26082405,60.35613250732422,59.82312774658203,186
321,412,31076429,26082405,60.95188903808594,37.1401481628418,121
322,284,31076429,26082405,69.59990692138672,11.944363594055176,6
323,161,31076429,26082405,30.511455535888672,221.75033569335938,130
324,195,31076429,26082405,61.45878601074219,39.65745544433594,69
325,206,31076429,26082405,67.53190612792969,17.63111686706543,55
326,213,31076429,26082405,68.33030700683594,6.442264080047607,6
327,326,31076429,26082405,61.862876892089844,54.639347076416016,59
328,118,31076429,26082405,44.23371505737305,246.25889587402344,141
329,150,31076429,26082405,47.57262420654297,173.5871124267578,37
330,160,31076429,26082405,27.716087341308594,220.80101013183594,136
331,225,31076429,26082405,57.129966735839844,102.5671157836914,94
332,54,31076429,26082405,61.63412094116211,35.45123291015625,118
333,73,31076429,26082405,69.49468231201172,4.059963703155518,3
334,418,31076429,26082405,65.21218872070312,26.52238655090332,90
335,75,31076429,26082405,67.48584747314453,34.467674255371094,9
336,428,31076429,26082405,64.47666931152344,7.4407877922058105,6
337,3,31076429,26082405,68.12548828125,35.63393020629883,12
338,478,31076429,26082405,39.31830978393555,187.01861572265625,195
339,141,31076429,26082405,69.52446746826172,,1
340,482,31076429,26082405,57.6904296875,47.89575958251953,128
341,74,31076429,26082405,63.282962799072266,,1
342,133,31076429,26082405,66.23787689208984,25.464885711669922,75
343,498,31076429,26082405,68.97931671142578,10.309599876403809,8
344,369,31076429,26082405,41.671630859375,36.962135314941406,180
345,97,31076429,26082405,35.75886535644531,272.6129150390625,126
346,9,31076429,26082405,41.987037658691406,63.71193313598633,145
347,442,31076429,26082405,30.415176391601562,94.89591979980469,135
348,38,31076429,26082405,21.96222686767578,124.95719146728516,196
349,44,31076429,26082405,36.072391510009766,128.63900756835938,163
350,439,31076429,26082405,42.33966827392578,64.13046264648438,99
351,4,31076429,26082405,59.30928039550781,55.833988189697266,11
352,95,31076429,26082405,36.418914794921875,251.5078887939453,131
353,451,31076429,26082405,19.533828735351562,60.08439636230469,131
354,261,31076429,26082405,46.033260345458984,175.6949920654297,108
355,392,31076429,26082405,62.42151641845703,42.350467681884766,162
356,184,31076429,26082405,19.793197631835938,147.4687957763672,90
357,366,31076429,26082405,57.48041534423828,91.2257308959961,58
358,254,31076429,26082405,62.598384857177734,61.38526916503906,105
359,479,31076429,26082405,54.0478401184082,116.28636932373047,169
360,67,31076429,26082405,68.360595703125,4.8662824630737305,12
361,383,31076429,26082405,52.30207824707031,305.8420104980469,173
362,2,31076429,26082405,62.87987518310547,69.64312744140625,2
363,12,31076429,26082405,28.14900016784668,138.29904174804688,136
364,31,31076429,26082405,61.19809341430664,42.02437973022461,126
365,262,31076429,26082405,52.963321685791016,153.53724670410156,70
366,263,31076429,26082405,50.18547058105469,73.61814880371094,95
367,330,31076429,26082405,54.86098861694336,154.90660095214844,102
368,454,31076429,26082405,21.754989624023438,57.494346618652344,116
369,135,31076429,26082405,67.08521270751953,18.201343536376953,39
370,408,31076429,26082405,57.46449279785156,74.09617614746094,151
371,502,31076429,26082405,66.71495819091797,163.8679962158203,7
372,197,31076429,26082405,58.84941101074219,48.02499771118164,100
373,204,31076429,26082405,62.224822998046875,36.832862854003906,82
374,356,31076429,26082405,67.52595520019531,1.195290207862854,2
375,388,31076429,26082405,62.674007415771484,39.950279235839844,144
376,483,31076429,26082405,61.777191162109375,38.3278694152832,118
377,18,31076429,26082405,20.782583236694336,134.27542114257812,175
378,61,31076429,26082405,65.95082092285156,38.13479995727539,64
379,259,31076429,26082405,56.43552780151367,56.527915954589844,92
380,84,31076429,26082405,33.313232421875,178.70057678222656,167
381,90,31076429,26082405,26.60525894165039,267.88592529296875,172
382,257,31076429,26082405,61.25967025756836,66.0201187133789,91
383,353,31076429,26082405,63.15177536010742,40.219051361083984,15
384,124,31076429,26082405,57.84183883666992,85.82371520996094,129
385,144,31076429,26082405,67.53073120117188,141.7039337158203,3
386,158,31076429,26082405,31.015705108642578,127.28752899169922,130
387,16,31076429,26082405,21.747833251953125,79.05577850341797,167
388,146,31076429,26082405,66.6279525756836,10.005542755126953,3
389,347,31076429,26082405,56.79820251464844,98.28308868408203,66
390,462,31076429,26082405,61.14228057861328,94.86649322509766,134
391,436,31076429,26082405,61.409725189208984,55.228755950927734,14
392,274,31076429,26082405,52.280330657958984,50.33832550048828,62
393,311,31076429,26082405,61.65525436401367,60.27180099487305,82
394,185,31076429,26082405,21.86981201171875,279.5533752441406,86
395,47,31076429,26082405,50.81300354003906,105.90947723388672,196
396,183,31076429,26082405,24.09847640991211,178.5861358642578,103
397,42,31076429,26082405,19.361486434936523,287.8035888671875,137
398,80,31076429,26082405,43.191001892089844,34.84608840942383,137
399,60,31076429,26082405,64.20277404785156,38.894622802734375,71
400,205,31076429,26082405,64.75167846679688,34.65965270996094,38
401,222,31076429,26082405,64.91256713867188,29.23997688293457,32
402,453,31076429,26082405,20.717857360839844,50.92918395996094,125
403,132,31076429,26082405,64.49821472167969,27.80459976196289,86
404,420,31076429,26082405,65.30039978027344,23.510173797607422,52
405,85,31076429,26082405,26.89520835876465,239.13385009765625,179
406,0,31076429,26082405,65.11971282958984,48.55501937866211,2
407,36,31076429,26082405,35.6295280456543,133.97201538085938,178
408,48,31076429,26082405,54.53815460205078,63.856719970703125,205
409,112,31076429,26082405,22.986148834228516,302.1771240234375,232
410,99,31076429,26082405,51.68269348144531,296.6208190917969,128
411,228,31076429,26082405,45.48679733276367,43.32470703125,99
412,432,31076429,26082405,68.4243392944336,,1
413,64,31076429,26082405,67.25094604492188,49.172691345214844,18
414,279,31076429,26082405,61.37312316894531,53.20108413696289,50
415,430,31076429,26082405,70.62355041503906,0.9535654187202454,2
416,69,31076429,26082405,66.09770965576172,678.7518920898438,3
417,212,31076429,26082405,68.50923919677734,9.357423782348633,6
418,72,31076429,26082405,70.64478302001953,,1
419,304,31076429,26082405,67.59236145019531,32.9181022644043,38
420,316,31076429,26082405,60.12890625,54.79460906982422,52
421,28,31076429,26082405,58.400245666503906,100.60763549804688,121
422,66,31076429,26082405,67.17762756347656,9.04491138458252,5
423,46,31076429,26082405,50.53962707519531,133.587890625,180
424,115,31076429,26082405,32.61116027832031,372.19879150390625,197
425,5,31076429,26082405,53.016117095947266,72.01981353759766,19
426,241,31076429,26082405,55.004981994628906,85.20335388183594,88
427,291,31076429,26082405,70.20059967041016,5.9121599197387695,4
428,468,31076429,26082405,46.583763122558594,187.06370544433594,171
429,34,31076429,26082405,52.90757751464844,205.38619995117188,167
430,88,31076429,26082405,30.554462432861328,299.7146911621094,182
431,250,31076429,26082405,62.1514892578125,92.9443588256836,91
432,401,31076429,26082405,51.74443054199219,361.1239929199219,207
433,53,31076429,26082405,58.934871673583984,46.20769119262695,118
434,63,31076429,26082405,68.65889739990234,21.451868057250977,36
435,68,31076429,26082405,70.43360900878906,8.626877784729004,5
436,110,31076429,26082405,30.21469497680664,392.2001953125,138
437,413,31076429,26082405,61.33551025390625,42.24384689331055,130
438,143,31076429,26082405,66.27435302734375,9.519187927246094,3
439,198,31076429,26082405,59.1314811706543,53.10824203491211,106
440,297,31076429,26082405,67.87805938720703,40.66055679321289,8
441,322,31076429,26082405,62.76612091064453,85.84259796142578,63
442,386,31076429,26082405,62.924598693847656,103.82009887695312,118
443,438,31076429,26082405,51.80219268798828,120.3145523071289,74
444,313,31076429,26082405,62.67292404174805,62.6904182434082,57
445,89,31076429,26082405,24.463542938232422,242.0357666015625,154
446,176,31076429,26082405,55.2249641418457,273.2503662109375,85
447,151,31076429,26082405,44.743858337402344,60.70244598388672,52
448,186,31076429,26082405,22.554380416870117,301.9759521484375,123
449,314,31076429,26082405,60.525753021240234,62.57842254638672,45
450,340,31076429,26082405,58.91177749633789,63.13782501220703,91
451,477,31076429,26082405,44.8929443359375,175.91018676757812,252
452,71,31076429,26082405,69.91726684570312,2.558051347732544,4
453,131,31076429,26082405,65.02058410644531,35.68128204345703,109
454,424,31076429,26082405,64.83656311035156,27.656394958496094,14
455,374,31076429,26082405,30.780136108398438,106.25851440429688,224
456,7,31076429,26082405,43.68772506713867,66.65216064453125,81
457,17,31076429,26082405,25.00230598449707,83.1947250366211,219
458,171,31076429,26082405,59.783058166503906,279.3355712890625,76
459,248,31076429,26082405,59.67693328857422,228.38320922851562,72
460,501,31076429,26082405,61.325035095214844,5.168235778808594,2
461,246,31076429,26082405,58.13794708251953,211.70599365234375,76
462,251,31076429,26082405,63.9580078125,33.39129638671875,72
463,280,31076429,26082405,66.17210388183594,66.76331329345703,39
464,293,31076429,26082405,70.09371948242188,,1
465,305,31076429,26082405,68.04048919677734,22.022668838500977,33
466,308,31076429,26082405,62.482521057128906,62.182098388671875,70
467,351,31076429,26082405,64.90133666992188,22.810699462890625,42
468,471,31076429,26082405,26.93941879272461,189.1746368408203,198
469,496,31076429,26082405,69.11425018310547,18.68778419494629,20
470,32,31076429,26082405,60.123268127441406,40.97419357299805,159
471,157,31076429,26082405,26.391910552978516,135.53292846679688,130
472,375,31076429,26082405,39.17767333984375,127.45346069335938,210
473,209,31076429,26082405,64.97196197509766,102.25908660888672,7
474,258,31076429,26082405,61.20201110839844,92.66535949707031,83
475,444,31076429,26082405,26.12798500061035,96.90017700195312,147
476,446,31076429,26082405,25.091482162475586,134.15684509277344,174
477,191,31076429,26082405,39.48859405517578,185.0252685546875,136
478,475,31076429,26082405,51.750064849853516,415.961181640625,192
479,503,31076429,26082405,71.17979431152344,0.12572933733463287,3
480,384,31076429,26082405,59.81153106689453,185.9599151611328,141
481,422,31076429,26082405,65.75247192382812,32.63729476928711,33
482,43,31076429,26082405,26.542236328125,277.0645446777344,135
483,87,31076429,26082405,39.844093322753906,309.0063171386719,214
484,393,31076429,26082405,60.164730072021484,59.04847717285156,185
485,290,31076429,26082405,70.35142517089844,0.2462618201971054,5
486,335,31076429,26082405,38.374244689941406,124.31534576416016,67
487,402,31076429,26082405,53.03995132446289,347.1562194824219,202
488,52,31076429,26082405,60.7439079284668,46.49906921386719,114
489,359,31076429,26082405,63.1373291015625,138.38037109375,2
490,495,31076429,26082405,66.55046844482422,29.479284286499023,31
491,91,31076429,26082405,25.99380111694336,311.60943603515625,171
492,266,31076429,26082405,50.55422592163086,123.16625213623047,63
493,370,31076429,26082405,40.19538497924805,84.32379150390625,175
494,11,31076429,26082405,29.521137237548828,109.68793487548828,112
495,107,31076429,26082405,51.01239013671875,240.9686737060547,162
496,196,31076429,26082405,60.5084228515625,40.378753662109375,91
497,320,31076429,26082405,63.894474029541016,53.480289459228516,48
498,463,31076429,26082405,60.86626434326172,127.59152221679688,139
499,62,31076429,26082405,66.85901641845703,39.17033386230469,51
500,116,31076429,26082405,41.919029235839844,311.1396789550781,229
501,119,31076429,26082405,48.715415954589844,275.33843994140625,144
