,slot,source,target,median,var,cnt
0,91,28141635,31076429,26.265613555908203,233.9961700439453,226
1,202,28141635,31076429,62.88693618774414,44.966407775878906,94
2,258,28141635,31076429,58.543880462646484,81.60223388671875,119
3,385,28141635,31076429,60.16046905517578,152.81224060058594,169
4,192,28141635,31076429,37.83338928222656,124.49044799804688,156
5,419,28141635,31076429,65.68034362792969,37.19676208496094,56
6,438,28141635,31076429,49.08198928833008,124.99490356445312,87
7,133,28141635,31076429,66.82054138183594,36.38737106323242,80
8,193,28141635,31076429,55.5256462097168,70.41673278808594,144
9,386,28141635,31076429,61.518592834472656,111.31736755371094,156
10,471,28141635,31076429,28.32840919494629,176.1141357421875,258
11,46,28141635,31076429,49.19926071166992,135.6341552734375,237
12,66,28141635,31076429,67.17762756347656,9.352179527282715,5
13,377,28141635,31076429,39.73511505126953,253.8322296142578,282
14,477,28141635,31076429,41.50213623046875,177.62876892089844,294
15,489,28141635,31076429,62.14912796020508,50.32985305786133,121
16,40,28141635,31076429,24.080825805664062,132.7662353515625,235
17,146,28141635,31076429,67.65351867675781,90.95913696289062,5
18,278,28141635,31076429,57.015357971191406,64.43441009521484,61
19,472,28141635,31076429,26.515029907226562,201.9976043701172,206
20,288,28141635,31076429,67.040283203125,18.156511306762695,4
21,355,28141635,31076429,68.46533203125,8.542465209960938,12
22,215,28141635,31076429,69.25328826904297,44.67298889160156,8
23,235,28141635,31076429,47.821006774902344,131.60324096679688,156
24,314,28141635,31076429,62.711997985839844,57.58721923828125,55
25,130,28141635,31076429,64.34951782226562,47.75102233886719,122
26,301,28141635,31076429,68.13667297363281,152.54995727539062,34
27,402,28141635,31076429,53.396034240722656,320.5639953613281,244
28,28,28141635,31076429,56.19085693359375,95.066650390625,169
29,475,28141635,31076429,49.911746978759766,362.3657531738281,241
30,486,28141635,31076429,60.52088165283203,59.434574127197266,121
31,454,28141635,31076429,25.0164737701416,38.798912048339844,148
32,98,28141635,31076429,38.031314849853516,283.54022216796875,177
33,266,28141635,31076429,47.79526138305664,129.09375,101
34,54,28141635,31076429,60.148311614990234,54.902713775634766,139
35,196,28141635,31076429,59.88516616821289,52.97427749633789,99
36,44,28141635,31076429,33.85622787475586,78.56038665771484,192
37,168,28141635,31076429,56.97944259643555,221.5959014892578,84
38,282,28141635,31076429,67.3576889038086,24.70387077331543,17
39,482,28141635,31076429,58.25856399536133,60.202274322509766,153
40,150,28141635,31076429,47.716026306152344,176.2511749267578,44
41,253,28141635,31076429,60.91168975830078,58.41433334350586,89
42,267,28141635,31076429,49.78563690185547,92.12483215332031,86
43,332,28141635,31076429,47.87434005737305,198.85455322265625,83
44,57,28141635,31076429,62.12173080444336,48.68117141723633,135
45,434,28141635,31076429,66.1749496459961,117.59440612792969,7
46,45,28141635,31076429,31.280641555786133,199.2001953125,136
47,175,28141635,31076429,57.97124481201172,272.4451599121094,94
48,481,28141635,31076429,57.32957077026367,67.30401611328125,236
49,198,28141635,31076429,58.854766845703125,69.30550384521484,122
50,200,28141635,31076429,56.75867462158203,120.5285873413086,94
51,240,28141635,31076429,56.646175384521484,88.3427505493164,88
52,269,28141635,31076429,55.71125793457031,78.51850128173828,90
53,411,28141635,31076429,60.99036407470703,63.60493469238281,147
54,59,28141635,31076429,63.74443054199219,40.221160888671875,119
55,135,28141635,31076429,67.24740600585938,17.110244750976562,43
56,137,28141635,31076429,66.05785369873047,26.369285583496094,17
57,364,28141635,31076429,53.949859619140625,73.71414947509766,16
58,427,28141635,31076429,68.16102600097656,84.5674057006836,8
59,78,28141635,31076429,53.46812438964844,126.00833892822266,69
60,163,28141635,31076429,25.612483978271484,161.45361328125,131
61,173,28141635,31076429,51.33722686767578,289.1971740722656,104
62,273,28141635,31076429,53.798011779785156,100.06101989746094,79
63,140,28141635,31076429,68.46659088134766,29.330785751342773,7
64,4,28141635,31076429,60.052066802978516,197.41021728515625,14
65,77,28141635,31076429,55.241485595703125,100.23345947265625,37
66,172,28141635,31076429,54.14595031738281,155.72300720214844,89
67,188,28141635,31076429,36.56593322753906,332.1980895996094,122
68,241,28141635,31076429,53.55851745605469,98.2239990234375,136
69,300,28141635,31076429,69.26293182373047,45.20560073852539,40
70,389,28141635,31076429,61.32951736450195,51.37145233154297,187
71,79,28141635,31076429,39.28907012939453,46.622188568115234,96
72,95,28141635,31076429,32.68450164794922,205.98077392578125,192
73,189,28141635,31076429,36.11157989501953,238.4147491455078,144
74,492,28141635,31076429,64.94766998291016,44.5683479309082,73
75,497,28141635,31076429,66.28962707519531,55.356422424316406,15
76,330,28141635,31076429,53.728939056396484,164.53285217285156,127
77,356,28141635,31076429,69.98128509521484,7.179510116577148,4
78,217,28141635,31076429,67.66453552246094,129.09976196289062,8
79,303,28141635,31076429,68.15946960449219,21.16495132446289,46
80,343,28141635,31076429,54.649932861328125,81.5270767211914,84
81,383,28141635,31076429,49.59918212890625,298.3006591796875,216
82,370,28141635,31076429,36.191490173339844,47.167240142822266,193
83,229,28141635,31076429,40.8953857421875,62.7073860168457,147
84,236,28141635,31076429,52.93203353881836,130.21826171875,131
85,12,28141635,31076429,28.932430267333984,67.70364379882812,160
86,145,28141635,31076429,69.93041229248047,,1
87,147,28141635,31076429,67.73120880126953,32.00089645385742,13
88,398,28141635,31076429,55.509220123291016,197.14437866210938,199
89,6,28141635,31076429,50.20005798339844,97.81961822509766,50
90,29,28141635,31076429,56.45799255371094,65.10041809082031,199
91,126,28141635,31076429,61.045570373535156,68.86132049560547,138
92,366,28141635,31076429,57.78233337402344,123.50907135009766,63
93,97,28141635,31076429,32.40477752685547,258.4572448730469,165
94,53,28141635,31076429,58.585758209228516,64.96725463867188,141
95,139,28141635,31076429,67.04438018798828,7.21607780456543,12
96,350,28141635,31076429,63.6199951171875,63.27702713012695,60
97,347,28141635,31076429,55.89808654785156,114.24919891357422,81
98,441,28141635,31076429,35.74710464477539,40.90666198730469,183
99,41,28141635,31076429,22.378494262695312,129.6070098876953,175
100,92,28141635,31076429,26.208370208740234,214.66079711914062,165
101,195,28141635,31076429,61.905357360839844,47.10261535644531,90
102,502,28141635,31076429,66.2262954711914,45.762142181396484,6
103,214,28141635,31076429,65.25495910644531,99.72901916503906,5
104,447,28141635,31076429,25.87857437133789,49.76842498779297,223
105,82,28141635,31076429,34.673336029052734,35.54853439331055,148
106,186,28141635,31076429,26.380577087402344,249.86740112304688,150
107,420,28141635,31076429,64.72140502929688,32.548946380615234,57
108,205,28141635,31076429,64.32836151123047,124.45043182373047,47
109,210,28141635,31076429,66.8161392211914,19.153961181640625,7
110,296,28141635,31076429,69.55184936523438,110.30929565429688,19
111,329,28141635,31076429,57.868412017822266,70.26959228515625,97
112,171,28141635,31076429,57.55036544799805,230.8015594482422,95
113,346,28141635,31076429,50.94523620605469,109.6858901977539,66
114,284,28141635,31076429,66.34339141845703,19.642833709716797,8
115,491,28141635,31076429,63.54087829589844,62.436920166015625,104
116,470,28141635,31076429,30.160789489746094,267.5708923339844,217
117,226,28141635,31076429,44.869056701660156,109.35150146484375,113
118,335,28141635,31076429,34.35655212402344,105.72994232177734,119
119,254,28141635,31076429,62.28620147705078,85.72203826904297,125
120,270,28141635,31076429,57.27168655395508,72.06744384765625,89
121,449,28141635,31076429,25.74774742126465,38.09164810180664,179
122,464,28141635,31076429,61.10596466064453,48.03767395019531,216
123,498,28141635,31076429,68.31507873535156,14.35994815826416,10
124,182,28141635,31076429,23.840200424194336,167.34494018554688,88
125,387,28141635,31076429,60.323883056640625,65.28575897216797,164
126,107,28141635,31076429,49.814002990722656,215.9606170654297,205
127,116,28141635,31076429,39.84925842285156,259.276123046875,271
128,348,28141635,31076429,54.4713249206543,111.60416412353516,90
129,142,28141635,31076429,65.96002197265625,1.8271468877792358,3
130,197,28141635,31076429,58.228553771972656,62.493492126464844,119
131,480,28141635,31076429,54.101531982421875,89.87618255615234,218
132,64,28141635,31076429,64.81294250488281,66.19934844970703,22
133,395,28141635,31076429,60.522064208984375,62.25441360473633,211
134,369,28141635,31076429,36.68376159667969,21.353628158569336,196
135,305,28141635,31076429,67.61436462402344,17.532283782958984,44
136,323,28141635,31076429,62.714847564697266,55.027854919433594,83
137,256,28141635,31076429,62.023216247558594,75.42389678955078,97
138,291,28141635,31076429,67.92364501953125,32.73765563964844,6
139,148,28141635,31076429,60.7567253112793,53.1676025390625,16
140,310,28141635,31076429,60.736915588378906,61.29597854614258,89
141,446,28141635,31076429,28.010173797607422,68.36036682128906,198
142,61,28141635,31076429,66.03785705566406,47.057559967041016,69
143,292,28141635,31076429,63.218711853027344,69.72523498535156,5
144,357,28141635,31076429,68.66708374023438,3.2807328701019287,4
145,27,28141635,31076429,57.67451477050781,180.77685546875,167
146,166,28141635,31076429,47.81168746948242,261.49090576171875,110
147,183,28141635,31076429,23.2333927154541,150.6216278076172,129
148,263,28141635,31076429,45.82700729370117,99.77591705322266,146
149,375,28141635,31076429,34.437034606933594,82.89384460449219,277
150,111,28141635,31076429,26.189830780029297,318.2936706542969,283
151,42,28141635,31076429,22.351360321044922,246.07789611816406,160
152,232,28141635,31076429,41.98834228515625,70.49664306640625,164
153,233,28141635,31076429,42.83784103393555,61.37941360473633,185
154,390,28141635,31076429,61.29002380371094,49.390098571777344,215
155,71,28141635,31076429,66.29095458984375,105.43683624267578,6
156,185,28141635,31076429,25.73477554321289,292.2622375488281,108
157,361,28141635,31076429,63.24580001831055,166.89862060546875,2
158,484,28141635,31076429,60.641807556152344,63.89579391479492,147
159,120,28141635,31076429,55.075279235839844,260.225341796875,180
160,129,28141635,31076429,62.64741897583008,47.783267974853516,148
161,170,28141635,31076429,55.112300872802734,225.67742919921875,83
162,302,28141635,31076429,66.61514282226562,38.624820709228516,40
163,416,28141635,31076429,63.12998580932617,54.592674255371094,121
164,47,28141635,31076429,48.051387786865234,115.5468978881836,261
165,94,28141635,31076429,30.643766403198242,149.582275390625,233
166,75,28141635,31076429,65.26834106445312,23.86724090576172,16
167,238,28141635,31076429,43.19633865356445,166.33953857421875,144
168,476,28141635,31076429,43.664772033691406,247.06561279296875,266
169,354,28141635,31076429,67.15709686279297,44.246849060058594,14
170,485,28141635,31076429,60.74488830566406,66.67920684814453,137
171,225,28141635,31076429,56.25904846191406,118.88482666015625,120
172,247,28141635,31076429,55.15721893310547,272.69683837890625,100
173,432,28141635,31076429,68.90843200683594,0.46869149804115295,2
174,58,28141635,31076429,64.39688110351562,43.003665924072266,122
175,118,28141635,31076429,42.236026763916016,192.6985321044922,206
176,265,28141635,31076429,42.26951599121094,157.36639404296875,123
177,318,28141635,31076429,60.427772521972656,68.4103775024414,84
178,418,28141635,31076429,65.45492553710938,31.448911666870117,93
179,106,28141635,31076429,47.2253532409668,179.83958435058594,233
180,414,28141635,31076429,61.19340896606445,40.41634750366211,144
181,105,28141635,31076429,56.5831413269043,103.56346893310547,216
182,242,28141635,31076429,54.04245376586914,101.3969955444336,122
183,378,28141635,31076429,52.577613830566406,293.88751220703125,288
184,393,28141635,31076429,59.101806640625,76.19921875,229
185,463,28141635,31076429,58.36448287963867,115.129638671875,184
186,487,28141635,31076429,59.85871887207031,68.99317169189453,128
187,494,28141635,31076429,66.78804779052734,55.767826080322266,49
188,297,28141635,31076429,66.86387634277344,25.822786331176758,12
189,499,28141635,31076429,69.68309020996094,96.84196472167969,7
190,190,28141635,31076429,37.681846618652344,191.77015686035156,155
191,244,28141635,31076429,54.72357177734375,170.2963104248047,123
192,50,28141635,31076429,57.51087188720703,53.249359130859375,175
193,319,28141635,31076429,63.17837905883789,48.246673583984375,55
194,351,28141635,31076429,65.73556518554688,36.069175720214844,47
195,115,28141635,31076429,40.426109313964844,327.6396484375,224
196,191,28141635,31076429,35.260337829589844,159.1892547607422,179
197,336,28141635,31076429,35.94783020019531,116.03450775146484,121
198,396,28141635,31076429,56.34169387817383,73.16116333007812,262
199,15,28141635,31076429,26.33625602722168,64.67240905761719,256
200,31,28141635,31076429,59.56687545776367,55.95574188232422,166
201,400,28141635,31076429,46.22132110595703,293.014892578125,208
202,379,28141635,31076429,52.60081481933594,337.144775390625,263
203,436,28141635,31076429,62.33755111694336,63.50160217285156,14
204,460,28141635,31076429,56.37390899658203,113.98665618896484,172
205,43,28141635,31076429,29.149044036865234,234.39996337890625,164
206,440,28141635,31076429,37.58177947998047,26.746511459350586,128
207,16,28141635,31076429,24.964506149291992,52.78799819946289,227
208,257,28141635,31076429,59.885623931884766,60.89255905151367,111
209,110,28141635,31076429,37.001220703125,318.3860168457031,190
210,119,28141635,31076429,44.1912956237793,237.63442993164062,200
211,123,28141635,31076429,59.603965759277344,77.87879943847656,134
212,290,28141635,31076429,67.922119140625,14.631866455078125,8
213,104,28141635,31076429,57.622406005859375,205.99078369140625,176
214,207,28141635,31076429,68.9258041381836,34.89942932128906,36
215,465,28141635,31076429,60.245521545410156,51.38221740722656,214
216,100,28141635,31076429,55.436744689941406,264.47784423828125,151
217,167,28141635,31076429,42.955814361572266,315.4051208496094,101
218,102,28141635,31076429,55.83802032470703,210.5543212890625,170
219,113,28141635,31076429,28.6844539642334,357.5807189941406,235
220,211,28141635,31076429,63.64427185058594,106.962890625,5
221,224,28141635,31076429,42.6197624206543,162.05935668945312,61
222,352,28141635,31076429,66.56541442871094,30.889806747436523,35
223,423,28141635,31076429,66.78315734863281,38.007774353027344,32
224,424,28141635,31076429,64.32144165039062,32.99930953979492,17
225,177,28141635,31076429,53.788238525390625,255.8915252685547,125
226,19,28141635,31076429,24.72555923461914,198.58990478515625,210
227,35,28141635,31076429,48.04232406616211,228.29942321777344,281
228,56,28141635,31076429,59.45648956298828,57.5100212097168,149
229,62,28141635,31076429,66.38774108886719,52.163665771484375,60
230,88,28141635,31076429,30.553783416748047,201.04425048828125,248
231,488,28141635,31076429,61.47066879272461,46.438873291015625,133
232,245,28141635,31076429,49.691505432128906,234.4213409423828,116
233,367,28141635,31076429,43.26384353637695,125.77318572998047,129
234,67,28141635,31076429,68.43284606933594,5.292109966278076,14
235,160,28141635,31076429,28.715694427490234,129.22938537597656,169
236,435,28141635,31076429,64.21121978759766,35.952552795410156,9
237,237,28141635,31076429,51.80321502685547,100.15702819824219,152
238,459,28141635,31076429,56.33601379394531,181.42095947265625,167
239,174,28141635,31076429,53.42107391357422,255.84934997558594,100
240,317,28141635,31076429,63.712005615234375,95.25072479248047,76
241,333,28141635,31076429,38.73613739013672,126.68550109863281,161
242,231,28141635,31076429,47.54618835449219,133.6610107421875,174
243,474,28141635,31076429,51.5146369934082,306.8152770996094,231
244,312,28141635,31076429,54.00788879394531,91.13065338134766,79
245,384,28141635,31076429,57.65333938598633,183.19351196289062,187
246,473,28141635,31076429,46.77781677246094,259.49749755859375,160
247,70,28141635,31076429,66.19227600097656,7.0369415283203125,4
248,208,28141635,31076429,67.86820983886719,9.43735122680664,21
249,252,28141635,31076429,62.56914138793945,81.0502700805664,91
250,443,28141635,31076429,28.793010711669922,51.217552185058594,175
251,222,28141635,31076429,65.25919342041016,24.956165313720703,38
252,358,28141635,31076429,67.4685287475586,148.11451721191406,5
253,101,28141635,31076429,56.88499450683594,266.1724548339844,137
254,276,28141635,31076429,54.845970153808594,89.66301727294922,66
255,80,28141635,31076429,36.82810974121094,20.784732818603516,143
256,158,28141635,31076429,30.892250061035156,69.1353988647461,158
257,159,28141635,31076429,26.225872039794922,62.28423309326172,190
258,294,28141635,31076429,61.51294708251953,171.34136962890625,2
259,10,28141635,31076429,30.826374053955078,58.76968002319336,142
260,33,28141635,31076429,53.07703399658203,137.37730407714844,262
261,103,28141635,31076429,56.60631561279297,199.7775115966797,165
262,152,28141635,31076429,36.107505798339844,55.75276565551758,100
263,243,28141635,31076429,50.96800231933594,149.0613250732422,145
264,406,28141635,31076429,45.059356689453125,152.53396606445312,276
265,453,28141635,31076429,25.087322235107422,35.7617301940918,175
266,394,28141635,31076429,59.5866584777832,53.578338623046875,228
267,216,28141635,31076429,69.76687622070312,11.679067611694336,4
268,30,28141635,31076429,58.873016357421875,55.531742095947266,180
269,55,28141635,31076429,58.82126235961914,45.473350524902344,163
270,268,28141635,31076429,53.04179000854492,86.91033172607422,103
271,274,28141635,31076429,51.14266586303711,91.810546875,75
272,144,28141635,31076429,69.9192123413086,94.42835235595703,4
273,260,28141635,31076429,50.76885223388672,106.9735336303711,158
274,134,28141635,31076429,65.58201599121094,45.618560791015625,61
275,204,28141635,31076429,62.43572235107422,48.87363815307617,90
276,293,28141635,31076429,70.10808563232422,0.0004127725260332227,2
277,359,28141635,31076429,69.6318588256836,92.13188934326172,3
278,404,28141635,31076429,53.289798736572266,99.08050537109375,235
279,422,28141635,31076429,66.52493286132812,43.142948150634766,49
280,426,28141635,31076429,60.43067932128906,396.9880065917969,4
281,153,28141635,31076429,36.57305145263672,39.179866790771484,120
282,452,28141635,31076429,23.396390914916992,34.18272018432617,141
283,68,28141635,31076429,69.89952087402344,8.951272010803223,5
284,372,28141635,31076429,30.125396728515625,88.34297943115234,220
285,25,28141635,31076429,39.799964904785156,268.33221435546875,134
286,490,28141635,31076429,64.53189849853516,43.35331726074219,115
287,76,28141635,31076429,59.344566345214844,63.926456451416016,20
288,23,28141635,31076429,30.074966430664062,184.662109375,175
289,149,28141635,31076429,53.870819091796875,284.33697509765625,20
290,181,28141635,31076429,25.275379180908203,62.16291046142578,112
291,34,28141635,31076429,50.770206451416016,185.31655883789062,255
292,176,28141635,31076429,54.17580032348633,246.58627319335938,113
293,3,28141635,31076429,67.03268432617188,32.084354400634766,12
294,203,28141635,31076429,64.08973693847656,66.6330795288086,86
295,500,28141635,31076429,70.52960205078125,19.530292510986328,7
296,315,28141635,31076429,60.563350677490234,95.90010070800781,51
297,326,28141635,31076429,61.028717041015625,53.35662078857422,75
298,417,28141635,31076429,63.280799865722656,59.5486946105957,101
299,342,28141635,31076429,56.00176239013672,95.94833374023438,114
300,407,28141635,31076429,53.75448989868164,171.47494506835938,204
301,73,28141635,31076429,69.52702331542969,1.553974986076355,3
302,429,28141635,31076429,70.40055084228516,,1
303,131,28141635,31076429,64.85643768310547,39.01091384887695,118
304,325,28141635,31076429,63.4832763671875,77.84593963623047,90
305,151,28141635,31076429,39.01285171508789,105.5127182006836,63
306,223,28141635,31076429,59.7881965637207,55.72478103637695,54
307,227,28141635,31076429,37.69365310668945,70.12873840332031,113
308,218,28141635,31076429,67.94868469238281,25.21596336364746,6
309,371,28141635,31076429,33.1114501953125,53.47988510131836,193
310,462,28141635,31076429,59.3747444152832,106.50448608398438,177
311,468,28141635,31076429,42.53767013549805,180.4251251220703,250
312,483,28141635,31076429,61.0877799987793,53.91506576538086,137
313,36,28141635,31076429,32.56044006347656,126.34454345703125,257
314,127,28141635,31076429,59.987213134765625,51.45887756347656,154
315,180,28141635,31076429,28.10007095336914,97.47502136230469,100
316,322,28141635,31076429,62.00514602661133,96.0968246459961,84
317,430,28141635,31076429,66.92329406738281,40.56125259399414,4
318,461,28141635,31076429,58.228816986083984,146.36537170410156,181
319,124,28141635,31076429,57.891639709472656,103.12544250488281,150
320,381,28141635,31076429,55.641788482666016,302.3563537597656,209
321,382,28141635,31076429,53.85300064086914,307.2796630859375,216
322,408,28141635,31076429,57.359901428222656,83.31265258789062,169
323,13,28141635,31076429,29.43946647644043,85.27933502197266,197
324,84,28141635,31076429,30.683589935302734,100.01298522949219,192
325,437,28141635,31076429,44.080997467041016,223.34051513671875,27
326,285,28141635,31076429,64.01583099365234,116.14478302001953,5
327,22,28141635,31076429,27.092845916748047,199.67236328125,161
328,96,28141635,31076429,30.12192153930664,259.9950866699219,163
329,206,28141635,31076429,67.81114196777344,15.830927848815918,56
330,458,28141635,31076429,45.068756103515625,256.3815612792969,150
331,18,28141635,31076429,25.295223236083984,146.37149047851562,224
332,194,28141635,31076429,57.36886978149414,43.6934700012207,119
333,316,28141635,31076429,58.257568359375,109.0479965209961,70
334,327,28141635,31076429,63.7467155456543,41.52976989746094,79
335,478,28141635,31076429,36.41802978515625,176.98019409179688,246
336,52,28141635,31076429,60.410850524902344,72.68159484863281,126
337,239,28141635,31076429,41.57574462890625,176.92250061035156,97
338,360,28141635,31076429,65.25425720214844,1394.511474609375,3
339,451,28141635,31076429,22.615516662597656,44.74228286743164,180
340,228,28141635,31076429,40.59722900390625,55.762203216552734,130
341,246,28141635,31076429,55.70811462402344,250.60264587402344,95
342,349,28141635,31076429,61.06898498535156,59.63312911987305,69
343,32,28141635,31076429,60.307960510253906,48.888877868652344,190
344,280,28141635,31076429,65.85255432128906,52.03331756591797,45
345,2,28141635,31076429,62.58049011230469,62.75572967529297,2
346,121,28141635,31076429,54.48084259033203,270.0301513671875,243
347,179,28141635,31076429,43.44395065307617,197.23150634765625,111
348,249,28141635,31076429,59.231075286865234,67.72464752197266,99
349,309,28141635,31076429,61.75768280029297,91.78779602050781,88
350,114,28141635,31076429,27.852920532226562,301.4947204589844,245
351,69,28141635,31076429,66.6954116821289,865.8436889648438,4
352,109,28141635,31076429,37.32939910888672,248.1707305908203,228
353,212,28141635,31076429,68.84869384765625,10.050789833068848,6
354,219,28141635,31076429,68.02615356445312,55.20038986206055,4
355,93,28141635,31076429,27.47880744934082,204.4390869140625,205
356,248,28141635,31076429,58.53556823730469,218.85057067871094,88
357,250,28141635,31076429,62.0331916809082,63.11733627319336,103
358,376,28141635,31076429,34.16599655151367,199.3436737060547,248
359,409,28141635,31076429,61.010406494140625,51.51397705078125,139
360,283,28141635,31076429,65.8215103149414,53.621063232421875,14
361,439,28141635,31076429,37.916786193847656,63.029624938964844,106
362,38,28141635,31076429,24.380434036254883,115.00471496582031,245
363,128,28141635,31076429,59.983089447021484,77.45980072021484,143
364,81,28141635,31076429,35.47051239013672,54.300018310546875,182
365,373,28141635,31076429,30.933317184448242,63.66889572143555,221
366,442,28141635,31076429,30.817174911499023,61.4165153503418,146
367,469,28141635,31076429,34.734798431396484,156.18569946289062,237
368,122,28141635,31076429,56.56849670410156,179.8926239013672,181
369,365,28141635,31076429,40.61288833618164,131.4217987060547,40
370,412,28141635,31076429,60.67693328857422,49.730289459228516,140
371,49,28141635,31076429,55.4215202331543,58.46515655517578,214
372,65,28141635,31076429,65.26776123046875,32.49745559692383,16
373,466,28141635,31076429,57.866477966308594,87.08226013183594,209
374,117,28141635,31076429,37.502418518066406,263.25213623046875,188
375,161,28141635,31076429,32.40789794921875,172.14744567871094,164
376,397,28141635,31076429,54.73435974121094,95.44160461425781,238
377,138,28141635,31076429,65.30985260009766,69.94059753417969,5
378,155,28141635,31076429,32.62977981567383,68.7469711303711,121
379,213,28141635,31076429,68.13732147216797,29.58633041381836,9
380,308,28141635,31076429,59.7935676574707,144.13381958007812,82
381,339,28141635,31076429,55.667144775390625,86.1145248413086,104
382,363,28141635,31076429,65.09396362304688,20.052892684936523,10
383,405,28141635,31076429,50.275970458984375,109.49472045898438,258
384,306,28141635,31076429,66.36070251464844,23.788175582885742,60
385,448,28141635,31076429,25.14719581604004,43.218528747558594,236
386,72,28141635,31076429,70.64478302001953,,1
387,164,28141635,31076429,29.098602294921875,185.729736328125,154
388,307,28141635,31076429,65.8146743774414,28.44510269165039,68
389,340,28141635,31076429,56.06136703491211,64.9546127319336,126
390,503,28141635,31076429,70.66822814941406,0.23348647356033325,3
391,415,28141635,31076429,62.55479049682617,73.8314208984375,119
392,20,28141635,31076429,27.388147354125977,249.5633544921875,153
393,48,28141635,31076429,52.942562103271484,71.27495574951172,237
394,501,28141635,31076429,62.99310302734375,48.894962310791016,5
395,37,28141635,31076429,29.428733825683594,90.66516876220703,241
396,313,28141635,31076429,60.08966827392578,91.81031036376953,67
397,413,28141635,31076429,61.671268463134766,43.59813690185547,148
398,141,28141635,31076429,69.52446746826172,,1
399,295,28141635,31076429,68.81884765625,24.972444534301758,6
400,401,28141635,31076429,50.704139709472656,315.3033752441406,254
401,8,28141635,31076429,38.206504821777344,23.224136352539062,105
402,209,28141635,31076429,66.65072631835938,111.58456420898438,9
403,51,28141635,31076429,57.4262809753418,85.52922821044922,185
404,392,28141635,31076429,61.65441131591797,55.79825973510742,206
405,0,28141635,31076429,60.1924934387207,202.46324157714844,3
406,11,28141635,31076429,29.467926025390625,44.38093566894531,120
407,298,28141635,31076429,68.28204345703125,17.797504425048828,23
408,344,28141635,31076429,50.16058349609375,79.06006622314453,89
409,17,28141635,31076429,28.027036666870117,45.1010856628418,279
410,21,28141635,31076429,29.788875579833984,220.03109741210938,196
411,90,28141635,31076429,28.438674926757812,207.62313842773438,234
412,63,28141635,31076429,68.44424438476562,16.543012619018555,33
413,1,28141635,31076429,65.83238220214844,73.05400085449219,6
414,132,28141635,31076429,62.8802375793457,33.003570556640625,89
415,445,28141635,31076429,27.637290954589844,54.79481887817383,196
416,457,28141635,31076429,40.70465087890625,252.0547637939453,164
417,86,28141635,31076429,28.960020065307617,205.57888793945312,230
418,83,28141635,31076429,31.99594497680664,56.44154357910156,175
419,156,28141635,31076429,29.64479637145996,52.487945556640625,153
420,262,28141635,31076429,50.53675079345703,151.7771759033203,119
421,391,28141635,31076429,62.39205551147461,58.02128601074219,177
422,479,28141635,31076429,50.443599700927734,136.47987365722656,211
423,5,28141635,31076429,52.36827087402344,97.14561462402344,22
424,162,28141635,31076429,30.18046760559082,232.1095733642578,153
425,26,28141635,31076429,54.286659240722656,260.71405029296875,149
426,331,28141635,31076429,40.37394714355469,271.77093505859375,112
427,165,28141635,31076429,30.62548065185547,229.47311401367188,127
428,321,28141635,31076429,62.145606994628906,34.41740798950195,71
429,337,28141635,31076429,41.925018310546875,114.87550354003906,118
430,187,28141635,31076429,29.564884185791016,298.8479919433594,164
431,286,28141635,31076429,63.354583740234375,37.60166931152344,4
432,275,28141635,31076429,50.381858825683594,69.24616241455078,81
433,221,28141635,31076429,64.88269805908203,20.237564086914062,14
434,467,28141635,31076429,52.56392288208008,235.94004821777344,227
435,304,28141635,31076429,67.486572265625,23.61676788330078,60
436,374,28141635,31076429,30.41744613647461,56.454715728759766,276
437,428,28141635,31076429,63.4942741394043,98.04762268066406,7
438,431,28141635,31076429,57.740901947021484,,1
439,143,28141635,31076429,67.8678970336914,5.471843719482422,3
440,264,28141635,31076429,44.13288497924805,143.80584716796875,121
441,271,28141635,31076429,55.890724182128906,89.54369354248047,88
442,157,28141635,31076429,29.77051544189453,84.21404266357422,164
443,261,28141635,31076429,42.4162712097168,162.1265106201172,141
444,60,28141635,31076429,63.703697204589844,48.11170959472656,74
445,154,28141635,31076429,35.753997802734375,65.39671325683594,141
446,353,28141635,31076429,65.99043273925781,35.41188049316406,17
447,495,28141635,31076429,67.45225524902344,29.995323181152344,33
448,24,28141635,31076429,30.629047393798828,201.71905517578125,187
449,311,28141635,31076429,61.76190948486328,81.83345794677734,96
450,328,28141635,31076429,61.58552169799805,38.010520935058594,79
451,99,28141635,31076429,51.89258575439453,267.4468994140625,178
452,125,28141635,31076429,57.475284576416016,54.788169860839844,156
453,324,28141635,31076429,62.42499542236328,48.755706787109375,94
454,169,28141635,31076429,50.01548385620117,149.20684814453125,103
455,272,28141635,31076429,55.37456512451172,107.31719207763672,100
456,279,28141635,31076429,63.1937255859375,56.33026885986328,56
457,299,28141635,31076429,68.10755920410156,9.592081069946289,21
458,368,28141635,31076429,39.133419036865234,68.10952758789062,177
459,425,28141635,31076429,66.92778015136719,47.67193603515625,12
460,251,28141635,31076429,61.621978759765625,58.222782135009766,91
461,220,28141635,31076429,67.74410247802734,5.194284915924072,11
462,380,28141635,31076429,52.40433120727539,351.6248474121094,203
463,89,28141635,31076429,25.98861312866211,204.80419921875,210
464,277,28141635,31076429,54.74609375,120.5035171508789,61
465,289,28141635,31076429,69.47154235839844,3.937062978744507,4
466,450,28141635,31076429,25.716026306152344,50.75975799560547,212
467,14,28141635,31076429,24.4520206451416,50.840972900390625,297
468,199,28141635,31076429,60.514766693115234,60.70050048828125,79
469,7,28141635,31076429,39.17676544189453,91.69219207763672,90
470,85,28141635,31076429,28.576507568359375,191.7210235595703,204
471,178,28141635,31076429,47.12102508544922,273.60223388671875,110
472,388,28141635,31076429,60.72687911987305,51.795631408691406,195
473,399,28141635,31076429,30.338661193847656,278.3839111328125,222
474,493,28141635,31076429,64.14868927001953,55.35422134399414,45
475,362,28141635,31076429,68.50685119628906,14.89686393737793,12
476,455,28141635,31076429,27.313587188720703,44.63276290893555,148
477,39,28141635,31076429,25.42438507080078,161.78770446777344,245
478,108,28141635,31076429,37.6268310546875,199.78489685058594,274
479,184,28141635,31076429,22.44425392150879,113.29231262207031,112
480,255,28141635,31076429,60.921104431152344,96.15118408203125,106
481,136,28141635,31076429,67.42082214355469,12.163278579711914,22
482,287,28141635,31076429,70.03341674804688,,1
483,259,28141635,31076429,54.84052658081055,72.87079620361328,130
484,341,28141635,31076429,55.01138687133789,92.52857208251953,133
485,403,28141635,31076429,57.29851531982422,107.83919525146484,233
486,421,28141635,31076429,63.65060043334961,40.1321907043457,55
487,456,28141635,31076429,30.863676071166992,201.86279296875,150
488,201,28141635,31076429,61.04566955566406,58.040096282958984,87
489,230,28141635,31076429,39.08356857299805,60.954803466796875,156
490,496,28141635,31076429,69.09718322753906,30.307327270507812,20
491,410,28141635,31076429,61.38227081298828,62.886539459228516,139
492,338,28141635,31076429,49.30733871459961,111.38003540039062,107
493,345,28141635,31076429,51.792083740234375,75.1563720703125,98
494,87,28141635,31076429,33.948333740234375,229.4561309814453,268
495,112,28141635,31076429,25.52194595336914,294.6251220703125,247
496,320,28141635,31076429,61.85619354248047,68.19160461425781,65
497,281,28141635,31076429,65.29388427734375,20.25118637084961,35
498,433,28141635,31076429,69.48394775390625,45.88108444213867,3
499,9,28141635,31076429,36.510013580322266,34.72158432006836,157
500,74,28141635,31076429,69.25431823730469,3.945406675338745,2
501,234,28141635,31076429,45.12444305419922,77.57646942138672,184
502,334,28141635,31076429,39.847816467285156,105.18270111083984,110
503,444,28141635,31076429,29.199832916259766,57.50712966918945,172
