,slot,source,target,median,var,cnt
0,381,423811144,28141627,56.73973083496094,476.0852966308594,208
1,475,423811144,28141627,53.143978118896484,478.6561584472656,237
2,4,423811144,28141627,65.86013793945312,63.88874053955078,13
3,98,423811144,28141627,44.92898178100586,411.4888916015625,161
4,330,423811144,28141627,53.598487854003906,195.67930603027344,121
5,387,423811144,28141627,60.917449951171875,41.00388717651367,156
6,359,423811144,28141627,62.95458984375,80.68057250976562,2
7,284,423811144,28141627,65.19328308105469,14.638605117797852,5
8,294,423811144,28141627,67.61388397216797,14.481832504272461,2
9,320,423811144,28141627,62.825992584228516,55.40737533569336,66
10,401,423811144,28141627,57.01002502441406,380.5232849121094,240
11,464,423811144,28141627,61.326107025146484,42.6601448059082,206
12,473,423811144,28141627,55.44294738769531,395.87847900390625,146
13,498,423811144,28141627,64.70970916748047,15.59203815460205,8
14,65,423811144,28141627,66.93450164794922,27.610824584960938,11
15,94,423811144,28141627,17.239049911499023,263.8780517578125,217
16,101,423811144,28141627,58.46746063232422,359.9929504394531,133
17,413,423811144,28141627,61.02627182006836,32.51002502441406,129
18,447,423811144,28141627,14.673937797546387,21.060407638549805,195
19,80,423811144,28141627,19.784337997436523,15.430736541748047,127
20,159,423811144,28141627,14.594517707824707,27.066837310791016,175
21,324,423811144,28141627,61.76423645019531,39.51095199584961,94
22,105,423811144,28141627,58.519412994384766,64.6114273071289,214
23,373,423811144,28141627,16.578182220458984,28.434228897094727,200
24,205,423811144,28141627,65.10274505615234,29.872493743896484,42
25,392,423811144,28141627,62.35271453857422,60.39582443237305,213
26,418,423811144,28141627,65.2662353515625,47.28581619262695,80
27,490,423811144,28141627,65.07008361816406,33.63180160522461,106
28,429,423811144,28141627,68.9271011352539,1.8391318321228027,3
29,165,423811144,28141627,21.77458953857422,429.2303771972656,118
30,237,423811144,28141627,52.214263916015625,247.0131072998047,149
31,312,423811144,28141627,58.5125732421875,107.63369750976562,78
32,122,423811144,28141627,60.27986526489258,250.40036010742188,167
33,253,423811144,28141627,62.298789978027344,83.91732788085938,91
34,276,423811144,28141627,59.239723205566406,94.51520538330078,62
35,323,423811144,28141627,64.80938720703125,44.27377700805664,85
36,466,423811144,28141627,58.637413024902344,59.74857711791992,208
37,115,423811144,28141627,50.93394470214844,543.5839233398438,206
38,252,423811144,28141627,62.50645446777344,57.34061813354492,95
39,331,423811144,28141627,43.24967956542969,378.52813720703125,104
40,382,423811144,28141627,54.98844909667969,511.3007507324219,212
41,440,423811144,28141627,18.357223510742188,23.873275756835938,114
42,326,423811144,28141627,62.224830627441406,35.79469299316406,74
43,417,423811144,28141627,64.19328308105469,61.25078201293945,92
44,81,423811144,28141627,17.54935073852539,19.98577308654785,170
45,243,423811144,28141627,52.14952850341797,347.7290344238281,136
46,448,423811144,28141627,14.329538345336914,18.232852935791016,212
47,8,423811144,28141627,18.31328773498535,15.77112865447998,100
48,46,423811144,28141627,53.89472961425781,188.03567504882812,224
49,451,423811144,28141627,13.372381210327148,22.0087833404541,164
50,6,423811144,28141627,56.09374237060547,125.13399505615234,52
51,43,423811144,28141627,22.673458099365234,406.7310485839844,155
52,149,423811144,28141627,54.16485595703125,312.81005859375,13
53,263,423811144,28141627,48.81413269042969,296.0314636230469,143
54,297,423811144,28141627,67.43867492675781,14.9890775680542,16
55,75,423811144,28141627,68.8474349975586,32.696231842041016,13
56,114,423811144,28141627,35.29414367675781,443.1206970214844,234
57,179,423811144,28141627,49.4984016418457,363.6667175292969,99
58,123,423811144,28141627,61.80109405517578,71.46892547607422,124
59,272,423811144,28141627,57.250831604003906,160.56654357910156,99
60,340,423811144,28141627,59.21141052246094,56.719703674316406,114
61,444,423811144,28141627,15.683917045593262,20.963886260986328,151
62,472,423811144,28141627,19.767345428466797,399.18450927734375,182
63,202,423811144,28141627,64.33415985107422,49.33366394042969,92
64,230,423811144,28141627,22.663414001464844,210.06776428222656,152
65,449,423811144,28141627,14.438249588012695,13.43734359741211,178
66,502,423811144,28141627,67.89029693603516,5.574146747589111,7
67,207,423811144,28141627,65.23866271972656,31.81951141357422,36
68,50,423811144,28141627,60.42137908935547,37.60776901245117,166
69,153,423811144,28141627,18.038105010986328,29.248233795166016,104
70,389,423811144,28141627,62.825199127197266,45.667972564697266,180
71,370,423811144,28141627,17.47689437866211,15.564972877502441,180
72,396,423811144,28141627,58.35600280761719,55.33010482788086,251
73,482,423811144,28141627,61.9811897277832,77.54109191894531,149
74,45,423811144,28141627,21.024188995361328,419.99566650390625,122
75,380,423811144,28141627,54.666259765625,550.0073852539062,180
76,496,423811144,28141627,68.06397247314453,11.679274559020996,20
77,74,423811144,28141627,70.73020935058594,,1
78,126,423811144,28141627,60.8536376953125,60.539676666259766,123
79,144,423811144,28141627,70.02281188964844,77.18089294433594,4
80,37,423811144,28141627,17.91270637512207,252.32640075683594,224
81,118,423811144,28141627,49.744224548339844,372.24395751953125,192
82,250,423811144,28141627,62.02991485595703,44.80376052856445,107
83,268,423811144,28141627,58.718589782714844,74.20577239990234,98
84,17,423811144,28141627,14.216803550720215,16.843486785888672,241
85,102,423811144,28141627,56.9444694519043,242.01560974121094,167
86,345,423811144,28141627,54.62632751464844,127.43780517578125,83
87,157,423811144,28141627,15.999876976013184,40.83976364135742,155
88,213,423811144,28141627,67.09099578857422,46.57719802856445,9
89,199,423811144,28141627,61.06304168701172,49.86552047729492,78
90,311,423811144,28141627,62.09788131713867,83.1744155883789,90
91,441,423811144,28141627,18.046308517456055,19.102020263671875,159
92,10,423811144,28141627,15.961090087890625,20.571470260620117,124
93,139,423811144,28141627,66.46200561523438,10.591924667358398,17
94,306,423811144,28141627,66.81781768798828,19.402246475219727,69
95,315,423811144,28141627,62.86978530883789,28.266998291015625,45
96,31,423811144,28141627,60.193328857421875,75.11772918701172,170
97,188,423811144,28141627,27.029205322265625,491.69952392578125,110
98,32,423811144,28141627,59.992408752441406,46.34558868408203,186
99,191,423811144,28141627,22.217487335205078,397.2936096191406,174
100,174,423811144,28141627,56.429603576660156,321.533935546875,93
101,220,423811144,28141627,65.35274505615234,6.951570987701416,7
102,483,423811144,28141627,61.7708625793457,47.360530853271484,125
103,38,423811144,28141627,14.041040420532227,206.53091430664062,233
104,219,423811144,28141627,71.02118682861328,4.9982590675354,5
105,458,423811144,28141627,54.36701583862305,433.8644714355469,134
106,135,423811144,28141627,67.93216705322266,13.932090759277344,33
107,241,423811144,28141627,57.84253692626953,67.55043029785156,129
108,317,423811144,28141627,64.79998779296875,45.8544807434082,78
109,428,423811144,28141627,61.10515213012695,41.70139694213867,6
110,70,423811144,28141627,68.63346862792969,0.1451539844274521,3
111,185,423811144,28141627,13.039377212524414,505.129150390625,103
112,201,423811144,28141627,62.26262664794922,57.212974548339844,89
113,257,423811144,28141627,60.810203552246094,60.53749084472656,102
114,92,423811144,28141627,14.840339660644531,329.71954345703125,135
115,300,423811144,28141627,67.75175476074219,117.16617584228516,40
116,302,423811144,28141627,66.73503875732422,29.646059036254883,34
117,443,423811144,28141627,16.75699234008789,28.69892692565918,143
118,11,423811144,28141627,15.615991592407227,16.705297470092773,106
119,82,423811144,28141627,17.38174057006836,15.137596130371094,127
120,486,423811144,28141627,62.63465118408203,53.39344787597656,105
121,318,423811144,28141627,63.682743072509766,56.243980407714844,83
122,356,423811144,28141627,67.6370620727539,8.818469047546387,3
123,319,423811144,28141627,63.029964447021484,34.78008270263672,56
124,26,423811144,28141627,54.76689147949219,378.5633239746094,139
125,84,423811144,28141627,16.51903533935547,75.75778198242188,172
126,322,423811144,28141627,62.57029342651367,39.20585250854492,88
127,474,423811144,28141627,55.26911926269531,423.3866271972656,219
128,419,423811144,28141627,64.96453857421875,56.407161712646484,50
129,334,423811144,28141627,30.341690063476562,350.0962219238281,100
130,212,423811144,28141627,67.34519958496094,9.027353286743164,5
131,256,423811144,28141627,63.165042877197266,67.02208709716797,91
132,343,423811144,28141627,58.15193557739258,99.56465911865234,82
133,87,423811144,28141627,16.117380142211914,345.37274169921875,243
134,132,423811144,28141627,63.39790344238281,33.53990936279297,85
135,423,423811144,28141627,64.91883850097656,29.70441246032715,29
136,426,423811144,28141627,63.21055221557617,31.127487182617188,5
137,433,423811144,28141627,63.97187042236328,23.3535213470459,2
138,368,423811144,28141627,20.54718780517578,221.99449157714844,164
139,193,423811144,28141627,57.97600173950195,56.00751495361328,133
140,225,423811144,28141627,57.349674224853516,179.44871520996094,107
141,172,423811144,28141627,57.73041534423828,202.06959533691406,88
142,195,423811144,28141627,62.658050537109375,36.21689224243164,86
143,171,423811144,28141627,57.0806770324707,265.64697265625,98
144,180,423811144,28141627,15.51193618774414,184.7088623046875,92
145,344,423811144,28141627,53.564796447753906,93.7212142944336,84
146,371,423811144,28141627,17.14595603942871,16.204479217529297,158
147,39,423811144,28141627,13.696578979492188,210.9709014892578,230
148,151,423811144,28141627,22.88518524169922,340.4136657714844,58
149,208,423811144,28141627,67.63546752929688,13.685648918151855,18
150,375,423811144,28141627,18.614259719848633,196.1583709716797,251
151,479,423811144,28141627,56.540870666503906,204.52088928222656,199
152,254,423811144,28141627,63.09320068359375,66.2170639038086,126
153,394,423811144,28141627,61.80312728881836,44.304901123046875,223
154,410,423811144,28141627,62.468387603759766,47.74728012084961,129
155,478,423811144,28141627,45.369041442871094,339.71240234375,227
156,485,423811144,28141627,62.25507354736328,45.56004333496094,124
157,295,423811144,28141627,69.13128662109375,33.519622802734375,5
158,365,423811144,28141627,31.728450775146484,337.6893615722656,39
159,90,423811144,28141627,15.940001487731934,347.25592041015625,222
160,265,423811144,28141627,50.1781005859375,417.3285827636719,109
161,348,423811144,28141627,57.26062774658203,159.67100524902344,84
162,457,423811144,28141627,33.33356857299805,483.39697265625,157
163,467,423811144,28141627,56.602699279785156,338.2227783203125,220
164,503,423811144,28141627,71.5833511352539,13.77631950378418,3
165,167,423811144,28141627,54.640350341796875,468.087646484375,92
166,367,423811144,28141627,36.971954345703125,341.1604309082031,119
167,97,423811144,28141627,19.247434616088867,441.79620361328125,154
168,158,423811144,28141627,15.716032028198242,40.717891693115234,136
169,362,423811144,28141627,66.87934875488281,9.154693603515625,10
170,379,423811144,28141627,55.08757781982422,424.71282958984375,251
171,495,423811144,28141627,67.34545135498047,23.86664581298828,26
172,72,423811144,28141627,69.80724334716797,,1
173,480,423811144,28141627,57.762184143066406,191.4230499267578,213
174,497,423811144,28141627,66.38414001464844,13.933160781860352,16
175,140,423811144,28141627,68.21916198730469,34.31507873535156,6
176,492,423811144,28141627,64.65617370605469,20.158824920654297,52
177,79,423811144,28141627,26.119327545166016,197.57208251953125,91
178,406,423811144,28141627,51.61494445800781,132.8333740234375,267
179,61,423811144,28141627,65.1022720336914,33.05796813964844,65
180,14,423811144,28141627,13.5647611618042,18.531829833984375,260
181,54,423811144,28141627,61.800697326660156,46.39406204223633,123
182,236,423811144,28141627,56.59455108642578,223.4351348876953,125
183,454,423811144,28141627,13.56386947631836,20.22287368774414,124
184,481,423811144,28141627,60.316532135009766,60.58730697631836,232
185,264,423811144,28141627,49.290924072265625,360.13482666015625,113
186,411,423811144,28141627,62.47492980957031,44.65296173095703,133
187,491,423811144,28141627,64.21690368652344,59.80691146850586,94
188,56,423811144,28141627,60.781272888183594,51.78006362915039,139
189,60,423811144,28141627,64.65116119384766,27.424541473388672,73
190,235,423811144,28141627,55.02233123779297,284.3065490722656,147
191,249,423811144,28141627,61.38261795043945,68.706787109375,87
192,155,423811144,28141627,16.648967742919922,20.816225051879883,114
193,23,423811144,28141627,17.87556266784668,234.26063537597656,163
194,200,423811144,28141627,59.546634674072266,111.79495239257812,81
195,274,423811144,28141627,54.475669860839844,72.45476531982422,69
196,9,423811144,28141627,18.06983184814453,17.144533157348633,140
197,100,423811144,28141627,57.7584342956543,276.90032958984375,139
198,468,423811144,28141627,46.395896911621094,379.29254150390625,242
199,442,423811144,28141627,16.694658279418945,15.616286277770996,123
200,25,423811144,28141627,50.96350860595703,386.6727600097656,128
201,53,423811144,28141627,60.47129440307617,49.44123077392578,130
202,296,423811144,28141627,68.98897552490234,7.962508678436279,19
203,93,423811144,28141627,17.158605575561523,303.3647155761719,201
204,128,423811144,28141627,61.261619567871094,82.27013397216797,137
205,462,423811144,28141627,59.110626220703125,64.95840454101562,170
206,465,423811144,28141627,60.92195510864258,67.4959716796875,211
207,489,423811144,28141627,63.46819305419922,41.7435417175293,112
208,194,423811144,28141627,60.27565002441406,33.70258331298828,108
209,374,423811144,28141627,16.04558563232422,22.278169631958008,259
210,422,423811144,28141627,66.78646850585938,32.01201248168945,40
211,136,423811144,28141627,66.28402709960938,22.61625862121582,24
212,327,423811144,28141627,62.6940803527832,32.138702392578125,84
213,358,423811144,28141627,69.07953643798828,313.1103515625,5
214,59,423811144,28141627,64.77952575683594,24.45267677307129,100
215,233,423811144,28141627,44.329833984375,231.50709533691406,181
216,416,423811144,28141627,62.828433990478516,49.32521057128906,111
217,71,423811144,28141627,69.21437072753906,8.668905258178711,5
218,470,423811144,28141627,18.1328067779541,498.9906921386719,189
219,226,423811144,28141627,39.26740646362305,308.5943603515625,110
220,353,423811144,28141627,65.63126373291016,38.513614654541016,17
221,355,423811144,28141627,68.57620239257812,30.21510887145996,8
222,484,423811144,28141627,61.09587860107422,37.88917922973633,132
223,58,423811144,28141627,65.06011962890625,36.97494125366211,112
224,251,423811144,28141627,61.92030334472656,49.6812629699707,88
225,48,423811144,28141627,56.78945541381836,66.0224609375,232
226,229,423811144,28141627,25.266395568847656,215.57958984375,138
227,143,423811144,28141627,63.446929931640625,7.112737655639648,2
228,150,423811144,28141627,54.21867752075195,302.6169738769531,43
229,258,423811144,28141627,59.89780807495117,67.48524475097656,112
230,357,423811144,28141627,70.74073791503906,9.160409927368164,4
231,398,423811144,28141627,57.833282470703125,190.09165954589844,191
232,35,423811144,28141627,52.246864318847656,322.5396423339844,268
233,83,423811144,28141627,16.33100128173828,18.589561462402344,168
234,248,423811144,28141627,62.287261962890625,283.07806396484375,84
235,279,423811144,28141627,63.92967224121094,40.2057991027832,55
236,292,423811144,28141627,63.184852600097656,27.182640075683594,6
237,430,423811144,28141627,68.65692138671875,9.720873832702637,5
238,116,423811144,28141627,45.832618713378906,398.54144287109375,256
239,255,423811144,28141627,61.67034912109375,113.90406799316406,95
240,349,423811144,28141627,62.61253356933594,104.14887237548828,60
241,425,423811144,28141627,64.58273315429688,26.452863693237305,12
242,152,423811144,28141627,19.071971893310547,120.76514434814453,96
243,259,423811144,28141627,58.43950653076172,46.51763916015625,124
244,301,423811144,28141627,66.79119110107422,16.31770896911621,38
245,347,423811144,28141627,58.601951599121094,112.70023345947266,72
246,439,423811144,28141627,21.55916976928711,200.42166137695312,100
247,131,423811144,28141627,65.72525024414062,25.171777725219727,109
248,329,423811144,28141627,59.44822311401367,53.889556884765625,91
249,415,423811144,28141627,63.814178466796875,50.080955505371094,99
250,487,423811144,28141627,60.339622497558594,38.986515045166016,116
251,280,423811144,28141627,66.89717864990234,25.456069946289062,41
252,203,423811144,28141627,64.46263885498047,32.9265022277832,74
253,244,423811144,28141627,56.602012634277344,181.85360717773438,118
254,403,423811144,28141627,59.20498275756836,100.61549377441406,228
255,66,423811144,28141627,67.90306854248047,15.851877212524414,5
256,288,423811144,28141627,65.12529754638672,27.633846282958984,6
257,459,423811144,28141627,59.23545837402344,205.75509643554688,161
258,18,423811144,28141627,13.93014144897461,207.35353088378906,202
259,120,423811144,28141627,59.47848129272461,382.7343444824219,163
260,130,423811144,28141627,63.98967742919922,40.342735290527344,106
261,285,423811144,28141627,64.26527404785156,0.12444747984409332,2
262,488,423811144,28141627,62.48628234863281,47.16775131225586,119
263,369,423811144,28141627,18.710369110107422,15.663714408874512,175
264,169,423811144,28141627,54.593666076660156,165.8745880126953,93
265,275,423811144,28141627,55.14309310913086,59.08195114135742,75
266,89,423811144,28141627,15.613306045532227,317.0838928222656,189
267,291,423811144,28141627,67.9697494506836,32.467281341552734,4
268,493,423811144,28141627,66.3008041381836,57.4283561706543,45
269,33,423811144,28141627,55.47960662841797,179.1694793701172,253
270,346,423811144,28141627,56.87444305419922,104.9320068359375,65
271,385,423811144,28141627,59.83204650878906,193.3791961669922,172
272,281,423811144,28141627,66.42300415039062,25.577510833740234,29
273,335,423811144,28141627,34.15012741088867,317.1943054199219,107
274,138,423811144,28141627,66.80313110351562,30.956201553344727,6
275,228,423811144,28141627,27.776371002197266,202.30149841308594,116
276,289,423811144,28141627,66.77458190917969,7.11711311340332,3
277,95,423811144,28141627,19.36166000366211,430.5403747558594,170
278,461,423811144,28141627,58.597869873046875,205.8874969482422,176
279,166,423811144,28141627,49.27452087402344,456.3006286621094,104
280,332,423811144,28141627,52.1447868347168,334.33380126953125,82
281,310,423811144,28141627,60.61140823364258,45.90153121948242,83
282,337,423811144,28141627,39.40375900268555,303.7420654296875,106
283,156,423811144,28141627,15.681930541992188,15.308424949645996,128
284,44,423811144,28141627,18.685802459716797,207.42237854003906,181
285,113,423811144,28141627,36.599342346191406,520.6544189453125,210
286,277,423811144,28141627,56.50473403930664,106.75186920166016,51
287,316,423811144,28141627,63.42250061035156,39.356571197509766,64
288,286,423811144,28141627,63.40687561035156,62.58230972290039,4
289,290,423811144,28141627,66.79270935058594,17.64618682861328,8
290,5,423811144,28141627,55.02650451660156,157.11097717285156,21
291,52,423811144,28141627,61.325714111328125,37.30742645263672,121
292,141,423811144,28141627,67.96251678466797,,1
293,308,423811144,28141627,61.72511672973633,219.67381286621094,85
294,395,423811144,28141627,60.66168212890625,44.810916900634766,206
295,22,423811144,28141627,16.514375686645508,266.30731201171875,147
296,240,423811144,28141627,59.278465270996094,141.41160583496094,88
297,57,423811144,28141627,63.6641960144043,42.4594612121582,122
298,293,423811144,28141627,70.09371948242188,2.5808777809143066,3
299,460,423811144,28141627,58.172855377197266,79.54560089111328,162
300,13,423811144,28141627,15.592702865600586,21.221818923950195,178
301,163,423811144,28141627,15.977039337158203,265.134033203125,112
302,267,423811144,28141627,54.2957878112793,85.83079528808594,81
303,76,423811144,28141627,62.43267059326172,36.88178634643555,19
304,164,423811144,28141627,16.080068588256836,302.0474548339844,152
305,269,423811144,28141627,58.6229133605957,81.95419311523438,83
306,378,423811144,28141627,55.00981140136719,426.20330810546875,274
307,111,423811144,28141627,17.40268325805664,460.8570251464844,276
308,242,423811144,28141627,56.94706344604492,88.20171356201172,113
309,3,423811144,28141627,66.37942504882812,29.126855850219727,10
310,28,423811144,28141627,58.345211029052734,49.540462493896484,155
311,446,423811144,28141627,15.144950866699219,13.812544822692871,162
312,471,423811144,28141627,18.843029022216797,317.29608154296875,248
313,170,423811144,28141627,58.934486389160156,281.6285400390625,80
314,386,423811144,28141627,62.229026794433594,65.1258316040039,152
315,20,423811144,28141627,15.89102554321289,384.1859436035156,152
316,104,423811144,28141627,56.91395568847656,243.18238830566406,169
317,27,423811144,28141627,60.210533142089844,171.47677612304688,162
318,64,423811144,28141627,63.57610321044922,35.36487579345703,17
319,77,423811144,28141627,59.31334686279297,62.281612396240234,36
320,189,423811144,28141627,23.96944808959961,378.2149353027344,134
321,0,423811144,28141627,60.414276123046875,67.07901000976562,4
322,73,423811144,28141627,70.7908935546875,2.125180721282959,4
323,397,423811144,28141627,58.28684616088867,58.39310073852539,225
324,91,423811144,28141627,14.622495651245117,384.8251647949219,201
325,103,423811144,28141627,58.194366455078125,201.33607482910156,166
326,238,423811144,28141627,44.139163970947266,363.677001953125,135
327,313,423811144,28141627,61.326171875,120.72201538085938,71
328,304,423811144,28141627,67.15377044677734,18.8649845123291,59
329,246,423811144,28141627,58.39551544189453,462.8334045410156,85
330,307,423811144,28141627,64.8277587890625,26.898601531982422,72
331,436,423811144,28141627,64.85874938964844,26.98365020751953,14
332,209,423811144,28141627,68.52536010742188,13.644610404968262,10
333,377,423811144,28141627,24.554882049560547,465.1868591308594,270
334,432,423811144,28141627,71.1917724609375,,1
335,88,423811144,28141627,16.6856689453125,290.1740417480469,234
336,173,423811144,28141627,54.441993713378906,301.1348876953125,101
337,305,423811144,28141627,67.5611801147461,14.09516429901123,50
338,500,423811144,28141627,67.35501098632812,33.10205078125,6
339,107,423811144,28141627,53.415855407714844,285.2334289550781,204
340,108,423811144,28141627,34.03753662109375,368.5319519042969,255
341,124,423811144,28141627,60.286598205566406,130.1520538330078,140
342,181,423811144,28141627,15.087503433227539,71.2106704711914,106
343,67,423811144,28141627,67.2705078125,12.218146324157715,6
344,299,423811144,28141627,67.62161254882812,12.675065994262695,28
345,364,423811144,28141627,59.65443420410156,42.11354064941406,21
346,400,423811144,28141627,54.7818603515625,393.5418395996094,188
347,402,423811144,28141627,55.85108947753906,403.47515869140625,230
348,168,423811144,28141627,59.42822265625,258.4825439453125,79
349,247,423811144,28141627,58.931304931640625,417.8590087890625,97
350,239,423811144,28141627,24.5963134765625,433.9205627441406,96
351,338,423811144,28141627,54.001949310302734,192.48826599121094,111
352,399,423811144,28141627,25.515438079833984,515.7915649414062,203
353,477,423811144,28141627,45.72749710083008,356.2820739746094,293
354,424,423811144,28141627,65.006103515625,22.785051345825195,18
355,499,423811144,28141627,67.03934478759766,48.60152053833008,8
356,182,423811144,28141627,12.516496658325195,97.56603240966797,70
357,187,423811144,28141627,21.404876708984375,413.7646484375,150
358,40,423811144,28141627,14.166454315185547,263.3652038574219,218
359,63,423811144,28141627,69.06011962890625,17.904579162597656,39
360,68,423811144,28141627,68.70881652832031,10.965060234069824,7
361,112,423811144,28141627,17.472116470336914,480.8866882324219,227
362,218,423811144,28141627,68.8993148803711,4.272850036621094,5
363,222,423811144,28141627,66.02923583984375,33.14530563354492,32
364,273,423811144,28141627,56.93482971191406,146.36895751953125,72
365,78,423811144,28141627,54.82741928100586,169.19703674316406,66
366,206,423811144,28141627,67.54545593261719,19.845542907714844,49
367,96,423811144,28141627,17.774507522583008,465.5788879394531,143
368,147,423811144,28141627,68.23666381835938,12.923616409301758,7
369,260,423811144,28141627,54.203182220458984,169.6205596923828,157
370,106,423811144,28141627,52.92018127441406,283.36212158203125,223
371,453,423811144,28141627,13.426910400390625,12.191198348999023,170
372,463,423811144,28141627,59.181182861328125,69.6745376586914,170
373,86,423811144,28141627,16.108449935913086,248.97789001464844,220
374,217,423811144,28141627,70.8968505859375,15.318092346191406,8
375,29,423811144,28141627,58.84313201904297,88.98664093017578,198
376,278,423811144,28141627,60.78203582763672,36.516387939453125,58
377,342,423811144,28141627,57.736446380615234,271.55279541015625,105
378,190,423811144,28141627,39.14198684692383,350.125732421875,147
379,412,423811144,28141627,62.356773376464844,34.1473274230957,128
380,176,423811144,28141627,56.86045837402344,273.318115234375,114
381,298,423811144,28141627,67.03447723388672,197.7808837890625,25
382,333,423811144,28141627,44.29587936401367,247.5905303955078,151
383,437,423811144,28141627,42.84463119506836,220.12905883789062,28
384,434,423811144,28141627,67.73450469970703,0.01560817938297987,2
385,15,423811144,28141627,13.940095901489258,16.94670867919922,210
386,350,423811144,28141627,64.47881317138672,77.89391326904297,55
387,49,423811144,28141627,57.9966926574707,43.7017707824707,201
388,62,423811144,28141627,66.76116180419922,55.63911437988281,52
389,414,423811144,28141627,63.0396614074707,68.40803527832031,128
390,1,423811144,28141627,68.37726593017578,5.969635009765625,4
391,455,423811144,28141627,15.755475044250488,69.920166015625,130
392,121,423811144,28141627,57.53936004638672,345.09344482421875,226
393,328,423811144,28141627,63.911407470703125,31.951980590820312,88
394,55,423811144,28141627,61.20564651489258,61.99845886230469,154
395,351,423811144,28141627,64.63395690917969,31.749910354614258,40
396,405,423811144,28141627,53.900360107421875,263.02728271484375,255
397,216,423811144,28141627,69.62530517578125,5.095476150512695,4
398,283,423811144,28141627,65.00601959228516,11.583093643188477,13
399,391,423811144,28141627,62.21467590332031,42.18217849731445,170
400,34,423811144,28141627,55.43553924560547,255.469482421875,239
401,110,423811144,28141627,46.45545196533203,537.8584594726562,177
402,129,423811144,28141627,63.43720245361328,36.56010818481445,139
403,183,423811144,28141627,12.134994506835938,219.07460021972656,124
404,184,423811144,28141627,12.160139083862305,199.0167236328125,103
405,339,423811144,28141627,59.670921325683594,44.73833465576172,94
406,16,423811144,28141627,13.899275779724121,14.208462715148926,214
407,469,423811144,28141627,21.71782684326172,413.7463073730469,214
408,211,423811144,28141627,68.18679809570312,11.114295959472656,4
409,303,423811144,28141627,66.3140869140625,15.411659240722656,50
410,186,423811144,28141627,18.170928955078125,440.2275085449219,144
411,142,423811144,28141627,68.05326843261719,9.805456161499023,3
412,227,423811144,28141627,22.642763137817383,178.93426513671875,103
413,404,423811144,28141627,54.639564514160156,230.22254943847656,231
414,420,423811144,28141627,65.27058410644531,29.20994758605957,49
415,438,423811144,28141627,48.39246368408203,179.94503784179688,77
416,221,423811144,28141627,63.25596618652344,21.71722984313965,16
417,421,423811144,28141627,65.31200408935547,40.199100494384766,45
418,12,423811144,28141627,15.545623779296875,16.370811462402344,143
419,341,423811144,28141627,57.81544494628906,88.61289978027344,124
420,476,423811144,28141627,47.978275299072266,440.4662780761719,251
421,198,423811144,28141627,59.05976104736328,48.30002975463867,110
422,232,423811144,28141627,33.40287780761719,196.37966918945312,159
423,282,423811144,28141627,67.26554870605469,13.141947746276855,20
424,372,423811144,28141627,16.85094451904297,30.01823616027832,194
425,109,423811144,28141627,26.794660568237305,449.2027587890625,210
426,117,423811144,28141627,49.535579681396484,363.41015625,173
427,390,423811144,28141627,61.09380340576172,48.69523620605469,212
428,196,423811144,28141627,60.22227478027344,78.29328155517578,88
429,160,423811144,28141627,15.469450950622559,154.73834228515625,148
430,314,423811144,28141627,62.55939865112305,53.052310943603516,53
431,435,423811144,28141627,65.03353881835938,49.121437072753906,8
432,445,423811144,28141627,15.094146728515625,21.154537200927734,178
433,456,423811144,28141627,18.58386993408203,383.1327209472656,138
434,175,423811144,28141627,60.83160400390625,276.8706359863281,84
435,409,423811144,28141627,61.010406494140625,36.08678436279297,127
436,7,423811144,28141627,22.71245574951172,292.48260498046875,83
437,51,423811144,28141627,59.63438034057617,50.27779006958008,162
438,450,423811144,28141627,14.020790100097656,16.891021728515625,187
439,19,423811144,28141627,13.438047409057617,330.2445373535156,196
440,224,423811144,28141627,49.514583587646484,176.6000518798828,58
441,234,423811144,28141627,44.483848571777344,294.2366027832031,183
442,383,423811144,28141627,52.705047607421875,458.18939208984375,206
443,388,423811144,28141627,60.57125473022461,54.403629302978516,199
444,24,423811144,28141627,17.493305206298828,392.32879638671875,176
445,42,423811144,28141627,14.742086410522461,317.4339599609375,156
446,162,423811144,28141627,16.990703582763672,382.79290771484375,136
447,177,423811144,28141627,56.743080139160156,246.03224182128906,119
448,261,423811144,28141627,49.93804931640625,238.54307556152344,129
449,427,423811144,28141627,69.42350006103516,7.340533256530762,9
450,178,423811144,28141627,49.565704345703125,494.31622314453125,102
451,69,423811144,28141627,69.55647277832031,5.800962924957275,3
452,197,423811144,28141627,59.39140319824219,48.0135498046875,110
453,366,423811144,28141627,59.70114517211914,119.84889221191406,65
454,384,423811144,28141627,59.12037658691406,215.62681579589844,176
455,133,423811144,28141627,67.39125061035156,33.17721939086914,66
456,192,423811144,28141627,36.75490188598633,353.0238342285156,143
457,223,423811144,28141627,62.616695404052734,31.192293167114258,51
458,231,423811144,28141627,48.600868225097656,333.4132080078125,164
459,363,423811144,28141627,66.66770935058594,29.297475814819336,9
460,376,423811144,28141627,17.416645050048828,342.9548645019531,232
461,431,423811144,28141627,59.19350814819336,,1
462,494,423811144,28141627,66.59901428222656,39.43111038208008,52
463,154,423811144,28141627,17.692733764648438,59.696876525878906,125
464,204,423811144,28141627,63.46964645385742,31.857284545898438,89
465,321,423811144,28141627,63.189361572265625,41.381195068359375,73
466,452,423811144,28141627,12.969720840454102,18.382587432861328,118
467,119,423811144,28141627,50.208030700683594,362.1632995605469,185
468,99,423811144,28141627,56.01853942871094,404.7477722167969,170
469,393,423811144,28141627,60.119415283203125,67.1214828491211,229
470,501,423811144,28141627,67.24140930175781,12.316734313964844,4
471,137,423811144,28141627,67.64859008789062,20.637922286987305,17
472,309,423811144,28141627,62.76348114013672,97.3331298828125,82
473,30,423811144,28141627,59.57085037231445,61.24281311035156,175
474,161,423811144,28141627,15.423881530761719,378.3717041015625,158
475,352,423811144,28141627,66.13506317138672,14.244056701660156,31
476,407,423811144,28141627,56.787933349609375,355.6318054199219,194
477,361,423811144,28141627,66.11595153808594,58.742881774902344,5
478,47,423811144,28141627,53.34892272949219,133.66160583496094,243
479,325,423811144,28141627,62.21208190917969,67.93385314941406,86
480,146,423811144,28141627,65.8214340209961,122.13093566894531,4
481,336,423811144,28141627,35.92066955566406,250.7594451904297,119
482,21,423811144,28141627,16.393964767456055,360.5037536621094,183
483,36,423811144,28141627,27.018814086914062,327.931640625,242
484,210,423811144,28141627,65.12164306640625,14.499353408813477,10
485,214,423811144,28141627,66.57012176513672,48.448543548583984,3
486,215,423811144,28141627,68.39854431152344,13.854708671569824,10
487,245,423811144,28141627,56.332908630371094,369.07403564453125,109
488,266,423811144,28141627,54.7424201965332,228.1769256591797,99
489,354,423811144,28141627,68.85126495361328,61.5272216796875,12
490,360,423811144,28141627,70.43031311035156,29.331356048583984,4
491,271,423811144,28141627,59.25782012939453,88.97555541992188,78
492,408,423811144,28141627,59.99319839477539,100.97076416015625,164
493,134,423811144,28141627,65.16255950927734,18.829072952270508,58
494,148,423811144,28141627,64.84070587158203,70.95233917236328,16
495,262,423811144,28141627,52.080970764160156,286.4815673828125,111
496,41,423811144,28141627,14.484047889709473,307.3374328613281,159
497,127,423811144,28141627,61.58490753173828,42.97361755371094,151
498,85,423811144,28141627,17.988901138305664,318.1127624511719,179
499,125,423811144,28141627,60.6906623840332,52.4315071105957,141
500,270,423811144,28141627,60.223567962646484,76.00787353515625,83
