,slot,source,target,median,var,cnt
0,354,34024778,4512612193,67.51356506347656,32.323036193847656,11
1,490,34024778,4512612193,64.67950439453125,63.68601608276367,101
2,74,34024778,4512612193,61.31371307373047,150.27206420898438,2
3,229,34024778,4512612193,48.558536529541016,59.685325622558594,117
4,444,34024778,4512612193,24.877540588378906,97.10596466064453,148
5,329,34024778,4512612193,59.95025634765625,131.87228393554688,79
6,343,34024778,4512612193,58.94482421875,64.51254272460938,70
7,411,34024778,4512612193,61.953765869140625,106.71295166015625,134
8,115,34024778,4512612193,25.064132690429688,321.39910888671875,209
9,182,34024778,4512612193,18.213695526123047,81.90614318847656,64
10,253,34024778,4512612193,59.54778289794922,88.13867950439453,80
11,311,34024778,4512612193,59.00700378417969,66.4583740234375,79
12,312,34024778,4512612193,56.74192810058594,74.14666748046875,70
13,357,34024778,4512612193,68.88600158691406,14.329609870910645,6
14,421,34024778,4512612193,63.3935546875,84.28388977050781,50
15,424,34024778,4512612193,65.08500671386719,19.6652889251709,19
16,441,34024778,4512612193,44.04186248779297,77.22256469726562,171
17,197,34024778,4512612193,58.92185974121094,58.96647262573242,104
18,348,34024778,4512612193,55.200462341308594,87.6994400024414,76
19,502,34024778,4512612193,67.95915222167969,196.54306030273438,7
20,159,34024778,4512612193,24.339862823486328,186.627685546875,152
21,195,34024778,4512612193,62.43340301513672,57.217079162597656,78
22,208,34024778,4512612193,65.4398422241211,17.594114303588867,20
23,485,34024778,4512612193,60.86148452758789,78.68103790283203,111
24,33,34024778,4512612193,52.92620849609375,223.3163299560547,190
25,209,34024778,4512612193,64.97196197509766,89.38330841064453,7
26,410,34024778,4512612193,60.03361892700195,46.94089126586914,119
27,457,34024778,4512612193,29.608009338378906,293.151123046875,109
28,493,34024778,4512612193,65.07191467285156,43.15174865722656,45
29,8,34024778,4512612193,46.45503234863281,77.27022552490234,95
30,125,34024778,4512612193,58.4433708190918,87.82077026367188,145
31,304,34024778,4512612193,67.18002319335938,33.85151290893555,50
32,251,34024778,4512612193,63.98185348510742,69.44637298583984,77
33,263,34024778,4512612193,51.235721588134766,102.9131088256836,96
34,2,34024778,4512612193,70.04342651367188,0.7950528860092163,2
35,51,34024778,4512612193,58.962493896484375,82.79740905761719,168
36,107,34024778,4512612193,44.86208724975586,251.17495727539062,165
37,233,34024778,4512612193,50.135711669921875,71.75910186767578,140
38,287,34024778,4512612193,40.59775924682617,,1
39,317,34024778,4512612193,62.274253845214844,150.2198944091797,60
40,214,34024778,4512612193,63.25333023071289,96.11017608642578,5
41,286,34024778,4512612193,68.39698028564453,17.59916114807129,4
42,215,34024778,4512612193,68.93030548095703,3.480964422225952,6
43,23,34024778,4512612193,24.231281280517578,225.30001831054688,138
44,204,34024778,4512612193,61.723663330078125,74.6209716796875,91
45,207,34024778,4512612193,68.78319549560547,19.58731460571289,36
46,243,34024778,4512612193,52.501094818115234,191.47181701660156,113
47,201,34024778,4512612193,62.57799530029297,91.31858825683594,86
48,9,34024778,4512612193,44.44493103027344,109.79163360595703,142
49,180,34024778,4512612193,22.813879013061523,136.01783752441406,70
50,331,34024778,4512612193,40.58812713623047,248.10516357421875,77
51,453,34024778,4512612193,21.40427017211914,33.0541877746582,119
52,39,34024778,4512612193,21.08365249633789,182.37913513183594,184
53,289,34024778,4512612193,64.82138061523438,62.50456237792969,2
54,296,34024778,4512612193,66.6655502319336,121.305419921875,17
55,423,34024778,4512612193,66.52729797363281,70.91394805908203,31
56,101,34024778,4512612193,56.02277374267578,191.74156188964844,104
57,112,34024778,4512612193,21.9152774810791,230.1975555419922,238
58,118,34024778,4512612193,36.12128829956055,295.4154052734375,138
59,428,34024778,4512612193,64.74746704101562,46.680580139160156,6
60,167,34024778,4512612193,45.1761360168457,471.409423828125,74
61,309,34024778,4512612193,63.38751220703125,78.19091796875,77
62,50,34024778,4512612193,59.50617599487305,56.03203582763672,132
63,293,34024778,4512612193,69.94143676757812,705.9517211914062,3
64,340,34024778,4512612193,59.95703887939453,73.47100067138672,93
65,403,34024778,4512612193,55.86099624633789,225.53932189941406,182
66,232,34024778,4512612193,51.12981414794922,80.67366790771484,124
67,266,34024778,4512612193,52.287452697753906,151.83969116210938,62
68,38,34024778,4512612193,21.845048904418945,83.11874389648438,191
69,494,34024778,4512612193,67.90304565429688,49.49446105957031,44
70,46,34024778,4512612193,48.38500213623047,194.9873504638672,177
71,63,34024778,4512612193,67.22351837158203,41.3834114074707,39
72,75,34024778,4512612193,66.45353698730469,59.46784591674805,11
73,318,34024778,4512612193,56.68967819213867,203.40272521972656,62
74,335,34024778,4512612193,28.929832458496094,185.14175415039062,66
75,350,34024778,4512612193,64.37844848632812,47.06034469604492,51
76,388,34024778,4512612193,63.064579010009766,62.29380416870117,153
77,486,34024778,4512612193,60.9220085144043,74.2720947265625,116
78,178,34024778,4512612193,45.102325439453125,346.7991027832031,85
79,325,34024778,4512612193,63.462310791015625,95.51253509521484,82
80,369,34024778,4512612193,44.409698486328125,81.42964935302734,182
81,334,34024778,4512612193,44.495086669921875,171.15077209472656,67
82,347,34024778,4512612193,55.38026428222656,138.8394775390625,71
83,372,34024778,4512612193,27.657943725585938,111.0783920288086,183
84,399,34024778,4512612193,25.519758224487305,292.1524353027344,172
85,16,34024778,4512612193,21.207103729248047,45.08503723144531,167
86,31,34024778,4512612193,60.372371673583984,63.029075622558594,130
87,249,34024778,4512612193,56.40049362182617,148.9408721923828,91
88,330,34024778,4512612193,55.14273452758789,201.86436462402344,103
89,108,34024778,4512612193,32.10222244262695,299.97174072265625,201
90,177,34024778,4512612193,46.42913818359375,331.1224060058594,102
91,360,34024778,4512612193,69.10538482666016,10.63095474243164,3
92,192,34024778,4512612193,41.84522247314453,162.61581420898438,122
93,21,34024778,4512612193,28.205707550048828,317.4764099121094,130
94,187,34024778,4512612193,24.64979362487793,238.64955139160156,145
95,279,34024778,4512612193,60.178497314453125,78.9958724975586,52
96,136,34024778,4512612193,66.5970458984375,60.185054779052734,26
97,407,34024778,4512612193,50.989749908447266,147.67251586914062,173
98,497,34024778,4512612193,68.34086608886719,35.37408447265625,17
99,106,34024778,4512612193,38.21225357055664,269.55224609375,170
100,156,34024778,4512612193,27.988677978515625,122.48067474365234,140
101,419,34024778,4512612193,65.43196105957031,22.47196388244629,57
102,158,34024778,4512612193,29.09054183959961,150.13027954101562,132
103,48,34024778,4512612193,53.482749938964844,85.67575073242188,208
104,203,34024778,4512612193,63.96742248535156,95.26210021972656,80
105,376,34024778,4512612193,29.54119873046875,221.36695861816406,190
106,72,34024778,4512612193,70.94209289550781,,1
107,336,34024778,4512612193,42.43423080444336,145.51426696777344,64
108,183,34024778,4512612193,19.956756591796875,206.4872589111328,106
109,351,34024778,4512612193,64.7394027709961,31.26814842224121,46
110,362,34024778,4512612193,68.13287353515625,26.280717849731445,10
111,413,34024778,4512612193,61.50974655151367,54.536468505859375,135
112,429,34024778,4512612193,70.36906433105469,0.5817691683769226,2
113,0,34024778,4512612193,70.27296447753906,0.10217426717281342,2
114,56,34024778,4512612193,60.56773376464844,54.62233352661133,138
115,80,34024778,4512612193,46.39948272705078,71.9674301147461,137
116,168,34024778,4512612193,58.17237091064453,271.6765441894531,62
117,250,34024778,4512612193,60.80188751220703,188.12413024902344,93
118,384,34024778,4512612193,58.003238677978516,235.53260803222656,147
119,64,34024778,4512612193,66.42037963867188,108.26454162597656,20
120,154,34024778,4512612193,39.49276351928711,116.65013122558594,122
121,191,34024778,4512612193,36.566959381103516,232.00306701660156,140
122,358,34024778,4512612193,65.80494689941406,112.6717529296875,6
123,371,34024778,4512612193,33.17829132080078,138.69369506835938,172
124,18,34024778,4512612193,21.179981231689453,102.80307006835938,175
125,73,34024778,4512612193,64.60136413574219,776.7377319335938,4
126,122,34024778,4512612193,56.885955810546875,220.72177124023438,148
127,151,34024778,4512612193,48.75748062133789,123.77085876464844,57
128,408,34024778,4512612193,56.62645721435547,100.59117889404297,155
129,28,34024778,4512612193,56.767433166503906,150.34466552734375,124
130,34,34024778,4512612193,49.50788879394531,245.16842651367188,172
131,35,34024778,4512612193,45.404850006103516,263.3818664550781,206
132,96,34024778,4512612193,26.24163818359375,301.6435852050781,118
133,157,34024778,4512612193,24.634252548217773,159.13192749023438,129
134,268,34024778,4512612193,55.26025390625,113.65564727783203,67
135,277,34024778,4512612193,57.258087158203125,58.08816146850586,51
136,342,34024778,4512612193,57.92106246948242,64.67709350585938,99
137,432,34024778,4512612193,69.9483642578125,4.645327568054199,2
138,496,34024778,4512612193,68.52458953857422,25.611095428466797,21
139,270,34024778,4512612193,58.096702575683594,92.80581665039062,74
140,359,34024778,4512612193,69.07002258300781,53.327491760253906,6
141,491,34024778,4512612193,63.687007904052734,67.0360336303711,99
142,169,34024778,4512612193,51.89849853515625,323.162841796875,77
143,196,34024778,4512612193,60.61109161376953,75.34078979492188,94
144,450,34024778,4512612193,20.71182632446289,46.31336975097656,138
145,30,34024778,4512612193,58.86377716064453,93.35084533691406,143
146,344,34024778,4512612193,51.71329116821289,62.976295471191406,70
147,29,34024778,4512612193,56.60096740722656,139.0344696044922,156
148,65,34024778,4512612193,65.70625305175781,99.76996612548828,18
149,190,34024778,4512612193,30.115447998046875,311.4873962402344,123
150,324,34024778,4512612193,63.95374298095703,91.78569030761719,78
151,499,34024778,4512612193,68.56263732910156,8.870349884033203,4
152,128,34024778,4512612193,60.449283599853516,66.40701293945312,127
153,172,34024778,4512612193,56.410640716552734,274.0777587890625,61
154,442,34024778,4512612193,28.334148406982422,109.1888427734375,134
155,471,34024778,4512612193,22.461788177490234,128.66091918945312,200
156,272,34024778,4512612193,57.22904968261719,63.25489044189453,86
157,89,34024778,4512612193,23.749008178710938,265.218017578125,160
158,132,34024778,4512612193,64.18217468261719,43.9638671875,87
159,117,34024778,4512612193,31.31624412536621,377.9183654785156,157
160,239,34024778,4512612193,45.504852294921875,203.5466766357422,66
161,260,34024778,4512612193,53.170257568359375,126.26376342773438,125
162,398,34024778,4512612193,49.71065139770508,256.8054504394531,157
163,446,34024778,4512612193,21.917306900024414,177.07723999023438,170
164,462,34024778,4512612193,59.55220413208008,136.24661254882812,130
165,484,34024778,4512612193,61.8120231628418,68.0295639038086,140
166,92,34024778,4512612193,22.785598754882812,326.2010803222656,128
167,315,34024778,4512612193,62.08970642089844,89.57577514648438,44
168,84,34024778,4512612193,34.19053268432617,165.41452026367188,165
169,140,34024778,4512612193,65.69752502441406,37.93882369995117,7
170,487,34024778,4512612193,59.71139144897461,62.02281951904297,113
171,121,34024778,4512612193,54.18004608154297,286.0101623535156,200
172,135,34024778,4512612193,67.3865737915039,27.434432983398438,45
173,143,34024778,4512612193,68.0916748046875,30.679540634155273,5
174,454,34024778,4512612193,20.357269287109375,43.963680267333984,122
175,373,34024778,4512612193,27.72921371459961,109.9893569946289,184
176,375,34024778,4512612193,31.36659812927246,141.58570861816406,216
177,461,34024778,4512612193,57.65937042236328,219.68295288085938,138
178,346,34024778,4512612193,52.936065673828125,97.25947570800781,53
179,349,34024778,4512612193,60.8040885925293,94.26886749267578,59
180,316,34024778,4512612193,59.125282287597656,73.30070495605469,58
181,6,34024778,4512612193,55.068145751953125,69.50079345703125,44
182,95,34024778,4512612193,28.840396881103516,281.4468688964844,137
183,295,34024778,4512612193,67.59796142578125,210.33192443847656,13
184,306,34024778,4512612193,65.6963882446289,22.477706909179688,55
185,352,34024778,4512612193,66.52548217773438,12.35751724243164,37
186,353,34024778,4512612193,64.65390014648438,65.61678314208984,22
187,465,34024778,4512612193,62.44646072387695,68.08345031738281,171
188,20,34024778,4512612193,25.199575424194336,278.8924865722656,115
189,54,34024778,4512612193,63.359378814697266,65.82675170898438,115
190,97,34024778,4512612193,30.570598602294922,319.70050048828125,126
191,225,34024778,4512612193,57.258182525634766,93.24565887451172,95
192,281,34024778,4512612193,65.69281005859375,59.910675048828125,34
193,327,34024778,4512612193,61.830963134765625,55.73006057739258,77
194,364,34024778,4512612193,54.182342529296875,125.08074951171875,17
195,385,34024778,4512612193,60.816551208496094,135.70761108398438,133
196,447,34024778,4512612193,22.633760452270508,66.17266082763672,186
197,474,34024778,4512612193,38.19548034667969,328.0220947265625,170
198,58,34024778,4512612193,63.2672004699707,63.8990364074707,119
199,71,34024778,4512612193,70.31672668457031,4.083083152770996,5
200,247,34024778,4512612193,54.52874755859375,334.1370849609375,87
201,280,34024778,4512612193,63.671783447265625,59.481529235839844,39
202,283,34024778,4512612193,66.72554016113281,15.850234031677246,10
203,395,34024778,4512612193,60.523529052734375,89.61360168457031,176
204,402,34024778,4512612193,49.508785247802734,391.5119323730469,210
205,113,34024778,4512612193,22.908382415771484,322.72186279296875,206
206,273,34024778,4512612193,55.48939514160156,72.42727661132812,73
207,27,34024778,4512612193,56.51329803466797,228.4521484375,124
208,254,34024778,4512612193,61.9719123840332,80.6732406616211,110
209,379,34024778,4512612193,54.547279357910156,401.08843994140625,213
210,418,34024778,4512612193,63.60210418701172,48.64435577392578,89
211,85,34024778,4512612193,26.42926788330078,243.5615692138672,187
212,181,34024778,4512612193,20.793352127075195,116.18221282958984,76
213,231,34024778,4512612193,53.18309020996094,113.72006225585938,140
214,236,34024778,4512612193,57.84629440307617,117.38956451416016,87
215,445,34024778,4512612193,23.168800354003906,121.10323333740234,170
216,363,34024778,4512612193,64.19692993164062,83.85688018798828,6
217,49,34024778,4512612193,55.73810958862305,63.15749740600586,185
218,111,34024778,4512612193,21.706459045410156,322.5365295410156,208
219,422,34024778,4512612193,64.93921661376953,44.68073272705078,39
220,152,34024778,4512612193,46.42767333984375,83.31353759765625,82
221,265,34024778,4512612193,47.087158203125,203.96090698242188,72
222,370,34024778,4512612193,39.002052307128906,95.86493682861328,176
223,77,34024778,4512612193,57.7922477722168,69.82096099853516,33
224,202,34024778,4512612193,63.73866271972656,42.844810485839844,81
225,60,34024778,4512612193,63.89958953857422,54.07868576049805,71
226,297,34024778,4512612193,65.24281311035156,403.7865295410156,11
227,259,34024778,4512612193,55.60475540161133,89.96814727783203,89
228,380,34024778,4512612193,57.065486907958984,395.9332275390625,149
229,448,34024778,4512612193,20.96824836730957,33.2015495300293,195
230,83,34024778,4512612193,30.71595001220703,104.30775451660156,152
231,153,34024778,4512612193,43.654075622558594,106.08309173583984,114
232,433,34024778,4512612193,65.33273315429688,63.0408821105957,4
233,469,34024778,4512612193,25.420194625854492,232.0245819091797,167
234,475,34024778,4512612193,44.82789611816406,416.4028015136719,207
235,449,34024778,4512612193,21.323196411132812,46.74599838256836,131
236,500,34024778,4512612193,64.37588500976562,21.992748260498047,6
237,61,34024778,4512612193,64.52653503417969,41.840553283691406,63
238,82,34024778,4512612193,34.81947326660156,100.55266571044922,130
239,313,34024778,4512612193,60.29228591918945,60.805419921875,57
240,368,34024778,4512612193,46.039913177490234,59.174217224121094,158
241,210,34024778,4512612193,66.35249328613281,52.777565002441406,6
242,382,34024778,4512612193,55.225284576416016,375.7149658203125,165
243,396,34024778,4512612193,54.86884689331055,123.14012145996094,195
244,165,34024778,4512612193,27.29488754272461,262.79095458984375,87
245,257,34024778,4512612193,61.998802185058594,152.62037658691406,93
246,261,34024778,4512612193,42.67784881591797,198.81747436523438,110
247,320,34024778,4512612193,64.10708618164062,54.15582275390625,51
248,366,34024778,4512612193,55.74957275390625,76.0652084350586,59
249,406,34024778,4512612193,47.39353561401367,235.5170135498047,207
250,149,34024778,4512612193,51.09950256347656,172.12887573242188,18
251,328,34024778,4512612193,62.68804168701172,75.99903869628906,72
252,488,34024778,4512612193,61.834049224853516,63.37736511230469,127
253,17,34024778,4512612193,22.859500885009766,33.5950813293457,214
254,218,34024778,4512612193,68.54695129394531,451.6041259765625,6
255,248,34024778,4512612193,58.489410400390625,300.8941345214844,79
256,300,34024778,4512612193,67.62190246582031,28.11637306213379,33
257,341,34024778,4512612193,56.85321044921875,105.01158142089844,96
258,434,34024778,4512612193,45.40715026855469,120.97201538085938,2
259,66,34024778,4512612193,62.903663635253906,28.16448402404785,6
260,223,34024778,4512612193,60.73451232910156,57.41347885131836,49
261,378,34024778,4512612193,51.71244812011719,358.0101623535156,222
262,483,34024778,4512612193,60.5972785949707,58.06475067138672,115
263,498,34024778,4512612193,66.89849853515625,55.79634094238281,8
264,416,34024778,4512612193,62.48689270019531,56.74521255493164,109
265,142,34024778,4512612193,63.9212646484375,3.876634359359741,4
266,262,34024778,4512612193,52.38262176513672,200.88246154785156,72
267,356,34024778,4512612193,66.385009765625,3.6116487979888916,3
268,12,34024778,4512612193,27.36176300048828,148.09963989257812,136
269,435,34024778,4512612193,63.64103698730469,24.72368049621582,11
270,436,34024778,4512612193,62.65843963623047,40.5664176940918,13
271,456,34024778,4512612193,26.71807098388672,213.8795166015625,100
272,116,34024778,4512612193,35.65593719482422,309.083251953125,228
273,166,34024778,4512612193,44.77461242675781,347.1053466796875,68
274,194,34024778,4512612193,56.24818801879883,101.30030822753906,110
275,211,34024778,4512612193,69.19630432128906,18.612625122070312,7
276,222,34024778,4512612193,64.10970306396484,32.097251892089844,33
277,245,34024778,4512612193,50.71743392944336,233.71121215820312,83
278,319,34024778,4512612193,63.84810256958008,44.55047607421875,44
279,458,34024778,4512612193,33.51167297363281,346.4474182128906,107
280,44,34024778,4512612193,35.15182113647461,177.39385986328125,162
281,133,34024778,4512612193,65.15890502929688,41.8798942565918,82
282,216,34024778,4512612193,67.79214477539062,18.38361358642578,2
283,264,34024778,4512612193,44.83528518676758,173.05209350585938,95
284,397,34024778,4512612193,46.9844856262207,162.49569702148438,171
285,439,34024778,4512612193,46.04303741455078,80.43241119384766,97
286,452,34024778,4512612193,20.457244873046875,29.0250244140625,103
287,477,34024778,4512612193,40.230648040771484,219.59890747070312,250
288,147,34024778,4512612193,65.09203338623047,31.371858596801758,10
289,503,34024778,4512612193,63.29859924316406,18.907470703125,3
290,102,34024778,4512612193,58.69327926635742,251.8604278564453,117
291,42,34024778,4512612193,20.03590202331543,261.0648498535156,134
292,59,34024778,4512612193,64.23991394042969,34.57899856567383,108
293,144,34024778,4512612193,67.80181121826172,143.03688049316406,3
294,47,34024778,4512612193,47.96539306640625,178.2951202392578,194
295,52,34024778,4512612193,60.39265441894531,58.536136627197266,115
296,173,34024778,4512612193,50.58074188232422,374.5778503417969,77
297,492,34024778,4512612193,66.04922485351562,47.36820602416992,73
298,228,34024778,4512612193,49.389076232910156,58.83658981323242,100
299,230,34024778,4512612193,48.81050109863281,83.22956848144531,116
300,212,34024778,4512612193,65.78450775146484,7.786932945251465,6
301,438,34024778,4512612193,51.889366149902344,88.4017333984375,75
302,11,34024778,4512612193,27.132753372192383,123.50554656982422,115
303,333,34024778,4512612193,40.045936584472656,188.13868713378906,100
304,86,34024778,4512612193,23.365562438964844,236.9654998779297,194
305,100,34024778,4512612193,55.767982482910156,169.73245239257812,105
306,285,34024778,4512612193,64.01583099365234,21.023000717163086,5
307,200,34024778,4512612193,56.07239532470703,165.54612731933594,84
308,241,34024778,4512612193,54.46672439575195,138.1192626953125,87
309,81,34024778,4512612193,41.40727233886719,120.89460754394531,164
310,22,34024778,4512612193,23.62397003173828,275.1628723144531,120
311,104,34024778,4512612193,57.68178939819336,208.16824340820312,135
312,322,34024778,4512612193,62.40212631225586,58.29082107543945,71
313,150,34024778,4512612193,51.90462112426758,133.43756103515625,38
314,185,34024778,4512612193,22.307910919189453,264.61444091796875,94
315,271,34024778,4512612193,56.367637634277344,122.36937713623047,76
316,148,34024778,4512612193,59.82959747314453,69.88296508789062,10
317,69,34024778,4512612193,66.84004211425781,221.9428253173828,4
318,332,34024778,4512612193,54.715877532958984,167.88880920410156,53
319,123,34024778,4512612193,59.8409538269043,116.24694061279297,117
320,213,34024778,4512612193,67.23638916015625,15.163421630859375,6
321,242,34024778,4512612193,50.4130859375,167.40464782714844,94
322,412,34024778,4512612193,62.1920051574707,60.319358825683594,133
323,451,34024778,4512612193,18.019506454467773,46.19953918457031,133
324,7,34024778,4512612193,46.12702560424805,81.32133483886719,81
325,205,34024778,4512612193,64.32589721679688,26.885473251342773,44
326,326,34024778,4512612193,61.92911148071289,86.08576965332031,65
327,401,34024778,4512612193,46.29633331298828,338.819580078125,206
328,32,34024778,4512612193,59.3232307434082,74.92339324951172,159
329,98,34024778,4512612193,44.85735321044922,319.849853515625,116
330,171,34024778,4512612193,55.930721282958984,275.5779113769531,80
331,455,34024778,4512612193,21.905698776245117,52.30797576904297,90
332,390,34024778,4512612193,61.55031967163086,74.52454376220703,176
333,420,34024778,4512612193,66.87129974365234,39.12263488769531,58
334,437,34024778,4512612193,48.441322326660156,105.0390853881836,25
335,175,34024778,4512612193,56.83263397216797,306.26129150390625,72
336,482,34024778,4512612193,57.222923278808594,71.90142059326172,133
337,501,34024778,4512612193,61.57244873046875,6.881523132324219,2
338,91,34024778,4512612193,23.99556541442871,299.9380187988281,175
339,284,34024778,4512612193,68.68596649169922,17.107696533203125,8
340,414,34024778,4512612193,62.02069091796875,75.06722259521484,125
341,464,34024778,4512612193,61.2326774597168,75.04473876953125,170
342,468,34024778,4512612193,43.82659912109375,273.6780090332031,174
343,90,34024778,4512612193,22.16558265686035,310.1828918457031,162
344,221,34024778,4512612193,64.21072387695312,24.946481704711914,13
345,139,34024778,4512612193,66.48477172851562,13.14771842956543,10
346,184,34024778,4512612193,19.528047561645508,118.99103546142578,91
347,302,34024778,4512612193,67.33847045898438,59.166133880615234,38
348,163,34024778,4512612193,20.92036247253418,119.38367462158203,94
349,409,34024778,4512612193,60.390018463134766,65.45740509033203,122
350,466,34024778,4512612193,58.17052459716797,217.8616180419922,163
351,119,34024778,4512612193,43.96110534667969,335.5157775878906,152
352,114,34024778,4512612193,22.350481033325195,285.05029296875,204
353,141,34024778,4512612193,69.52446746826172,,1
354,365,34024778,4512612193,47.52353286743164,149.73377990722656,33
355,10,34024778,4512612193,31.483638763427734,113.0439453125,134
356,93,34024778,4512612193,23.70536231994629,296.82537841796875,137
357,291,34024778,4512612193,70.28482818603516,5.965853691101074,4
358,310,34024778,4512612193,59.211299896240234,78.80345916748047,79
359,3,34024778,4512612193,65.6171875,20.184131622314453,10
360,303,34024778,4512612193,67.82876586914062,164.40496826171875,40
361,443,34024778,4512612193,23.975492477416992,79.97884368896484,147
362,495,34024778,4512612193,66.51978302001953,46.75699234008789,33
363,1,34024778,4512612193,62.983070373535156,49.13184356689453,4
364,68,34024778,4512612193,69.07035827636719,5.680967330932617,7
365,237,34024778,4512612193,53.58854675292969,84.2127456665039,130
366,240,34024778,4512612193,57.52100372314453,148.98236083984375,59
367,404,34024778,4512612193,53.59480667114258,108.58238220214844,194
368,470,34024778,4512612193,24.21376609802246,201.16600036621094,171
369,45,34024778,4512612193,27.767208099365234,251.6617431640625,110
370,244,34024778,4512612193,46.447242736816406,246.68601989746094,98
371,217,34024778,4512612193,67.59646606445312,6.6728515625,5
372,226,34024778,4512612193,54.460426330566406,79.22569274902344,99
373,199,34024778,4512612193,58.71162033081055,68.93941497802734,75
374,224,34024778,4512612193,51.6834602355957,82.43058776855469,53
375,473,34024778,4512612193,26.744586944580078,263.6076965332031,137
376,137,34024778,4512612193,66.70447540283203,57.65885925292969,20
377,426,34024778,4512612193,68.39289093017578,3.4433658123016357,7
378,355,34024778,4512612193,67.97164916992188,35.887939453125,12
379,4,34024778,4512612193,61.67926025390625,58.186397552490234,12
380,258,34024778,4512612193,60.568519592285156,146.39064025878906,86
381,460,34024778,4512612193,54.65727996826172,256.3830871582031,130
382,109,34024778,4512612193,29.9603214263916,263.56597900390625,168
383,76,34024778,4512612193,61.931175231933594,87.17700958251953,19
384,238,34024778,4512612193,50.738548278808594,205.18783569335938,115
385,252,34024778,4512612193,63.64854431152344,88.28602600097656,80
386,307,34024778,4512612193,66.45909881591797,96.40550994873047,61
387,338,34024778,4512612193,51.146968841552734,113.48782348632812,67
388,463,34024778,4512612193,59.44239807128906,142.85060119628906,146
389,105,34024778,4512612193,57.62783432006836,160.45986938476562,168
390,292,34024778,4512612193,69.38197326660156,50.87238693237305,7
391,87,34024778,4512612193,36.92792892456055,357.8846130371094,225
392,124,34024778,4512612193,58.25514221191406,131.83937072753906,130
393,387,34024778,4512612193,61.526344299316406,93.15216064453125,124
394,155,34024778,4512612193,30.3270320892334,133.735595703125,109
395,170,34024778,4512612193,54.75340270996094,291.423828125,61
396,267,34024778,4512612193,53.622230529785156,124.28086853027344,50
397,274,34024778,4512612193,54.32436752319336,59.0424919128418,63
398,305,34024778,4512612193,67.08053588867188,51.940155029296875,38
399,389,34024778,4512612193,61.075401306152344,62.45918273925781,162
400,189,34024778,4512612193,41.790802001953125,294.5887451171875,119
401,256,34024778,4512612193,64.1189193725586,75.70299530029297,68
402,25,34024778,4512612193,30.38498306274414,306.9140930175781,91
403,246,34024778,4512612193,54.89785385131836,233.7913818359375,76
404,415,34024778,4512612193,63.74311065673828,57.47439193725586,107
405,478,34024778,4512612193,30.831361770629883,209.87901306152344,201
406,275,34024778,4512612193,51.947818756103516,55.62023162841797,69
407,321,34024778,4512612193,63.30271911621094,45.10371780395508,72
408,235,34024778,4512612193,47.68578338623047,138.6951141357422,110
409,255,34024778,4512612193,57.97254943847656,100.90998840332031,96
410,314,34024778,4512612193,57.947662353515625,126.22222137451172,46
411,294,34024778,4512612193,71.23279571533203,7.379152774810791,3
412,345,34024778,4512612193,53.45110321044922,79.94509887695312,76
413,298,34024778,4512612193,69.33804321289062,102.77796173095703,16
414,391,34024778,4512612193,61.62767028808594,102.75425720214844,133
415,393,34024778,4512612193,58.08454132080078,100.27776336669922,190
416,53,34024778,4512612193,58.534358978271484,63.7889518737793,125
417,130,34024778,4512612193,63.160789489746094,45.35942840576172,105
418,162,34024778,4512612193,34.14097595214844,277.24755859375,114
419,361,34024778,4512612193,71.27877807617188,142.6564178466797,4
420,472,34024778,4512612193,20.997636795043945,104.52998352050781,165
421,174,34024778,4512612193,52.30988311767578,310.4917907714844,88
422,219,34024778,4512612193,67.92959594726562,17.909339904785156,2
423,386,34024778,4512612193,62.71861267089844,144.3260040283203,128
424,99,34024778,4512612193,46.95909118652344,305.3305969238281,127
425,278,34024778,4512612193,57.63306427001953,49.787418365478516,56
426,417,34024778,4512612193,64.14612579345703,67.6594009399414,95
427,79,34024778,4512612193,48.23692321777344,53.177310943603516,84
428,94,34024778,4512612193,31.29289436340332,229.7281036376953,162
429,103,34024778,4512612193,53.81999969482422,344.1038818359375,129
430,193,34024778,4512612193,56.78962707519531,108.51542663574219,118
431,41,34024778,4512612193,20.189624786376953,79.87472534179688,146
432,15,34024778,4512612193,22.009246826171875,97.51759338378906,218
433,62,34024778,4512612193,65.76995849609375,102.92597198486328,60
434,176,34024778,4512612193,50.1782112121582,327.8641662597656,89
435,206,34024778,4512612193,67.4773941040039,28.95146942138672,55
436,479,34024778,4512612193,51.285728454589844,179.63758850097656,169
437,440,34024778,4512612193,46.82648849487305,63.4365234375,109
438,220,34024778,4512612193,67.17660522460938,7.349518775939941,10
439,290,34024778,4512612193,69.37098693847656,57.16505432128906,7
440,227,34024778,4512612193,48.58575439453125,58.672828674316406,100
441,405,34024778,4512612193,49.98302459716797,130.20745849609375,230
442,467,34024778,4512612193,50.99562454223633,262.5888671875,170
443,234,34024778,4512612193,51.70736312866211,50.71348571777344,153
444,400,34024778,4512612193,32.57221603393555,329.7154541015625,165
445,481,34024778,4512612193,56.03875732421875,75.47634887695312,221
446,198,34024778,4512612193,59.85932922363281,56.82168960571289,111
447,282,34024778,4512612193,66.7186050415039,374.4907531738281,17
448,288,34024778,4512612193,67.84690856933594,230.20831298828125,7
449,67,34024778,4512612193,67.09329986572266,23.857688903808594,14
450,126,34024778,4512612193,60.815673828125,78.91254425048828,122
451,299,34024778,4512612193,69.04263305664062,94.0308837890625,20
452,425,34024778,4512612193,69.07952880859375,25.49034309387207,14
453,13,34024778,4512612193,26.515668869018555,141.24185180664062,169
454,55,34024778,4512612193,58.619384765625,67.99635314941406,147
455,78,34024778,4512612193,55.54228591918945,63.33489227294922,65
456,129,34024778,4512612193,61.851104736328125,80.24065399169922,140
457,339,34024778,4512612193,56.98126983642578,95.33882904052734,68
458,392,34024778,4512612193,62.67774963378906,96.35511779785156,174
459,161,34024778,4512612193,24.962600708007812,237.4722137451172,132
460,394,34024778,4512612193,59.187252044677734,142.8062286376953,190
461,24,34024778,4512612193,24.99527931213379,245.78810119628906,133
462,26,34024778,4512612193,53.0709342956543,311.57763671875,111
463,134,34024778,4512612193,64.62040710449219,24.48612403869629,56
464,131,34024778,4512612193,65.47076416015625,50.413856506347656,118
465,323,34024778,4512612193,63.46131896972656,66.78639221191406,70
466,427,34024778,4512612193,69.2791748046875,12.32431411743164,6
467,459,34024778,4512612193,51.489280700683594,204.51632690429688,123
468,14,34024778,4512612193,21.541236877441406,37.98512268066406,245
469,138,34024778,4512612193,69.38655090332031,32.221431732177734,5
470,269,34024778,4512612193,57.289283752441406,51.3914680480957,73
471,308,34024778,4512612193,63.864376068115234,45.33041763305664,73
472,377,34024778,4512612193,39.233768463134766,290.9687194824219,221
473,430,34024778,4512612193,66.7301254272461,14.384721755981445,4
474,5,34024778,4512612193,55.03191375732422,82.68653869628906,21
475,40,34024778,4512612193,20.166852951049805,73.13799285888672,207
476,374,34024778,4512612193,25.799467086791992,102.85498809814453,219
477,19,34024778,4512612193,20.830177307128906,244.94775390625,164
478,43,34024778,4512612193,24.319690704345703,270.2818908691406,146
479,70,34024778,4512612193,67.32600402832031,45.04397964477539,4
480,110,34024778,4512612193,27.263093948364258,335.3606262207031,142
481,381,34024778,4512612193,57.547119140625,347.5302429199219,163
482,146,34024778,4512612193,66.6279525756836,16.78790283203125,3
483,476,34024778,4512612193,48.18232727050781,290.33685302734375,204
484,188,34024778,4512612193,24.940460205078125,329.0033874511719,104
485,337,34024778,4512612193,44.03184509277344,174.75503540039062,74
486,383,34024778,4512612193,51.38037872314453,338.5345458984375,175
487,164,34024778,4512612193,24.845237731933594,241.74850463867188,110
488,367,34024778,4512612193,48.538265228271484,93.07273864746094,117
489,120,34024778,4512612193,55.686622619628906,313.9825134277344,143
490,127,34024778,4512612193,61.27046203613281,57.38286590576172,135
491,179,34024778,4512612193,32.988609313964844,208.86947631835938,88
492,88,34024778,4512612193,29.536273956298828,336.15155029296875,186
493,301,34024778,4512612193,67.61734008789062,117.47639465332031,35
494,57,34024778,4512612193,63.36772537231445,64.34339904785156,126
495,480,34024778,4512612193,51.97713851928711,105.57196807861328,183
496,489,34024778,4512612193,63.027748107910156,30.87898063659668,110
497,160,34024778,4512612193,24.724348068237305,195.83140563964844,138
498,36,34024778,4512612193,27.03770637512207,130.79229736328125,179
499,37,34024778,4512612193,23.455631256103516,64.81226348876953,174
500,186,34024778,4512612193,21.00304412841797,273.4732360839844,131
501,276,34024778,4512612193,56.60933303833008,50.31599807739258,57
