,slot,source,target,speed
0,0,26082405,4429444667,65.23505401611328
1,1,26082405,4429444667,63.073726654052734
2,2,26082405,4429444667,63.20506286621094
3,3,26082405,4429444667,61.77622985839844
4,4,26082405,4429444667,64.57621002197266
5,5,26082405,4429444667,65.06437683105469
6,6,26082405,4429444667,66.55046844482422
7,7,26082405,4429444667,67.04853057861328
8,8,26082405,4429444667,66.21463012695312
9,9,26082405,4429444667,66.51969146728516
10,10,26082405,4429444667,66.92205810546875
11,11,26082405,4429444667,67.50668334960938
12,12,26082405,4429444667,67.01947784423828
13,13,26082405,4429444667,65.469970703125
14,14,26082405,4429444667,65.11309814453125
15,15,26082405,4429444667,61.222206115722656
16,16,26082405,4429444667,64.97240447998047
17,17,26082405,4429444667,65.66546630859375
18,18,26082405,4429444667,66.85637664794922
19,19,26082405,4429444667,66.15821075439453
20,20,26082405,4429444667,65.96736907958984
21,21,26082405,4429444667,65.31723022460938
22,22,26082405,4429444667,66.29820251464844
23,23,26082405,4429444667,67.2960205078125
24,24,26082405,4429444667,67.93893432617188
25,25,26082405,4429444667,68.6243896484375
26,26,26082405,4429444667,68.70245361328125
27,27,26082405,4429444667,67.89189910888672
28,28,26082405,4429444667,67.8167953491211
29,29,26082405,4429444667,66.95751190185547
30,30,26082405,4429444667,65.98462677001953
31,31,26082405,4429444667,66.15135955810547
32,32,26082405,4429444667,66.15217590332031
33,33,26082405,4429444667,65.93433380126953
34,34,26082405,4429444667,66.81376647949219
35,35,26082405,4429444667,65.94346618652344
36,36,26082405,4429444667,63.84795379638672
37,37,26082405,4429444667,58.55768585205078
38,38,26082405,4429444667,60.47124481201172
39,49,26082405,4429444667,66.33578491210938
40,50,26082405,4429444667,67.41773986816406
41,51,26082405,4429444667,68.2591781616211
42,52,26082405,4429444667,68.95882415771484
43,53,26082405,4429444667,69.57097625732422
44,61,26082405,4429444667,66.23365020751953
45,62,26082405,4429444667,65.85691833496094
46,63,26082405,4429444667,64.55253601074219
47,64,26082405,4429444667,65.60601043701172
48,65,26082405,4429444667,67.13248443603516
49,66,26082405,4429444667,66.87743377685547
50,67,26082405,4429444667,65.22481536865234
51,68,26082405,4429444667,63.508426666259766
52,69,26082405,4429444667,63.3143310546875
53,70,26082405,4429444667,61.633056640625
54,71,26082405,4429444667,57.06650161743164
55,72,26082405,4429444667,52.60109329223633
56,73,26082405,4429444667,48.71198654174805
57,74,26082405,4429444667,44.331138610839844
58,75,26082405,4429444667,44.976158142089844
59,76,26082405,4429444667,48.53276443481445
60,77,26082405,4429444667,50.032310485839844
61,78,26082405,4429444667,44.40919494628906
62,79,26082405,4429444667,45.070743560791016
63,80,26082405,4429444667,44.3084716796875
64,81,26082405,4429444667,45.81732177734375
65,82,26082405,4429444667,40.76865768432617
66,83,26082405,4429444667,39.60604476928711
67,84,26082405,4429444667,39.12641525268555
68,85,26082405,4429444667,38.772315979003906
69,86,26082405,4429444667,42.702484130859375
70,87,26082405,4429444667,37.61640167236328
71,88,26082405,4429444667,42.59093475341797
72,89,26082405,4429444667,41.933868408203125
73,90,26082405,4429444667,44.413612365722656
74,91,26082405,4429444667,41.95411682128906
75,92,26082405,4429444667,44.0557861328125
76,93,26082405,4429444667,32.33763122558594
77,94,26082405,4429444667,38.33743667602539
78,95,26082405,4429444667,39.522586822509766
79,96,26082405,4429444667,39.038414001464844
80,97,26082405,4429444667,28.534915924072266
81,98,26082405,4429444667,25.01964569091797
82,99,26082405,4429444667,23.55181312561035
83,100,26082405,4429444667,20.020435333251953
84,101,26082405,4429444667,16.80324363708496
85,102,26082405,4429444667,23.89981460571289
86,103,26082405,4429444667,27.15452003479004
87,104,26082405,4429444667,20.560306549072266
88,105,26082405,4429444667,22.017948150634766
89,106,26082405,4429444667,21.796232223510742
90,107,26082405,4429444667,20.530994415283203
91,108,26082405,4429444667,15.781256675720215
92,109,26082405,4429444667,19.379852294921875
93,110,26082405,4429444667,19.048683166503906
94,111,26082405,4429444667,17.114208221435547
95,112,26082405,4429444667,18.726531982421875
96,113,26082405,4429444667,18.964576721191406
97,114,26082405,4429444667,18.510530471801758
98,115,26082405,4429444667,19.41795539855957
99,116,26082405,4429444667,17.21194839477539
100,117,26082405,4429444667,20.586090087890625
101,118,26082405,4429444667,17.43844223022461
102,119,26082405,4429444667,19.623275756835938
103,120,26082405,4429444667,15.540243148803711
104,121,26082405,4429444667,19.21499252319336
105,122,26082405,4429444667,24.133800506591797
106,123,26082405,4429444667,23.602109909057617
107,124,26082405,4429444667,23.975374221801758
108,125,26082405,4429444667,24.993240356445312
109,126,26082405,4429444667,24.338712692260742
110,127,26082405,4429444667,21.475337982177734
111,128,26082405,4429444667,23.502639770507812
112,129,26082405,4429444667,22.18398666381836
113,130,26082405,4429444667,20.938308715820312
114,131,26082405,4429444667,23.015167236328125
115,132,26082405,4429444667,24.762310028076172
116,133,26082405,4429444667,18.587488174438477
117,134,26082405,4429444667,21.229665756225586
118,135,26082405,4429444667,21.67801284790039
119,136,26082405,4429444667,22.238126754760742
120,137,26082405,4429444667,27.412044525146484
121,138,26082405,4429444667,22.8781795501709
122,139,26082405,4429444667,21.97269630432129
123,140,26082405,4429444667,30.463804244995117
124,141,26082405,4429444667,28.640071868896484
125,142,26082405,4429444667,23.874101638793945
126,143,26082405,4429444667,25.820981979370117
127,144,26082405,4429444667,37.34494400024414
128,145,26082405,4429444667,31.08817481994629
129,146,26082405,4429444667,47.85697937011719
130,147,26082405,4429444667,35.71847915649414
131,148,26082405,4429444667,34.655120849609375
132,149,26082405,4429444667,27.35246467590332
133,150,26082405,4429444667,35.032066345214844
134,151,26082405,4429444667,49.49339294433594
135,152,26082405,4429444667,36.382469177246094
136,153,26082405,4429444667,56.04010009765625
137,154,26082405,4429444667,49.86411666870117
138,155,26082405,4429444667,56.04633712768555
139,156,26082405,4429444667,54.90451431274414
140,157,26082405,4429444667,48.41411209106445
141,158,26082405,4429444667,58.497718811035156
142,159,26082405,4429444667,58.409542083740234
143,160,26082405,4429444667,53.58317947387695
144,161,26082405,4429444667,57.73596954345703
145,162,26082405,4429444667,59.87574005126953
146,163,26082405,4429444667,62.10196304321289
147,164,26082405,4429444667,58.54533767700195
148,165,26082405,4429444667,57.232566833496094
149,166,26082405,4429444667,60.66597366333008
150,167,26082405,4429444667,59.94804763793945
151,168,26082405,4429444667,62.256797790527344
152,169,26082405,4429444667,61.31193542480469
153,170,26082405,4429444667,62.640071868896484
154,171,26082405,4429444667,59.620460510253906
155,172,26082405,4429444667,56.920413970947266
156,173,26082405,4429444667,59.54205322265625
157,174,26082405,4429444667,58.188072204589844
158,175,26082405,4429444667,55.46747970581055
159,176,26082405,4429444667,56.84732437133789
160,177,26082405,4429444667,52.58427429199219
161,178,26082405,4429444667,56.588409423828125
162,179,26082405,4429444667,61.54564666748047
163,180,26082405,4429444667,49.891414642333984
164,181,26082405,4429444667,58.205387115478516
165,182,26082405,4429444667,56.439796447753906
166,183,26082405,4429444667,54.60228729248047
167,184,26082405,4429444667,55.261714935302734
168,185,26082405,4429444667,55.950477600097656
169,186,26082405,4429444667,52.37432098388672
170,187,26082405,4429444667,40.90217208862305
171,188,26082405,4429444667,37.05085754394531
172,189,26082405,4429444667,36.29651641845703
173,190,26082405,4429444667,35.50703430175781
174,191,26082405,4429444667,33.35704803466797
175,192,26082405,4429444667,30.12120819091797
176,193,26082405,4429444667,29.75251007080078
177,194,26082405,4429444667,29.099843978881836
178,195,26082405,4429444667,22.1832275390625
179,196,26082405,4429444667,20.397764205932617
180,197,26082405,4429444667,20.20717430114746
181,198,26082405,4429444667,23.344829559326172
182,199,26082405,4429444667,20.038604736328125
183,200,26082405,4429444667,22.350994110107422
184,201,26082405,4429444667,17.458229064941406
185,202,26082405,4429444667,16.11149787902832
186,203,26082405,4429444667,16.501319885253906
187,204,26082405,4429444667,15.33250617980957
188,205,26082405,4429444667,17.186769485473633
189,206,26082405,4429444667,16.5977725982666
190,207,26082405,4429444667,17.871511459350586
191,208,26082405,4429444667,15.532692909240723
192,209,26082405,4429444667,16.050050735473633
193,210,26082405,4429444667,20.5130615234375
194,211,26082405,4429444667,17.333316802978516
195,212,26082405,4429444667,13.99356746673584
196,213,26082405,4429444667,16.99111557006836
197,214,26082405,4429444667,22.750240325927734
198,215,26082405,4429444667,20.309093475341797
199,216,26082405,4429444667,25.195491790771484
200,217,26082405,4429444667,21.669496536254883
201,218,26082405,4429444667,16.790019989013672
202,219,26082405,4429444667,20.049579620361328
203,220,26082405,4429444667,22.191585540771484
204,221,26082405,4429444667,22.006559371948242
205,222,26082405,4429444667,29.555055618286133
206,223,26082405,4429444667,19.767719268798828
207,224,26082405,4429444667,23.581295013427734
208,225,26082405,4429444667,26.460704803466797
209,226,26082405,4429444667,31.85642433166504
210,227,26082405,4429444667,43.37791061401367
211,228,26082405,4429444667,51.585086822509766
212,229,26082405,4429444667,48.430091857910156
213,230,26082405,4429444667,46.815242767333984
214,231,26082405,4429444667,45.52645492553711
215,232,26082405,4429444667,40.19997787475586
216,233,26082405,4429444667,41.48512649536133
217,234,26082405,4429444667,46.552268981933594
218,235,26082405,4429444667,50.58827209472656
219,236,26082405,4429444667,50.59170913696289
220,237,26082405,4429444667,55.437339782714844
221,238,26082405,4429444667,55.382781982421875
222,239,26082405,4429444667,53.470237731933594
223,240,26082405,4429444667,56.027931213378906
224,241,26082405,4429444667,53.466575622558594
225,242,26082405,4429444667,58.45140075683594
226,243,26082405,4429444667,49.92628860473633
227,244,26082405,4429444667,57.592247009277344
228,245,26082405,4429444667,60.536685943603516
229,246,26082405,4429444667,58.917694091796875
230,247,26082405,4429444667,58.43989562988281
231,248,26082405,4429444667,56.64117431640625
232,249,26082405,4429444667,59.018646240234375
233,250,26082405,4429444667,59.4696044921875
234,251,26082405,4429444667,55.30340576171875
235,252,26082405,4429444667,59.4841423034668
236,253,26082405,4429444667,60.547264099121094
237,254,26082405,4429444667,60.32524871826172
238,255,26082405,4429444667,59.965354919433594
239,256,26082405,4429444667,56.627830505371094
240,257,26082405,4429444667,58.72627258300781
241,258,26082405,4429444667,60.078636169433594
242,259,26082405,4429444667,62.30274963378906
243,260,26082405,4429444667,57.6270637512207
244,261,26082405,4429444667,58.260250091552734
245,262,26082405,4429444667,60.30239486694336
246,263,26082405,4429444667,58.230777740478516
247,264,26082405,4429444667,58.619384765625
248,265,26082405,4429444667,59.14110565185547
249,266,26082405,4429444667,59.00325012207031
250,267,26082405,4429444667,56.199745178222656
251,268,26082405,4429444667,57.2247314453125
252,269,26082405,4429444667,60.401527404785156
253,270,26082405,4429444667,62.31135940551758
254,271,26082405,4429444667,63.871826171875
255,272,26082405,4429444667,63.280784606933594
256,273,26082405,4429444667,63.23162078857422
257,274,26082405,4429444667,62.36534881591797
258,275,26082405,4429444667,61.509342193603516
259,276,26082405,4429444667,60.67478942871094
260,277,26082405,4429444667,59.501609802246094
261,278,26082405,4429444667,62.88936233520508
262,279,26082405,4429444667,62.419837951660156
263,280,26082405,4429444667,61.82589340209961
264,281,26082405,4429444667,64.20689392089844
265,282,26082405,4429444667,61.2760009765625
266,283,26082405,4429444667,64.01600646972656
267,284,26082405,4429444667,63.92584228515625
268,285,26082405,4429444667,62.229434967041016
269,286,26082405,4429444667,64.40740203857422
270,287,26082405,4429444667,62.76255416870117
271,288,26082405,4429444667,63.4700927734375
272,289,26082405,4429444667,63.77545166015625
273,290,26082405,4429444667,64.8220443725586
274,291,26082405,4429444667,64.12875366210938
275,292,26082405,4429444667,65.43758392333984
276,293,26082405,4429444667,65.64949035644531
277,294,26082405,4429444667,67.1363525390625
278,295,26082405,4429444667,64.95755004882812
279,296,26082405,4429444667,60.95786666870117
280,297,26082405,4429444667,65.85043334960938
281,298,26082405,4429444667,64.97415924072266
282,299,26082405,4429444667,65.34912872314453
283,300,26082405,4429444667,66.21656036376953
284,301,26082405,4429444667,66.27750396728516
285,302,26082405,4429444667,66.39957427978516
286,303,26082405,4429444667,65.56729125976562
287,304,26082405,4429444667,65.76213836669922
288,305,26082405,4429444667,66.55260467529297
289,306,26082405,4429444667,66.748779296875
290,307,26082405,4429444667,66.00395202636719
291,308,26082405,4429444667,65.87137603759766
292,309,26082405,4429444667,66.79713439941406
293,310,26082405,4429444667,67.2380599975586
294,311,26082405,4429444667,68.13898468017578
295,312,26082405,4429444667,68.18656921386719
296,313,26082405,4429444667,67.98298645019531
297,314,26082405,4429444667,68.20348358154297
298,315,26082405,4429444667,68.71051025390625
299,316,26082405,4429444667,68.63958740234375
300,317,26082405,4429444667,68.3163070678711
301,318,26082405,4429444667,67.64729309082031
302,319,26082405,4429444667,66.62149047851562
303,326,26082405,4429444667,68.32630157470703
304,327,26082405,4429444667,69.30872344970703
305,328,26082405,4429444667,70.33612823486328
306,333,26082405,4429444667,63.380897521972656
307,335,26082405,4429444667,68.86137390136719
308,341,26082405,4429444667,65.72180938720703
309,352,26082405,4429444667,61.06979751586914
310,353,26082405,4429444667,64.47770690917969
311,354,26082405,4429444667,65.07081604003906
312,355,26082405,4429444667,63.582679748535156
313,356,26082405,4429444667,60.54945755004883
314,357,26082405,4429444667,58.27604293823242
315,358,26082405,4429444667,53.703697204589844
316,359,26082405,4429444667,54.669189453125
317,360,26082405,4429444667,50.83746337890625
318,361,26082405,4429444667,50.08721160888672
319,362,26082405,4429444667,49.85326385498047
320,363,26082405,4429444667,46.950897216796875
321,364,26082405,4429444667,45.767879486083984
322,365,26082405,4429444667,43.55659866333008
323,366,26082405,4429444667,52.849945068359375
324,367,26082405,4429444667,45.69084548950195
325,368,26082405,4429444667,42.318241119384766
326,369,26082405,4429444667,46.74277114868164
327,370,26082405,4429444667,39.96426773071289
328,371,26082405,4429444667,40.08296203613281
329,372,26082405,4429444667,44.87211990356445
330,373,26082405,4429444667,37.39777374267578
331,374,26082405,4429444667,41.55282211303711
332,375,26082405,4429444667,41.95515060424805
333,376,26082405,4429444667,42.57167053222656
334,377,26082405,4429444667,45.273460388183594
335,378,26082405,4429444667,45.07948684692383
336,379,26082405,4429444667,45.697052001953125
337,380,26082405,4429444667,40.36190414428711
338,381,26082405,4429444667,38.706504821777344
339,382,26082405,4429444667,39.98027038574219
340,383,26082405,4429444667,40.88539123535156
341,384,26082405,4429444667,33.254150390625
342,385,26082405,4429444667,22.807716369628906
343,386,26082405,4429444667,20.184717178344727
344,387,26082405,4429444667,21.86128807067871
345,388,26082405,4429444667,27.50054168701172
346,389,26082405,4429444667,29.595285415649414
347,390,26082405,4429444667,31.726295471191406
348,391,26082405,4429444667,37.573822021484375
349,392,26082405,4429444667,26.067472457885742
350,393,26082405,4429444667,34.07600021362305
351,394,26082405,4429444667,27.284961700439453
352,395,26082405,4429444667,27.25312042236328
353,396,26082405,4429444667,20.951778411865234
354,397,26082405,4429444667,30.42597770690918
355,398,26082405,4429444667,24.327178955078125
356,399,26082405,4429444667,24.362043380737305
357,400,26082405,4429444667,20.59627914428711
358,401,26082405,4429444667,21.69876480102539
359,402,26082405,4429444667,26.2191162109375
360,403,26082405,4429444667,19.19406509399414
361,404,26082405,4429444667,22.465482711791992
362,405,26082405,4429444667,25.154762268066406
363,406,26082405,4429444667,21.515233993530273
364,407,26082405,4429444667,20.41666030883789
365,408,26082405,4429444667,26.164936065673828
366,409,26082405,4429444667,24.309051513671875
367,410,26082405,4429444667,20.596477508544922
368,411,26082405,4429444667,22.318836212158203
369,412,26082405,4429444667,22.415250778198242
370,413,26082405,4429444667,25.768949508666992
371,414,26082405,4429444667,24.5340633392334
372,415,26082405,4429444667,23.4677677154541
373,416,26082405,4429444667,23.505443572998047
374,417,26082405,4429444667,28.518753051757812
375,418,26082405,4429444667,29.495595932006836
376,419,26082405,4429444667,22.782724380493164
377,420,26082405,4429444667,20.61088752746582
378,421,26082405,4429444667,26.425790786743164
379,422,26082405,4429444667,32.86885070800781
380,423,26082405,4429444667,29.375844955444336
381,424,26082405,4429444667,28.329851150512695
382,425,26082405,4429444667,22.600997924804688
383,426,26082405,4429444667,25.08721160888672
384,427,26082405,4429444667,27.267120361328125
385,428,26082405,4429444667,25.97024917602539
386,429,26082405,4429444667,32.07597351074219
387,430,26082405,4429444667,35.444793701171875
388,431,26082405,4429444667,34.95987319946289
389,432,26082405,4429444667,36.97908020019531
390,433,26082405,4429444667,38.38361358642578
391,434,26082405,4429444667,43.57254409790039
392,435,26082405,4429444667,30.96830940246582
393,436,26082405,4429444667,48.28390884399414
394,437,26082405,4429444667,40.0068244934082
395,438,26082405,4429444667,35.53887176513672
396,439,26082405,4429444667,35.21036148071289
397,440,26082405,4429444667,53.43029022216797
398,441,26082405,4429444667,48.60585403442383
399,442,26082405,4429444667,29.466522216796875
400,443,26082405,4429444667,51.74028015136719
401,444,26082405,4429444667,56.81440353393555
402,445,26082405,4429444667,53.65495300292969
403,446,26082405,4429444667,57.214881896972656
404,447,26082405,4429444667,59.368099212646484
405,448,26082405,4429444667,50.981746673583984
406,449,26082405,4429444667,56.954620361328125
407,450,26082405,4429444667,60.03385925292969
408,451,26082405,4429444667,57.06867980957031
409,452,26082405,4429444667,57.62928771972656
410,453,26082405,4429444667,55.849220275878906
411,454,26082405,4429444667,60.53233337402344
412,455,26082405,4429444667,57.5386848449707
413,456,26082405,4429444667,58.323974609375
414,457,26082405,4429444667,51.125755310058594
415,458,26082405,4429444667,62.22016525268555
416,459,26082405,4429444667,59.35231018066406
417,460,26082405,4429444667,56.00169372558594
418,461,26082405,4429444667,58.46746063232422
419,462,26082405,4429444667,61.76759338378906
420,463,26082405,4429444667,57.624473571777344
421,464,26082405,4429444667,61.154239654541016
422,465,26082405,4429444667,59.255523681640625
423,466,26082405,4429444667,54.93791961669922
424,467,26082405,4429444667,56.27617645263672
425,468,26082405,4429444667,50.131195068359375
426,469,26082405,4429444667,56.31730651855469
427,470,26082405,4429444667,57.81122589111328
428,471,26082405,4429444667,55.71694564819336
429,472,26082405,4429444667,56.49571990966797
430,473,26082405,4429444667,55.81111526489258
431,474,26082405,4429444667,54.36869430541992
432,475,26082405,4429444667,45.587677001953125
433,476,26082405,4429444667,50.75777053833008
434,477,26082405,4429444667,48.086822509765625
435,478,26082405,4429444667,43.35927200317383
436,479,26082405,4429444667,31.81075096130371
437,480,26082405,4429444667,28.715953826904297
438,481,26082405,4429444667,33.63481521606445
439,482,26082405,4429444667,27.261966705322266
440,483,26082405,4429444667,40.581886291503906
441,484,26082405,4429444667,27.794755935668945
442,485,26082405,4429444667,21.478431701660156
443,486,26082405,4429444667,21.806602478027344
444,487,26082405,4429444667,20.227367401123047
445,488,26082405,4429444667,21.68795394897461
446,489,26082405,4429444667,18.757831573486328
447,490,26082405,4429444667,23.02068328857422
448,491,26082405,4429444667,17.915481567382812
449,492,26082405,4429444667,20.831117630004883
450,493,26082405,4429444667,26.12936019897461
451,494,26082405,4429444667,16.156047821044922
452,495,26082405,4429444667,25.884559631347656
453,496,26082405,4429444667,21.253446578979492
454,497,26082405,4429444667,30.27227020263672
455,498,26082405,4429444667,34.0719108581543
456,499,26082405,4429444667,21.501209259033203
457,500,26082405,4429444667,19.072683334350586
458,501,26082405,4429444667,18.717884063720703
459,502,26082405,4429444667,20.116344451904297
460,503,26082405,4429444667,25.831188201904297
461,504,26082405,4429444667,25.459848403930664
462,505,26082405,4429444667,26.441259384155273
463,506,26082405,4429444667,41.92852020263672
464,507,26082405,4429444667,35.47431945800781
465,508,26082405,4429444667,33.78527069091797
466,509,26082405,4429444667,50.238162994384766
467,510,26082405,4429444667,21.481895446777344
468,511,26082405,4429444667,19.558198928833008
469,512,26082405,4429444667,48.76820755004883
470,513,26082405,4429444667,54.50243377685547
471,514,26082405,4429444667,44.64434814453125
472,515,26082405,4429444667,35.62525939941406
473,516,26082405,4429444667,46.74834060668945
474,517,26082405,4429444667,43.788299560546875
475,518,26082405,4429444667,42.38038635253906
476,519,26082405,4429444667,34.360355377197266
477,520,26082405,4429444667,39.33155059814453
478,521,26082405,4429444667,48.82612991333008
479,522,26082405,4429444667,53.346927642822266
480,523,26082405,4429444667,52.934513092041016
481,524,26082405,4429444667,48.683170318603516
482,525,26082405,4429444667,53.72270584106445
483,526,26082405,4429444667,45.07967758178711
484,527,26082405,4429444667,49.735530853271484
485,528,26082405,4429444667,53.77699279785156
486,529,26082405,4429444667,54.440547943115234
487,530,26082405,4429444667,54.213966369628906
488,531,26082405,4429444667,55.404083251953125
489,532,26082405,4429444667,59.02324676513672
490,533,26082405,4429444667,58.54902648925781
491,534,26082405,4429444667,60.49407196044922
492,535,26082405,4429444667,62.109806060791016
493,536,26082405,4429444667,56.496681213378906
494,537,26082405,4429444667,63.34076690673828
495,538,26082405,4429444667,58.36922073364258
496,539,26082405,4429444667,60.86845397949219
497,540,26082405,4429444667,57.716156005859375
498,541,26082405,4429444667,58.549530029296875
499,542,26082405,4429444667,55.79166030883789
500,543,26082405,4429444667,57.89036560058594
501,544,26082405,4429444667,58.59478759765625
502,545,26082405,4429444667,60.50935363769531
503,546,26082405,4429444667,61.081031799316406
504,547,26082405,4429444667,58.7006950378418
505,548,26082405,4429444667,60.027191162109375
506,549,26082405,4429444667,60.303646087646484
507,550,26082405,4429444667,60.22870635986328
508,551,26082405,4429444667,59.29929733276367
509,552,26082405,4429444667,61.83490753173828
510,553,26082405,4429444667,57.5226936340332
511,554,26082405,4429444667,60.048667907714844
512,555,26082405,4429444667,59.794517517089844
513,556,26082405,4429444667,61.2322998046875
514,557,26082405,4429444667,62.694969177246094
515,558,26082405,4429444667,58.27301788330078
516,559,26082405,4429444667,63.325836181640625
517,560,26082405,4429444667,59.78137969970703
518,561,26082405,4429444667,61.920345306396484
519,562,26082405,4429444667,57.80341339111328
520,563,26082405,4429444667,63.27045822143555
521,564,26082405,4429444667,65.17594909667969
522,565,26082405,4429444667,63.75660705566406
523,566,26082405,4429444667,62.92889404296875
524,567,26082405,4429444667,60.47311019897461
525,568,26082405,4429444667,63.83317947387695
526,569,26082405,4429444667,63.53162384033203
527,570,26082405,4429444667,63.20205307006836
528,571,26082405,4429444667,63.4759635925293
529,572,26082405,4429444667,63.691349029541016
530,573,26082405,4429444667,62.08033752441406
531,574,26082405,4429444667,62.75888442993164
532,575,26082405,4429444667,63.80603790283203
533,576,26082405,4429444667,64.94638061523438
534,577,26082405,4429444667,65.95105743408203
535,578,26082405,4429444667,63.74168395996094
536,579,26082405,4429444667,65.55973815917969
537,580,26082405,4429444667,62.03959274291992
538,581,26082405,4429444667,68.07037353515625
539,582,26082405,4429444667,66.31233978271484
540,583,26082405,4429444667,61.59408187866211
541,584,26082405,4429444667,66.13004302978516
542,585,26082405,4429444667,64.52932739257812
543,586,26082405,4429444667,69.93171691894531
544,587,26082405,4429444667,67.3406753540039
545,588,26082405,4429444667,67.67086029052734
546,589,26082405,4429444667,67.55335998535156
547,590,26082405,4429444667,66.39908599853516
548,591,26082405,4429444667,64.83570098876953
549,592,26082405,4429444667,64.31847381591797
550,593,26082405,4429444667,64.643798828125
551,594,26082405,4429444667,65.87229919433594
552,595,26082405,4429444667,67.4701156616211
553,596,26082405,4429444667,67.95310974121094
554,597,26082405,4429444667,67.60578918457031
555,598,26082405,4429444667,66.89028930664062
556,599,26082405,4429444667,66.40306091308594
557,600,26082405,4429444667,66.32659149169922
558,601,26082405,4429444667,65.7984619140625
559,602,26082405,4429444667,65.1893081665039
560,603,26082405,4429444667,63.12492370605469
561,604,26082405,4429444667,61.58753204345703
562,605,26082405,4429444667,62.48540115356445
563,606,26082405,4429444667,64.9801254272461
564,609,26082405,4429444667,67.17581176757812
565,610,26082405,4429444667,66.54547882080078
566,611,26082405,4429444667,67.05355834960938
567,612,26082405,4429444667,67.10734558105469
568,613,26082405,4429444667,67.91031646728516
569,614,26082405,4429444667,68.6562728881836
570,615,26082405,4429444667,68.09764099121094
571,616,26082405,4429444667,67.55460357666016
572,624,26082405,4429444667,64.76642608642578
573,625,26082405,4429444667,66.53617095947266
574,626,26082405,4429444667,67.77182006835938
575,627,26082405,4429444667,68.03398132324219
576,632,26082405,4429444667,62.79770278930664
577,639,26082405,4429444667,63.88427734375
578,640,26082405,4429444667,64.31766510009766
579,641,26082405,4429444667,64.58262634277344
580,642,26082405,4429444667,64.66671752929688
581,643,26082405,4429444667,64.7308578491211
582,644,26082405,4429444667,63.808048248291016
583,645,26082405,4429444667,63.84349822998047
584,646,26082405,4429444667,60.434661865234375
585,647,26082405,4429444667,57.14753723144531
586,648,26082405,4429444667,54.62238311767578
587,649,26082405,4429444667,51.86676788330078
588,650,26082405,4429444667,48.85270309448242
589,651,26082405,4429444667,48.33358383178711
590,652,26082405,4429444667,41.9598388671875
591,653,26082405,4429444667,43.32586669921875
592,654,26082405,4429444667,42.97287368774414
593,655,26082405,4429444667,43.103607177734375
594,656,26082405,4429444667,42.347312927246094
595,657,26082405,4429444667,39.933929443359375
596,658,26082405,4429444667,44.41263198852539
597,659,26082405,4429444667,41.69775390625
598,660,26082405,4429444667,40.768917083740234
599,661,26082405,4429444667,40.254127502441406
600,662,26082405,4429444667,38.44402313232422
601,663,26082405,4429444667,40.88772964477539
602,664,26082405,4429444667,30.84921646118164
603,665,26082405,4429444667,37.200199127197266
604,666,26082405,4429444667,43.657779693603516
605,667,26082405,4429444667,37.447853088378906
606,668,26082405,4429444667,41.58661651611328
607,669,26082405,4429444667,38.35478210449219
608,670,26082405,4429444667,40.862693786621094
609,671,26082405,4429444667,30.298532485961914
610,672,26082405,4429444667,41.01122283935547
611,673,26082405,4429444667,29.257417678833008
612,674,26082405,4429444667,41.514434814453125
613,675,26082405,4429444667,21.724088668823242
614,676,26082405,4429444667,24.505081176757812
615,677,26082405,4429444667,23.89067840576172
616,678,26082405,4429444667,23.52090072631836
617,679,26082405,4429444667,20.532976150512695
618,680,26082405,4429444667,18.283687591552734
619,681,26082405,4429444667,17.512182235717773
620,682,26082405,4429444667,20.60101318359375
621,683,26082405,4429444667,19.537076950073242
622,684,26082405,4429444667,21.1705379486084
623,685,26082405,4429444667,20.2420654296875
624,686,26082405,4429444667,23.4127140045166
625,687,26082405,4429444667,19.65719223022461
626,688,26082405,4429444667,25.999290466308594
627,689,26082405,4429444667,20.751697540283203
628,690,26082405,4429444667,35.44453430175781
629,691,26082405,4429444667,28.900745391845703
630,692,26082405,4429444667,22.507959365844727
631,693,26082405,4429444667,32.57826614379883
632,694,26082405,4429444667,22.682344436645508
633,695,26082405,4429444667,22.885639190673828
634,696,26082405,4429444667,31.96430206298828
635,697,26082405,4429444667,38.68842315673828
636,698,26082405,4429444667,26.801952362060547
637,699,26082405,4429444667,32.429840087890625
638,700,26082405,4429444667,34.06692886352539
639,701,26082405,4429444667,33.934715270996094
640,702,26082405,4429444667,24.9447078704834
641,703,26082405,4429444667,46.12839889526367
642,704,26082405,4429444667,37.70148468017578
643,705,26082405,4429444667,42.81613540649414
644,706,26082405,4429444667,27.56038475036621
645,707,26082405,4429444667,30.69515609741211
646,708,26082405,4429444667,25.883567810058594
647,709,26082405,4429444667,27.877761840820312
648,710,26082405,4429444667,28.724138259887695
649,711,26082405,4429444667,41.415245056152344
650,712,26082405,4429444667,36.05158233642578
651,713,26082405,4429444667,46.27531051635742
652,714,26082405,4429444667,48.08143615722656
653,715,26082405,4429444667,49.93870544433594
654,716,26082405,4429444667,51.66706466674805
655,717,26082405,4429444667,51.408504486083984
656,718,26082405,4429444667,56.68305206298828
657,719,26082405,4429444667,52.606788635253906
658,720,26082405,4429444667,54.514068603515625
659,721,26082405,4429444667,56.171932220458984
660,722,26082405,4429444667,55.77980041503906
661,723,26082405,4429444667,60.09809875488281
662,724,26082405,4429444667,56.916160583496094
663,725,26082405,4429444667,61.5936164855957
664,726,26082405,4429444667,60.167579650878906
665,727,26082405,4429444667,64.92390441894531
666,728,26082405,4429444667,60.99555969238281
667,729,26082405,4429444667,58.40687561035156
668,730,26082405,4429444667,49.79145812988281
669,731,26082405,4429444667,56.80388641357422
670,732,26082405,4429444667,55.43059158325195
671,733,26082405,4429444667,54.2353401184082
672,734,26082405,4429444667,58.87699890136719
673,735,26082405,4429444667,60.48086166381836
674,736,26082405,4429444667,56.94375228881836
675,737,26082405,4429444667,62.44264221191406
676,738,26082405,4429444667,62.31443405151367
677,739,26082405,4429444667,58.428646087646484
678,740,26082405,4429444667,54.303585052490234
679,741,26082405,4429444667,47.76905059814453
680,742,26082405,4429444667,59.131038665771484
681,743,26082405,4429444667,60.044578552246094
682,744,26082405,4429444667,51.35309982299805
683,745,26082405,4429444667,57.922916412353516
684,746,26082405,4429444667,41.24068832397461
685,747,26082405,4429444667,31.450069427490234
686,748,26082405,4429444667,46.54502868652344
687,749,26082405,4429444667,50.14957809448242
688,750,26082405,4429444667,50.134788513183594
689,751,26082405,4429444667,51.077186584472656
690,752,26082405,4429444667,53.430538177490234
691,753,26082405,4429444667,60.9407958984375
692,754,26082405,4429444667,54.28628921508789
693,755,26082405,4429444667,55.5528678894043
694,756,26082405,4429444667,56.21735382080078
695,757,26082405,4429444667,56.10379409790039
696,758,26082405,4429444667,49.409767150878906
697,759,26082405,4429444667,46.49900817871094
698,760,26082405,4429444667,47.80206298828125
699,761,26082405,4429444667,36.583984375
700,762,26082405,4429444667,36.05805969238281
701,763,26082405,4429444667,33.860435485839844
702,764,26082405,4429444667,32.77241516113281
703,765,26082405,4429444667,20.695247650146484
704,766,26082405,4429444667,23.47047233581543
705,767,26082405,4429444667,24.029802322387695
706,768,26082405,4429444667,28.628398895263672
707,769,26082405,4429444667,23.2041015625
708,770,26082405,4429444667,15.39863109588623
709,771,26082405,4429444667,18.288070678710938
710,772,26082405,4429444667,34.33869552612305
711,773,26082405,4429444667,20.866790771484375
712,774,26082405,4429444667,19.957931518554688
713,775,26082405,4429444667,17.59366226196289
714,776,26082405,4429444667,16.005481719970703
715,777,26082405,4429444667,23.32113265991211
716,778,26082405,4429444667,14.830974578857422
717,779,26082405,4429444667,16.26511001586914
718,780,26082405,4429444667,17.4898624420166
719,781,26082405,4429444667,21.503875732421875
720,782,26082405,4429444667,16.40574836730957
721,783,26082405,4429444667,19.8743839263916
722,784,26082405,4429444667,19.31426239013672
723,785,26082405,4429444667,17.55173110961914
724,786,26082405,4429444667,17.18407440185547
725,787,26082405,4429444667,18.925086975097656
726,788,26082405,4429444667,17.695709228515625
727,789,26082405,4429444667,23.47409439086914
728,790,26082405,4429444667,25.589298248291016
729,791,26082405,4429444667,20.972108840942383
730,792,26082405,4429444667,24.971660614013672
731,793,26082405,4429444667,16.04366683959961
732,794,26082405,4429444667,16.013837814331055
733,795,26082405,4429444667,21.967510223388672
734,796,26082405,4429444667,19.540027618408203
735,797,26082405,4429444667,21.335344314575195
736,798,26082405,4429444667,23.130582809448242
737,799,26082405,4429444667,56.85822677612305
738,800,26082405,4429444667,33.921974182128906
739,801,26082405,4429444667,20.601131439208984
740,802,26082405,4429444667,25.779499053955078
741,803,26082405,4429444667,26.56711196899414
742,804,26082405,4429444667,33.84784698486328
743,805,26082405,4429444667,22.953067779541016
744,806,26082405,4429444667,36.07713317871094
745,807,26082405,4429444667,39.66999816894531
746,808,26082405,4429444667,40.51553726196289
747,809,26082405,4429444667,41.67662811279297
748,810,26082405,4429444667,45.6665153503418
749,811,26082405,4429444667,40.82169723510742
750,812,26082405,4429444667,42.58997344970703
751,813,26082405,4429444667,48.87432861328125
752,814,26082405,4429444667,50.83056640625
753,815,26082405,4429444667,55.285308837890625
754,816,26082405,4429444667,54.4278564453125
755,817,26082405,4429444667,58.61460876464844
756,818,26082405,4429444667,54.63951110839844
757,819,26082405,4429444667,59.22456741333008
758,820,26082405,4429444667,57.36705017089844
759,821,26082405,4429444667,54.46237564086914
760,822,26082405,4429444667,57.12544250488281
761,823,26082405,4429444667,56.385929107666016
762,824,26082405,4429444667,52.190975189208984
763,825,26082405,4429444667,57.43342971801758
764,826,26082405,4429444667,58.211448669433594
765,827,26082405,4429444667,60.902366638183594
766,828,26082405,4429444667,64.38790893554688
767,829,26082405,4429444667,58.52116775512695
768,830,26082405,4429444667,60.25101089477539
769,831,26082405,4429444667,59.329490661621094
770,832,26082405,4429444667,57.16905975341797
771,833,26082405,4429444667,54.44829559326172
772,834,26082405,4429444667,62.35223388671875
773,835,26082405,4429444667,61.291343688964844
774,836,26082405,4429444667,60.895973205566406
775,837,26082405,4429444667,59.6241455078125
776,838,26082405,4429444667,58.52819061279297
777,839,26082405,4429444667,60.89262771606445
778,840,26082405,4429444667,60.223968505859375
779,841,26082405,4429444667,58.26897048950195
780,842,26082405,4429444667,58.73998260498047
781,843,26082405,4429444667,53.8885498046875
782,844,26082405,4429444667,59.16569519042969
783,845,26082405,4429444667,58.62602615356445
784,846,26082405,4429444667,59.4559211730957
785,847,26082405,4429444667,60.87127685546875
786,848,26082405,4429444667,61.30213165283203
787,849,26082405,4429444667,60.55739974975586
788,850,26082405,4429444667,65.62374877929688
789,851,26082405,4429444667,68.04546356201172
790,852,26082405,4429444667,63.86570739746094
791,853,26082405,4429444667,62.131736755371094
792,854,26082405,4429444667,64.97428894042969
793,855,26082405,4429444667,64.8069839477539
794,856,26082405,4429444667,53.99371337890625
795,857,26082405,4429444667,54.565650939941406
796,858,26082405,4429444667,60.064762115478516
797,859,26082405,4429444667,59.377052307128906
798,860,26082405,4429444667,61.23808670043945
799,861,26082405,4429444667,65.35748291015625
800,862,26082405,4429444667,63.915252685546875
801,863,26082405,4429444667,63.05860900878906
802,864,26082405,4429444667,62.10367202758789
803,865,26082405,4429444667,64.42022705078125
804,866,26082405,4429444667,66.78643798828125
805,867,26082405,4429444667,67.80335235595703
806,868,26082405,4429444667,67.20428466796875
807,869,26082405,4429444667,66.03093719482422
808,870,26082405,4429444667,61.85093307495117
809,871,26082405,4429444667,65.0210952758789
810,872,26082405,4429444667,65.93082427978516
811,873,26082405,4429444667,67.59639739990234
812,874,26082405,4429444667,65.6641616821289
813,875,26082405,4429444667,66.15287017822266
814,876,26082405,4429444667,66.81014251708984
815,877,26082405,4429444667,66.4551773071289
816,878,26082405,4429444667,65.7894058227539
817,879,26082405,4429444667,65.64225006103516
818,880,26082405,4429444667,66.01250457763672
819,881,26082405,4429444667,65.9463882446289
820,882,26082405,4429444667,65.93499755859375
821,883,26082405,4429444667,65.37322998046875
822,884,26082405,4429444667,66.41767120361328
823,885,26082405,4429444667,66.318603515625
824,886,26082405,4429444667,66.32623291015625
825,887,26082405,4429444667,66.07634735107422
826,888,26082405,4429444667,65.82754516601562
827,889,26082405,4429444667,65.7462387084961
828,890,26082405,4429444667,63.88241958618164
829,891,26082405,4429444667,64.33740997314453
830,892,26082405,4429444667,64.35872650146484
831,893,26082405,4429444667,62.07988739013672
832,894,26082405,4429444667,61.54355239868164
833,895,26082405,4429444667,63.1152458190918
834,905,26082405,4429444667,67.88201141357422
835,907,26082405,4429444667,66.121826171875
836,909,26082405,4429444667,63.7967529296875
837,910,26082405,4429444667,61.825714111328125
838,911,26082405,4429444667,64.00792694091797
839,912,26082405,4429444667,64.77238464355469
840,913,26082405,4429444667,67.06092071533203
841,914,26082405,4429444667,69.13934326171875
842,915,26082405,4429444667,69.0454330444336
843,916,26082405,4429444667,68.54098510742188
844,921,26082405,4429444667,69.76020050048828
845,922,26082405,4429444667,68.78251647949219
846,923,26082405,4429444667,68.37844848632812
847,929,26082405,4429444667,58.43382263183594
848,931,26082405,4429444667,66.47100830078125
849,932,26082405,4429444667,67.36710357666016
850,933,26082405,4429444667,67.4478759765625
851,934,26082405,4429444667,67.88716125488281
852,935,26082405,4429444667,67.53148651123047
853,936,26082405,4429444667,67.2274169921875
854,937,26082405,4429444667,66.71376037597656
855,938,26082405,4429444667,66.0848159790039
856,939,26082405,4429444667,65.74891662597656
857,940,26082405,4429444667,65.50550079345703
858,941,26082405,4429444667,65.02433013916016
859,942,26082405,4429444667,64.44873046875
860,943,26082405,4429444667,60.46868896484375
861,944,26082405,4429444667,62.999351501464844
862,945,26082405,4429444667,66.1172866821289
863,946,26082405,4429444667,60.36730194091797
864,947,26082405,4429444667,60.109737396240234
865,948,26082405,4429444667,56.82698440551758
866,949,26082405,4429444667,55.20906066894531
867,950,26082405,4429444667,47.220367431640625
868,951,26082405,4429444667,46.82111358642578
869,952,26082405,4429444667,43.82620620727539
870,953,26082405,4429444667,47.81243133544922
871,954,26082405,4429444667,48.38450622558594
872,955,26082405,4429444667,50.94715881347656
873,956,26082405,4429444667,49.33576965332031
874,957,26082405,4429444667,51.51183319091797
875,958,26082405,4429444667,47.813636779785156
876,959,26082405,4429444667,46.46961212158203
877,960,26082405,4429444667,50.04127502441406
878,961,26082405,4429444667,49.612281799316406
879,962,26082405,4429444667,43.78631591796875
880,963,26082405,4429444667,44.25396728515625
881,964,26082405,4429444667,49.19471740722656
882,965,26082405,4429444667,48.10287094116211
883,966,26082405,4429444667,46.71417999267578
884,967,26082405,4429444667,47.49681091308594
885,968,26082405,4429444667,42.16093444824219
886,969,26082405,4429444667,46.6501579284668
887,970,26082405,4429444667,46.346771240234375
888,971,26082405,4429444667,49.48649597167969
889,972,26082405,4429444667,45.31071090698242
890,973,26082405,4429444667,46.27885437011719
891,974,26082405,4429444667,48.10334014892578
892,975,26082405,4429444667,46.62687301635742
893,976,26082405,4429444667,46.19926834106445
894,977,26082405,4429444667,49.631004333496094
895,978,26082405,4429444667,51.756080627441406
896,979,26082405,4429444667,53.534706115722656
897,980,26082405,4429444667,54.97056198120117
898,981,26082405,4429444667,51.51332473754883
899,982,26082405,4429444667,52.50844192504883
900,983,26082405,4429444667,52.072845458984375
901,984,26082405,4429444667,52.201053619384766
902,985,26082405,4429444667,52.88136291503906
903,986,26082405,4429444667,55.594512939453125
904,987,26082405,4429444667,47.9775390625
905,988,26082405,4429444667,48.99913787841797
906,989,26082405,4429444667,48.48706817626953
907,990,26082405,4429444667,52.31464767456055
908,991,26082405,4429444667,48.753456115722656
909,992,26082405,4429444667,50.175872802734375
910,993,26082405,4429444667,44.95146560668945
911,994,26082405,4429444667,44.842769622802734
912,995,26082405,4429444667,44.24618148803711
913,996,26082405,4429444667,39.79166793823242
914,997,26082405,4429444667,41.36971664428711
915,998,26082405,4429444667,42.94270706176758
916,999,26082405,4429444667,46.53971862792969
917,1000,26082405,4429444667,58.89825439453125
918,1001,26082405,4429444667,58.23211669921875
919,1002,26082405,4429444667,51.382686614990234
920,1003,26082405,4429444667,55.55272674560547
921,1004,26082405,4429444667,57.35151290893555
922,1005,26082405,4429444667,57.66471481323242
923,1006,26082405,4429444667,53.110836029052734
924,1007,26082405,4429444667,57.62919616699219
925,1008,26082405,4429444667,55.18330383300781
926,1009,26082405,4429444667,63.094146728515625
927,1010,26082405,4429444667,62.27814865112305
928,1011,26082405,4429444667,56.47832107543945
929,1012,26082405,4429444667,50.432472229003906
930,1013,26082405,4429444667,49.71669387817383
931,1014,26082405,4429444667,41.28657531738281
932,1015,26082405,4429444667,45.3602294921875
933,1016,26082405,4429444667,50.852752685546875
934,1017,26082405,4429444667,55.83213424682617
935,1018,26082405,4429444667,46.74073791503906
936,1019,26082405,4429444667,56.39898681640625
937,1020,26082405,4429444667,53.8155403137207
938,1021,26082405,4429444667,51.55585479736328
939,1022,26082405,4429444667,49.9635009765625
940,1023,26082405,4429444667,51.331722259521484
941,1024,26082405,4429444667,55.027740478515625
942,1025,26082405,4429444667,52.106319427490234
943,1026,26082405,4429444667,62.47260665893555
944,1027,26082405,4429444667,59.05847930908203
945,1028,26082405,4429444667,55.50321960449219
946,1029,26082405,4429444667,54.75104522705078
947,1030,26082405,4429444667,52.35667419433594
948,1031,26082405,4429444667,54.231178283691406
949,1032,26082405,4429444667,60.880035400390625
950,1033,26082405,4429444667,56.71111297607422
951,1034,26082405,4429444667,43.31180953979492
952,1035,26082405,4429444667,51.84645462036133
953,1036,26082405,4429444667,61.51358413696289
954,1037,26082405,4429444667,56.97229766845703
955,1038,26082405,4429444667,56.18611145019531
956,1039,26082405,4429444667,59.415321350097656
957,1040,26082405,4429444667,56.17578887939453
958,1041,26082405,4429444667,60.669429779052734
959,1042,26082405,4429444667,61.33094024658203
960,1043,26082405,4429444667,63.85050964355469
961,1044,26082405,4429444667,61.5925178527832
962,1045,26082405,4429444667,59.40805435180664
963,1046,26082405,4429444667,63.39912414550781
964,1047,26082405,4429444667,63.452842712402344
965,1048,26082405,4429444667,63.18647003173828
966,1049,26082405,4429444667,64.77235412597656
967,1050,26082405,4429444667,60.566917419433594
968,1051,26082405,4429444667,63.18216323852539
969,1052,26082405,4429444667,63.53487777709961
970,1053,26082405,4429444667,60.78952407836914
971,1054,26082405,4429444667,60.92674255371094
972,1055,26082405,4429444667,59.38658905029297
973,1056,26082405,4429444667,65.25967407226562
974,1057,26082405,4429444667,64.50648498535156
975,1058,26082405,4429444667,62.712913513183594
976,1059,26082405,4429444667,65.83341217041016
977,1060,26082405,4429444667,63.05081558227539
978,1061,26082405,4429444667,62.287235260009766
979,1062,26082405,4429444667,62.46049118041992
980,1063,26082405,4429444667,64.36442565917969
981,1064,26082405,4429444667,66.47300720214844
982,1065,26082405,4429444667,61.407649993896484
983,1066,26082405,4429444667,65.70828247070312
984,1067,26082405,4429444667,55.92708969116211
985,1068,26082405,4429444667,60.541168212890625
986,1069,26082405,4429444667,59.60287094116211
987,1070,26082405,4429444667,61.85697937011719
988,1071,26082405,4429444667,60.2369270324707
989,1072,26082405,4429444667,61.581024169921875
990,1073,26082405,4429444667,56.09602355957031
991,1074,26082405,4429444667,54.64057922363281
992,1075,26082405,4429444667,55.018653869628906
993,1076,26082405,4429444667,62.06678771972656
994,1077,26082405,4429444667,58.13651657104492
995,1078,26082405,4429444667,57.728271484375
996,1079,26082405,4429444667,60.19623565673828
997,1080,26082405,4429444667,55.913536071777344
998,1081,26082405,4429444667,60.879180908203125
999,1082,26082405,4429444667,54.590797424316406
1000,1083,26082405,4429444667,61.29913330078125
1001,1084,26082405,4429444667,58.98836898803711
1002,1085,26082405,4429444667,51.90797424316406
1003,1086,26082405,4429444667,56.910430908203125
1004,1087,26082405,4429444667,57.14826202392578
1005,1088,26082405,4429444667,53.30866241455078
1006,1089,26082405,4429444667,59.637489318847656
1007,1090,26082405,4429444667,56.66178894042969
1008,1091,26082405,4429444667,56.019927978515625
1009,1092,26082405,4429444667,56.21897888183594
1010,1093,26082405,4429444667,55.71913528442383
1011,1094,26082405,4429444667,58.120853424072266
1012,1095,26082405,4429444667,53.78630065917969
1013,1096,26082405,4429444667,47.93063735961914
1014,1097,26082405,4429444667,46.655853271484375
1015,1098,26082405,4429444667,46.599491119384766
1016,1099,26082405,4429444667,43.313636779785156
1017,1100,26082405,4429444667,49.492305755615234
1018,1101,26082405,4429444667,51.342628479003906
1019,1102,26082405,4429444667,58.70476531982422
1020,1103,26082405,4429444667,51.76077651977539
1021,1104,26082405,4429444667,50.8997802734375
1022,1105,26082405,4429444667,47.52781677246094
1023,1106,26082405,4429444667,49.396636962890625
1024,1107,26082405,4429444667,52.571571350097656
1025,1108,26082405,4429444667,56.27082443237305
1026,1109,26082405,4429444667,50.55422592163086
1027,1110,26082405,4429444667,48.52276611328125
1028,1111,26082405,4429444667,48.623085021972656
1029,1112,26082405,4429444667,50.91049575805664
1030,1113,26082405,4429444667,48.295772552490234
1031,1114,26082405,4429444667,43.784934997558594
1032,1115,26082405,4429444667,52.826656341552734
1033,1116,26082405,4429444667,58.31916427612305
1034,1117,26082405,4429444667,56.413944244384766
1035,1118,26082405,4429444667,53.24226379394531
1036,1119,26082405,4429444667,54.84356689453125
1037,1120,26082405,4429444667,60.22488021850586
1038,1121,26082405,4429444667,59.81205749511719
1039,1122,26082405,4429444667,59.5417594909668
1040,1123,26082405,4429444667,58.290931701660156
1041,1124,26082405,4429444667,57.58919143676758
1042,1125,26082405,4429444667,57.69245529174805
1043,1126,26082405,4429444667,56.267372131347656
1044,1127,26082405,4429444667,63.600975036621094
1045,1128,26082405,4429444667,55.17658233642578
1046,1129,26082405,4429444667,55.714996337890625
1047,1130,26082405,4429444667,55.95461654663086
1048,1131,26082405,4429444667,57.699405670166016
1049,1132,26082405,4429444667,57.39690017700195
1050,1133,26082405,4429444667,57.159080505371094
1051,1134,26082405,4429444667,59.540794372558594
1052,1135,26082405,4429444667,57.253395080566406
1053,1136,26082405,4429444667,58.04960250854492
1054,1137,26082405,4429444667,53.71802520751953
1055,1138,26082405,4429444667,58.35146713256836
1056,1139,26082405,4429444667,57.3591194152832
1057,1140,26082405,4429444667,53.701438903808594
1058,1141,26082405,4429444667,59.94129943847656
1059,1142,26082405,4429444667,57.57448959350586
1060,1143,26082405,4429444667,59.4020881652832
1061,1144,26082405,4429444667,58.131629943847656
1062,1145,26082405,4429444667,55.637908935546875
1063,1146,26082405,4429444667,56.86479949951172
1064,1147,26082405,4429444667,50.70285415649414
1065,1148,26082405,4429444667,54.30902099609375
1066,1149,26082405,4429444667,54.56562423706055
1067,1150,26082405,4429444667,56.31473159790039
1068,1151,26082405,4429444667,59.971290588378906
1069,1152,26082405,4429444667,51.383033752441406
1070,1153,26082405,4429444667,56.927833557128906
1071,1154,26082405,4429444667,51.68263244628906
1072,1155,26082405,4429444667,54.95143127441406
1073,1156,26082405,4429444667,53.7401123046875
1074,1157,26082405,4429444667,53.389278411865234
1075,1158,26082405,4429444667,52.62984848022461
1076,1159,26082405,4429444667,60.73322677612305
1077,1160,26082405,4429444667,59.2142333984375
1078,1161,26082405,4429444667,62.96916198730469
1079,1162,26082405,4429444667,61.18926239013672
1080,1163,26082405,4429444667,60.85328674316406
1081,1164,26082405,4429444667,63.08518600463867
1082,1165,26082405,4429444667,60.22051239013672
1083,1166,26082405,4429444667,62.224788665771484
1084,1167,26082405,4429444667,62.03417205810547
1085,1168,26082405,4429444667,60.712738037109375
1086,1169,26082405,4429444667,58.58185958862305
1087,1170,26082405,4429444667,59.03105545043945
1088,1171,26082405,4429444667,60.263526916503906
1089,1172,26082405,4429444667,61.863895416259766
1090,1173,26082405,4429444667,65.07141876220703
1091,1174,26082405,4429444667,66.92920684814453
1092,1175,26082405,4429444667,68.17320251464844
1093,1176,26082405,4429444667,67.99393463134766
1094,1177,26082405,4429444667,66.75562286376953
1095,1178,26082405,4429444667,67.27471923828125
1096,1179,26082405,4429444667,67.44149017333984
1097,1180,26082405,4429444667,66.50336456298828
1098,1181,26082405,4429444667,65.86296844482422
1099,1182,26082405,4429444667,66.27020263671875
1100,1183,26082405,4429444667,67.3230972290039
1101,1184,26082405,4429444667,68.16227722167969
1102,1185,26082405,4429444667,66.23429870605469
1103,1186,26082405,4429444667,63.443878173828125
1104,1187,26082405,4429444667,63.39989471435547
1105,1194,26082405,4429444667,68.33258056640625
1106,1204,26082405,4429444667,67.04341125488281
1107,1205,26082405,4429444667,67.88981628417969
1108,1206,26082405,4429444667,66.96699523925781
1109,1212,26082405,4429444667,67.70382690429688
1110,1213,26082405,4429444667,67.63514709472656
1111,1217,26082405,4429444667,70.34734344482422
1112,1227,26082405,4429444667,67.79496002197266
1113,1228,26082405,4429444667,68.97459411621094
1114,1229,26082405,4429444667,68.74040985107422
1115,1230,26082405,4429444667,66.42891693115234
1116,1231,26082405,4429444667,61.985347747802734
1117,1232,26082405,4429444667,51.76333999633789
1118,1233,26082405,4429444667,58.378692626953125
1119,1234,26082405,4429444667,63.63819122314453
1120,1235,26082405,4429444667,68.37548828125
1121,1236,26082405,4429444667,69.68084716796875
1122,1237,26082405,4429444667,69.25732421875
1123,1238,26082405,4429444667,68.14805603027344
1124,1239,26082405,4429444667,68.32915496826172
1125,1240,26082405,4429444667,68.18938446044922
1126,1241,26082405,4429444667,68.30427551269531
1127,1242,26082405,4429444667,67.6187515258789
1128,1243,26082405,4429444667,66.6122817993164
1129,1244,26082405,4429444667,64.9493179321289
1130,1245,26082405,4429444667,64.61345672607422
1131,1246,26082405,4429444667,66.0910415649414
1132,1247,26082405,4429444667,66.68230438232422
1133,1248,26082405,4429444667,67.7605209350586
1134,1249,26082405,4429444667,68.05540466308594
1135,1250,26082405,4429444667,68.16561889648438
1136,1251,26082405,4429444667,67.97587585449219
1137,1252,26082405,4429444667,68.20763397216797
1138,1253,26082405,4429444667,68.4135513305664
1139,1254,26082405,4429444667,68.64108276367188
1140,1255,26082405,4429444667,68.69242858886719
1141,1256,26082405,4429444667,67.82646942138672
1142,1257,26082405,4429444667,66.29700469970703
1143,1258,26082405,4429444667,66.92839050292969
1144,1259,26082405,4429444667,67.87467956542969
1145,1260,26082405,4429444667,68.13858032226562
1146,1261,26082405,4429444667,68.11457824707031
1147,1262,26082405,4429444667,67.40762329101562
1148,1263,26082405,4429444667,65.89970397949219
1149,1264,26082405,4429444667,66.66641998291016
1150,1265,26082405,4429444667,70.18557739257812
1151,1266,26082405,4429444667,67.76553344726562
1152,1267,26082405,4429444667,68.04407501220703
1153,1268,26082405,4429444667,67.82582092285156
1154,1269,26082405,4429444667,68.38298034667969
1155,1270,26082405,4429444667,69.21231079101562
1156,1271,26082405,4429444667,68.65025329589844
1157,1272,26082405,4429444667,67.4355239868164
1158,1273,26082405,4429444667,66.45909881591797
1159,1274,26082405,4429444667,65.02684783935547
1160,1275,26082405,4429444667,65.96430969238281
1161,1276,26082405,4429444667,68.30007934570312
1162,1277,26082405,4429444667,67.39274597167969
1163,1278,26082405,4429444667,66.02090454101562
1164,1279,26082405,4429444667,65.71238708496094
1165,1280,26082405,4429444667,64.36669921875
1166,1281,26082405,4429444667,63.869441986083984
1167,1282,26082405,4429444667,62.91688919067383
1168,1283,26082405,4429444667,65.87970733642578
1169,1284,26082405,4429444667,63.86323547363281
1170,1285,26082405,4429444667,63.267757415771484
1171,1286,26082405,4429444667,61.46846389770508
1172,1287,26082405,4429444667,62.12914276123047
1173,1288,26082405,4429444667,60.66398239135742
1174,1289,26082405,4429444667,56.0706672668457
1175,1290,26082405,4429444667,54.069583892822266
1176,1291,26082405,4429444667,63.047821044921875
1177,1292,26082405,4429444667,56.57382583618164
1178,1293,26082405,4429444667,55.148963928222656
1179,1294,26082405,4429444667,60.046329498291016
1180,1295,26082405,4429444667,59.518577575683594
1181,1296,26082405,4429444667,51.27449417114258
1182,1297,26082405,4429444667,57.73603820800781
1183,1298,26082405,4429444667,61.784271240234375
1184,1299,26082405,4429444667,62.878822326660156
1185,1300,26082405,4429444667,58.68695068359375
1186,1301,26082405,4429444667,59.915897369384766
1187,1302,26082405,4429444667,58.345462799072266
1188,1303,26082405,4429444667,62.263004302978516
1189,1304,26082405,4429444667,55.97495651245117
1190,1305,26082405,4429444667,59.460777282714844
1191,1306,26082405,4429444667,59.946895599365234
1192,1307,26082405,4429444667,61.49293899536133
1193,1308,26082405,4429444667,61.622432708740234
1194,1309,26082405,4429444667,62.58000183105469
1195,1310,26082405,4429444667,60.56901550292969
1196,1311,26082405,4429444667,60.20777893066406
1197,1312,26082405,4429444667,65.98092651367188
1198,1313,26082405,4429444667,63.07683181762695
1199,1314,26082405,4429444667,66.32845306396484
1200,1315,26082405,4429444667,60.45151901245117
1201,1316,26082405,4429444667,55.19646453857422
1202,1317,26082405,4429444667,58.00994873046875
1203,1318,26082405,4429444667,58.06277084350586
1204,1319,26082405,4429444667,60.65121841430664
1205,1320,26082405,4429444667,62.76117706298828
1206,1321,26082405,4429444667,63.5729866027832
1207,1322,26082405,4429444667,64.11468505859375
1208,1323,26082405,4429444667,64.90691375732422
1209,1324,26082405,4429444667,63.958736419677734
1210,1325,26082405,4429444667,64.27510833740234
1211,1326,26082405,4429444667,63.180606842041016
1212,1327,26082405,4429444667,64.70015716552734
1213,1328,26082405,4429444667,66.77067565917969
1214,1329,26082405,4429444667,61.09954833984375
1215,1330,26082405,4429444667,62.778282165527344
1216,1331,26082405,4429444667,62.50636291503906
1217,1332,26082405,4429444667,65.67259216308594
1218,1333,26082405,4429444667,63.96562576293945
1219,1334,26082405,4429444667,63.39948272705078
1220,1335,26082405,4429444667,66.42498016357422
1221,1336,26082405,4429444667,66.6288070678711
1222,1337,26082405,4429444667,63.62241744995117
1223,1338,26082405,4429444667,62.26332473754883
1224,1339,26082405,4429444667,64.73767852783203
1225,1340,26082405,4429444667,62.25275421142578
1226,1341,26082405,4429444667,62.0316276550293
1227,1342,26082405,4429444667,57.05281066894531
1228,1343,26082405,4429444667,62.96468734741211
1229,1344,26082405,4429444667,66.71849060058594
1230,1345,26082405,4429444667,62.914268493652344
1231,1346,26082405,4429444667,64.28440856933594
1232,1347,26082405,4429444667,65.8160629272461
1233,1348,26082405,4429444667,61.48875045776367
1234,1349,26082405,4429444667,65.3606185913086
1235,1350,26082405,4429444667,64.54686737060547
1236,1351,26082405,4429444667,63.351165771484375
1237,1352,26082405,4429444667,61.524288177490234
1238,1353,26082405,4429444667,62.89059829711914
1239,1354,26082405,4429444667,60.79506301879883
1240,1355,26082405,4429444667,61.93000411987305
1241,1356,26082405,4429444667,66.57235717773438
1242,1357,26082405,4429444667,62.44182586669922
1243,1358,26082405,4429444667,58.30964279174805
1244,1359,26082405,4429444667,57.25807189941406
1245,1360,26082405,4429444667,62.03829574584961
1246,1361,26082405,4429444667,58.573490142822266
1247,1362,26082405,4429444667,56.74953842163086
1248,1363,26082405,4429444667,58.86956787109375
1249,1364,26082405,4429444667,58.99834060668945
1250,1365,26082405,4429444667,60.446956634521484
1251,1366,26082405,4429444667,39.32255172729492
1252,1367,26082405,4429444667,52.61964797973633
1253,1368,26082405,4429444667,64.39936828613281
1254,1369,26082405,4429444667,51.09864044189453
1255,1370,26082405,4429444667,47.16339874267578
1256,1371,26082405,4429444667,55.82200241088867
1257,1372,26082405,4429444667,60.49708938598633
1258,1373,26082405,4429444667,59.26067352294922
1259,1374,26082405,4429444667,54.34543991088867
1260,1375,26082405,4429444667,37.54370880126953
1261,1376,26082405,4429444667,39.0091667175293
1262,1377,26082405,4429444667,50.37662887573242
1263,1378,26082405,4429444667,53.59611511230469
1264,1379,26082405,4429444667,53.61334228515625
1265,1380,26082405,4429444667,50.808223724365234
1266,1381,26082405,4429444667,46.253177642822266
1267,1382,26082405,4429444667,34.01155090332031
1268,1383,26082405,4429444667,56.726463317871094
1269,1384,26082405,4429444667,47.67384338378906
1270,1385,26082405,4429444667,48.20787811279297
1271,1386,26082405,4429444667,45.164493560791016
1272,1387,26082405,4429444667,48.39841842651367
1273,1388,26082405,4429444667,48.40069580078125
1274,1389,26082405,4429444667,46.45460510253906
1275,1390,26082405,4429444667,48.37190246582031
1276,1391,26082405,4429444667,42.233856201171875
1277,1392,26082405,4429444667,48.21809387207031
1278,1393,26082405,4429444667,47.23316955566406
1279,1394,26082405,4429444667,48.31640625
1280,1395,26082405,4429444667,44.71680450439453
1281,1396,26082405,4429444667,50.78694534301758
1282,1397,26082405,4429444667,54.91985321044922
1283,1398,26082405,4429444667,54.38846969604492
1284,1399,26082405,4429444667,56.01320266723633
1285,1400,26082405,4429444667,59.726043701171875
1286,1401,26082405,4429444667,53.26053237915039
1287,1402,26082405,4429444667,53.16434860229492
1288,1403,26082405,4429444667,58.65999984741211
1289,1404,26082405,4429444667,60.03660583496094
1290,1405,26082405,4429444667,60.60726547241211
1291,1406,26082405,4429444667,57.37881851196289
1292,1407,26082405,4429444667,58.885005950927734
1293,1408,26082405,4429444667,50.99094009399414
1294,1409,26082405,4429444667,57.68584060668945
1295,1410,26082405,4429444667,56.25726318359375
1296,1411,26082405,4429444667,59.066654205322266
1297,1412,26082405,4429444667,60.573421478271484
1298,1413,26082405,4429444667,56.556827545166016
1299,1414,26082405,4429444667,60.32594299316406
1300,1415,26082405,4429444667,61.62259292602539
1301,1416,26082405,4429444667,62.1711540222168
1302,1417,26082405,4429444667,52.552093505859375
1303,1418,26082405,4429444667,53.039451599121094
1304,1419,26082405,4429444667,52.77050018310547
1305,1420,26082405,4429444667,54.203819274902344
1306,1421,26082405,4429444667,51.52402114868164
1307,1422,26082405,4429444667,54.912628173828125
1308,1423,26082405,4429444667,54.67634963989258
1309,1424,26082405,4429444667,58.14208221435547
1310,1425,26082405,4429444667,55.87351989746094
1311,1426,26082405,4429444667,58.58940124511719
1312,1427,26082405,4429444667,55.76140594482422
1313,1428,26082405,4429444667,55.305782318115234
1314,1429,26082405,4429444667,55.32749557495117
1315,1430,26082405,4429444667,57.266544342041016
1316,1431,26082405,4429444667,55.64140701293945
1317,1432,26082405,4429444667,58.15150833129883
1318,1433,26082405,4429444667,56.50996398925781
1319,1434,26082405,4429444667,51.931121826171875
1320,1435,26082405,4429444667,52.56448745727539
1321,1436,26082405,4429444667,59.5764274597168
1322,1437,26082405,4429444667,55.52886199951172
1323,1438,26082405,4429444667,51.32447814941406
1324,1439,26082405,4429444667,58.426368713378906
1325,1440,26082405,4429444667,60.486793518066406
1326,1441,26082405,4429444667,61.79587173461914
1327,1442,26082405,4429444667,62.016170501708984
1328,1443,26082405,4429444667,61.38965606689453
1329,1444,26082405,4429444667,63.08580780029297
1330,1445,26082405,4429444667,64.656005859375
1331,1446,26082405,4429444667,63.92238235473633
1332,1447,26082405,4429444667,60.8343505859375
1333,1448,26082405,4429444667,65.48535919189453
1334,1449,26082405,4429444667,65.1595687866211
1335,1450,26082405,4429444667,66.66541290283203
1336,1451,26082405,4429444667,65.68029022216797
1337,1452,26082405,4429444667,67.84312438964844
1338,1453,26082405,4429444667,65.11788177490234
1339,1454,26082405,4429444667,65.3354263305664
1340,1455,26082405,4429444667,65.26986694335938
1341,1456,26082405,4429444667,64.0418472290039
1342,1457,26082405,4429444667,65.02652740478516
1343,1458,26082405,4429444667,66.22840881347656
1344,1459,26082405,4429444667,66.5002670288086
1345,1460,26082405,4429444667,67.21905517578125
1346,1461,26082405,4429444667,66.3786849975586
1347,1462,26082405,4429444667,66.50444793701172
1348,1463,26082405,4429444667,66.7727279663086
1349,1464,26082405,4429444667,66.4700927734375
1350,1465,26082405,4429444667,66.1470718383789
1351,1466,26082405,4429444667,64.83898162841797
1352,1467,26082405,4429444667,64.27313995361328
1353,1468,26082405,4429444667,62.791015625
1354,1469,26082405,4429444667,62.152198791503906
1355,1470,26082405,4429444667,63.91640853881836
1356,1471,26082405,4429444667,65.31380462646484
1357,1472,26082405,4429444667,67.3253402709961
1358,1473,26082405,4429444667,67.92272186279297
1359,1477,26082405,4429444667,68.3465576171875
1360,1484,26082405,4429444667,65.80392456054688
1361,1485,26082405,4429444667,62.59822463989258
1362,1486,26082405,4429444667,61.09038162231445
1363,1487,26082405,4429444667,65.41209411621094
1364,1488,26082405,4429444667,67.20375061035156
1365,1489,26082405,4429444667,68.63224029541016
1366,1490,26082405,4429444667,68.43159484863281
1367,1491,26082405,4429444667,67.0910415649414
1368,1492,26082405,4429444667,67.46000671386719
1369,1493,26082405,4429444667,66.95504760742188
1370,1494,26082405,4429444667,65.91289520263672
1371,1495,26082405,4429444667,65.86199188232422
1372,1497,26082405,4429444667,62.223915100097656
1373,1498,26082405,4429444667,60.3724365234375
1374,1499,26082405,4429444667,60.973323822021484
1375,1500,26082405,4429444667,65.2242660522461
1376,1501,26082405,4429444667,67.3347396850586
1377,1502,26082405,4429444667,67.66231536865234
1378,1503,26082405,4429444667,68.81373596191406
1379,1504,26082405,4429444667,68.41989135742188
1380,1505,26082405,4429444667,67.8078384399414
1381,1506,26082405,4429444667,66.6045913696289
1382,1507,26082405,4429444667,64.11553192138672
1383,1508,26082405,4429444667,62.20817184448242
1384,1509,26082405,4429444667,59.48708724975586
1385,1510,26082405,4429444667,58.62793731689453
1386,1511,26082405,4429444667,55.560665130615234
1387,1512,26082405,4429444667,51.87877655029297
1388,1513,26082405,4429444667,50.955970764160156
1389,1514,26082405,4429444667,50.2759895324707
1390,1515,26082405,4429444667,48.85475540161133
1391,1516,26082405,4429444667,48.743438720703125
1392,1517,26082405,4429444667,45.06266784667969
1393,1518,26082405,4429444667,45.88035583496094
1394,1519,26082405,4429444667,42.82049560546875
1395,1520,26082405,4429444667,47.977237701416016
1396,1521,26082405,4429444667,44.79261016845703
1397,1522,26082405,4429444667,41.05494689941406
1398,1523,26082405,4429444667,44.448909759521484
1399,1524,26082405,4429444667,41.833621978759766
1400,1525,26082405,4429444667,36.49686813354492
1401,1526,26082405,4429444667,38.79877471923828
1402,1527,26082405,4429444667,40.70002746582031
1403,1528,26082405,4429444667,42.99677658081055
1404,1529,26082405,4429444667,43.563720703125
1405,1530,26082405,4429444667,40.55105972290039
1406,1531,26082405,4429444667,41.617530822753906
1407,1532,26082405,4429444667,40.32533645629883
1408,1533,26082405,4429444667,43.089935302734375
1409,1534,26082405,4429444667,40.36461639404297
1410,1535,26082405,4429444667,34.88139343261719
1411,1536,26082405,4429444667,34.902793884277344
1412,1537,26082405,4429444667,36.763221740722656
1413,1538,26082405,4429444667,27.72715950012207
1414,1539,26082405,4429444667,29.075410842895508
1415,1540,26082405,4429444667,29.368852615356445
1416,1541,26082405,4429444667,24.537860870361328
1417,1542,26082405,4429444667,29.55657958984375
1418,1543,26082405,4429444667,29.679658889770508
1419,1544,26082405,4429444667,23.133651733398438
1420,1545,26082405,4429444667,27.24988555908203
1421,1546,26082405,4429444667,20.057884216308594
1422,1547,26082405,4429444667,23.058372497558594
1423,1548,26082405,4429444667,26.294235229492188
1424,1549,26082405,4429444667,24.501007080078125
1425,1550,26082405,4429444667,35.9837646484375
1426,1551,26082405,4429444667,27.838603973388672
1427,1552,26082405,4429444667,25.467063903808594
1428,1553,26082405,4429444667,35.10543441772461
1429,1554,26082405,4429444667,32.291259765625
1430,1555,26082405,4429444667,38.12764358520508
1431,1556,26082405,4429444667,47.61143493652344
1432,1557,26082405,4429444667,42.2142333984375
1433,1558,26082405,4429444667,42.187374114990234
1434,1559,26082405,4429444667,45.8727912902832
1435,1560,26082405,4429444667,44.2880973815918
1436,1561,26082405,4429444667,53.00548553466797
1437,1562,26082405,4429444667,47.08692169189453
1438,1563,26082405,4429444667,46.38170623779297
1439,1564,26082405,4429444667,53.20065689086914
1440,1565,26082405,4429444667,53.5644645690918
1441,1566,26082405,4429444667,54.63201141357422
1442,1567,26082405,4429444667,55.753334045410156
1443,1568,26082405,4429444667,55.89868927001953
1444,1569,26082405,4429444667,58.915794372558594
1445,1570,26082405,4429444667,57.49641799926758
1446,1571,26082405,4429444667,55.606529235839844
1447,1572,26082405,4429444667,58.501319885253906
1448,1573,26082405,4429444667,53.222503662109375
1449,1574,26082405,4429444667,58.922332763671875
1450,1575,26082405,4429444667,51.73279571533203
1451,1576,26082405,4429444667,47.86016082763672
1452,1577,26082405,4429444667,56.95977783203125
1453,1578,26082405,4429444667,60.98771667480469
1454,1579,26082405,4429444667,60.291805267333984
1455,1580,26082405,4429444667,58.645172119140625
1456,1581,26082405,4429444667,60.878482818603516
1457,1582,26082405,4429444667,60.516021728515625
1458,1583,26082405,4429444667,59.867835998535156
1459,1584,26082405,4429444667,60.31935501098633
1460,1585,26082405,4429444667,63.12958526611328
1461,1586,26082405,4429444667,64.4696273803711
1462,1587,26082405,4429444667,61.99394226074219
1463,1588,26082405,4429444667,60.55006408691406
1464,1589,26082405,4429444667,58.50021743774414
1465,1590,26082405,4429444667,64.90022277832031
1466,1591,26082405,4429444667,64.03443908691406
1467,1592,26082405,4429444667,61.43885803222656
1468,1593,26082405,4429444667,61.09065246582031
1469,1594,26082405,4429444667,61.39936828613281
1470,1595,26082405,4429444667,62.9058952331543
1471,1596,26082405,4429444667,63.58096694946289
1472,1597,26082405,4429444667,63.06709289550781
1473,1598,26082405,4429444667,63.760047912597656
1474,1599,26082405,4429444667,61.4365348815918
1475,1600,26082405,4429444667,59.5472412109375
1476,1601,26082405,4429444667,60.6660270690918
1477,1602,26082405,4429444667,59.70854187011719
1478,1603,26082405,4429444667,60.15861892700195
1479,1604,26082405,4429444667,62.06007385253906
1480,1605,26082405,4429444667,62.93866729736328
1481,1606,26082405,4429444667,62.58070373535156
1482,1607,26082405,4429444667,65.1641845703125
1483,1608,26082405,4429444667,62.07563781738281
1484,1609,26082405,4429444667,61.821983337402344
1485,1610,26082405,4429444667,64.01220703125
1486,1611,26082405,4429444667,61.40787887573242
1487,1612,26082405,4429444667,61.07126235961914
1488,1613,26082405,4429444667,62.55991744995117
1489,1614,26082405,4429444667,64.30701446533203
1490,1615,26082405,4429444667,61.97996139526367
1491,1616,26082405,4429444667,60.8519287109375
1492,1617,26082405,4429444667,59.207035064697266
1493,1618,26082405,4429444667,60.84011459350586
1494,1619,26082405,4429444667,62.89687728881836
1495,1620,26082405,4429444667,60.738922119140625
1496,1621,26082405,4429444667,60.44074630737305
1497,1622,26082405,4429444667,61.90219497680664
1498,1623,26082405,4429444667,62.14851379394531
1499,1624,26082405,4429444667,62.14742660522461
1500,1625,26082405,4429444667,58.564308166503906
1501,1626,26082405,4429444667,61.45671463012695
1502,1627,26082405,4429444667,56.190895080566406
1503,1628,26082405,4429444667,57.96250915527344
1504,1629,26082405,4429444667,57.875492095947266
1505,1630,26082405,4429444667,55.333030700683594
1506,1631,26082405,4429444667,58.56972122192383
1507,1632,26082405,4429444667,55.26359939575195
1508,1633,26082405,4429444667,54.04765319824219
1509,1634,26082405,4429444667,56.81190872192383
1510,1635,26082405,4429444667,57.35900115966797
1511,1636,26082405,4429444667,47.15957260131836
1512,1637,26082405,4429444667,48.3364143371582
1513,1638,26082405,4429444667,33.38681411743164
1514,1639,26082405,4429444667,48.676513671875
1515,1640,26082405,4429444667,48.5695915222168
1516,1641,26082405,4429444667,50.260284423828125
1517,1642,26082405,4429444667,47.19411849975586
1518,1643,26082405,4429444667,53.32464599609375
1519,1644,26082405,4429444667,55.0450553894043
1520,1645,26082405,4429444667,44.441566467285156
1521,1646,26082405,4429444667,52.895751953125
1522,1647,26082405,4429444667,46.96916580200195
1523,1648,26082405,4429444667,48.971012115478516
1524,1649,26082405,4429444667,32.28572082519531
1525,1650,26082405,4429444667,30.350568771362305
1526,1651,26082405,4429444667,33.24765396118164
1527,1652,26082405,4429444667,46.57853317260742
1528,1653,26082405,4429444667,39.014347076416016
1529,1654,26082405,4429444667,36.32960891723633
1530,1655,26082405,4429444667,45.62506103515625
1531,1656,26082405,4429444667,41.70397186279297
1532,1657,26082405,4429444667,56.98479461669922
1533,1658,26082405,4429444667,57.633766174316406
1534,1659,26082405,4429444667,61.10300827026367
1535,1660,26082405,4429444667,57.17982482910156
1536,1661,26082405,4429444667,56.77675247192383
1537,1662,26082405,4429444667,59.24566650390625
1538,1663,26082405,4429444667,59.40629196166992
1539,1664,26082405,4429444667,54.97111892700195
1540,1665,26082405,4429444667,52.300193786621094
1541,1666,26082405,4429444667,53.75996398925781
1542,1667,26082405,4429444667,52.694217681884766
1543,1668,26082405,4429444667,48.43773651123047
1544,1669,26082405,4429444667,54.09095764160156
1545,1670,26082405,4429444667,50.96118927001953
1546,1671,26082405,4429444667,51.34823226928711
1547,1672,26082405,4429444667,48.73724365234375
1548,1673,26082405,4429444667,54.04521942138672
1549,1674,26082405,4429444667,52.02006912231445
1550,1675,26082405,4429444667,50.50927734375
1551,1676,26082405,4429444667,52.28706359863281
1552,1677,26082405,4429444667,57.24720764160156
1553,1678,26082405,4429444667,57.30031967163086
1554,1679,26082405,4429444667,60.472442626953125
1555,1680,26082405,4429444667,58.180267333984375
1556,1681,26082405,4429444667,60.386837005615234
1557,1682,26082405,4429444667,58.965126037597656
1558,1683,26082405,4429444667,60.440853118896484
1559,1684,26082405,4429444667,63.687294006347656
1560,1685,26082405,4429444667,58.61870574951172
1561,1686,26082405,4429444667,60.26838684082031
1562,1687,26082405,4429444667,58.46454620361328
1563,1688,26082405,4429444667,59.02219009399414
1564,1689,26082405,4429444667,59.152854919433594
1565,1690,26082405,4429444667,60.302284240722656
1566,1691,26082405,4429444667,61.208770751953125
1567,1692,26082405,4429444667,62.66202163696289
1568,1693,26082405,4429444667,64.05293273925781
1569,1694,26082405,4429444667,63.14815902709961
1570,1695,26082405,4429444667,60.96337890625
1571,1696,26082405,4429444667,62.02423858642578
1572,1697,26082405,4429444667,59.43686294555664
1573,1698,26082405,4429444667,62.95802307128906
1574,1699,26082405,4429444667,60.105491638183594
1575,1700,26082405,4429444667,62.705665588378906
1576,1701,26082405,4429444667,62.14423370361328
1577,1702,26082405,4429444667,62.15049362182617
1578,1703,26082405,4429444667,64.45792388916016
1579,1704,26082405,4429444667,61.366153717041016
1580,1705,26082405,4429444667,62.693729400634766
1581,1706,26082405,4429444667,64.48676300048828
1582,1707,26082405,4429444667,62.194244384765625
1583,1708,26082405,4429444667,60.47813415527344
1584,1709,26082405,4429444667,63.95917510986328
1585,1710,26082405,4429444667,61.08393096923828
1586,1711,26082405,4429444667,64.08617401123047
1587,1712,26082405,4429444667,65.35453033447266
1588,1713,26082405,4429444667,60.319244384765625
1589,1714,26082405,4429444667,67.26567077636719
1590,1715,26082405,4429444667,64.50542449951172
1591,1716,26082405,4429444667,63.91715621948242
1592,1717,26082405,4429444667,65.04098510742188
1593,1718,26082405,4429444667,64.04054260253906
1594,1719,26082405,4429444667,66.2325439453125
1595,1720,26082405,4429444667,65.39957427978516
1596,1721,26082405,4429444667,63.02109146118164
1597,1722,26082405,4429444667,66.25953674316406
1598,1723,26082405,4429444667,63.2898063659668
1599,1724,26082405,4429444667,66.54095458984375
1600,1725,26082405,4429444667,66.5374755859375
1601,1726,26082405,4429444667,64.62405395507812
1602,1727,26082405,4429444667,62.5055046081543
1603,1728,26082405,4429444667,64.15105438232422
1604,1729,26082405,4429444667,62.911949157714844
1605,1730,26082405,4429444667,65.48724365234375
1606,1731,26082405,4429444667,64.233642578125
1607,1732,26082405,4429444667,64.40650939941406
1608,1733,26082405,4429444667,65.10107421875
1609,1734,26082405,4429444667,66.43285369873047
1610,1735,26082405,4429444667,66.35848999023438
1611,1736,26082405,4429444667,67.48844146728516
1612,1737,26082405,4429444667,68.12052917480469
1613,1738,26082405,4429444667,62.455238342285156
1614,1739,26082405,4429444667,64.2350845336914
1615,1740,26082405,4429444667,63.37674331665039
1616,1741,26082405,4429444667,64.07050323486328
1617,1742,26082405,4429444667,65.73828887939453
1618,1743,26082405,4429444667,66.64934539794922
1619,1744,26082405,4429444667,66.65396881103516
1620,1745,26082405,4429444667,66.34454345703125
1621,1746,26082405,4429444667,66.20829772949219
1622,1747,26082405,4429444667,66.43498229980469
1623,1748,26082405,4429444667,65.92828369140625
1624,1749,26082405,4429444667,65.81563568115234
1625,1750,26082405,4429444667,64.65865325927734
1626,1751,26082405,4429444667,65.3964614868164
1627,1752,26082405,4429444667,67.00995635986328
1628,1753,26082405,4429444667,67.9946517944336
1629,1754,26082405,4429444667,68.8962631225586
1630,1755,26082405,4429444667,68.55343627929688
1631,1756,26082405,4429444667,68.68075561523438
1632,1761,26082405,4429444667,67.44508361816406
1633,1762,26082405,4429444667,68.11165618896484
1634,1763,26082405,4429444667,68.71720886230469
1635,1764,26082405,4429444667,68.09659576416016
1636,1766,26082405,4429444667,66.48373413085938
1637,1767,26082405,4429444667,67.31681823730469
1638,1768,26082405,4429444667,68.32453155517578
1639,1769,26082405,4429444667,67.29812622070312
1640,1774,26082405,4429444667,70.8666763305664
1641,1780,26082405,4429444667,54.93128967285156
1642,1781,26082405,4429444667,58.027069091796875
1643,1783,26082405,4429444667,68.33687591552734
1644,1789,26082405,4429444667,59.90983581542969
1645,1790,26082405,4429444667,63.9376335144043
1646,1791,26082405,4429444667,65.97232055664062
1647,1792,26082405,4429444667,66.66361999511719
1648,1793,26082405,4429444667,65.49655151367188
1649,1794,26082405,4429444667,64.50469207763672
1650,1795,26082405,4429444667,63.80236053466797
1651,1796,26082405,4429444667,63.02411651611328
1652,1797,26082405,4429444667,61.93709945678711
1653,1798,26082405,4429444667,58.73683166503906
1654,1799,26082405,4429444667,54.595542907714844
1655,1800,26082405,4429444667,47.129730224609375
1656,1801,26082405,4429444667,48.403236389160156
1657,1802,26082405,4429444667,43.44855880737305
1658,1803,26082405,4429444667,47.046443939208984
1659,1804,26082405,4429444667,43.852169036865234
1660,1805,26082405,4429444667,43.855201721191406
1661,1806,26082405,4429444667,44.7479362487793
1662,1807,26082405,4429444667,46.49555587768555
1663,1808,26082405,4429444667,43.774627685546875
1664,1809,26082405,4429444667,42.40541076660156
1665,1810,26082405,4429444667,41.823978424072266
1666,1811,26082405,4429444667,41.682960510253906
1667,1812,26082405,4429444667,39.02458190917969
1668,1813,26082405,4429444667,32.9930305480957
1669,1814,26082405,4429444667,39.24394989013672
1670,1815,26082405,4429444667,39.788330078125
1671,1816,26082405,4429444667,38.28355407714844
1672,1817,26082405,4429444667,37.95698928833008
1673,1818,26082405,4429444667,38.94598388671875
1674,1819,26082405,4429444667,44.743865966796875
1675,1820,26082405,4429444667,40.44232177734375
1676,1821,26082405,4429444667,41.66917037963867
1677,1822,26082405,4429444667,32.931488037109375
1678,1823,26082405,4429444667,26.251718521118164
1679,1824,26082405,4429444667,24.11983871459961
1680,1825,26082405,4429444667,23.979787826538086
1681,1826,26082405,4429444667,27.207775115966797
1682,1827,26082405,4429444667,23.47999382019043
1683,1828,26082405,4429444667,35.435672760009766
1684,1829,26082405,4429444667,25.231943130493164
1685,1830,26082405,4429444667,24.21577262878418
1686,1831,26082405,4429444667,22.976917266845703
1687,1832,26082405,4429444667,25.29005241394043
1688,1833,26082405,4429444667,20.959007263183594
1689,1834,26082405,4429444667,22.773338317871094
1690,1835,26082405,4429444667,22.975006103515625
1691,1836,26082405,4429444667,26.067142486572266
1692,1837,26082405,4429444667,22.857086181640625
1693,1838,26082405,4429444667,18.82387924194336
1694,1839,26082405,4429444667,18.109514236450195
1695,1840,26082405,4429444667,18.007034301757812
1696,1841,26082405,4429444667,21.946287155151367
1697,1842,26082405,4429444667,21.643362045288086
1698,1843,26082405,4429444667,21.91683006286621
1699,1844,26082405,4429444667,20.887115478515625
1700,1845,26082405,4429444667,18.495697021484375
1701,1846,26082405,4429444667,19.49089813232422
1702,1847,26082405,4429444667,17.772850036621094
1703,1848,26082405,4429444667,16.18491554260254
1704,1849,26082405,4429444667,14.910429954528809
1705,1850,26082405,4429444667,18.675931930541992
1706,1851,26082405,4429444667,22.974849700927734
1707,1852,26082405,4429444667,21.57027816772461
1708,1853,26082405,4429444667,21.82208251953125
1709,1854,26082405,4429444667,21.931957244873047
1710,1855,26082405,4429444667,22.228944778442383
1711,1856,26082405,4429444667,23.505046844482422
1712,1857,26082405,4429444667,19.638988494873047
1713,1858,26082405,4429444667,20.716920852661133
1714,1859,26082405,4429444667,19.5688533782959
1715,1860,26082405,4429444667,23.585357666015625
1716,1861,26082405,4429444667,24.113025665283203
1717,1862,26082405,4429444667,23.101280212402344
1718,1863,26082405,4429444667,21.62295150756836
1719,1864,26082405,4429444667,24.37523078918457
1720,1865,26082405,4429444667,21.601913452148438
1721,1866,26082405,4429444667,22.20009994506836
1722,1867,26082405,4429444667,25.512060165405273
1723,1868,26082405,4429444667,20.952930450439453
1724,1869,26082405,4429444667,28.05766487121582
1725,1870,26082405,4429444667,24.755552291870117
1726,1871,26082405,4429444667,27.824481964111328
1727,1872,26082405,4429444667,27.72908592224121
1728,1873,26082405,4429444667,25.90431022644043
1729,1874,26082405,4429444667,28.569976806640625
1730,1875,26082405,4429444667,30.044761657714844
1731,1876,26082405,4429444667,50.461341857910156
1732,1877,26082405,4429444667,43.550941467285156
1733,1878,26082405,4429444667,49.75182342529297
1734,1879,26082405,4429444667,51.32386779785156
1735,1880,26082405,4429444667,59.302772521972656
1736,1881,26082405,4429444667,55.8549690246582
1737,1882,26082405,4429444667,55.897674560546875
1738,1883,26082405,4429444667,52.599185943603516
1739,1884,26082405,4429444667,58.34215545654297
1740,1885,26082405,4429444667,58.674251556396484
1741,1886,26082405,4429444667,58.97526931762695
1742,1887,26082405,4429444667,58.498435974121094
1743,1888,26082405,4429444667,57.05181884765625
1744,1889,26082405,4429444667,57.846038818359375
1745,1890,26082405,4429444667,62.16677474975586
1746,1891,26082405,4429444667,58.64745330810547
1747,1892,26082405,4429444667,55.8935432434082
1748,1893,26082405,4429444667,55.399169921875
1749,1894,26082405,4429444667,60.268558502197266
1750,1895,26082405,4429444667,61.2364501953125
1751,1896,26082405,4429444667,59.92692565917969
1752,1897,26082405,4429444667,62.61785125732422
1753,1898,26082405,4429444667,62.939659118652344
1754,1899,26082405,4429444667,59.722412109375
1755,1900,26082405,4429444667,61.782962799072266
1756,1901,26082405,4429444667,60.926639556884766
1757,1902,26082405,4429444667,60.87535858154297
1758,1903,26082405,4429444667,61.877010345458984
1759,1904,26082405,4429444667,62.297237396240234
1760,1905,26082405,4429444667,64.1961669921875
1761,1906,26082405,4429444667,60.65143966674805
1762,1907,26082405,4429444667,58.25148010253906
1763,1908,26082405,4429444667,57.29032516479492
1764,1909,26082405,4429444667,60.12757110595703
1765,1910,26082405,4429444667,58.47530746459961
1766,1911,26082405,4429444667,59.01630783081055
1767,1912,26082405,4429444667,59.092838287353516
1768,1913,26082405,4429444667,52.068302154541016
1769,1914,26082405,4429444667,53.98078155517578
1770,1915,26082405,4429444667,55.3845100402832
1771,1916,26082405,4429444667,57.310733795166016
1772,1917,26082405,4429444667,53.045799255371094
1773,1918,26082405,4429444667,50.73438262939453
1774,1919,26082405,4429444667,47.895328521728516
1775,1920,26082405,4429444667,46.43801498413086
1776,1921,26082405,4429444667,29.297697067260742
1777,1922,26082405,4429444667,28.42879295349121
1778,1923,26082405,4429444667,28.633533477783203
1779,1924,26082405,4429444667,33.62688064575195
1780,1925,26082405,4429444667,24.57420539855957
1781,1926,26082405,4429444667,30.251956939697266
1782,1927,26082405,4429444667,32.20216751098633
1783,1928,26082405,4429444667,22.309404373168945
1784,1929,26082405,4429444667,21.25836181640625
1785,1930,26082405,4429444667,18.888221740722656
1786,1931,26082405,4429444667,19.99692726135254
1787,1932,26082405,4429444667,19.771442413330078
1788,1933,26082405,4429444667,20.91417694091797
1789,1934,26082405,4429444667,18.942890167236328
1790,1935,26082405,4429444667,33.08039093017578
1791,1936,26082405,4429444667,46.10342025756836
1792,1937,26082405,4429444667,35.24440383911133
1793,1938,26082405,4429444667,22.900039672851562
1794,1939,26082405,4429444667,22.42644691467285
1795,1940,26082405,4429444667,25.48972511291504
1796,1941,26082405,4429444667,18.960756301879883
1797,1942,26082405,4429444667,19.71695327758789
1798,1943,26082405,4429444667,22.408069610595703
1799,1944,26082405,4429444667,20.550268173217773
1800,1945,26082405,4429444667,22.047727584838867
1801,1946,26082405,4429444667,18.498470306396484
1802,1947,26082405,4429444667,19.167577743530273
1803,1948,26082405,4429444667,24.594383239746094
1804,1949,26082405,4429444667,49.33317565917969
1805,1950,26082405,4429444667,53.01097106933594
1806,1951,26082405,4429444667,53.13145446777344
1807,1952,26082405,4429444667,50.074684143066406
1808,1953,26082405,4429444667,42.28205490112305
1809,1954,26082405,4429444667,30.51111602783203
1810,1955,26082405,4429444667,47.48920440673828
1811,1956,26082405,4429444667,54.53105926513672
1812,1957,26082405,4429444667,48.63938903808594
1813,1958,26082405,4429444667,48.133941650390625
1814,1959,26082405,4429444667,51.967044830322266
1815,1960,26082405,4429444667,52.130916595458984
1816,1961,26082405,4429444667,53.5213508605957
1817,1962,26082405,4429444667,55.23876190185547
1818,1963,26082405,4429444667,53.38682556152344
1819,1964,26082405,4429444667,49.432003021240234
1820,1965,26082405,4429444667,50.62211608886719
1821,1966,26082405,4429444667,54.72466278076172
1822,1967,26082405,4429444667,52.6380615234375
1823,1968,26082405,4429444667,55.431549072265625
1824,1969,26082405,4429444667,53.759429931640625
1825,1970,26082405,4429444667,55.9182014465332
1826,1971,26082405,4429444667,58.490386962890625
1827,1972,26082405,4429444667,56.22137451171875
1828,1973,26082405,4429444667,55.673309326171875
1829,1974,26082405,4429444667,60.31494140625
1830,1975,26082405,4429444667,56.528900146484375
1831,1976,26082405,4429444667,54.77537155151367
1832,1977,26082405,4429444667,58.72191619873047
1833,1978,26082405,4429444667,61.412193298339844
1834,1979,26082405,4429444667,60.69413375854492
1835,1980,26082405,4429444667,60.174171447753906
1836,1981,26082405,4429444667,59.94023132324219
1837,1982,26082405,4429444667,60.47172164916992
1838,1983,26082405,4429444667,58.672584533691406
1839,1984,26082405,4429444667,59.21493911743164
1840,1985,26082405,4429444667,60.8872184753418
1841,1986,26082405,4429444667,60.43733215332031
1842,1987,26082405,4429444667,60.778717041015625
1843,1988,26082405,4429444667,61.58880615234375
1844,1989,26082405,4429444667,61.5247917175293
1845,1990,26082405,4429444667,60.21078872680664
1846,1991,26082405,4429444667,62.55767822265625
1847,1992,26082405,4429444667,61.516754150390625
1848,1993,26082405,4429444667,61.72218704223633
1849,1994,26082405,4429444667,63.39768600463867
1850,1995,26082405,4429444667,58.805030822753906
1851,1996,26082405,4429444667,64.54657745361328
1852,1997,26082405,4429444667,61.44723892211914
1853,1998,26082405,4429444667,64.4997329711914
1854,1999,26082405,4429444667,65.24756622314453
1855,2000,26082405,4429444667,61.72809982299805
1856,2001,26082405,4429444667,62.84397506713867
1857,2002,26082405,4429444667,61.99685287475586
1858,2003,26082405,4429444667,65.48173522949219
1859,2004,26082405,4429444667,61.220333099365234
1860,2005,26082405,4429444667,61.2127685546875
1861,2006,26082405,4429444667,61.964237213134766
1862,2007,26082405,4429444667,62.3245849609375
1863,2008,26082405,4429444667,65.00084686279297
1864,2009,26082405,4429444667,65.96174621582031
1865,2010,26082405,4429444667,64.70954895019531
1866,2011,26082405,4429444667,64.12165069580078
1867,2012,26082405,4429444667,63.521766662597656
1868,2013,26082405,4429444667,63.77877426147461
1869,2014,26082405,4429444667,64.1916732788086
1870,2015,26082405,4429444667,61.201175689697266
