,slot,source,target,speed
0,0,34024741,1864237236,66.19910430908203
1,1,34024741,1864237236,66.48413848876953
2,2,34024741,1864237236,64.62714385986328
3,3,34024741,1864237236,66.49393463134766
4,4,34024741,1864237236,66.25182342529297
5,5,34024741,1864237236,67.34603881835938
6,6,34024741,1864237236,67.75390625
7,7,34024741,1864237236,68.82454681396484
8,8,34024741,1864237236,65.60507202148438
9,9,34024741,1864237236,66.65997314453125
10,10,34024741,1864237236,67.44847869873047
11,11,34024741,1864237236,68.4117660522461
12,12,34024741,1864237236,68.5727310180664
13,13,34024741,1864237236,67.27757263183594
14,14,34024741,1864237236,66.90320587158203
15,15,34024741,1864237236,66.1202621459961
16,16,34024741,1864237236,66.96172332763672
17,17,34024741,1864237236,67.24140930175781
18,18,34024741,1864237236,66.79393005371094
19,19,34024741,1864237236,65.30181121826172
20,20,34024741,1864237236,66.37865447998047
21,21,34024741,1864237236,67.36531829833984
22,22,34024741,1864237236,68.50733947753906
23,23,34024741,1864237236,68.60138702392578
24,24,34024741,1864237236,68.72171783447266
25,25,34024741,1864237236,68.83470153808594
26,26,34024741,1864237236,68.82666778564453
27,27,34024741,1864237236,68.14259338378906
28,28,34024741,1864237236,68.42365264892578
29,29,34024741,1864237236,68.15664672851562
30,30,34024741,1864237236,67.50887298583984
31,31,34024741,1864237236,66.58264923095703
32,32,34024741,1864237236,65.53929901123047
33,36,34024741,1864237236,69.10016632080078
34,55,34024741,1864237236,68.23009490966797
35,62,34024741,1864237236,61.27634048461914
36,63,34024741,1864237236,59.68564987182617
37,64,34024741,1864237236,59.2806510925293
38,65,34024741,1864237236,62.81804656982422
39,66,34024741,1864237236,65.93914794921875
40,67,34024741,1864237236,66.94906616210938
41,68,34024741,1864237236,65.71278381347656
42,69,34024741,1864237236,65.39960479736328
43,70,34024741,1864237236,65.27960968017578
44,71,34024741,1864237236,62.85826873779297
45,72,34024741,1864237236,60.25415802001953
46,73,34024741,1864237236,58.0623893737793
47,74,34024741,1864237236,57.151878356933594
48,75,34024741,1864237236,59.39136505126953
49,76,34024741,1864237236,58.752933502197266
50,77,34024741,1864237236,54.86951446533203
51,78,34024741,1864237236,55.84786605834961
52,79,34024741,1864237236,55.241180419921875
53,80,34024741,1864237236,56.080848693847656
54,81,34024741,1864237236,60.86189270019531
55,82,34024741,1864237236,58.40137481689453
56,83,34024741,1864237236,54.72018051147461
57,84,34024741,1864237236,54.33716583251953
58,85,34024741,1864237236,52.30835723876953
59,86,34024741,1864237236,56.36655807495117
60,87,34024741,1864237236,59.49867248535156
61,88,34024741,1864237236,54.04867935180664
62,89,34024741,1864237236,57.62317657470703
63,90,34024741,1864237236,56.408546447753906
64,91,34024741,1864237236,45.37382888793945
65,92,34024741,1864237236,46.877296447753906
66,93,34024741,1864237236,20.231523513793945
67,94,34024741,1864237236,15.375840187072754
68,95,34024741,1864237236,16.850139617919922
69,96,34024741,1864237236,14.564502716064453
70,97,34024741,1864237236,12.319506645202637
71,98,34024741,1864237236,12.987520217895508
72,99,34024741,1864237236,11.436261177062988
73,100,34024741,1864237236,11.115583419799805
74,101,34024741,1864237236,11.965056419372559
75,102,34024741,1864237236,14.045694351196289
76,103,34024741,1864237236,9.787302017211914
77,104,34024741,1864237236,11.888017654418945
78,105,34024741,1864237236,12.16576099395752
79,106,34024741,1864237236,11.126996994018555
80,107,34024741,1864237236,9.270359992980957
81,108,34024741,1864237236,9.662515640258789
82,109,34024741,1864237236,10.57595157623291
83,110,34024741,1864237236,12.293027877807617
84,111,34024741,1864237236,10.80581283569336
85,112,34024741,1864237236,10.720254898071289
86,113,34024741,1864237236,11.318943977355957
87,114,34024741,1864237236,9.926012992858887
88,115,34024741,1864237236,9.180808067321777
89,116,34024741,1864237236,8.752629280090332
90,117,34024741,1864237236,11.442620277404785
91,118,34024741,1864237236,13.097208023071289
92,119,34024741,1864237236,9.870471000671387
93,120,34024741,1864237236,11.420332908630371
94,121,34024741,1864237236,10.975237846374512
95,122,34024741,1864237236,12.00816822052002
96,123,34024741,1864237236,11.468696594238281
97,124,34024741,1864237236,13.490104675292969
98,125,34024741,1864237236,12.895764350891113
99,126,34024741,1864237236,11.245841026306152
100,127,34024741,1864237236,12.396912574768066
101,128,34024741,1864237236,10.755605697631836
102,129,34024741,1864237236,10.308940887451172
103,130,34024741,1864237236,13.020916938781738
104,131,34024741,1864237236,9.02554702758789
105,132,34024741,1864237236,13.25792407989502
106,133,34024741,1864237236,13.116045951843262
107,134,34024741,1864237236,12.748289108276367
108,135,34024741,1864237236,11.804595947265625
109,136,34024741,1864237236,11.08421516418457
110,137,34024741,1864237236,14.12460994720459
111,138,34024741,1864237236,10.382814407348633
112,139,34024741,1864237236,16.954307556152344
113,140,34024741,1864237236,16.882410049438477
114,141,34024741,1864237236,16.550762176513672
115,142,34024741,1864237236,12.929243087768555
116,143,34024741,1864237236,17.436195373535156
117,144,34024741,1864237236,14.379728317260742
118,145,34024741,1864237236,33.01494598388672
119,146,34024741,1864237236,15.936891555786133
120,147,34024741,1864237236,17.775001525878906
121,148,34024741,1864237236,17.839778900146484
122,149,34024741,1864237236,16.014142990112305
123,150,34024741,1864237236,14.894715309143066
124,151,34024741,1864237236,18.221397399902344
125,152,34024741,1864237236,15.637993812561035
126,153,34024741,1864237236,56.01624298095703
127,154,34024741,1864237236,30.678600311279297
128,155,34024741,1864237236,18.487003326416016
129,156,34024741,1864237236,36.55055618286133
130,157,34024741,1864237236,56.02542495727539
131,158,34024741,1864237236,50.652671813964844
132,159,34024741,1864237236,23.653175354003906
133,160,34024741,1864237236,23.587562561035156
134,161,34024741,1864237236,58.395294189453125
135,162,34024741,1864237236,60.40660858154297
136,163,34024741,1864237236,45.11732482910156
137,164,34024741,1864237236,64.90078735351562
138,165,34024741,1864237236,53.481201171875
139,166,34024741,1864237236,61.33554458618164
140,167,34024741,1864237236,62.2919921875
141,168,34024741,1864237236,62.37499237060547
142,169,34024741,1864237236,62.1155891418457
143,170,34024741,1864237236,62.73146438598633
144,171,34024741,1864237236,61.17937469482422
145,172,34024741,1864237236,61.531288146972656
146,173,34024741,1864237236,55.663089752197266
147,174,34024741,1864237236,53.92426300048828
148,175,34024741,1864237236,44.923561096191406
149,176,34024741,1864237236,45.65647888183594
150,177,34024741,1864237236,20.399322509765625
151,178,34024741,1864237236,57.06471252441406
152,179,34024741,1864237236,60.25508499145508
153,180,34024741,1864237236,57.11158752441406
154,181,34024741,1864237236,45.61609649658203
155,182,34024741,1864237236,48.533714294433594
156,183,34024741,1864237236,54.16349792480469
157,184,34024741,1864237236,21.815776824951172
158,185,34024741,1864237236,48.53850173950195
159,186,34024741,1864237236,21.777719497680664
160,187,34024741,1864237236,12.468017578125
161,188,34024741,1864237236,13.453001976013184
162,189,34024741,1864237236,11.533731460571289
163,190,34024741,1864237236,13.453058242797852
164,191,34024741,1864237236,14.459599494934082
165,192,34024741,1864237236,14.988395690917969
166,193,34024741,1864237236,13.677273750305176
167,194,34024741,1864237236,11.306803703308105
168,195,34024741,1864237236,10.622836112976074
169,196,34024741,1864237236,8.937304496765137
170,197,34024741,1864237236,11.97205924987793
171,198,34024741,1864237236,10.280513763427734
172,199,34024741,1864237236,11.797584533691406
173,200,34024741,1864237236,9.18014144897461
174,201,34024741,1864237236,10.70693588256836
175,202,34024741,1864237236,8.70472240447998
176,203,34024741,1864237236,8.574780464172363
177,204,34024741,1864237236,10.98033332824707
178,205,34024741,1864237236,11.105644226074219
179,206,34024741,1864237236,8.816564559936523
180,207,34024741,1864237236,9.043743133544922
181,208,34024741,1864237236,7.602970123291016
182,209,34024741,1864237236,9.783121109008789
183,210,34024741,1864237236,8.74451732635498
184,211,34024741,1864237236,9.043794631958008
185,212,34024741,1864237236,9.346229553222656
186,213,34024741,1864237236,8.394383430480957
187,214,34024741,1864237236,9.418386459350586
188,215,34024741,1864237236,8.401885986328125
189,216,34024741,1864237236,8.40803337097168
190,217,34024741,1864237236,8.758965492248535
191,218,34024741,1864237236,8.615104675292969
192,219,34024741,1864237236,9.488542556762695
193,220,34024741,1864237236,10.287917137145996
194,221,34024741,1864237236,8.62053394317627
195,222,34024741,1864237236,8.788043975830078
196,223,34024741,1864237236,9.02610969543457
197,224,34024741,1864237236,9.954038619995117
198,225,34024741,1864237236,13.820596694946289
199,226,34024741,1864237236,12.07697868347168
200,227,34024741,1864237236,13.17734432220459
201,228,34024741,1864237236,16.389862060546875
202,229,34024741,1864237236,48.78715896606445
203,230,34024741,1864237236,18.902446746826172
204,231,34024741,1864237236,35.32371520996094
205,232,34024741,1864237236,41.3853759765625
206,233,34024741,1864237236,26.986846923828125
207,234,34024741,1864237236,49.47587585449219
208,235,34024741,1864237236,52.847896575927734
209,236,34024741,1864237236,54.411155700683594
210,237,34024741,1864237236,58.329654693603516
211,238,34024741,1864237236,58.73371505737305
212,239,34024741,1864237236,58.24467849731445
213,240,34024741,1864237236,58.71908187866211
214,241,34024741,1864237236,56.85493469238281
215,242,34024741,1864237236,63.061920166015625
216,243,34024741,1864237236,58.70087432861328
217,244,34024741,1864237236,62.128684997558594
218,245,34024741,1864237236,63.9244384765625
219,246,34024741,1864237236,63.81370544433594
220,247,34024741,1864237236,61.993003845214844
221,248,34024741,1864237236,59.56990051269531
222,249,34024741,1864237236,61.62522888183594
223,250,34024741,1864237236,63.05088806152344
224,251,34024741,1864237236,59.5122184753418
225,252,34024741,1864237236,63.4285774230957
226,253,34024741,1864237236,64.61002349853516
227,254,34024741,1864237236,63.95621109008789
228,255,34024741,1864237236,64.65723419189453
229,256,34024741,1864237236,60.99668884277344
230,257,34024741,1864237236,64.78350830078125
231,258,34024741,1864237236,62.506710052490234
232,259,34024741,1864237236,64.61360931396484
233,260,34024741,1864237236,62.409080505371094
234,261,34024741,1864237236,60.8419075012207
235,262,34024741,1864237236,64.65743255615234
236,263,34024741,1864237236,64.71171569824219
237,264,34024741,1864237236,61.63865661621094
238,265,34024741,1864237236,64.77287292480469
239,266,34024741,1864237236,64.17849731445312
240,267,34024741,1864237236,62.80344772338867
241,268,34024741,1864237236,62.445640563964844
242,269,34024741,1864237236,63.476539611816406
243,270,34024741,1864237236,66.86166381835938
244,271,34024741,1864237236,65.91320037841797
245,272,34024741,1864237236,66.89427185058594
246,273,34024741,1864237236,64.66093444824219
247,274,34024741,1864237236,66.37200927734375
248,275,34024741,1864237236,63.74134063720703
249,276,34024741,1864237236,64.83544921875
250,277,34024741,1864237236,64.2874755859375
251,278,34024741,1864237236,65.18404388427734
252,279,34024741,1864237236,66.1080093383789
253,280,34024741,1864237236,65.13267517089844
254,281,34024741,1864237236,65.02268981933594
255,282,34024741,1864237236,65.77763366699219
256,283,34024741,1864237236,68.96731567382812
257,284,34024741,1864237236,64.43731689453125
258,285,34024741,1864237236,66.91377258300781
259,286,34024741,1864237236,66.38093566894531
260,287,34024741,1864237236,66.40076446533203
261,288,34024741,1864237236,66.03599548339844
262,289,34024741,1864237236,62.043067932128906
263,290,34024741,1864237236,64.6515884399414
264,291,34024741,1864237236,68.39460754394531
265,292,34024741,1864237236,64.72582244873047
266,293,34024741,1864237236,66.1108627319336
267,294,34024741,1864237236,66.2076416015625
268,295,34024741,1864237236,68.37098693847656
269,296,34024741,1864237236,67.74386596679688
270,297,34024741,1864237236,67.62368774414062
271,298,34024741,1864237236,68.13428497314453
272,299,34024741,1864237236,68.09965515136719
273,300,34024741,1864237236,67.77383422851562
274,301,34024741,1864237236,67.27377319335938
275,302,34024741,1864237236,66.16903686523438
276,303,34024741,1864237236,65.0715103149414
277,304,34024741,1864237236,65.5380859375
278,305,34024741,1864237236,66.41011047363281
279,306,34024741,1864237236,67.24554443359375
280,307,34024741,1864237236,67.1275405883789
281,308,34024741,1864237236,67.15288543701172
282,309,34024741,1864237236,67.05029296875
283,310,34024741,1864237236,66.34224700927734
284,311,34024741,1864237236,66.66167449951172
285,312,34024741,1864237236,66.73970031738281
286,313,34024741,1864237236,68.31959533691406
287,314,34024741,1864237236,69.70256042480469
288,315,34024741,1864237236,70.07955169677734
289,316,34024741,1864237236,69.9808578491211
290,317,34024741,1864237236,68.734619140625
291,318,34024741,1864237236,66.6074447631836
292,319,34024741,1864237236,63.677490234375
293,326,34024741,1864237236,66.16133117675781
294,327,34024741,1864237236,67.00382232666016
295,328,34024741,1864237236,68.03433227539062
296,332,34024741,1864237236,53.98652267456055
297,333,34024741,1864237236,60.13560485839844
298,341,34024741,1864237236,66.24515533447266
299,342,34024741,1864237236,68.03341674804688
300,343,34024741,1864237236,68.90068817138672
301,354,34024741,1864237236,68.24474334716797
302,355,34024741,1864237236,66.3663101196289
303,356,34024741,1864237236,64.42796325683594
304,357,34024741,1864237236,66.11463928222656
305,358,34024741,1864237236,61.11398696899414
306,359,34024741,1864237236,61.554073333740234
307,360,34024741,1864237236,64.03353881835938
308,361,34024741,1864237236,60.86918258666992
309,362,34024741,1864237236,61.584434509277344
310,363,34024741,1864237236,57.4094123840332
311,364,34024741,1864237236,57.94884490966797
312,365,34024741,1864237236,58.81947708129883
313,366,34024741,1864237236,58.641273498535156
314,367,34024741,1864237236,57.67988967895508
315,368,34024741,1864237236,55.126258850097656
316,369,34024741,1864237236,60.030677795410156
317,370,34024741,1864237236,58.17533874511719
318,371,34024741,1864237236,57.951175689697266
319,372,34024741,1864237236,56.68852615356445
320,373,34024741,1864237236,52.79747772216797
321,374,34024741,1864237236,59.82221221923828
322,375,34024741,1864237236,57.351993560791016
323,376,34024741,1864237236,57.24626159667969
324,377,34024741,1864237236,60.21171569824219
325,378,34024741,1864237236,51.51237487792969
326,379,34024741,1864237236,55.052818298339844
327,380,34024741,1864237236,46.3490104675293
328,381,34024741,1864237236,44.38690948486328
329,382,34024741,1864237236,24.408039093017578
330,383,34024741,1864237236,18.49239158630371
331,384,34024741,1864237236,13.977211952209473
332,385,34024741,1864237236,11.549113273620605
333,386,34024741,1864237236,11.26333236694336
334,387,34024741,1864237236,10.386543273925781
335,388,34024741,1864237236,12.829837799072266
336,389,34024741,1864237236,18.691226959228516
337,390,34024741,1864237236,17.739166259765625
338,391,34024741,1864237236,13.17530632019043
339,392,34024741,1864237236,16.176498413085938
340,393,34024741,1864237236,14.233624458312988
341,394,34024741,1864237236,11.983247756958008
342,395,34024741,1864237236,12.625329971313477
343,396,34024741,1864237236,16.446271896362305
344,397,34024741,1864237236,12.639582633972168
345,398,34024741,1864237236,9.271284103393555
346,399,34024741,1864237236,12.887866973876953
347,400,34024741,1864237236,8.537490844726562
348,401,34024741,1864237236,11.411314010620117
349,402,34024741,1864237236,12.85295295715332
350,403,34024741,1864237236,13.222448348999023
351,404,34024741,1864237236,10.813431739807129
352,405,34024741,1864237236,15.608264923095703
353,406,34024741,1864237236,10.413483619689941
354,407,34024741,1864237236,12.84392261505127
355,408,34024741,1864237236,11.891355514526367
356,409,34024741,1864237236,11.968223571777344
357,410,34024741,1864237236,12.381274223327637
358,411,34024741,1864237236,12.067659378051758
359,412,34024741,1864237236,11.091300964355469
360,413,34024741,1864237236,11.051977157592773
361,414,34024741,1864237236,13.102188110351562
362,415,34024741,1864237236,17.04226303100586
363,416,34024741,1864237236,15.22302532196045
364,417,34024741,1864237236,21.928211212158203
365,418,34024741,1864237236,15.736917495727539
366,419,34024741,1864237236,15.242047309875488
367,420,34024741,1864237236,13.477629661560059
368,421,34024741,1864237236,22.694053649902344
369,422,34024741,1864237236,16.461517333984375
370,423,34024741,1864237236,12.130940437316895
371,424,34024741,1864237236,13.860093116760254
372,425,34024741,1864237236,14.725133895874023
373,426,34024741,1864237236,15.960855484008789
374,427,34024741,1864237236,12.801369667053223
375,428,34024741,1864237236,15.2819242477417
376,429,34024741,1864237236,13.709864616394043
377,430,34024741,1864237236,20.21280860900879
378,431,34024741,1864237236,16.872785568237305
379,432,34024741,1864237236,17.589950561523438
380,433,34024741,1864237236,16.932022094726562
381,434,34024741,1864237236,39.7775993347168
382,435,34024741,1864237236,14.930824279785156
383,436,34024741,1864237236,17.344783782958984
384,437,34024741,1864237236,13.550908088684082
385,438,34024741,1864237236,12.434096336364746
386,439,34024741,1864237236,11.300984382629395
387,440,34024741,1864237236,14.794465065002441
388,441,34024741,1864237236,15.534405708312988
389,442,34024741,1864237236,16.543899536132812
390,443,34024741,1864237236,24.773277282714844
391,444,34024741,1864237236,56.17707824707031
392,445,34024741,1864237236,51.73593521118164
393,446,34024741,1864237236,55.365726470947266
394,447,34024741,1864237236,57.63915252685547
395,448,34024741,1864237236,52.47272491455078
396,449,34024741,1864237236,53.51572036743164
397,450,34024741,1864237236,58.07917022705078
398,451,34024741,1864237236,46.10554885864258
399,452,34024741,1864237236,45.29924011230469
400,453,34024741,1864237236,53.812374114990234
401,454,34024741,1864237236,52.78615188598633
402,455,34024741,1864237236,47.21482849121094
403,456,34024741,1864237236,62.15830612182617
404,457,34024741,1864237236,59.22053146362305
405,458,34024741,1864237236,55.082557678222656
406,459,34024741,1864237236,62.47860336303711
407,460,34024741,1864237236,59.472984313964844
408,461,34024741,1864237236,60.6234130859375
409,462,34024741,1864237236,58.79178237915039
410,463,34024741,1864237236,60.501922607421875
411,464,34024741,1864237236,59.44231414794922
412,465,34024741,1864237236,55.407203674316406
413,466,34024741,1864237236,52.481788635253906
414,467,34024741,1864237236,17.85405731201172
415,468,34024741,1864237236,55.80598449707031
416,469,34024741,1864237236,26.84786605834961
417,470,34024741,1864237236,20.14202117919922
418,471,34024741,1864237236,17.9487247467041
419,472,34024741,1864237236,53.303932189941406
420,473,34024741,1864237236,54.471614837646484
421,474,34024741,1864237236,54.83580780029297
422,475,34024741,1864237236,55.35823059082031
423,476,34024741,1864237236,49.47291564941406
424,477,34024741,1864237236,20.11612319946289
425,478,34024741,1864237236,11.285919189453125
426,479,34024741,1864237236,14.182781219482422
427,480,34024741,1864237236,14.433008193969727
428,481,34024741,1864237236,11.955038070678711
429,482,34024741,1864237236,10.823223114013672
430,483,34024741,1864237236,11.906639099121094
431,484,34024741,1864237236,10.442403793334961
432,485,34024741,1864237236,11.75963020324707
433,486,34024741,1864237236,9.020648002624512
434,487,34024741,1864237236,8.239106178283691
435,488,34024741,1864237236,9.058001518249512
436,489,34024741,1864237236,7.688861846923828
437,490,34024741,1864237236,9.917980194091797
438,491,34024741,1864237236,10.454066276550293
439,492,34024741,1864237236,9.473201751708984
440,493,34024741,1864237236,13.123291015625
441,494,34024741,1864237236,11.784520149230957
442,495,34024741,1864237236,9.607263565063477
443,496,34024741,1864237236,10.811563491821289
444,497,34024741,1864237236,9.868368148803711
445,498,34024741,1864237236,12.188520431518555
446,499,34024741,1864237236,9.442627906799316
447,500,34024741,1864237236,9.660229682922363
448,501,34024741,1864237236,9.867415428161621
449,502,34024741,1864237236,9.408273696899414
450,503,34024741,1864237236,9.032255172729492
451,504,34024741,1864237236,11.625109672546387
452,505,34024741,1864237236,9.46998119354248
453,506,34024741,1864237236,11.29907512664795
454,507,34024741,1864237236,10.272966384887695
455,508,34024741,1864237236,11.234742164611816
456,509,34024741,1864237236,15.077693939208984
457,510,34024741,1864237236,13.807066917419434
458,511,34024741,1864237236,11.126484870910645
459,512,34024741,1864237236,19.93194580078125
460,513,34024741,1864237236,21.343494415283203
461,514,34024741,1864237236,16.78445053100586
462,515,34024741,1864237236,10.977899551391602
463,516,34024741,1864237236,25.739551544189453
464,517,34024741,1864237236,14.21725082397461
465,518,34024741,1864237236,15.687751770019531
466,519,34024741,1864237236,47.10271453857422
467,520,34024741,1864237236,15.56686019897461
468,521,34024741,1864237236,51.69172668457031
469,522,34024741,1864237236,52.82477951049805
470,523,34024741,1864237236,57.44586944580078
471,524,34024741,1864237236,54.66560363769531
472,525,34024741,1864237236,56.30600357055664
473,526,34024741,1864237236,54.08997344970703
474,527,34024741,1864237236,57.86000061035156
475,528,34024741,1864237236,58.79594039916992
476,529,34024741,1864237236,61.13577651977539
477,530,34024741,1864237236,60.39033508300781
478,531,34024741,1864237236,59.175479888916016
479,532,34024741,1864237236,61.03868865966797
480,533,34024741,1864237236,61.304229736328125
481,534,34024741,1864237236,60.94254684448242
482,535,34024741,1864237236,64.44541931152344
483,536,34024741,1864237236,59.94541931152344
484,537,34024741,1864237236,65.26725769042969
485,538,34024741,1864237236,61.318321228027344
486,539,34024741,1864237236,65.94707489013672
487,540,34024741,1864237236,63.46751403808594
488,541,34024741,1864237236,63.07679748535156
489,542,34024741,1864237236,62.79775619506836
490,543,34024741,1864237236,60.756378173828125
491,544,34024741,1864237236,64.16412353515625
492,545,34024741,1864237236,63.178524017333984
493,546,34024741,1864237236,66.6823501586914
494,547,34024741,1864237236,67.60919189453125
495,548,34024741,1864237236,63.673805236816406
496,549,34024741,1864237236,62.07963943481445
497,550,34024741,1864237236,64.63226318359375
498,551,34024741,1864237236,64.11314392089844
499,552,34024741,1864237236,62.788787841796875
500,553,34024741,1864237236,62.053585052490234
501,554,34024741,1864237236,61.218421936035156
502,555,34024741,1864237236,63.86422348022461
503,556,34024741,1864237236,66.02335357666016
504,557,34024741,1864237236,66.690185546875
505,558,34024741,1864237236,64.03223419189453
506,559,34024741,1864237236,63.87574768066406
507,560,34024741,1864237236,66.58587646484375
508,561,34024741,1864237236,62.63837432861328
509,562,34024741,1864237236,65.67533111572266
510,563,34024741,1864237236,65.31185913085938
511,564,34024741,1864237236,66.47381591796875
512,565,34024741,1864237236,65.69241333007812
513,566,34024741,1864237236,64.07456970214844
514,567,34024741,1864237236,63.415443420410156
515,568,34024741,1864237236,65.83979797363281
516,569,34024741,1864237236,67.72970581054688
517,570,34024741,1864237236,65.9278564453125
518,571,34024741,1864237236,66.36524200439453
519,572,34024741,1864237236,64.63446044921875
520,573,34024741,1864237236,64.51671600341797
521,574,34024741,1864237236,65.09416961669922
522,575,34024741,1864237236,65.814453125
523,576,34024741,1864237236,63.929569244384766
524,577,34024741,1864237236,66.18807220458984
525,578,34024741,1864237236,67.40670776367188
526,579,34024741,1864237236,65.52787780761719
527,580,34024741,1864237236,63.828407287597656
528,581,34024741,1864237236,66.96240997314453
529,582,34024741,1864237236,66.38851165771484
530,583,34024741,1864237236,66.78886413574219
531,584,34024741,1864237236,65.5224380493164
532,585,34024741,1864237236,67.92294311523438
533,586,34024741,1864237236,67.93197631835938
534,587,34024741,1864237236,67.85359191894531
535,588,34024741,1864237236,70.73413848876953
536,589,34024741,1864237236,62.60822677612305
537,590,34024741,1864237236,66.56951141357422
538,591,34024741,1864237236,66.5062484741211
539,592,34024741,1864237236,66.98815155029297
540,593,34024741,1864237236,66.92774963378906
541,594,34024741,1864237236,67.5462646484375
542,595,34024741,1864237236,67.75238800048828
543,596,34024741,1864237236,66.54806518554688
544,597,34024741,1864237236,66.03111267089844
545,598,34024741,1864237236,66.25968933105469
546,599,34024741,1864237236,65.76719665527344
547,600,34024741,1864237236,64.65318298339844
548,601,34024741,1864237236,64.42357635498047
549,602,34024741,1864237236,65.7977294921875
550,603,34024741,1864237236,65.82276153564453
551,604,34024741,1864237236,65.82868957519531
552,609,34024741,1864237236,67.79277801513672
553,610,34024741,1864237236,66.98978424072266
554,611,34024741,1864237236,67.19464874267578
555,612,34024741,1864237236,67.39250946044922
556,615,34024741,1864237236,66.57246398925781
557,616,34024741,1864237236,66.19046783447266
558,625,34024741,1864237236,65.84313201904297
559,626,34024741,1864237236,64.70857238769531
560,638,34024741,1864237236,68.71306610107422
561,639,34024741,1864237236,68.15727233886719
562,640,34024741,1864237236,67.91040802001953
563,641,34024741,1864237236,67.39112091064453
564,642,34024741,1864237236,66.0628433227539
565,643,34024741,1864237236,65.06343841552734
566,644,34024741,1864237236,64.4032211303711
567,645,34024741,1864237236,63.75933074951172
568,646,34024741,1864237236,64.51831817626953
569,647,34024741,1864237236,64.17626953125
570,648,34024741,1864237236,61.509700775146484
571,649,34024741,1864237236,59.511192321777344
572,650,34024741,1864237236,58.00090789794922
573,651,34024741,1864237236,53.68152618408203
574,652,34024741,1864237236,55.779354095458984
575,653,34024741,1864237236,56.6060791015625
576,654,34024741,1864237236,55.75715255737305
577,655,34024741,1864237236,40.91575622558594
578,656,34024741,1864237236,57.880409240722656
579,657,34024741,1864237236,54.70917892456055
580,658,34024741,1864237236,37.197967529296875
581,659,34024741,1864237236,48.386940002441406
582,660,34024741,1864237236,54.17572021484375
583,661,34024741,1864237236,53.72662353515625
584,662,34024741,1864237236,60.0959587097168
585,663,34024741,1864237236,55.93718719482422
586,664,34024741,1864237236,51.4024658203125
587,665,34024741,1864237236,53.59278869628906
588,666,34024741,1864237236,55.138031005859375
589,667,34024741,1864237236,52.57526397705078
590,668,34024741,1864237236,53.74346923828125
591,669,34024741,1864237236,53.24678039550781
592,670,34024741,1864237236,21.698965072631836
593,671,34024741,1864237236,26.04988670349121
594,672,34024741,1864237236,21.588703155517578
595,673,34024741,1864237236,16.811630249023438
596,674,34024741,1864237236,15.276700973510742
597,675,34024741,1864237236,15.971428871154785
598,676,34024741,1864237236,13.89991283416748
599,677,34024741,1864237236,12.525632858276367
600,678,34024741,1864237236,12.345523834228516
601,679,34024741,1864237236,13.741623878479004
602,680,34024741,1864237236,12.136662483215332
603,681,34024741,1864237236,10.699321746826172
604,682,34024741,1864237236,11.533421516418457
605,683,34024741,1864237236,10.141646385192871
606,684,34024741,1864237236,10.696017265319824
607,685,34024741,1864237236,10.16480827331543
608,686,34024741,1864237236,13.371230125427246
609,687,34024741,1864237236,11.673264503479004
610,688,34024741,1864237236,15.147180557250977
611,689,34024741,1864237236,12.047013282775879
612,690,34024741,1864237236,14.90311050415039
613,691,34024741,1864237236,20.068349838256836
614,692,34024741,1864237236,10.872629165649414
615,693,34024741,1864237236,15.375235557556152
616,694,34024741,1864237236,13.229026794433594
617,695,34024741,1864237236,17.162555694580078
618,696,34024741,1864237236,25.008150100708008
619,697,34024741,1864237236,17.749448776245117
620,698,34024741,1864237236,13.041549682617188
621,699,34024741,1864237236,13.262067794799805
622,700,34024741,1864237236,14.256001472473145
623,701,34024741,1864237236,22.804580688476562
624,702,34024741,1864237236,12.654800415039062
625,703,34024741,1864237236,15.1321382522583
626,704,34024741,1864237236,13.142291069030762
627,705,34024741,1864237236,14.99386215209961
628,706,34024741,1864237236,11.137924194335938
629,707,34024741,1864237236,15.800240516662598
630,708,34024741,1864237236,14.521681785583496
631,709,34024741,1864237236,12.56081771850586
632,710,34024741,1864237236,12.557920455932617
633,711,34024741,1864237236,13.492512702941895
634,712,34024741,1864237236,14.64488410949707
635,713,34024741,1864237236,16.602331161499023
636,714,34024741,1864237236,11.891912460327148
637,715,34024741,1864237236,13.526901245117188
638,716,34024741,1864237236,16.838682174682617
639,717,34024741,1864237236,14.43545913696289
640,718,34024741,1864237236,18.881391525268555
641,719,34024741,1864237236,15.72412109375
642,720,34024741,1864237236,44.54985809326172
643,721,34024741,1864237236,54.317413330078125
644,722,34024741,1864237236,50.82860565185547
645,723,34024741,1864237236,56.050636291503906
646,724,34024741,1864237236,56.446102142333984
647,725,34024741,1864237236,61.622772216796875
648,726,34024741,1864237236,63.96915054321289
649,727,34024741,1864237236,62.68022155761719
650,728,34024741,1864237236,61.79601287841797
651,729,34024741,1864237236,55.340423583984375
652,730,34024741,1864237236,64.73947143554688
653,731,34024741,1864237236,57.09946060180664
654,732,34024741,1864237236,61.68384552001953
655,733,34024741,1864237236,56.377220153808594
656,734,34024741,1864237236,57.5552864074707
657,735,34024741,1864237236,62.32487487792969
658,736,34024741,1864237236,63.66265869140625
659,737,34024741,1864237236,63.51984786987305
660,738,34024741,1864237236,64.07070922851562
661,739,34024741,1864237236,60.234619140625
662,740,34024741,1864237236,45.587398529052734
663,741,34024741,1864237236,44.618839263916016
664,742,34024741,1864237236,44.154747009277344
665,743,34024741,1864237236,62.85118865966797
666,744,34024741,1864237236,19.733951568603516
667,745,34024741,1864237236,62.82109451293945
668,746,34024741,1864237236,19.354537963867188
669,747,34024741,1864237236,13.975921630859375
670,748,34024741,1864237236,17.378511428833008
671,749,34024741,1864237236,18.982633590698242
672,750,34024741,1864237236,17.733901977539062
673,751,34024741,1864237236,14.366373062133789
674,752,34024741,1864237236,42.81559371948242
675,753,34024741,1864237236,53.45798110961914
676,754,34024741,1864237236,60.55371856689453
677,755,34024741,1864237236,18.956832885742188
678,756,34024741,1864237236,48.883934020996094
679,757,34024741,1864237236,23.76340103149414
680,758,34024741,1864237236,25.41790771484375
681,759,34024741,1864237236,15.49911880493164
682,760,34024741,1864237236,15.635157585144043
683,761,34024741,1864237236,18.312341690063477
684,762,34024741,1864237236,14.075408935546875
685,763,34024741,1864237236,14.163710594177246
686,764,34024741,1864237236,14.049808502197266
687,765,34024741,1864237236,10.351625442504883
688,766,34024741,1864237236,9.603821754455566
689,767,34024741,1864237236,10.477264404296875
690,768,34024741,1864237236,9.30447769165039
691,769,34024741,1864237236,9.642144203186035
692,770,34024741,1864237236,8.88931941986084
693,771,34024741,1864237236,8.599005699157715
694,772,34024741,1864237236,6.426529884338379
695,773,34024741,1864237236,9.112730979919434
696,774,34024741,1864237236,9.54145336151123
697,775,34024741,1864237236,9.323711395263672
698,776,34024741,1864237236,9.060553550720215
699,777,34024741,1864237236,11.04185962677002
700,778,34024741,1864237236,9.144841194152832
701,779,34024741,1864237236,9.164843559265137
702,780,34024741,1864237236,9.56279468536377
703,781,34024741,1864237236,10.742463111877441
704,782,34024741,1864237236,7.941328525543213
705,783,34024741,1864237236,10.467140197753906
706,784,34024741,1864237236,10.909608840942383
707,785,34024741,1864237236,9.260319709777832
708,786,34024741,1864237236,9.894805908203125
709,787,34024741,1864237236,10.442486763000488
710,788,34024741,1864237236,10.015682220458984
711,789,34024741,1864237236,10.859151840209961
712,790,34024741,1864237236,9.564438819885254
713,791,34024741,1864237236,8.879255294799805
714,792,34024741,1864237236,9.492212295532227
715,793,34024741,1864237236,9.20422077178955
716,794,34024741,1864237236,7.877451419830322
717,795,34024741,1864237236,9.203091621398926
718,796,34024741,1864237236,9.043535232543945
719,797,34024741,1864237236,9.468086242675781
720,798,34024741,1864237236,11.198219299316406
721,799,34024741,1864237236,13.966310501098633
722,800,34024741,1864237236,14.65645980834961
723,801,34024741,1864237236,14.922965049743652
724,802,34024741,1864237236,13.728975296020508
725,803,34024741,1864237236,16.3100528717041
726,804,34024741,1864237236,15.673377990722656
727,805,34024741,1864237236,11.555391311645508
728,806,34024741,1864237236,13.80021858215332
729,807,34024741,1864237236,15.295913696289062
730,808,34024741,1864237236,23.669166564941406
731,809,34024741,1864237236,51.824127197265625
732,810,34024741,1864237236,51.90592956542969
733,811,34024741,1864237236,51.92036819458008
734,812,34024741,1864237236,18.68935775756836
735,813,34024741,1864237236,52.64508819580078
736,814,34024741,1864237236,23.565702438354492
737,815,34024741,1864237236,55.09095001220703
738,816,34024741,1864237236,60.222076416015625
739,817,34024741,1864237236,62.96429443359375
740,818,34024741,1864237236,62.98348617553711
741,819,34024741,1864237236,58.807708740234375
742,820,34024741,1864237236,64.26611328125
743,821,34024741,1864237236,65.24885559082031
744,822,34024741,1864237236,61.119606018066406
745,823,34024741,1864237236,61.54185104370117
746,824,34024741,1864237236,59.026580810546875
747,825,34024741,1864237236,63.08177947998047
748,826,34024741,1864237236,62.399513244628906
749,827,34024741,1864237236,62.38759994506836
750,828,34024741,1864237236,63.633201599121094
751,829,34024741,1864237236,64.95441436767578
752,830,34024741,1864237236,63.608638763427734
753,831,34024741,1864237236,63.012413024902344
754,832,34024741,1864237236,59.64717102050781
755,833,34024741,1864237236,64.31672668457031
756,834,34024741,1864237236,63.728912353515625
757,835,34024741,1864237236,65.87211608886719
758,836,34024741,1864237236,65.2109146118164
759,837,34024741,1864237236,64.34245300292969
760,838,34024741,1864237236,67.83184051513672
761,839,34024741,1864237236,64.38553619384766
762,840,34024741,1864237236,63.779720306396484
763,841,34024741,1864237236,65.24823760986328
764,842,34024741,1864237236,62.92948532104492
765,843,34024741,1864237236,60.21100616455078
766,844,34024741,1864237236,62.99189376831055
767,845,34024741,1864237236,61.4265251159668
768,846,34024741,1864237236,62.92041015625
769,847,34024741,1864237236,64.61933898925781
770,848,34024741,1864237236,63.99671936035156
771,849,34024741,1864237236,64.16860961914062
772,850,34024741,1864237236,65.26377868652344
773,851,34024741,1864237236,65.77494812011719
774,852,34024741,1864237236,65.89089965820312
775,853,34024741,1864237236,66.36538696289062
776,854,34024741,1864237236,65.74899291992188
777,855,34024741,1864237236,67.41649627685547
778,856,34024741,1864237236,58.71051025390625
779,857,34024741,1864237236,63.6190185546875
780,858,34024741,1864237236,69.04576110839844
781,859,34024741,1864237236,62.9639778137207
782,860,34024741,1864237236,65.22660827636719
783,861,34024741,1864237236,67.67427062988281
784,862,34024741,1864237236,66.65502166748047
785,863,34024741,1864237236,66.5456771850586
786,864,34024741,1864237236,65.07849884033203
787,865,34024741,1864237236,67.01228332519531
788,866,34024741,1864237236,67.55946350097656
789,867,34024741,1864237236,68.18096923828125
790,868,34024741,1864237236,67.94105529785156
791,869,34024741,1864237236,66.02913665771484
792,870,34024741,1864237236,66.99449157714844
793,871,34024741,1864237236,66.6568374633789
794,872,34024741,1864237236,67.21961212158203
795,873,34024741,1864237236,69.47223663330078
796,874,34024741,1864237236,66.4360122680664
797,875,34024741,1864237236,66.37680053710938
798,876,34024741,1864237236,66.16376495361328
799,877,34024741,1864237236,65.69266510009766
800,878,34024741,1864237236,66.7554702758789
801,879,34024741,1864237236,66.8089828491211
802,880,34024741,1864237236,67.40943908691406
803,881,34024741,1864237236,67.6626968383789
804,882,34024741,1864237236,67.56902313232422
805,883,34024741,1864237236,67.34546661376953
806,884,34024741,1864237236,68.5416030883789
807,885,34024741,1864237236,68.32835388183594
808,886,34024741,1864237236,66.78878784179688
809,887,34024741,1864237236,66.72686767578125
810,888,34024741,1864237236,66.59874725341797
811,889,34024741,1864237236,66.74010467529297
812,890,34024741,1864237236,64.16755676269531
813,891,34024741,1864237236,65.43743133544922
814,892,34024741,1864237236,66.71265411376953
815,893,34024741,1864237236,67.4759521484375
816,894,34024741,1864237236,64.73448944091797
817,905,34024741,1864237236,69.44467163085938
818,906,34024741,1864237236,69.24410247802734
819,907,34024741,1864237236,68.50727844238281
820,908,34024741,1864237236,66.65074157714844
821,909,34024741,1864237236,63.688602447509766
822,910,34024741,1864237236,61.65151596069336
823,911,34024741,1864237236,63.38135528564453
824,912,34024741,1864237236,62.754390716552734
825,913,34024741,1864237236,63.9100227355957
826,914,34024741,1864237236,62.506263732910156
827,931,34024741,1864237236,67.0054931640625
828,932,34024741,1864237236,67.73955535888672
829,933,34024741,1864237236,68.21541595458984
830,934,34024741,1864237236,69.1004867553711
831,935,34024741,1864237236,68.67449951171875
832,936,34024741,1864237236,67.50201416015625
833,937,34024741,1864237236,65.99979400634766
834,938,34024741,1864237236,65.28610229492188
835,939,34024741,1864237236,66.4350357055664
836,940,34024741,1864237236,67.2655029296875
837,941,34024741,1864237236,67.98668670654297
838,942,34024741,1864237236,68.36296081542969
839,943,34024741,1864237236,67.39901733398438
840,944,34024741,1864237236,66.9660415649414
841,945,34024741,1864237236,66.2052230834961
842,946,34024741,1864237236,66.09239959716797
843,947,34024741,1864237236,66.42955780029297
844,948,34024741,1864237236,63.741241455078125
845,949,34024741,1864237236,59.390689849853516
846,950,34024741,1864237236,59.86489486694336
847,951,34024741,1864237236,58.28086471557617
848,952,34024741,1864237236,59.97359085083008
849,953,34024741,1864237236,58.988121032714844
850,954,34024741,1864237236,61.57696533203125
851,955,34024741,1864237236,64.31564331054688
852,956,34024741,1864237236,58.01224899291992
853,957,34024741,1864237236,59.21323013305664
854,958,34024741,1864237236,58.31315231323242
855,959,34024741,1864237236,54.37576675415039
856,960,34024741,1864237236,53.711883544921875
857,961,34024741,1864237236,63.92669677734375
858,962,34024741,1864237236,60.53071594238281
859,963,34024741,1864237236,59.216468811035156
860,964,34024741,1864237236,62.16202163696289
861,965,34024741,1864237236,60.03822326660156
862,966,34024741,1864237236,58.2056999206543
863,967,34024741,1864237236,57.57380294799805
864,968,34024741,1864237236,57.37919616699219
865,969,34024741,1864237236,57.40221405029297
866,970,34024741,1864237236,57.724342346191406
867,971,34024741,1864237236,58.59471130371094
868,972,34024741,1864237236,58.90270233154297
869,973,34024741,1864237236,55.96112060546875
870,974,34024741,1864237236,55.75926971435547
871,975,34024741,1864237236,54.836360931396484
872,976,34024741,1864237236,55.901405334472656
873,977,34024741,1864237236,57.097625732421875
874,978,34024741,1864237236,58.28446960449219
875,979,34024741,1864237236,60.7791748046875
876,980,34024741,1864237236,57.73733901977539
877,981,34024741,1864237236,59.805419921875
878,982,34024741,1864237236,54.87928009033203
879,983,34024741,1864237236,57.55730056762695
880,984,34024741,1864237236,50.45580291748047
881,985,34024741,1864237236,55.57231140136719
882,986,34024741,1864237236,59.49229431152344
883,987,34024741,1864237236,61.43757629394531
884,988,34024741,1864237236,58.539703369140625
885,989,34024741,1864237236,59.420265197753906
886,990,34024741,1864237236,61.442474365234375
887,991,34024741,1864237236,58.562801361083984
888,992,34024741,1864237236,56.733856201171875
889,993,34024741,1864237236,52.788230895996094
890,994,34024741,1864237236,32.779075622558594
891,995,34024741,1864237236,20.28237533569336
892,996,34024741,1864237236,16.225820541381836
893,997,34024741,1864237236,17.98175048828125
894,998,34024741,1864237236,32.610015869140625
895,999,34024741,1864237236,46.96479415893555
896,1000,34024741,1864237236,54.55524444580078
897,1001,34024741,1864237236,66.57594299316406
898,1002,34024741,1864237236,56.072513580322266
899,1003,34024741,1864237236,60.62565612792969
900,1004,34024741,1864237236,56.59471130371094
901,1005,34024741,1864237236,54.87117004394531
902,1006,34024741,1864237236,57.777259826660156
903,1007,34024741,1864237236,49.2242431640625
904,1008,34024741,1864237236,31.03473663330078
905,1009,34024741,1864237236,58.92335891723633
906,1010,34024741,1864237236,57.95817565917969
907,1011,34024741,1864237236,58.80132293701172
908,1012,34024741,1864237236,41.39331817626953
909,1013,34024741,1864237236,22.427709579467773
910,1014,34024741,1864237236,25.750078201293945
911,1015,34024741,1864237236,28.225961685180664
912,1016,34024741,1864237236,29.488691329956055
913,1017,34024741,1864237236,58.787628173828125
914,1018,34024741,1864237236,13.776021003723145
915,1019,34024741,1864237236,57.117061614990234
916,1020,34024741,1864237236,54.86445999145508
917,1021,34024741,1864237236,20.14963150024414
918,1022,34024741,1864237236,23.0853271484375
919,1023,34024741,1864237236,17.62857437133789
920,1024,34024741,1864237236,26.7930908203125
921,1025,34024741,1864237236,14.674097061157227
922,1026,34024741,1864237236,62.909942626953125
923,1027,34024741,1864237236,57.090396881103516
924,1028,34024741,1864237236,61.68460464477539
925,1029,34024741,1864237236,56.38691711425781
926,1030,34024741,1864237236,28.609195709228516
927,1031,34024741,1864237236,19.154104232788086
928,1032,34024741,1864237236,16.634037017822266
929,1033,34024741,1864237236,19.718551635742188
930,1034,34024741,1864237236,21.088937759399414
931,1035,34024741,1864237236,16.19927978515625
932,1036,34024741,1864237236,56.219139099121094
933,1037,34024741,1864237236,57.16644287109375
934,1038,34024741,1864237236,63.807518005371094
935,1039,34024741,1864237236,61.952919006347656
936,1040,34024741,1864237236,28.115882873535156
937,1041,34024741,1864237236,56.14256286621094
938,1042,34024741,1864237236,59.03060531616211
939,1043,34024741,1864237236,62.53730392456055
940,1044,34024741,1864237236,62.74721908569336
941,1045,34024741,1864237236,66.58914947509766
942,1046,34024741,1864237236,67.30552673339844
943,1047,34024741,1864237236,64.20325469970703
944,1048,34024741,1864237236,62.78085708618164
945,1049,34024741,1864237236,64.80105590820312
946,1050,34024741,1864237236,65.87891387939453
947,1051,34024741,1864237236,64.44523620605469
948,1052,34024741,1864237236,64.19673156738281
949,1053,34024741,1864237236,66.14218139648438
950,1054,34024741,1864237236,64.52224731445312
951,1055,34024741,1864237236,65.0123291015625
952,1056,34024741,1864237236,63.44218444824219
953,1057,34024741,1864237236,66.31971740722656
954,1058,34024741,1864237236,66.13642883300781
955,1059,34024741,1864237236,67.01335906982422
956,1060,34024741,1864237236,64.06137084960938
957,1061,34024741,1864237236,64.61583709716797
958,1062,34024741,1864237236,66.07927703857422
959,1063,34024741,1864237236,53.151336669921875
960,1064,34024741,1864237236,61.95759963989258
961,1065,34024741,1864237236,68.20103454589844
962,1066,34024741,1864237236,66.77832794189453
963,1067,34024741,1864237236,63.594383239746094
964,1068,34024741,1864237236,63.37855911254883
965,1069,34024741,1864237236,64.00962829589844
966,1070,34024741,1864237236,64.2777099609375
967,1071,34024741,1864237236,62.07561492919922
968,1072,34024741,1864237236,62.28864288330078
969,1073,34024741,1864237236,65.05846405029297
970,1074,34024741,1864237236,58.75983428955078
971,1075,34024741,1864237236,61.050621032714844
972,1076,34024741,1864237236,62.12220001220703
973,1077,34024741,1864237236,63.229705810546875
974,1078,34024741,1864237236,63.37781524658203
975,1079,34024741,1864237236,63.921592712402344
976,1080,34024741,1864237236,62.74913787841797
977,1081,34024741,1864237236,63.770751953125
978,1082,34024741,1864237236,61.89361572265625
979,1083,34024741,1864237236,62.31829833984375
980,1084,34024741,1864237236,64.12105560302734
981,1085,34024741,1864237236,56.40949630737305
982,1086,34024741,1864237236,55.1982536315918
983,1087,34024741,1864237236,46.31808853149414
984,1088,34024741,1864237236,41.994911193847656
985,1089,34024741,1864237236,51.83287811279297
986,1090,34024741,1864237236,53.55014419555664
987,1091,34024741,1864237236,23.67413330078125
988,1092,34024741,1864237236,52.93479919433594
989,1093,34024741,1864237236,62.32187271118164
990,1094,34024741,1864237236,61.708106994628906
991,1095,34024741,1864237236,60.17310333251953
992,1096,34024741,1864237236,54.815189361572266
993,1097,34024741,1864237236,43.20625305175781
994,1098,34024741,1864237236,55.2968635559082
995,1099,34024741,1864237236,45.36503982543945
996,1100,34024741,1864237236,42.03691864013672
997,1101,34024741,1864237236,44.620731353759766
998,1102,34024741,1864237236,44.281829833984375
999,1103,34024741,1864237236,36.566444396972656
1000,1104,34024741,1864237236,36.49032211303711
1001,1105,34024741,1864237236,36.582305908203125
1002,1106,34024741,1864237236,40.422611236572266
1003,1107,34024741,1864237236,57.548484802246094
1004,1108,34024741,1864237236,49.719139099121094
1005,1109,34024741,1864237236,54.4373664855957
1006,1110,34024741,1864237236,37.156341552734375
1007,1111,34024741,1864237236,52.535888671875
1008,1112,34024741,1864237236,57.44045639038086
1009,1113,34024741,1864237236,55.552406311035156
1010,1114,34024741,1864237236,40.02778244018555
1011,1115,34024741,1864237236,23.500452041625977
1012,1116,34024741,1864237236,38.696556091308594
1013,1117,34024741,1864237236,49.65671920776367
1014,1118,34024741,1864237236,56.73531723022461
1015,1119,34024741,1864237236,61.033485412597656
1016,1120,34024741,1864237236,66.48353576660156
1017,1121,34024741,1864237236,61.61406326293945
1018,1122,34024741,1864237236,60.98550033569336
1019,1123,34024741,1864237236,60.75462341308594
1020,1124,34024741,1864237236,61.75142288208008
1021,1125,34024741,1864237236,60.8378791809082
1022,1126,34024741,1864237236,63.55437088012695
1023,1127,34024741,1864237236,63.513671875
1024,1128,34024741,1864237236,58.338722229003906
1025,1129,34024741,1864237236,63.97230911254883
1026,1130,34024741,1864237236,61.94606399536133
1027,1131,34024741,1864237236,61.507972717285156
1028,1132,34024741,1864237236,61.994834899902344
1029,1133,34024741,1864237236,60.43565368652344
1030,1134,34024741,1864237236,64.9969711303711
1031,1135,34024741,1864237236,64.930908203125
1032,1136,34024741,1864237236,61.68214416503906
1033,1137,34024741,1864237236,64.80790710449219
1034,1138,34024741,1864237236,61.60313415527344
1035,1139,34024741,1864237236,64.33917236328125
1036,1140,34024741,1864237236,60.3172721862793
1037,1141,34024741,1864237236,59.343849182128906
1038,1142,34024741,1864237236,64.26476287841797
1039,1143,34024741,1864237236,65.26789855957031
1040,1144,34024741,1864237236,62.9136962890625
1041,1145,34024741,1864237236,62.4958381652832
1042,1146,34024741,1864237236,60.26138687133789
1043,1147,34024741,1864237236,58.473388671875
1044,1148,34024741,1864237236,61.73817825317383
1045,1149,34024741,1864237236,62.01838684082031
1046,1150,34024741,1864237236,62.42863082885742
1047,1151,34024741,1864237236,63.86670684814453
1048,1152,34024741,1864237236,60.757667541503906
1049,1153,34024741,1864237236,61.81031799316406
1050,1154,34024741,1864237236,61.82902526855469
1051,1155,34024741,1864237236,60.652442932128906
1052,1156,34024741,1864237236,62.44728088378906
1053,1157,34024741,1864237236,60.56295394897461
1054,1158,34024741,1864237236,59.32004928588867
1055,1159,34024741,1864237236,65.16874694824219
1056,1160,34024741,1864237236,62.92015075683594
1057,1161,34024741,1864237236,63.70178985595703
1058,1162,34024741,1864237236,63.8350715637207
1059,1163,34024741,1864237236,64.21339416503906
1060,1164,34024741,1864237236,64.68896484375
1061,1165,34024741,1864237236,63.35209655761719
1062,1166,34024741,1864237236,63.825801849365234
1063,1167,34024741,1864237236,64.03351593017578
1064,1168,34024741,1864237236,63.8780403137207
1065,1169,34024741,1864237236,62.858253479003906
1066,1170,34024741,1864237236,60.298004150390625
1067,1171,34024741,1864237236,56.789024353027344
1068,1172,34024741,1864237236,56.109493255615234
1069,1173,34024741,1864237236,53.69733810424805
1070,1174,34024741,1864237236,59.16362762451172
1071,1175,34024741,1864237236,61.63810348510742
1072,1176,34024741,1864237236,64.37255096435547
1073,1177,34024741,1864237236,66.70346069335938
1074,1178,34024741,1864237236,67.6996078491211
1075,1179,34024741,1864237236,68.33230590820312
1076,1180,34024741,1864237236,68.41087341308594
1077,1181,34024741,1864237236,68.6582260131836
1078,1182,34024741,1864237236,69.19912719726562
1079,1183,34024741,1864237236,69.05513763427734
1080,1184,34024741,1864237236,69.04544067382812
1081,1195,34024741,1864237236,70.11953735351562
1082,1196,34024741,1864237236,69.25731658935547
1083,1197,34024741,1864237236,68.66171264648438
1084,1215,34024741,1864237236,70.33206176757812
1085,1216,34024741,1864237236,69.45382690429688
1086,1217,34024741,1864237236,68.58550262451172
1087,1235,34024741,1864237236,69.60736083984375
1088,1236,34024741,1864237236,69.384521484375
1089,1237,34024741,1864237236,69.23177337646484
1090,1238,34024741,1864237236,68.84405517578125
1091,1239,34024741,1864237236,68.97089385986328
1092,1240,34024741,1864237236,69.65616607666016
1093,1241,34024741,1864237236,69.60628509521484
1094,1242,34024741,1864237236,68.77079010009766
1095,1243,34024741,1864237236,68.31005096435547
1096,1244,34024741,1864237236,67.69108581542969
1097,1245,34024741,1864237236,68.5929946899414
1098,1246,34024741,1864237236,69.06967163085938
1099,1247,34024741,1864237236,69.14797973632812
1100,1248,34024741,1864237236,69.15592956542969
1101,1249,34024741,1864237236,68.47175598144531
1102,1250,34024741,1864237236,66.99161529541016
1103,1251,34024741,1864237236,65.92595672607422
1104,1252,34024741,1864237236,66.05730438232422
1105,1253,34024741,1864237236,66.74776458740234
1106,1254,34024741,1864237236,68.44174194335938
1107,1255,34024741,1864237236,69.36570739746094
1108,1256,34024741,1864237236,69.61473083496094
1109,1257,34024741,1864237236,68.8843765258789
1110,1258,34024741,1864237236,68.4915771484375
1111,1259,34024741,1864237236,68.80007934570312
1112,1260,34024741,1864237236,68.841064453125
1113,1261,34024741,1864237236,68.9356918334961
1114,1262,34024741,1864237236,68.61432647705078
1115,1263,34024741,1864237236,67.76246643066406
1116,1264,34024741,1864237236,67.58016967773438
1117,1265,34024741,1864237236,68.44821166992188
1118,1266,34024741,1864237236,69.46592712402344
1119,1267,34024741,1864237236,69.11184692382812
1120,1268,34024741,1864237236,68.61727905273438
1121,1269,34024741,1864237236,67.95951080322266
1122,1270,34024741,1864237236,68.23169708251953
1123,1271,34024741,1864237236,68.01577758789062
1124,1272,34024741,1864237236,67.12505340576172
1125,1273,34024741,1864237236,66.9429702758789
1126,1274,34024741,1864237236,65.78169250488281
1127,1275,34024741,1864237236,66.52275085449219
1128,1276,34024741,1864237236,67.1812515258789
1129,1277,34024741,1864237236,67.59803771972656
1130,1278,34024741,1864237236,66.67105102539062
1131,1279,34024741,1864237236,66.24319458007812
1132,1280,34024741,1864237236,69.23480224609375
1133,1281,34024741,1864237236,64.86882019042969
1134,1282,34024741,1864237236,63.10036849975586
1135,1283,34024741,1864237236,65.03726196289062
1136,1284,34024741,1864237236,64.80693054199219
1137,1285,34024741,1864237236,63.977596282958984
1138,1286,34024741,1864237236,64.55355834960938
1139,1287,34024741,1864237236,63.974266052246094
1140,1288,34024741,1864237236,64.0215072631836
1141,1289,34024741,1864237236,62.741661071777344
1142,1290,34024741,1864237236,60.71823501586914
1143,1291,34024741,1864237236,62.953861236572266
1144,1292,34024741,1864237236,63.97990798950195
1145,1293,34024741,1864237236,63.962093353271484
1146,1294,34024741,1864237236,67.00856018066406
1147,1295,34024741,1864237236,63.98966598510742
1148,1296,34024741,1864237236,60.5732421875
1149,1297,34024741,1864237236,62.50616455078125
1150,1298,34024741,1864237236,63.4168701171875
1151,1299,34024741,1864237236,54.73820495605469
1152,1300,34024741,1864237236,56.62422561645508
1153,1301,34024741,1864237236,57.87322235107422
1154,1302,34024741,1864237236,62.08979415893555
1155,1303,34024741,1864237236,60.12199401855469
1156,1304,34024741,1864237236,58.803489685058594
1157,1305,34024741,1864237236,63.897300720214844
1158,1306,34024741,1864237236,55.462242126464844
1159,1307,34024741,1864237236,56.841400146484375
1160,1308,34024741,1864237236,53.1539421081543
1161,1309,34024741,1864237236,59.62778854370117
1162,1310,34024741,1864237236,30.97571563720703
1163,1311,34024741,1864237236,33.49263381958008
1164,1312,34024741,1864237236,36.17482376098633
1165,1313,34024741,1864237236,48.32040023803711
1166,1314,34024741,1864237236,58.16865539550781
1167,1315,34024741,1864237236,59.882266998291016
1168,1316,34024741,1864237236,59.910579681396484
1169,1317,34024741,1864237236,57.49725341796875
1170,1318,34024741,1864237236,61.38718795776367
1171,1319,34024741,1864237236,62.123111724853516
1172,1320,34024741,1864237236,63.323970794677734
1173,1321,34024741,1864237236,64.54530334472656
1174,1322,34024741,1864237236,66.41043090820312
1175,1323,34024741,1864237236,68.3538589477539
1176,1324,34024741,1864237236,68.49918365478516
1177,1325,34024741,1864237236,66.66190338134766
1178,1326,34024741,1864237236,66.3689193725586
1179,1327,34024741,1864237236,66.22480773925781
1180,1328,34024741,1864237236,65.61202239990234
1181,1329,34024741,1864237236,66.53749084472656
1182,1330,34024741,1864237236,64.35554504394531
1183,1331,34024741,1864237236,66.35237884521484
1184,1332,34024741,1864237236,68.22003173828125
1185,1333,34024741,1864237236,65.7841567993164
1186,1334,34024741,1864237236,65.07058715820312
1187,1335,34024741,1864237236,64.27066040039062
1188,1336,34024741,1864237236,65.19374084472656
1189,1337,34024741,1864237236,63.22394943237305
1190,1338,34024741,1864237236,65.55689239501953
1191,1339,34024741,1864237236,65.89910888671875
1192,1340,34024741,1864237236,65.80584716796875
1193,1341,34024741,1864237236,64.77600860595703
1194,1342,34024741,1864237236,64.1355209350586
1195,1343,34024741,1864237236,67.22116088867188
1196,1344,34024741,1864237236,67.2663345336914
1197,1345,34024741,1864237236,64.32695007324219
1198,1346,34024741,1864237236,67.24801635742188
1199,1347,34024741,1864237236,69.3536605834961
1200,1348,34024741,1864237236,66.72264099121094
1201,1349,34024741,1864237236,65.3461685180664
1202,1350,34024741,1864237236,64.2516860961914
1203,1351,34024741,1864237236,61.631996154785156
1204,1352,34024741,1864237236,65.68170166015625
1205,1353,34024741,1864237236,62.699623107910156
1206,1354,34024741,1864237236,65.13838195800781
1207,1355,34024741,1864237236,66.52845001220703
1208,1356,34024741,1864237236,65.43690490722656
1209,1357,34024741,1864237236,65.92564392089844
1210,1358,34024741,1864237236,63.72962951660156
1211,1359,34024741,1864237236,63.64276123046875
1212,1360,34024741,1864237236,63.807437896728516
1213,1361,34024741,1864237236,65.26849365234375
1214,1362,34024741,1864237236,60.95734786987305
1215,1363,34024741,1864237236,58.1344108581543
1216,1364,34024741,1864237236,60.85505676269531
1217,1365,34024741,1864237236,59.27959442138672
1218,1366,34024741,1864237236,18.418376922607422
1219,1367,34024741,1864237236,39.69114303588867
1220,1368,34024741,1864237236,64.6926040649414
1221,1369,34024741,1864237236,23.703014373779297
1222,1370,34024741,1864237236,41.06251907348633
1223,1371,34024741,1864237236,52.20218276977539
1224,1372,34024741,1864237236,65.54107666015625
1225,1373,34024741,1864237236,66.68512725830078
1226,1374,34024741,1864237236,56.07859802246094
1227,1375,34024741,1864237236,19.992229461669922
1228,1376,34024741,1864237236,19.676366806030273
1229,1377,34024741,1864237236,26.704723358154297
1230,1378,34024741,1864237236,59.17406463623047
1231,1379,34024741,1864237236,48.44687271118164
1232,1380,34024741,1864237236,43.9089241027832
1233,1381,34024741,1864237236,32.17214584350586
1234,1382,34024741,1864237236,15.475180625915527
1235,1383,34024741,1864237236,29.456876754760742
1236,1384,34024741,1864237236,17.111026763916016
1237,1385,34024741,1864237236,45.60091781616211
1238,1386,34024741,1864237236,40.057159423828125
1239,1387,34024741,1864237236,54.94724655151367
1240,1388,34024741,1864237236,46.583396911621094
1241,1389,34024741,1864237236,42.667842864990234
1242,1390,34024741,1864237236,25.764881134033203
1243,1391,34024741,1864237236,30.935016632080078
1244,1392,34024741,1864237236,31.1166934967041
1245,1393,34024741,1864237236,22.520753860473633
1246,1394,34024741,1864237236,38.958740234375
1247,1395,34024741,1864237236,40.16438674926758
1248,1396,34024741,1864237236,42.89548873901367
1249,1397,34024741,1864237236,28.426471710205078
1250,1398,34024741,1864237236,41.586116790771484
1251,1399,34024741,1864237236,41.28819274902344
1252,1400,34024741,1864237236,49.02134704589844
1253,1401,34024741,1864237236,55.532135009765625
1254,1402,34024741,1864237236,57.56755447387695
1255,1403,34024741,1864237236,60.42668914794922
1256,1404,34024741,1864237236,62.289756774902344
1257,1405,34024741,1864237236,62.5765380859375
1258,1406,34024741,1864237236,62.31285858154297
1259,1407,34024741,1864237236,60.1116828918457
1260,1408,34024741,1864237236,55.276756286621094
1261,1409,34024741,1864237236,64.67456817626953
1262,1410,34024741,1864237236,58.171241760253906
1263,1411,34024741,1864237236,58.37696075439453
1264,1412,34024741,1864237236,62.817604064941406
1265,1413,34024741,1864237236,63.7591667175293
1266,1414,34024741,1864237236,67.14871215820312
1267,1415,34024741,1864237236,64.73641967773438
1268,1416,34024741,1864237236,66.42668914794922
1269,1417,34024741,1864237236,59.525848388671875
1270,1418,34024741,1864237236,61.534210205078125
1271,1419,34024741,1864237236,57.8787841796875
1272,1420,34024741,1864237236,57.05280303955078
1273,1421,34024741,1864237236,57.590518951416016
1274,1422,34024741,1864237236,55.59822463989258
1275,1423,34024741,1864237236,59.607913970947266
1276,1424,34024741,1864237236,62.319679260253906
1277,1425,34024741,1864237236,57.83305358886719
1278,1426,34024741,1864237236,59.75784683227539
1279,1427,34024741,1864237236,61.395912170410156
1280,1428,34024741,1864237236,60.181358337402344
1281,1429,34024741,1864237236,60.8748893737793
1282,1430,34024741,1864237236,60.52085876464844
1283,1431,34024741,1864237236,55.11680603027344
1284,1432,34024741,1864237236,65.41316986083984
1285,1433,34024741,1864237236,53.99853515625
1286,1434,34024741,1864237236,54.94926834106445
1287,1435,34024741,1864237236,59.56098937988281
1288,1436,34024741,1864237236,64.77153778076172
1289,1437,34024741,1864237236,58.19813537597656
1290,1438,34024741,1864237236,60.72611999511719
1291,1439,34024741,1864237236,61.429264068603516
1292,1440,34024741,1864237236,63.80180358886719
1293,1441,34024741,1864237236,62.761962890625
1294,1442,34024741,1864237236,63.49140548706055
1295,1443,34024741,1864237236,63.725257873535156
1296,1444,34024741,1864237236,64.33582305908203
1297,1445,34024741,1864237236,63.70196533203125
1298,1446,34024741,1864237236,62.95079803466797
1299,1447,34024741,1864237236,59.72484588623047
1300,1448,34024741,1864237236,64.5529556274414
1301,1449,34024741,1864237236,68.36006164550781
1302,1450,34024741,1864237236,68.12901306152344
1303,1451,34024741,1864237236,68.015625
1304,1452,34024741,1864237236,67.8583984375
1305,1453,34024741,1864237236,67.06669616699219
1306,1454,34024741,1864237236,66.40018463134766
1307,1455,34024741,1864237236,67.12092590332031
1308,1456,34024741,1864237236,67.59764099121094
1309,1457,34024741,1864237236,68.14055633544922
1310,1458,34024741,1864237236,67.6012191772461
1311,1459,34024741,1864237236,66.85079193115234
1312,1460,34024741,1864237236,65.30625915527344
1313,1461,34024741,1864237236,65.43915557861328
1314,1462,34024741,1864237236,66.93413543701172
1315,1463,34024741,1864237236,68.58129119873047
1316,1464,34024741,1864237236,69.81128692626953
1317,1465,34024741,1864237236,69.2188491821289
1318,1466,34024741,1864237236,67.76810455322266
1319,1467,34024741,1864237236,67.08064270019531
1320,1470,34024741,1864237236,60.919105529785156
1321,1471,34024741,1864237236,64.44242858886719
1322,1472,34024741,1864237236,66.20360565185547
1323,1473,34024741,1864237236,68.10128784179688
1324,1481,34024741,1864237236,68.1343994140625
1325,1489,34024741,1864237236,68.35347747802734
1326,1490,34024741,1864237236,67.3602294921875
1327,1491,34024741,1864237236,65.150146484375
1328,1492,34024741,1864237236,66.40645599365234
1329,1493,34024741,1864237236,67.1532211303711
1330,1494,34024741,1864237236,66.96097564697266
1331,1499,34024741,1864237236,69.97858428955078
1332,1500,34024741,1864237236,69.84809875488281
1333,1501,34024741,1864237236,68.68051147460938
1334,1502,34024741,1864237236,66.69995880126953
1335,1503,34024741,1864237236,67.33318328857422
1336,1504,34024741,1864237236,67.48816680908203
1337,1505,34024741,1864237236,67.80691528320312
1338,1506,34024741,1864237236,67.9236831665039
1339,1507,34024741,1864237236,66.28580474853516
1340,1508,34024741,1864237236,64.05587768554688
1341,1509,34024741,1864237236,62.13423538208008
1342,1510,34024741,1864237236,58.39254379272461
1343,1511,34024741,1864237236,61.56369400024414
1344,1512,34024741,1864237236,62.07091522216797
1345,1513,34024741,1864237236,57.723052978515625
1346,1514,34024741,1864237236,60.990509033203125
1347,1515,34024741,1864237236,56.55497360229492
1348,1516,34024741,1864237236,59.8054313659668
1349,1517,34024741,1864237236,55.125972747802734
1350,1518,34024741,1864237236,55.387088775634766
1351,1519,34024741,1864237236,57.109500885009766
1352,1520,34024741,1864237236,56.24353790283203
1353,1521,34024741,1864237236,57.6410026550293
1354,1522,34024741,1864237236,51.879825592041016
1355,1523,34024741,1864237236,58.51576614379883
1356,1524,34024741,1864237236,56.051551818847656
1357,1525,34024741,1864237236,57.161460876464844
1358,1526,34024741,1864237236,56.27349853515625
1359,1527,34024741,1864237236,56.89551544189453
1360,1528,34024741,1864237236,51.1271858215332
1361,1529,34024741,1864237236,51.73712921142578
1362,1530,34024741,1864237236,56.75303649902344
1363,1531,34024741,1864237236,54.441200256347656
1364,1532,34024741,1864237236,18.090129852294922
1365,1533,34024741,1864237236,21.88034439086914
1366,1534,34024741,1864237236,24.11322784423828
1367,1535,34024741,1864237236,17.528993606567383
1368,1536,34024741,1864237236,18.279102325439453
1369,1537,34024741,1864237236,13.99393081665039
1370,1538,34024741,1864237236,12.866161346435547
1371,1539,34024741,1864237236,13.53624153137207
1372,1540,34024741,1864237236,12.653142929077148
1373,1541,34024741,1864237236,11.733906745910645
1374,1542,34024741,1864237236,12.852397918701172
1375,1543,34024741,1864237236,13.089299201965332
1376,1544,34024741,1864237236,13.466449737548828
1377,1545,34024741,1864237236,11.321770668029785
1378,1546,34024741,1864237236,10.958704948425293
1379,1547,34024741,1864237236,10.849002838134766
1380,1548,34024741,1864237236,11.450563430786133
1381,1549,34024741,1864237236,14.947111129760742
1382,1550,34024741,1864237236,14.395744323730469
1383,1551,34024741,1864237236,13.51050090789795
1384,1552,34024741,1864237236,13.900036811828613
1385,1553,34024741,1864237236,15.76274585723877
1386,1554,34024741,1864237236,11.498353958129883
1387,1555,34024741,1864237236,12.264911651611328
1388,1556,34024741,1864237236,19.82735824584961
1389,1557,34024741,1864237236,14.951250076293945
1390,1558,34024741,1864237236,11.087006568908691
1391,1559,34024741,1864237236,15.751832008361816
1392,1560,34024741,1864237236,15.510764122009277
1393,1561,34024741,1864237236,22.855375289916992
1394,1562,34024741,1864237236,28.607091903686523
1395,1563,34024741,1864237236,58.76024627685547
1396,1564,34024741,1864237236,55.487953186035156
1397,1565,34024741,1864237236,18.198495864868164
1398,1566,34024741,1864237236,60.40314865112305
1399,1567,34024741,1864237236,58.04118347167969
1400,1568,34024741,1864237236,60.09099197387695
1401,1569,34024741,1864237236,56.51093673706055
1402,1570,34024741,1864237236,62.26069641113281
1403,1571,34024741,1864237236,59.57851791381836
1404,1572,34024741,1864237236,61.912498474121094
1405,1573,34024741,1864237236,55.34902572631836
1406,1574,34024741,1864237236,48.00101089477539
1407,1575,34024741,1864237236,60.75099182128906
1408,1576,34024741,1864237236,54.014400482177734
1409,1577,34024741,1864237236,60.22057342529297
1410,1578,34024741,1864237236,63.294349670410156
1411,1579,34024741,1864237236,63.604644775390625
1412,1580,34024741,1864237236,62.59284591674805
1413,1581,34024741,1864237236,56.79764938354492
1414,1582,34024741,1864237236,63.41224670410156
1415,1583,34024741,1864237236,62.93524932861328
1416,1584,34024741,1864237236,63.54188919067383
1417,1585,34024741,1864237236,64.58682250976562
1418,1586,34024741,1864237236,66.73221588134766
1419,1587,34024741,1864237236,64.98980712890625
1420,1588,34024741,1864237236,63.68566131591797
1421,1589,34024741,1864237236,63.83403396606445
1422,1590,34024741,1864237236,65.9622802734375
1423,1591,34024741,1864237236,64.98284912109375
1424,1592,34024741,1864237236,65.68778991699219
1425,1593,34024741,1864237236,63.234046936035156
1426,1594,34024741,1864237236,63.277992248535156
1427,1595,34024741,1864237236,65.69194030761719
1428,1596,34024741,1864237236,64.93671417236328
1429,1597,34024741,1864237236,65.00499725341797
1430,1598,34024741,1864237236,64.35707092285156
1431,1599,34024741,1864237236,65.90250396728516
1432,1600,34024741,1864237236,65.5835952758789
1433,1601,34024741,1864237236,63.916873931884766
1434,1602,34024741,1864237236,62.768646240234375
1435,1603,34024741,1864237236,65.03264617919922
1436,1604,34024741,1864237236,64.7609634399414
1437,1605,34024741,1864237236,64.09455108642578
1438,1606,34024741,1864237236,64.15582275390625
1439,1607,34024741,1864237236,67.20843505859375
1440,1608,34024741,1864237236,65.74090576171875
1441,1609,34024741,1864237236,66.0435791015625
1442,1610,34024741,1864237236,65.66432189941406
1443,1611,34024741,1864237236,65.0997085571289
1444,1612,34024741,1864237236,64.34736633300781
1445,1613,34024741,1864237236,64.44719696044922
1446,1614,34024741,1864237236,65.12108612060547
1447,1615,34024741,1864237236,66.6083984375
1448,1616,34024741,1864237236,65.03924560546875
1449,1617,34024741,1864237236,65.32571411132812
1450,1618,34024741,1864237236,63.025856018066406
1451,1619,34024741,1864237236,65.10533142089844
1452,1620,34024741,1864237236,65.35777282714844
1453,1621,34024741,1864237236,62.95344543457031
1454,1622,34024741,1864237236,64.1060562133789
1455,1623,34024741,1864237236,62.62500762939453
1456,1624,34024741,1864237236,64.49002838134766
1457,1625,34024741,1864237236,65.35661315917969
1458,1626,34024741,1864237236,61.98712158203125
1459,1627,34024741,1864237236,59.09531021118164
1460,1628,34024741,1864237236,57.74791717529297
1461,1629,34024741,1864237236,53.69206619262695
1462,1630,34024741,1864237236,44.350101470947266
1463,1631,34024741,1864237236,19.05943489074707
1464,1632,34024741,1864237236,57.7000732421875
1465,1633,34024741,1864237236,21.516206741333008
1466,1634,34024741,1864237236,37.57189178466797
1467,1635,34024741,1864237236,16.22283172607422
1468,1636,34024741,1864237236,12.229496002197266
1469,1637,34024741,1864237236,12.895933151245117
1470,1638,34024741,1864237236,9.99758529663086
1471,1639,34024741,1864237236,10.909479141235352
1472,1640,34024741,1864237236,9.871011734008789
1473,1641,34024741,1864237236,10.457160949707031
1474,1642,34024741,1864237236,9.349100112915039
1475,1643,34024741,1864237236,12.829680442810059
1476,1644,34024741,1864237236,14.589143753051758
1477,1645,34024741,1864237236,12.290565490722656
1478,1646,34024741,1864237236,11.708141326904297
1479,1647,34024741,1864237236,12.04673957824707
1480,1648,34024741,1864237236,12.230661392211914
1481,1649,34024741,1864237236,10.90619945526123
1482,1650,34024741,1864237236,10.280546188354492
1483,1651,34024741,1864237236,9.282539367675781
1484,1652,34024741,1864237236,10.009340286254883
1485,1653,34024741,1864237236,12.317899703979492
1486,1654,34024741,1864237236,12.28426742553711
1487,1655,34024741,1864237236,9.88105583190918
1488,1656,34024741,1864237236,10.629899024963379
1489,1657,34024741,1864237236,16.831327438354492
1490,1658,34024741,1864237236,19.0675048828125
1491,1659,34024741,1864237236,61.251136779785156
1492,1660,34024741,1864237236,53.65365219116211
1493,1661,34024741,1864237236,55.89462661743164
1494,1662,34024741,1864237236,60.571136474609375
1495,1663,34024741,1864237236,61.02264404296875
1496,1664,34024741,1864237236,60.23979949951172
1497,1665,34024741,1864237236,50.58782196044922
1498,1666,34024741,1864237236,53.72377014160156
1499,1667,34024741,1864237236,54.491851806640625
1500,1668,34024741,1864237236,55.7144660949707
1501,1669,34024741,1864237236,57.169490814208984
1502,1670,34024741,1864237236,57.19153594970703
1503,1671,34024741,1864237236,56.532371520996094
1504,1672,34024741,1864237236,55.304840087890625
1505,1673,34024741,1864237236,58.01006317138672
1506,1674,34024741,1864237236,57.50414276123047
1507,1675,34024741,1864237236,57.91461181640625
1508,1676,34024741,1864237236,59.22718811035156
1509,1677,34024741,1864237236,61.194114685058594
1510,1678,34024741,1864237236,58.33522033691406
1511,1679,34024741,1864237236,61.80171203613281
1512,1680,34024741,1864237236,62.13142013549805
1513,1681,34024741,1864237236,63.16657257080078
1514,1682,34024741,1864237236,61.29728698730469
1515,1683,34024741,1864237236,65.06277465820312
1516,1684,34024741,1864237236,65.67821502685547
1517,1685,34024741,1864237236,63.825660705566406
1518,1686,34024741,1864237236,62.53145217895508
1519,1687,34024741,1864237236,62.48242950439453
1520,1688,34024741,1864237236,64.0781021118164
1521,1689,34024741,1864237236,63.618709564208984
1522,1690,34024741,1864237236,63.986839294433594
1523,1691,34024741,1864237236,65.49857330322266
1524,1692,34024741,1864237236,63.257286071777344
1525,1693,34024741,1864237236,65.72415161132812
1526,1694,34024741,1864237236,65.40494537353516
1527,1695,34024741,1864237236,66.4317626953125
1528,1696,34024741,1864237236,65.40897369384766
1529,1697,34024741,1864237236,67.00337219238281
1530,1698,34024741,1864237236,63.450130462646484
1531,1699,34024741,1864237236,62.80633544921875
1532,1700,34024741,1864237236,64.22543334960938
1533,1701,34024741,1864237236,63.82026672363281
1534,1702,34024741,1864237236,65.56304931640625
1535,1703,34024741,1864237236,67.16431427001953
1536,1704,34024741,1864237236,65.50348663330078
1537,1705,34024741,1864237236,64.75978088378906
1538,1706,34024741,1864237236,65.57814025878906
1539,1707,34024741,1864237236,65.84935760498047
1540,1708,34024741,1864237236,63.69951629638672
1541,1709,34024741,1864237236,68.39737701416016
1542,1710,34024741,1864237236,66.0282211303711
1543,1711,34024741,1864237236,65.47087097167969
1544,1712,34024741,1864237236,67.88133239746094
1545,1713,34024741,1864237236,65.2323989868164
1546,1714,34024741,1864237236,64.04405212402344
1547,1715,34024741,1864237236,64.37976837158203
1548,1716,34024741,1864237236,66.2103500366211
1549,1717,34024741,1864237236,66.08250427246094
1550,1718,34024741,1864237236,63.65525436401367
1551,1719,34024741,1864237236,67.52674865722656
1552,1720,34024741,1864237236,68.29475402832031
1553,1721,34024741,1864237236,64.34930419921875
1554,1722,34024741,1864237236,66.93421936035156
1555,1723,34024741,1864237236,65.5794677734375
1556,1724,34024741,1864237236,66.79568481445312
1557,1725,34024741,1864237236,69.23423767089844
1558,1726,34024741,1864237236,65.37382507324219
1559,1727,34024741,1864237236,64.4608154296875
1560,1728,34024741,1864237236,65.91455841064453
1561,1729,34024741,1864237236,66.68704223632812
1562,1730,34024741,1864237236,67.74278259277344
1563,1731,34024741,1864237236,69.04206848144531
1564,1732,34024741,1864237236,68.06868743896484
1565,1733,34024741,1864237236,67.30426788330078
1566,1734,34024741,1864237236,67.00698852539062
1567,1735,34024741,1864237236,67.68081665039062
1568,1736,34024741,1864237236,67.83509063720703
1569,1737,34024741,1864237236,67.684326171875
1570,1738,34024741,1864237236,67.48936462402344
1571,1739,34024741,1864237236,66.97834014892578
1572,1740,34024741,1864237236,65.5815200805664
1573,1741,34024741,1864237236,65.99323272705078
1574,1742,34024741,1864237236,66.64356994628906
1575,1743,34024741,1864237236,66.27982330322266
1576,1744,34024741,1864237236,65.0050277709961
1577,1745,34024741,1864237236,64.69757843017578
1578,1746,34024741,1864237236,64.45661926269531
1579,1747,34024741,1864237236,64.89028930664062
1580,1748,34024741,1864237236,65.83099365234375
1581,1749,34024741,1864237236,67.10053253173828
1582,1750,34024741,1864237236,68.59160614013672
1583,1755,34024741,1864237236,70.72624206542969
1584,1768,34024741,1864237236,64.25313568115234
1585,1769,34024741,1864237236,65.4520492553711
1586,1789,34024741,1864237236,60.859596252441406
1587,1790,34024741,1864237236,64.0882797241211
1588,1791,34024741,1864237236,65.56796264648438
1589,1792,34024741,1864237236,66.81196594238281
1590,1793,34024741,1864237236,68.22130584716797
1591,1794,34024741,1864237236,68.5901107788086
1592,1795,34024741,1864237236,68.00487518310547
1593,1796,34024741,1864237236,66.80925750732422
1594,1797,34024741,1864237236,64.75385284423828
1595,1798,34024741,1864237236,63.889549255371094
1596,1799,34024741,1864237236,62.61561584472656
1597,1800,34024741,1864237236,56.716331481933594
1598,1801,34024741,1864237236,62.37759780883789
1599,1802,34024741,1864237236,59.46681213378906
1600,1803,34024741,1864237236,54.96896743774414
1601,1804,34024741,1864237236,61.19727325439453
1602,1805,34024741,1864237236,57.51581573486328
1603,1806,34024741,1864237236,55.718772888183594
1604,1807,34024741,1864237236,54.88082504272461
1605,1808,34024741,1864237236,58.06172180175781
1606,1809,34024741,1864237236,57.84315872192383
1607,1810,34024741,1864237236,57.37676239013672
1608,1811,34024741,1864237236,54.95591735839844
1609,1812,34024741,1864237236,57.26803970336914
1610,1813,34024741,1864237236,55.94843292236328
1611,1814,34024741,1864237236,54.14380645751953
1612,1815,34024741,1864237236,57.34553527832031
1613,1816,34024741,1864237236,50.38028335571289
1614,1817,34024741,1864237236,55.52400207519531
1615,1818,34024741,1864237236,54.1422004699707
1616,1819,34024741,1864237236,49.85003662109375
1617,1820,34024741,1864237236,30.680133819580078
1618,1821,34024741,1864237236,26.73978614807129
1619,1822,34024741,1864237236,18.712371826171875
1620,1823,34024741,1864237236,28.388498306274414
1621,1824,34024741,1864237236,12.504426956176758
1622,1825,34024741,1864237236,12.461234092712402
1623,1826,34024741,1864237236,19.076248168945312
1624,1827,34024741,1864237236,17.75992202758789
1625,1828,34024741,1864237236,20.389976501464844
1626,1829,34024741,1864237236,20.42730712890625
1627,1830,34024741,1864237236,15.496335983276367
1628,1831,34024741,1864237236,13.229942321777344
1629,1832,34024741,1864237236,16.457901000976562
1630,1833,34024741,1864237236,11.306872367858887
1631,1834,34024741,1864237236,11.150971412658691
1632,1835,34024741,1864237236,12.092530250549316
1633,1836,34024741,1864237236,10.749836921691895
1634,1837,34024741,1864237236,12.189523696899414
1635,1838,34024741,1864237236,9.442602157592773
1636,1839,34024741,1864237236,10.673089981079102
1637,1840,34024741,1864237236,11.078268051147461
1638,1841,34024741,1864237236,11.127449989318848
1639,1842,34024741,1864237236,9.926363945007324
1640,1843,34024741,1864237236,11.866393089294434
1641,1844,34024741,1864237236,10.394692420959473
1642,1845,34024741,1864237236,8.62993049621582
1643,1846,34024741,1864237236,10.021036148071289
1644,1847,34024741,1864237236,9.278042793273926
1645,1848,34024741,1864237236,8.676586151123047
1646,1849,34024741,1864237236,8.61744213104248
1647,1850,34024741,1864237236,10.073719024658203
1648,1851,34024741,1864237236,12.893301010131836
1649,1852,34024741,1864237236,13.365670204162598
1650,1853,34024741,1864237236,12.838052749633789
1651,1854,34024741,1864237236,14.26475715637207
1652,1855,34024741,1864237236,11.755441665649414
1653,1856,34024741,1864237236,14.153676986694336
1654,1857,34024741,1864237236,11.813770294189453
1655,1858,34024741,1864237236,15.636886596679688
1656,1859,34024741,1864237236,10.90554141998291
1657,1860,34024741,1864237236,11.164926528930664
1658,1861,34024741,1864237236,14.220529556274414
1659,1862,34024741,1864237236,10.276839256286621
1660,1863,34024741,1864237236,10.818530082702637
1661,1864,34024741,1864237236,14.328930854797363
1662,1865,34024741,1864237236,14.925943374633789
1663,1866,34024741,1864237236,11.028255462646484
1664,1867,34024741,1864237236,12.189806938171387
1665,1868,34024741,1864237236,11.588210105895996
1666,1869,34024741,1864237236,13.593228340148926
1667,1870,34024741,1864237236,12.338335037231445
1668,1871,34024741,1864237236,11.13953971862793
1669,1872,34024741,1864237236,11.392251968383789
1670,1873,34024741,1864237236,11.506908416748047
1671,1874,34024741,1864237236,16.424942016601562
1672,1875,34024741,1864237236,11.616965293884277
1673,1876,34024741,1864237236,14.032194137573242
1674,1877,34024741,1864237236,12.902637481689453
1675,1878,34024741,1864237236,28.512174606323242
1676,1879,34024741,1864237236,19.361520767211914
1677,1880,34024741,1864237236,20.402910232543945
1678,1881,34024741,1864237236,28.176401138305664
1679,1882,34024741,1864237236,17.998075485229492
1680,1883,34024741,1864237236,25.883657455444336
1681,1884,34024741,1864237236,20.03285026550293
1682,1885,34024741,1864237236,38.84646224975586
1683,1886,34024741,1864237236,56.90472412109375
1684,1887,34024741,1864237236,58.39134216308594
1685,1888,34024741,1864237236,31.3271427154541
1686,1889,34024741,1864237236,28.932628631591797
1687,1890,34024741,1864237236,25.770851135253906
1688,1891,34024741,1864237236,57.069610595703125
1689,1892,34024741,1864237236,54.066162109375
1690,1893,34024741,1864237236,62.719200134277344
1691,1894,34024741,1864237236,57.01359558105469
1692,1895,34024741,1864237236,63.36504364013672
1693,1896,34024741,1864237236,65.12483978271484
1694,1897,34024741,1864237236,64.43063354492188
1695,1898,34024741,1864237236,64.6054916381836
1696,1899,34024741,1864237236,61.18296432495117
1697,1900,34024741,1864237236,58.093624114990234
1698,1901,34024741,1864237236,58.083953857421875
1699,1902,34024741,1864237236,63.39330291748047
1700,1903,34024741,1864237236,61.637149810791016
1701,1904,34024741,1864237236,58.74238586425781
1702,1905,34024741,1864237236,63.15188217163086
1703,1906,34024741,1864237236,60.197654724121094
1704,1907,34024741,1864237236,58.18693923950195
1705,1908,34024741,1864237236,62.31928253173828
1706,1909,34024741,1864237236,62.05336380004883
1707,1910,34024741,1864237236,54.90346145629883
1708,1911,34024741,1864237236,54.53179931640625
1709,1912,34024741,1864237236,60.35071563720703
1710,1913,34024741,1864237236,56.557518005371094
1711,1914,34024741,1864237236,51.99738311767578
1712,1915,34024741,1864237236,57.131011962890625
1713,1916,34024741,1864237236,55.85597229003906
1714,1917,34024741,1864237236,50.15620422363281
1715,1918,34024741,1864237236,20.28469467163086
1716,1919,34024741,1864237236,13.435150146484375
1717,1920,34024741,1864237236,13.234323501586914
1718,1921,34024741,1864237236,11.728983879089355
1719,1922,34024741,1864237236,11.609674453735352
1720,1923,34024741,1864237236,11.6820068359375
1721,1924,34024741,1864237236,12.085192680358887
1722,1925,34024741,1864237236,10.217510223388672
1723,1926,34024741,1864237236,9.452323913574219
1724,1927,34024741,1864237236,8.128462791442871
1725,1928,34024741,1864237236,8.490145683288574
1726,1929,34024741,1864237236,9.167949676513672
1727,1930,34024741,1864237236,8.687050819396973
1728,1931,34024741,1864237236,9.734769821166992
1729,1932,34024741,1864237236,9.462742805480957
1730,1933,34024741,1864237236,10.383772850036621
1731,1934,34024741,1864237236,10.879256248474121
1732,1935,34024741,1864237236,9.710474014282227
1733,1936,34024741,1864237236,10.372392654418945
1734,1937,34024741,1864237236,9.393982887268066
1735,1938,34024741,1864237236,9.999079704284668
1736,1939,34024741,1864237236,9.407075881958008
1737,1940,34024741,1864237236,9.014056205749512
1738,1941,34024741,1864237236,10.541316986083984
1739,1942,34024741,1864237236,9.595376014709473
1740,1943,34024741,1864237236,9.157516479492188
1741,1944,34024741,1864237236,8.957635879516602
1742,1945,34024741,1864237236,11.354681015014648
1743,1946,34024741,1864237236,9.974554061889648
1744,1947,34024741,1864237236,9.376932144165039
1745,1948,34024741,1864237236,10.23619556427002
1746,1949,34024741,1864237236,11.842117309570312
1747,1950,34024741,1864237236,12.533384323120117
1748,1951,34024741,1864237236,11.483774185180664
1749,1952,34024741,1864237236,13.70159912109375
1750,1953,34024741,1864237236,12.63692855834961
1751,1954,34024741,1864237236,13.779956817626953
1752,1955,34024741,1864237236,13.28878116607666
1753,1956,34024741,1864237236,14.2327241897583
1754,1957,34024741,1864237236,36.196205139160156
1755,1958,34024741,1864237236,56.60595703125
1756,1959,34024741,1864237236,59.35724639892578
1757,1960,34024741,1864237236,57.431095123291016
1758,1961,34024741,1864237236,58.486236572265625
1759,1962,34024741,1864237236,58.817955017089844
1760,1963,34024741,1864237236,58.31591796875
1761,1964,34024741,1864237236,54.091182708740234
1762,1965,34024741,1864237236,51.21949768066406
1763,1966,34024741,1864237236,45.3065071105957
1764,1967,34024741,1864237236,61.87904739379883
1765,1968,34024741,1864237236,63.9080810546875
1766,1969,34024741,1864237236,60.497406005859375
1767,1970,34024741,1864237236,59.65333557128906
1768,1971,34024741,1864237236,61.28184127807617
1769,1972,34024741,1864237236,61.46139144897461
1770,1973,34024741,1864237236,61.96485137939453
1771,1974,34024741,1864237236,63.78572082519531
1772,1975,34024741,1864237236,60.02067565917969
1773,1976,34024741,1864237236,62.38926696777344
1774,1977,34024741,1864237236,62.79452133178711
1775,1978,34024741,1864237236,63.2111930847168
1776,1979,34024741,1864237236,65.03251647949219
1777,1980,34024741,1864237236,64.61488342285156
1778,1981,34024741,1864237236,63.177703857421875
1779,1982,34024741,1864237236,63.8530387878418
1780,1983,34024741,1864237236,64.39151000976562
1781,1984,34024741,1864237236,63.26853561401367
1782,1985,34024741,1864237236,62.91875457763672
1783,1986,34024741,1864237236,65.31640625
1784,1987,34024741,1864237236,66.19279479980469
1785,1988,34024741,1864237236,65.60747528076172
1786,1989,34024741,1864237236,63.011417388916016
1787,1990,34024741,1864237236,64.39735412597656
1788,1991,34024741,1864237236,65.44023132324219
1789,1992,34024741,1864237236,64.4384994506836
1790,1993,34024741,1864237236,63.4373779296875
1791,1994,34024741,1864237236,63.80863952636719
1792,1995,34024741,1864237236,64.24930572509766
1793,1996,34024741,1864237236,66.34664916992188
1794,1997,34024741,1864237236,66.47494506835938
1795,1998,34024741,1864237236,65.77154541015625
1796,1999,34024741,1864237236,67.56730651855469
1797,2000,34024741,1864237236,66.52772521972656
1798,2001,34024741,1864237236,65.45782470703125
1799,2002,34024741,1864237236,64.69322967529297
1800,2003,34024741,1864237236,65.5519027709961
1801,2004,34024741,1864237236,64.07161712646484
1802,2005,34024741,1864237236,64.36536407470703
1803,2006,34024741,1864237236,66.9481430053711
1804,2007,34024741,1864237236,65.06963348388672
1805,2008,34024741,1864237236,68.80974578857422
1806,2009,34024741,1864237236,65.40509033203125
1807,2010,34024741,1864237236,66.45402526855469
1808,2011,34024741,1864237236,64.29959106445312
1809,2012,34024741,1864237236,64.39494323730469
1810,2013,34024741,1864237236,64.59495544433594
1811,2014,34024741,1864237236,65.82731628417969
1812,2015,34024741,1864237236,65.56836700439453
