,slot,source,target,median,var,cnt
0,98,4512612193,4092524004,25.63132667541504,65.98023223876953,80
1,370,4512612193,4092524004,62.55401611328125,75.7688217163086,2
2,66,4512612193,4092524004,59.23417663574219,59.35649871826172,46
3,146,4512612193,4092524004,61.594749450683594,53.163658142089844,49
4,187,4512612193,4092524004,45.59422302246094,258.0923156738281,73
5,199,4512612193,4092524004,55.087989807128906,118.25972747802734,94
6,126,4512612193,4092524004,50.68279266357422,428.14154052734375,57
7,135,4512612193,4092524004,55.650150299072266,55.40250015258789,63
8,156,4512612193,4092524004,67.02694702148438,2.155546188354492,4
9,275,4512612193,4092524004,54.12153244018555,216.28436279296875,55
10,314,4512612193,4092524004,67.29795837402344,24.986854553222656,15
11,334,4512612193,4092524004,61.987369537353516,66.69195556640625,37
12,99,4512612193,4092524004,26.726409912109375,52.71646499633789,82
13,353,4512612193,4092524004,51.2337532043457,84.16177368164062,50
14,253,4512612193,4092524004,54.239158630371094,190.7285614013672,72
15,303,4512612193,4092524004,59.304832458496094,319.3292541503906,2
16,448,4512612193,4092524004,63.93436050415039,,1
17,81,4512612193,4092524004,59.549564361572266,,1
18,136,4512612193,4092524004,57.29615783691406,54.02637481689453,57
19,138,4512612193,4092524004,59.87656784057617,49.07670974731445,68
20,162,4512612193,4092524004,44.29728698730469,91.56830596923828,27
21,415,4512612193,4092524004,59.99141311645508,63.545902252197266,56
22,457,4512612193,4092524004,28.261981964111328,70.35121154785156,58
23,489,4512612193,4092524004,52.71965789794922,93.73934173583984,105
24,196,4512612193,4092524004,45.890987396240234,265.4804992675781,81
25,226,4512612193,4092524004,68.10018920898438,,1
26,490,4512612193,4092524004,53.960777282714844,136.12557983398438,111
27,4,4512612193,4092524004,67.67042541503906,29.290266036987305,14
28,10,4512612193,4092524004,67.71199035644531,,1
29,184,4512612193,4092524004,61.24247741699219,106.87455749511719,57
30,498,4512612193,4092524004,57.79731369018555,52.52321243286133,45
31,402,4512612193,4092524004,60.81110382080078,65.57516479492188,54
32,406,4512612193,4092524004,60.46387481689453,54.7558708190918,73
33,289,4512612193,4092524004,52.01582717895508,91.1631088256836,43
34,309,4512612193,4092524004,63.34967803955078,252.66883850097656,9
35,385,4512612193,4092524004,27.14255142211914,56.01589584350586,84
36,103,4512612193,4092524004,24.436567306518555,48.55400085449219,62
37,194,4512612193,4092524004,47.07737731933594,275.85589599609375,79
38,278,4512612193,4092524004,41.783180236816406,137.5799560546875,60
39,317,4512612193,4092524004,65.46587371826172,45.94930648803711,21
40,16,4512612193,4092524004,63.092681884765625,106.21749877929688,5
41,31,4512612193,4092524004,25.133052825927734,41.428016662597656,64
42,111,4512612193,4092524004,51.830406188964844,110.97945404052734,47
43,220,4512612193,4092524004,61.43706512451172,50.67959213256836,29
44,459,4512612193,4092524004,28.36697769165039,57.47285461425781,88
45,465,4512612193,4092524004,23.375919342041016,81.28362274169922,47
46,72,4512612193,4092524004,62.24949264526367,49.200130462646484,30
47,499,4512612193,4092524004,60.54469299316406,92.87822723388672,47
48,0,4512612193,4092524004,62.59801483154297,58.20835494995117,23
49,258,4512612193,4092524004,62.59918212890625,78.99019622802734,52
50,330,4512612193,4092524004,63.45127487182617,145.49839782714844,45
51,360,4512612193,4092524004,35.73882293701172,34.393821716308594,9
52,410,4512612193,4092524004,52.62107849121094,279.8417663574219,65
53,417,4512612193,4092524004,53.53915023803711,93.2895736694336,111
54,227,4512612193,4092524004,61.42493438720703,120.88429260253906,4
55,266,4512612193,4092524004,63.39165496826172,118.40104675292969,66
56,283,4512612193,4092524004,61.05615997314453,57.008811950683594,48
57,12,4512612193,4092524004,66.22694396972656,,1
58,43,4512612193,4092524004,58.01165771484375,255.1668243408203,87
59,57,4512612193,4092524004,39.9631233215332,240.3085479736328,83
60,182,4512612193,4092524004,59.88245391845703,116.70893859863281,64
61,354,4512612193,4092524004,53.828025817871094,69.5869140625,46
62,371,4512612193,4092524004,70.29582977294922,20.41908836364746,5
63,197,4512612193,4092524004,32.5959587097168,312.7306823730469,71
64,247,4512612193,4092524004,55.10017013549805,67.40936279296875,81
65,431,4512612193,4092524004,64.450439453125,55.11977005004883,37
66,2,4512612193,4092524004,63.292049407958984,38.97046661376953,25
67,70,4512612193,4092524004,61.75216293334961,81.52957916259766,31
68,112,4512612193,4092524004,56.106834411621094,220.9723358154297,40
69,219,4512612193,4092524004,64.45802307128906,39.875667572021484,34
70,396,4512612193,4092524004,61.430912017822266,128.88973999023438,51
71,404,4512612193,4092524004,60.33161926269531,99.67522430419922,48
72,414,4512612193,4092524004,62.51689147949219,136.38088989257812,47
73,179,4512612193,4092524004,48.151573181152344,168.40513610839844,70
74,394,4512612193,4092524004,60.60752868652344,79.9892807006836,68
75,255,4512612193,4092524004,55.21027374267578,80.52189636230469,68
76,493,4512612193,4092524004,57.986053466796875,142.55470275878906,44
77,369,4512612193,4092524004,65.63790893554688,,1
78,418,4512612193,4092524004,60.62599182128906,78.085205078125,79
79,1,4512612193,4092524004,62.857337951660156,33.4818115234375,27
80,37,4512612193,4092524004,29.541297912597656,56.05482482910156,20
81,47,4512612193,4092524004,30.591856002807617,120.32599639892578,62
82,250,4512612193,4092524004,56.72520065307617,84.75670623779297,81
83,388,4512612193,4092524004,41.74242401123047,243.6781005859375,91
84,391,4512612193,4092524004,58.6340217590332,87.31976318359375,91
85,486,4512612193,4092524004,39.10503005981445,360.2763977050781,80
86,55,4512612193,4092524004,40.48856735229492,142.73458862304688,37
87,58,4512612193,4092524004,45.71702194213867,119.63661193847656,107
88,430,4512612193,4092524004,61.359188079833984,70.53387451171875,54
89,26,4512612193,4092524004,30.532451629638672,42.67375183105469,76
90,32,4512612193,4092524004,27.90160369873047,46.552001953125,56
91,358,4512612193,4092524004,43.717525482177734,134.49656677246094,33
92,424,4512612193,4092524004,54.607521057128906,93.05622100830078,50
93,345,4512612193,4092524004,56.08937072753906,50.29515838623047,51
94,86,4512612193,4092524004,71.68529510498047,,1
95,88,4512612193,4092524004,66.376953125,8.295414924621582,3
96,205,4512612193,4092524004,57.007781982421875,70.4695053100586,69
97,30,4512612193,4092524004,24.316272735595703,45.22684860229492,54
98,44,4512612193,4092524004,52.35211181640625,248.03773498535156,92
99,339,4512612193,4092524004,63.627010345458984,39.72951126098633,55
100,441,4512612193,4092524004,64.36817169189453,,1
101,19,4512612193,4092524004,43.9859619140625,45.0769157409668,30
102,422,4512612193,4092524004,59.682701110839844,62.27150344848633,65
103,107,4512612193,4092524004,34.46954345703125,319.4251403808594,31
104,207,4512612193,4092524004,59.73389434814453,75.68119812011719,72
105,363,4512612193,4092524004,59.48125457763672,46.883392333984375,11
106,25,4512612193,4092524004,28.35332489013672,60.70096969604492,63
107,329,4512612193,4092524004,61.53846740722656,81.31671142578125,37
108,357,4512612193,4092524004,49.8610725402832,101.9406509399414,48
109,435,4512612193,4092524004,66.75613403320312,38.1661262512207,15
110,492,4512612193,4092524004,58.78617477416992,122.70072174072266,64
111,230,4512612193,4092524004,68.45829772949219,1083.5799560546875,3
112,365,4512612193,4092524004,63.933902740478516,96.43238067626953,9
113,23,4512612193,4092524004,28.042448043823242,60.008338928222656,76
114,95,4512612193,4092524004,32.63857650756836,104.90442657470703,89
115,458,4512612193,4092524004,27.41322135925293,90.0080795288086,69
116,331,4512612193,4092524004,59.140647888183594,141.61700439453125,54
117,14,4512612193,4092524004,70.75520324707031,,1
118,77,4512612193,4092524004,65.92195129394531,118.55022430419922,4
119,469,4512612193,4092524004,26.965152740478516,84.9624252319336,38
120,147,4512612193,4092524004,62.31977081298828,34.932334899902344,28
121,154,4512612193,4092524004,64.14297485351562,0.24831481277942657,2
122,163,4512612193,4092524004,46.07477951049805,131.23536682128906,41
123,470,4512612193,4092524004,41.62204360961914,120.7713394165039,37
124,13,4512612193,4092524004,67.53821563720703,,1
125,254,4512612193,4092524004,56.60808181762695,241.2986297607422,40
126,389,4512612193,4092524004,50.58689880371094,151.93592834472656,98
127,202,4512612193,4092524004,49.344173431396484,100.60720825195312,144
128,231,4512612193,4092524004,69.07818603515625,,1
129,48,4512612193,4092524004,34.24742889404297,266.7696838378906,49
130,269,4512612193,4092524004,60.92482376098633,80.74250793457031,54
131,186,4512612193,4092524004,58.6568489074707,51.222599029541016,58
132,349,4512612193,4092524004,48.875633239746094,169.58558654785156,39
133,455,4512612193,4092524004,32.39706802368164,91.46763610839844,93
134,411,4512612193,4092524004,59.30509948730469,234.26390075683594,64
135,78,4512612193,4092524004,67.67109680175781,44.664283752441406,5
136,188,4512612193,4092524004,55.586997985839844,137.6008758544922,63
137,212,4512612193,4092524004,57.94972229003906,75.68254089355469,75
138,426,4512612193,4092524004,61.41769027709961,70.18836212158203,54
139,56,4512612193,4092524004,41.48162078857422,213.19915771484375,57
140,236,4512612193,4092524004,63.21500015258789,44.55000305175781,45
141,239,4512612193,4092524004,47.63059997558594,146.34677124023438,68
142,344,4512612193,4092524004,59.314002990722656,32.26804733276367,72
143,480,4512612193,4092524004,54.86662292480469,236.5117950439453,62
144,105,4512612193,4092524004,38.279502868652344,244.00648498535156,50
145,347,4512612193,4092524004,50.15715408325195,191.36727905273438,43
146,120,4512612193,4092524004,55.032779693603516,103.02851104736328,84
147,350,4512612193,4092524004,55.44636154174805,79.72276306152344,36
148,124,4512612193,4092524004,52.38561248779297,346.052978515625,60
149,222,4512612193,4092524004,68.16687774658203,4.841230392456055,3
150,262,4512612193,4092524004,64.46665954589844,50.434322357177734,77
151,443,4512612193,4092524004,64.64080810546875,7.852780818939209,4
152,476,4512612193,4092524004,55.17498779296875,153.91531372070312,50
153,121,4512612193,4092524004,47.830322265625,234.10791015625,79
154,265,4512612193,4092524004,62.30044174194336,57.30315017700195,82
155,279,4512612193,4092524004,43.74928665161133,182.55743408203125,54
156,150,4512612193,4092524004,70.92398071289062,29.582731246948242,4
157,374,4512612193,4092524004,65.49275207519531,,1
158,438,4512612193,4092524004,71.38349151611328,1.255791187286377,3
159,462,4512612193,4092524004,22.560779571533203,58.47250747680664,56
160,28,4512612193,4092524004,24.03923988342285,44.637020111083984,51
161,40,4512612193,4092524004,29.289241790771484,278.4289245605469,83
162,91,4512612193,4092524004,52.49445343017578,177.0242156982422,30
163,101,4512612193,4092524004,25.16815185546875,32.490726470947266,70
164,409,4512612193,4092524004,53.89436721801758,138.42869567871094,64
165,503,4512612193,4092524004,58.94874572753906,120.29129791259766,30
166,41,4512612193,4092524004,54.75647735595703,147.8278350830078,86
167,204,4512612193,4092524004,58.427764892578125,100.61238861083984,96
168,240,4512612193,4092524004,50.8525390625,163.95582580566406,70
169,318,4512612193,4092524004,64.90238189697266,44.97877883911133,27
170,229,4512612193,4092524004,66.46925354003906,403.4311828613281,3
171,235,4512612193,4092524004,66.38568878173828,16.333232879638672,45
172,42,4512612193,4092524004,54.634822845458984,129.6051483154297,83
173,381,4512612193,4092524004,35.9074592590332,82.6759033203125,31
174,352,4512612193,4092524004,54.755897521972656,50.97700881958008,46
175,475,4512612193,4092524004,39.05126953125,281.63409423828125,52
176,7,4512612193,4092524004,63.74662780761719,51.778076171875,2
177,33,4512612193,4092524004,27.793607711791992,103.42916107177734,53
178,446,4512612193,4092524004,63.461769104003906,,1
179,429,4512612193,4092524004,60.32453918457031,87.64215850830078,40
180,452,4512612193,4092524004,44.96088790893555,134.15777587890625,39
181,61,4512612193,4092524004,57.42192077636719,79.54889678955078,66
182,113,4512612193,4092524004,58.27918243408203,90.04419708251953,54
183,167,4512612193,4092524004,28.81591796875,90.55240631103516,70
184,242,4512612193,4092524004,50.023712158203125,97.426513671875,79
185,403,4512612193,4092524004,60.98075485229492,106.73219299316406,42
186,405,4512612193,4092524004,62.18218231201172,67.18949890136719,72
187,306,4512612193,4092524004,62.648616790771484,169.34603881835938,7
188,39,4512612193,4092524004,38.74396514892578,165.96405029296875,62
189,263,4512612193,4092524004,63.17328643798828,48.56110763549805,56
190,341,4512612193,4092524004,62.78071594238281,55.44504165649414,43
191,245,4512612193,4092524004,52.65901184082031,120.25101470947266,114
192,264,4512612193,4092524004,62.926597595214844,72.48609924316406,75
193,191,4512612193,4092524004,49.71250534057617,284.4558410644531,67
194,274,4512612193,4092524004,53.25897979736328,163.0675048828125,86
195,24,4512612193,4092524004,28.58300018310547,67.20016479492188,76
196,62,4512612193,4092524004,55.447052001953125,84.98820495605469,74
197,257,4512612193,4092524004,57.46480941772461,75.21134185791016,75
198,280,4512612193,4092524004,54.90765380859375,94.88484954833984,62
199,295,4512612193,4092524004,66.79537963867188,28.61331558227539,6
200,49,4512612193,4092524004,36.75008010864258,159.61695861816406,57
201,106,4512612193,4092524004,35.70966339111328,181.06007385253906,59
202,129,4512612193,4092524004,51.13959503173828,154.7777099609375,82
203,296,4512612193,4092524004,65.87151336669922,29.379899978637695,11
204,383,4512612193,4092524004,29.281368255615234,37.00163269042969,74
205,425,4512612193,4092524004,61.086341857910156,82.23775482177734,52
206,494,4512612193,4092524004,55.85163497924805,78.62841033935547,38
207,243,4512612193,4092524004,56.93390655517578,94.78836059570312,96
208,432,4512612193,4092524004,64.01263427734375,87.14746856689453,31
209,80,4512612193,4092524004,69.25581359863281,1.3506109714508057,2
210,171,4512612193,4092524004,24.03873062133789,83.27244567871094,79
211,214,4512612193,4092524004,57.6303596496582,87.99452209472656,52
212,447,4512612193,4092524004,66.80288696289062,,1
213,83,4512612193,4092524004,68.98021697998047,1.2425538301467896,3
214,412,4512612193,4092524004,54.49774932861328,174.55491638183594,54
215,6,4512612193,4092524004,69.38287353515625,82.61553955078125,8
216,117,4512612193,4092524004,52.78468704223633,185.22189331054688,47
217,180,4512612193,4092524004,59.05730438232422,114.72340393066406,57
218,386,4512612193,4092524004,27.177562713623047,44.65978240966797,81
219,400,4512612193,4092524004,62.834228515625,72.46800994873047,63
220,74,4512612193,4092524004,62.377681732177734,114.99652862548828,32
221,294,4512612193,4092524004,63.77427673339844,154.37258911132812,14
222,300,4512612193,4092524004,58.03913497924805,62.88995361328125,2
223,311,4512612193,4092524004,68.29020690917969,41.500240325927734,12
224,21,4512612193,4092524004,36.21366500854492,104.12015533447266,43
225,22,4512612193,4092524004,34.79288101196289,69.17764282226562,63
226,225,4512612193,4092524004,66.08006286621094,28.460237503051758,4
227,488,4512612193,4092524004,56.60430908203125,86.3605728149414,60
228,502,4512612193,4092524004,61.15427780151367,46.12492752075195,28
229,45,4512612193,4092524004,53.03688049316406,252.73672485351562,64
230,17,4512612193,4092524004,58.9596061706543,98.29940795898438,15
231,115,4512612193,4092524004,56.069252014160156,179.52577209472656,58
232,144,4512612193,4092524004,60.70075607299805,50.24070358276367,27
233,172,4512612193,4092524004,25.43899154663086,105.660400390625,85
234,321,4512612193,4092524004,63.98225021362305,31.974796295166016,31
235,401,4512612193,4092524004,59.76207733154297,62.09162902832031,55
236,140,4512612193,4092524004,59.01091384887695,66.44974517822266,63
237,152,4512612193,4092524004,67.04519653320312,19.144100189208984,5
238,234,4512612193,4092524004,67.52439880371094,49.069820404052734,15
239,301,4512612193,4092524004,70.2054672241211,0.5895307064056396,2
240,440,4512612193,4092524004,69.02271270751953,3.98353910446167,2
241,456,4512612193,4092524004,27.345870971679688,70.5597152709961,64
242,127,4512612193,4092524004,53.13239669799805,311.50201416015625,62
243,333,4512612193,4092524004,64.59272766113281,54.9770393371582,34
244,485,4512612193,4092524004,43.94328308105469,306.6058654785156,59
245,109,4512612193,4092524004,46.64092254638672,308.4684753417969,44
246,270,4512612193,4092524004,60.300819396972656,54.19552230834961,73
247,408,4512612193,4092524004,61.52375411987305,102.721435546875,69
248,348,4512612193,4092524004,52.4100341796875,139.282958984375,53
249,413,4512612193,4092524004,43.975257873535156,322.6971435546875,66
250,5,4512612193,4092524004,69.71310424804688,6.557457447052002,3
251,34,4512612193,4092524004,27.89898109436035,121.45044708251953,31
252,176,4512612193,4092524004,26.86693000793457,105.41060638427734,79
253,232,4512612193,4092524004,70.2791976928711,7.82089900970459,2
254,468,4512612193,4092524004,37.66703796386719,121.54688262939453,32
255,474,4512612193,4092524004,50.315425872802734,284.9646301269531,39
256,128,4512612193,4092524004,52.58643341064453,163.8332977294922,76
257,139,4512612193,4092524004,55.97265625,47.54548645019531,56
258,178,4512612193,4092524004,51.38642883300781,207.59486389160156,60
259,114,4512612193,4092524004,55.78155517578125,63.0733642578125,48
260,134,4512612193,4092524004,58.341068267822266,62.88580322265625,68
261,181,4512612193,4092524004,56.20468521118164,153.01222229003906,50
262,221,4512612193,4092524004,67.29483032226562,114.24077606201172,10
263,421,4512612193,4092524004,58.671791076660156,145.4978790283203,71
264,487,4512612193,4092524004,42.10497283935547,232.18423461914062,67
265,82,4512612193,4092524004,28.443889617919922,,1
266,125,4512612193,4092524004,51.47120666503906,372.2755432128906,63
267,359,4512612193,4092524004,35.56867599487305,191.54483032226562,30
268,71,4512612193,4092524004,61.00225830078125,67.36638641357422,40
269,211,4512612193,4092524004,57.049861907958984,93.89527893066406,79
270,251,4512612193,4092524004,62.988407135009766,62.01872253417969,64
271,65,4512612193,4092524004,60.191009521484375,59.826725006103516,40
272,201,4512612193,4092524004,51.62236785888672,76.35319519042969,125
273,54,4512612193,4092524004,26.474802017211914,194.4339141845703,27
274,64,4512612193,4092524004,55.70978546142578,67.54524230957031,46
275,90,4512612193,4092524004,44.16203308105469,87.05779266357422,23
276,328,4512612193,4092524004,61.86510467529297,42.57722854614258,22
277,177,4512612193,4092524004,34.06808090209961,325.8283996582031,51
278,185,4512612193,4092524004,58.37823486328125,108.67215728759766,56
279,256,4512612193,4092524004,59.14628601074219,99.46307373046875,63
280,378,4512612193,4092524004,48.27680206298828,26.53923988342285,30
281,75,4512612193,4092524004,66.51795959472656,65.73916625976562,21
282,160,4512612193,4092524004,66.427001953125,13.836283683776855,7
283,277,4512612193,4092524004,42.31041717529297,199.3975067138672,55
284,52,4512612193,4092524004,23.61971664428711,82.16120147705078,42
285,248,4512612193,4092524004,57.41080856323242,134.91844177246094,89
286,451,4512612193,4092524004,45.67815399169922,63.85304260253906,41
287,27,4512612193,4092524004,25.550559997558594,48.58334732055664,76
288,131,4512612193,4092524004,58.238250732421875,99.51299285888672,64
289,67,4512612193,4092524004,62.81645965576172,59.58219909667969,50
290,288,4512612193,4092524004,52.863861083984375,135.9635467529297,42
291,290,4512612193,4092524004,52.25531768798828,75.92552947998047,26
292,399,4512612193,4092524004,62.50697326660156,48.123207092285156,60
293,484,4512612193,4092524004,38.92791748046875,318.094482421875,50
294,260,4512612193,4092524004,64.64204406738281,50.66465759277344,61
295,284,4512612193,4092524004,57.90220260620117,40.70351028442383,63
296,434,4512612193,4092524004,63.326385498046875,45.20920944213867,19
297,460,4512612193,4092524004,24.629165649414062,56.56132888793945,78
298,73,4512612193,4092524004,60.68896484375,89.4448471069336,34
299,166,4512612193,4092524004,29.41277503967285,124.17001342773438,73
300,282,4512612193,4092524004,56.10966110229492,106.13111877441406,31
301,286,4512612193,4092524004,54.0648193359375,69.25515747070312,46
302,299,4512612193,4092524004,64.24960327148438,733.5733642578125,4
303,323,4512612193,4092524004,65.53793334960938,43.77303695678711,30
304,467,4512612193,4092524004,26.52914047241211,220.81332397460938,34
305,174,4512612193,4092524004,28.909151077270508,122.50922393798828,55
306,384,4512612193,4092524004,29.691614151000977,93.85794830322266,73
307,252,4512612193,4092524004,57.03388214111328,75.79598236083984,50
308,84,4512612193,4092524004,66.71748352050781,20.88383674621582,2
309,203,4512612193,4092524004,58.05370330810547,101.03331756591797,81
310,320,4512612193,4092524004,63.67905044555664,107.29959106445312,29
311,60,4512612193,4092524004,58.8138542175293,113.36238098144531,63
312,271,4512612193,4092524004,59.42439270019531,72.55059814453125,77
313,392,4512612193,4092524004,52.716590881347656,88.27999877929688,88
314,427,4512612193,4092524004,60.446346282958984,59.832115173339844,39
315,483,4512612193,4092524004,52.81792449951172,137.7849884033203,58
316,428,4512612193,4092524004,59.19219207763672,44.50605392456055,47
317,268,4512612193,4092524004,62.037841796875,65.4872817993164,65
318,148,4512612193,4092524004,65.69772338867188,32.992530822753906,26
319,192,4512612193,4092524004,39.88218688964844,323.7312316894531,49
320,310,4512612193,4092524004,65.46977996826172,224.6199493408203,7
321,36,4512612193,4092524004,24.664661407470703,125.0755386352539,26
322,102,4512612193,4092524004,24.127643585205078,30.614667892456055,65
323,110,4512612193,4092524004,43.04320526123047,284.3922119140625,33
324,132,4512612193,4092524004,54.79467010498047,149.94708251953125,62
325,198,4512612193,4092524004,53.99302291870117,248.81846618652344,71
326,50,4512612193,4092524004,33.50490951538086,126.9898452758789,61
327,173,4512612193,4092524004,24.34832763671875,131.17408752441406,83
328,380,4512612193,4092524004,37.88292694091797,103.87300109863281,37
329,3,4512612193,4092524004,62.586055755615234,47.163970947265625,17
330,69,4512612193,4092524004,57.721031188964844,103.29039764404297,48
331,209,4512612193,4092524004,56.873809814453125,75.67589569091797,87
332,261,4512612193,4092524004,62.732574462890625,68.38003540039062,59
333,281,4512612193,4092524004,53.73391342163086,91.45897674560547,46
334,464,4512612193,4092524004,24.858245849609375,52.98503875732422,38
335,478,4512612193,4092524004,61.09785461425781,84.87710571289062,82
336,79,4512612193,4092524004,52.94557189941406,0.0718572586774826,2
337,164,4512612193,4092524004,44.08894348144531,183.33941650390625,35
338,342,4512612193,4092524004,61.829315185546875,127.31615447998047,32
339,377,4512612193,4092524004,53.33806228637695,158.99734497070312,7
340,35,4512612193,4092524004,27.297780990600586,105.98320770263672,41
341,108,4512612193,4092524004,47.359649658203125,411.934326171875,40
342,89,4512612193,4092524004,61.19724655151367,73.85142517089844,13
343,267,4512612193,4092524004,63.35332489013672,50.3459587097168,72
344,454,4512612193,4092524004,42.424964904785156,94.81208801269531,62
345,213,4512612193,4092524004,55.799434661865234,77.85830688476562,97
346,376,4512612193,4092524004,62.53031921386719,31.33584976196289,2
347,145,4512612193,4092524004,56.03012466430664,70.16605377197266,46
348,292,4512612193,4092524004,53.584903717041016,65.60572052001953,29
349,419,4512612193,4092524004,62.319236755371094,83.6166763305664,66
350,449,4512612193,4092524004,65.02764892578125,37.021453857421875,6
351,68,4512612193,4092524004,61.66136169433594,45.61313247680664,54
352,327,4512612193,4092524004,60.232566833496094,87.35669708251953,31
353,495,4512612193,4092524004,58.940860748291016,130.7274627685547,29
354,233,4512612193,4092524004,66.5943603515625,39.949737548828125,7
355,285,4512612193,4092524004,56.97397232055664,69.60881042480469,83
356,316,4512612193,4092524004,68.49484252929688,135.14813232421875,23
357,238,4512612193,4092524004,56.58918762207031,74.61708068847656,82
358,53,4512612193,4092524004,24.434635162353516,32.23579406738281,37
359,298,4512612193,4092524004,67.5979232788086,11.532210350036621,7
360,63,4512612193,4092524004,56.809059143066406,63.93907165527344,48
361,312,4512612193,4092524004,69.12522888183594,316.1920471191406,13
362,51,4512612193,4092524004,37.89024353027344,158.98622131347656,49
363,343,4512612193,4092524004,61.46201705932617,42.425724029541016,43
364,324,4512612193,4092524004,61.836082458496094,99.393310546875,29
365,340,4512612193,4092524004,59.82878875732422,54.70490264892578,52
366,362,4512612193,4092524004,44.67666244506836,105.61637115478516,11
367,190,4512612193,4092524004,56.01566696166992,263.50555419921875,59
368,92,4512612193,4092524004,50.34836196899414,209.67031860351562,45
369,195,4512612193,4092524004,47.70512771606445,245.8163604736328,87
370,482,4512612193,4092524004,50.28822326660156,261.1864013671875,70
371,500,4512612193,4092524004,59.02276611328125,95.32989501953125,48
372,93,4512612193,4092524004,42.52357864379883,99.76677703857422,51
373,169,4512612193,4092524004,29.052183151245117,98.5140151977539,99
374,355,4512612193,4092524004,52.965614318847656,58.85089111328125,50
375,450,4512612193,4092524004,47.65623474121094,46.46794891357422,30
376,122,4512612193,4092524004,44.52045440673828,376.0272216796875,68
377,142,4512612193,4092524004,60.24398422241211,63.387874603271484,53
378,210,4512612193,4092524004,59.664634704589844,82.20317077636719,54
379,307,4512612193,4092524004,65.51707458496094,63.29135513305664,6
380,97,4512612193,4092524004,27.397144317626953,46.44988250732422,72
381,305,4512612193,4092524004,65.0313491821289,7.613116264343262,2
382,481,4512612193,4092524004,55.001224517822266,231.03839111328125,80
383,118,4512612193,4092524004,61.21832275390625,115.9085464477539,52
384,161,4512612193,4092524004,63.60335922241211,52.22965621948242,9
385,393,4512612193,4092524004,59.56182098388672,93.29981231689453,82
386,398,4512612193,4092524004,59.85232925415039,111.94171142578125,74
387,249,4512612193,4092524004,57.43891143798828,64.4364242553711,81
388,259,4512612193,4092524004,63.26912307739258,133.23519897460938,59
389,338,4512612193,4092524004,63.31898498535156,157.2724609375,42
390,466,4512612193,4092524004,29.509857177734375,329.9216613769531,33
391,496,4512612193,4092524004,60.96509552001953,129.04983520507812,40
392,276,4512612193,4092524004,51.871070861816406,210.280517578125,67
393,302,4512612193,4092524004,67.43073272705078,36.3452262878418,5
394,313,4512612193,4092524004,67.52410888671875,46.6973876953125,22
395,407,4512612193,4092524004,58.589088439941406,107.86408996582031,69
396,38,4512612193,4092524004,48.68825912475586,127.40865325927734,60
397,379,4512612193,4092524004,46.054927825927734,36.67363739013672,41
398,291,4512612193,4092524004,54.719242095947266,42.559322357177734,29
399,395,4512612193,4092524004,60.41242218017578,79.90390014648438,66
400,193,4512612193,4092524004,54.338111877441406,239.6976318359375,89
401,216,4512612193,4092524004,53.63399124145508,139.78355407714844,45
402,297,4512612193,4092524004,71.75977325439453,35.23375701904297,5
403,416,4512612193,4092524004,60.630043029785156,72.71318817138672,88
404,501,4512612193,4092524004,61.35683059692383,28.464441299438477,25
405,59,4512612193,4092524004,51.289329528808594,127.55736541748047,58
406,94,4512612193,4092524004,40.990360260009766,117.92998504638672,53
407,133,4512612193,4092524004,56.08612060546875,93.57113647460938,64
408,223,4512612193,4092524004,66.77471160888672,63.57197189331055,5
409,137,4512612193,4092524004,57.41278839111328,70.2791748046875,52
410,218,4512612193,4092524004,65.45000457763672,36.992759704589844,34
411,224,4512612193,4092524004,69.59810638427734,93.50062561035156,7
412,356,4512612193,4092524004,53.040977478027344,79.15576171875,31
413,397,4512612193,4092524004,60.57733917236328,83.25932312011719,59
414,130,4512612193,4092524004,50.781166076660156,158.054443359375,99
415,165,4512612193,4092524004,43.54920196533203,97.52806091308594,45
416,337,4512612193,4092524004,63.93620681762695,57.512901306152344,42
417,433,4512612193,4092524004,64.875,47.94930648803711,17
418,155,4512612193,4092524004,62.59212875366211,27.619834899902344,4
419,244,4512612193,4092524004,54.181270599365234,104.71357727050781,92
420,361,4512612193,4092524004,36.34474182128906,56.717769622802734,13
421,461,4512612193,4092524004,23.839603424072266,52.75954055786133,61
422,228,4512612193,4092524004,59.91281509399414,,1
423,241,4512612193,4092524004,51.21052551269531,127.79972076416016,95
424,319,4512612193,4092524004,65.91799926757812,40.83100509643555,25
425,423,4512612193,4092524004,57.60725784301758,77.7474365234375,63
426,20,4512612193,4092524004,49.13218307495117,122.32697296142578,35
427,141,4512612193,4092524004,55.873722076416016,81.39767456054688,49
428,170,4512612193,4092524004,26.356067657470703,135.4781951904297,80
429,326,4512612193,4092524004,58.724727630615234,74.11071014404297,45
430,29,4512612193,4092524004,25.882362365722656,66.03086853027344,71
431,200,4512612193,4092524004,56.16899108886719,101.57613372802734,104
432,293,4512612193,4092524004,64.18754577636719,43.47549057006836,22
433,149,4512612193,4092524004,63.98875427246094,37.508541107177734,12
434,315,4512612193,4092524004,65.39424133300781,50.44384002685547,13
435,497,4512612193,4092524004,58.940025329589844,68.76141357421875,31
436,304,4512612193,4092524004,68.18035888671875,46.91130065917969,2
437,471,4512612193,4092524004,55.029842376708984,202.4578094482422,23
438,100,4512612193,4092524004,25.470170974731445,42.2795295715332,76
439,439,4512612193,4092524004,46.5438346862793,,1
440,463,4512612193,4092524004,25.75358772277832,87.87826538085938,54
441,491,4512612193,4092524004,62.32318115234375,77.73890686035156,58
442,308,4512612193,4092524004,59.14299011230469,112.0879898071289,5
443,8,4512612193,4092524004,60.02395248413086,86.42636108398438,2
444,76,4512612193,4092524004,65.28575134277344,34.501792907714844,19
445,157,4512612193,4092524004,68.76980590820312,8.449721336364746,2
446,183,4512612193,4092524004,59.1891975402832,93.65248107910156,45
447,237,4512612193,4092524004,61.91286087036133,69.54666900634766,59
448,336,4512612193,4092524004,65.47859954833984,47.13074493408203,39
449,346,4512612193,4092524004,57.75905990600586,95.5650405883789,45
450,453,4512612193,4092524004,42.198524475097656,82.0274887084961,47
451,123,4512612193,4092524004,54.02751541137695,469.4208068847656,44
452,473,4512612193,4092524004,47.63761520385742,308.24530029296875,52
453,208,4512612193,4092524004,55.84469223022461,63.467445373535156,72
454,332,4512612193,4092524004,62.72396469116211,53.6643180847168,45
455,382,4512612193,4092524004,29.718244552612305,84.70696258544922,49
456,442,4512612193,4092524004,44.57902145385742,,1
457,151,4512612193,4092524004,68.15786743164062,52.865047454833984,3
458,143,4512612193,4092524004,59.74742889404297,119.6526107788086,52
459,335,4512612193,4092524004,63.79361343383789,44.9444694519043,47
460,477,4512612193,4092524004,60.27861022949219,69.54815673828125,56
461,159,4512612193,4092524004,71.065673828125,2.1145401000976562,2
462,479,4512612193,4092524004,54.41167449951172,250.13755798339844,76
463,175,4512612193,4092524004,26.78868865966797,179.90740966796875,52
464,367,4512612193,4092524004,68.67636108398438,27.68832015991211,8
465,387,4512612193,4092524004,23.208715438842773,89.86006164550781,60
466,325,4512612193,4092524004,58.64350509643555,65.54994201660156,20
467,390,4512612193,4092524004,58.77138900756836,64.52135467529297,79
468,436,4512612193,4092524004,64.37422180175781,56.60273742675781,9
469,168,4512612193,4092524004,27.472843170166016,110.39641571044922,73
470,246,4512612193,4092524004,52.20750045776367,130.14781188964844,87
471,46,4512612193,4092524004,44.93718338012695,174.5679931640625,74
472,104,4512612193,4092524004,30.582056045532227,239.0775146484375,57
473,273,4512612193,4092524004,58.576744079589844,66.43157196044922,69
474,368,4512612193,4092524004,54.01948547363281,105.92076110839844,3
475,420,4512612193,4092524004,60.43407440185547,57.52436828613281,47
476,116,4512612193,4092524004,52.09294891357422,150.5114288330078,62
477,119,4512612193,4092524004,56.953712463378906,108.06700897216797,71
478,206,4512612193,4092524004,54.75735092163086,64.87332916259766,65
479,215,4512612193,4092524004,58.34531021118164,63.9385986328125,57
480,189,4512612193,4092524004,57.36503982543945,115.38001251220703,43
481,366,4512612193,4092524004,66.18441772460938,33.394187927246094,6
482,437,4512612193,4092524004,67.64506530761719,0.31615057587623596,2
483,15,4512612193,4092524004,60.66199493408203,,1
484,96,4512612193,4092524004,31.004722595214844,107.15036010742188,82
485,217,4512612193,4092524004,59.3289909362793,49.69491195678711,37
486,472,4512612193,4092524004,49.80704879760742,204.98507690429688,44
487,287,4512612193,4092524004,57.4827766418457,84.20244598388672,39
488,322,4512612193,4092524004,66.02203369140625,39.93749237060547,34
489,364,4512612193,4092524004,59.596275329589844,73.76904296875,15
490,18,4512612193,4092524004,41.56546401977539,155.31280517578125,21
491,375,4512612193,4092524004,56.99722671508789,314.2558898925781,2
492,272,4512612193,4092524004,60.83284378051758,74.99725341796875,77
493,351,4512612193,4092524004,52.059505462646484,195.18531799316406,37
