,slot,source,target,speed
0,0,4092524002,34024741,63.72334289550781
1,1,4092524002,34024741,68.5012435913086
2,2,4092524002,34024741,64.90503692626953
3,3,4092524002,34024741,68.05628204345703
4,4,4092524002,34024741,67.3504638671875
5,5,4092524002,34024741,68.08605194091797
6,6,4092524002,34024741,63.829833984375
7,7,4092524002,34024741,59.00177001953125
8,8,4092524002,34024741,68.19935607910156
9,10,4092524002,34024741,66.28744506835938
10,16,4092524002,34024741,68.2577896118164
11,17,4092524002,34024741,62.52028274536133
12,18,4092524002,34024741,57.00351333618164
13,19,4092524002,34024741,57.585968017578125
14,20,4092524002,34024741,57.343727111816406
15,21,4092524002,34024741,36.1489143371582
16,22,4092524002,34024741,30.01239776611328
17,23,4092524002,34024741,15.008450508117676
18,24,4092524002,34024741,18.57175636291504
19,25,4092524002,34024741,16.763263702392578
20,26,4092524002,34024741,15.796119689941406
21,27,4092524002,34024741,14.608438491821289
22,28,4092524002,34024741,15.366704940795898
23,29,4092524002,34024741,14.560466766357422
24,30,4092524002,34024741,13.86941909790039
25,31,4092524002,34024741,15.65585994720459
26,32,4092524002,34024741,16.329757690429688
27,33,4092524002,34024741,20.21902847290039
28,34,4092524002,34024741,20.556852340698242
29,35,4092524002,34024741,16.550575256347656
30,36,4092524002,34024741,15.279264450073242
31,37,4092524002,34024741,14.02377700805664
32,38,4092524002,34024741,46.49056625366211
33,39,4092524002,34024741,48.788482666015625
34,40,4092524002,34024741,52.67597198486328
35,41,4092524002,34024741,55.44886016845703
36,42,4092524002,34024741,53.11991882324219
37,43,4092524002,34024741,59.80263137817383
38,44,4092524002,34024741,55.2685546875
39,45,4092524002,34024741,19.56464195251465
40,46,4092524002,34024741,17.70845603942871
41,47,4092524002,34024741,13.201112747192383
42,48,4092524002,34024741,16.22859764099121
43,49,4092524002,34024741,13.370458602905273
44,50,4092524002,34024741,11.792757034301758
45,51,4092524002,34024741,12.82261848449707
46,52,4092524002,34024741,10.499305725097656
47,53,4092524002,34024741,12.129345893859863
48,54,4092524002,34024741,9.527067184448242
49,55,4092524002,34024741,23.096492767333984
50,56,4092524002,34024741,20.846797943115234
51,57,4092524002,34024741,53.386287689208984
52,58,4092524002,34024741,54.533634185791016
53,59,4092524002,34024741,56.9075927734375
54,60,4092524002,34024741,63.88359832763672
55,61,4092524002,34024741,63.13576889038086
56,62,4092524002,34024741,62.9992561340332
57,63,4092524002,34024741,61.29622268676758
58,64,4092524002,34024741,62.65646743774414
59,65,4092524002,34024741,62.761260986328125
60,66,4092524002,34024741,63.87541198730469
61,67,4092524002,34024741,63.798362731933594
62,68,4092524002,34024741,64.34732055664062
63,69,4092524002,34024741,63.27117919921875
64,70,4092524002,34024741,65.28950500488281
65,71,4092524002,34024741,65.95592498779297
66,72,4092524002,34024741,64.06991577148438
67,73,4092524002,34024741,64.51847839355469
68,74,4092524002,34024741,63.229190826416016
69,75,4092524002,34024741,68.88420104980469
70,76,4092524002,34024741,66.94116973876953
71,77,4092524002,34024741,62.36674118041992
72,78,4092524002,34024741,65.49935913085938
73,79,4092524002,34024741,62.804481506347656
74,80,4092524002,34024741,70.2645034790039
75,83,4092524002,34024741,71.07506561279297
76,84,4092524002,34024741,68.53254699707031
77,87,4092524002,34024741,68.95783233642578
78,88,4092524002,34024741,67.51670837402344
79,89,4092524002,34024741,64.0177230834961
80,90,4092524002,34024741,58.541221618652344
81,91,4092524002,34024741,59.4229621887207
82,92,4092524002,34024741,61.926475524902344
83,93,4092524002,34024741,55.00965118408203
84,94,4092524002,34024741,38.347999572753906
85,95,4092524002,34024741,22.53076171875
86,96,4092524002,34024741,14.809967994689941
87,97,4092524002,34024741,16.268123626708984
88,98,4092524002,34024741,16.452348709106445
89,99,4092524002,34024741,17.431617736816406
90,100,4092524002,34024741,17.077049255371094
91,101,4092524002,34024741,16.36892318725586
92,102,4092524002,34024741,16.708574295043945
93,103,4092524002,34024741,16.07655143737793
94,104,4092524002,34024741,17.89118003845215
95,105,4092524002,34024741,32.954551696777344
96,106,4092524002,34024741,18.467954635620117
97,107,4092524002,34024741,16.183536529541016
98,108,4092524002,34024741,24.767112731933594
99,109,4092524002,34024741,22.828407287597656
100,110,4092524002,34024741,18.764963150024414
101,111,4092524002,34024741,24.92913246154785
102,112,4092524002,34024741,56.699859619140625
103,113,4092524002,34024741,59.22053527832031
104,114,4092524002,34024741,59.64516067504883
105,115,4092524002,34024741,30.33806610107422
106,116,4092524002,34024741,31.01756477355957
107,117,4092524002,34024741,50.965946197509766
108,118,4092524002,34024741,63.61088180541992
109,119,4092524002,34024741,62.20850372314453
110,120,4092524002,34024741,32.91897964477539
111,121,4092524002,34024741,24.040693283081055
112,122,4092524002,34024741,16.49325180053711
113,123,4092524002,34024741,17.33741569519043
114,124,4092524002,34024741,23.36873435974121
115,125,4092524002,34024741,33.2207145690918
116,126,4092524002,34024741,56.14654541015625
117,127,4092524002,34024741,62.7619514465332
118,128,4092524002,34024741,55.920921325683594
119,129,4092524002,34024741,55.88393020629883
120,130,4092524002,34024741,58.41484832763672
121,131,4092524002,34024741,62.52125549316406
122,132,4092524002,34024741,59.931217193603516
123,133,4092524002,34024741,61.13421630859375
124,134,4092524002,34024741,61.76046371459961
125,135,4092524002,34024741,62.357784271240234
126,136,4092524002,34024741,61.837181091308594
127,137,4092524002,34024741,62.414588928222656
128,138,4092524002,34024741,63.385955810546875
129,139,4092524002,34024741,61.5745964050293
130,140,4092524002,34024741,62.156890869140625
131,141,4092524002,34024741,63.73826217651367
132,142,4092524002,34024741,63.92778778076172
133,143,4092524002,34024741,62.641937255859375
134,144,4092524002,34024741,62.897953033447266
135,145,4092524002,34024741,62.093162536621094
136,146,4092524002,34024741,64.26189422607422
137,147,4092524002,34024741,63.77488327026367
138,148,4092524002,34024741,66.14458465576172
139,149,4092524002,34024741,68.16752624511719
140,150,4092524002,34024741,69.16800689697266
141,151,4092524002,34024741,71.06807708740234
142,152,4092524002,34024741,63.610958099365234
143,154,4092524002,34024741,69.469482421875
144,155,4092524002,34024741,65.06660461425781
145,156,4092524002,34024741,65.44703674316406
146,157,4092524002,34024741,59.95669937133789
147,159,4092524002,34024741,70.44046020507812
148,160,4092524002,34024741,64.8282699584961
149,161,4092524002,34024741,66.07182312011719
150,162,4092524002,34024741,56.55171203613281
151,163,4092524002,34024741,57.07852554321289
152,164,4092524002,34024741,51.50798797607422
153,165,4092524002,34024741,38.038246154785156
154,166,4092524002,34024741,19.831890106201172
155,167,4092524002,34024741,17.682029724121094
156,168,4092524002,34024741,16.52413558959961
157,169,4092524002,34024741,16.998987197875977
158,170,4092524002,34024741,16.172088623046875
159,171,4092524002,34024741,16.336265563964844
160,172,4092524002,34024741,16.905458450317383
161,173,4092524002,34024741,16.083541870117188
162,174,4092524002,34024741,20.875028610229492
163,175,4092524002,34024741,18.21044158935547
164,176,4092524002,34024741,15.071449279785156
165,177,4092524002,34024741,18.75952911376953
166,178,4092524002,34024741,24.301504135131836
167,179,4092524002,34024741,26.8266544342041
168,180,4092524002,34024741,57.85081481933594
169,181,4092524002,34024741,59.741844177246094
170,182,4092524002,34024741,61.506534576416016
171,183,4092524002,34024741,63.62795639038086
172,184,4092524002,34024741,63.101070404052734
173,185,4092524002,34024741,62.97985076904297
174,186,4092524002,34024741,62.74127960205078
175,187,4092524002,34024741,21.598819732666016
176,188,4092524002,34024741,30.229164123535156
177,189,4092524002,34024741,58.24657440185547
178,190,4092524002,34024741,35.068485260009766
179,191,4092524002,34024741,32.542701721191406
180,192,4092524002,34024741,14.168390274047852
181,193,4092524002,34024741,23.412160873413086
182,194,4092524002,34024741,14.878288269042969
183,195,4092524002,34024741,17.222150802612305
184,196,4092524002,34024741,15.116226196289062
185,197,4092524002,34024741,14.250458717346191
186,198,4092524002,34024741,45.435550689697266
187,199,4092524002,34024741,59.3424072265625
188,200,4092524002,34024741,60.84294509887695
189,201,4092524002,34024741,57.86227035522461
190,202,4092524002,34024741,55.00897979736328
191,203,4092524002,34024741,63.342987060546875
192,204,4092524002,34024741,62.59701156616211
193,205,4092524002,34024741,61.53143310546875
194,206,4092524002,34024741,61.77187728881836
195,207,4092524002,34024741,61.79585266113281
196,208,4092524002,34024741,63.33108901977539
197,209,4092524002,34024741,61.621253967285156
198,210,4092524002,34024741,64.35214233398438
199,211,4092524002,34024741,62.4287109375
200,212,4092524002,34024741,63.59197235107422
201,213,4092524002,34024741,61.358760833740234
202,214,4092524002,34024741,61.679298400878906
203,215,4092524002,34024741,59.40777587890625
204,216,4092524002,34024741,59.249847412109375
205,217,4092524002,34024741,64.60822296142578
206,218,4092524002,34024741,65.43338012695312
207,219,4092524002,34024741,66.78033447265625
208,220,4092524002,34024741,63.97390365600586
209,221,4092524002,34024741,65.75920867919922
210,222,4092524002,34024741,69.16496276855469
211,223,4092524002,34024741,67.82142639160156
212,224,4092524002,34024741,65.28050994873047
213,225,4092524002,34024741,67.07333374023438
214,226,4092524002,34024741,71.2396469116211
215,228,4092524002,34024741,63.16751480102539
216,229,4092524002,34024741,66.46925354003906
217,230,4092524002,34024741,70.38078308105469
218,233,4092524002,34024741,68.29542541503906
219,234,4092524002,34024741,68.99011993408203
220,235,4092524002,34024741,67.83281707763672
221,236,4092524002,34024741,66.27780151367188
222,237,4092524002,34024741,66.21781921386719
223,238,4092524002,34024741,61.543182373046875
224,239,4092524002,34024741,54.039398193359375
225,240,4092524002,34024741,59.81005096435547
226,241,4092524002,34024741,56.646453857421875
227,242,4092524002,34024741,56.95014190673828
228,243,4092524002,34024741,63.00014114379883
229,244,4092524002,34024741,61.25482940673828
230,245,4092524002,34024741,58.66022491455078
231,246,4092524002,34024741,53.493995666503906
232,247,4092524002,34024741,60.618324279785156
233,248,4092524002,34024741,56.99180221557617
234,249,4092524002,34024741,61.87451171875
235,250,4092524002,34024741,57.21016311645508
236,251,4092524002,34024741,64.7470932006836
237,252,4092524002,34024741,62.316139221191406
238,253,4092524002,34024741,59.750831604003906
239,254,4092524002,34024741,58.59333801269531
240,255,4092524002,34024741,59.155574798583984
241,256,4092524002,34024741,64.6778793334961
242,257,4092524002,34024741,60.633811950683594
243,258,4092524002,34024741,65.33039855957031
244,259,4092524002,34024741,64.35917663574219
245,260,4092524002,34024741,65.11121368408203
246,261,4092524002,34024741,65.95482635498047
247,262,4092524002,34024741,66.3611068725586
248,263,4092524002,34024741,67.60287475585938
249,264,4092524002,34024741,65.16815185546875
250,265,4092524002,34024741,63.42063903808594
251,266,4092524002,34024741,65.23392486572266
252,267,4092524002,34024741,64.77446746826172
253,268,4092524002,34024741,66.49688720703125
254,269,4092524002,34024741,63.599082946777344
255,270,4092524002,34024741,64.87106323242188
256,271,4092524002,34024741,62.66533660888672
257,272,4092524002,34024741,63.91679382324219
258,273,4092524002,34024741,63.91860580444336
259,274,4092524002,34024741,59.03166198730469
260,275,4092524002,34024741,59.93965148925781
261,276,4092524002,34024741,57.676063537597656
262,277,4092524002,34024741,21.96144676208496
263,278,4092524002,34024741,33.24658966064453
264,279,4092524002,34024741,33.72609329223633
265,280,4092524002,34024741,58.137367248535156
266,281,4092524002,34024741,62.00251770019531
267,282,4092524002,34024741,61.186058044433594
268,283,4092524002,34024741,63.981815338134766
269,284,4092524002,34024741,63.10899353027344
270,285,4092524002,34024741,61.4271240234375
271,286,4092524002,34024741,61.27008056640625
272,287,4092524002,34024741,59.772132873535156
273,288,4092524002,34024741,60.3171501159668
274,289,4092524002,34024741,60.066368103027344
275,290,4092524002,34024741,60.43832015991211
276,291,4092524002,34024741,60.22447204589844
277,292,4092524002,34024741,63.074188232421875
278,293,4092524002,34024741,67.30052185058594
279,294,4092524002,34024741,65.34554290771484
280,295,4092524002,34024741,67.29066467285156
281,296,4092524002,34024741,66.76100158691406
282,297,4092524002,34024741,67.54336547851562
283,298,4092524002,34024741,71.2232666015625
284,299,4092524002,34024741,68.50189208984375
285,300,4092524002,34024741,66.4691390991211
286,301,4092524002,34024741,71.28175354003906
287,302,4092524002,34024741,69.59284973144531
288,304,4092524002,34024741,67.24419403076172
289,305,4092524002,34024741,65.74229431152344
290,306,4092524002,34024741,66.98081970214844
291,307,4092524002,34024741,67.54251098632812
292,308,4092524002,34024741,66.67792510986328
293,309,4092524002,34024741,66.45506286621094
294,310,4092524002,34024741,70.22954559326172
295,311,4092524002,34024741,67.80406951904297
296,312,4092524002,34024741,71.47185516357422
297,313,4092524002,34024741,68.72588348388672
298,314,4092524002,34024741,68.9769287109375
299,315,4092524002,34024741,67.33824157714844
300,316,4092524002,34024741,68.88064575195312
301,317,4092524002,34024741,66.2671890258789
302,318,4092524002,34024741,65.33757019042969
303,319,4092524002,34024741,68.00318908691406
304,320,4092524002,34024741,66.73897552490234
305,321,4092524002,34024741,66.23619079589844
306,322,4092524002,34024741,66.14967346191406
307,323,4092524002,34024741,66.59454345703125
308,324,4092524002,34024741,62.30231857299805
309,325,4092524002,34024741,63.86977005004883
310,326,4092524002,34024741,61.69247055053711
311,327,4092524002,34024741,65.87175750732422
312,328,4092524002,34024741,65.41475677490234
313,329,4092524002,34024741,66.17713928222656
314,330,4092524002,34024741,66.21501159667969
315,331,4092524002,34024741,64.19127655029297
316,332,4092524002,34024741,65.68504333496094
317,333,4092524002,34024741,65.10086822509766
318,334,4092524002,34024741,66.42274475097656
319,335,4092524002,34024741,65.70922088623047
320,336,4092524002,34024741,66.38545227050781
321,337,4092524002,34024741,65.53101348876953
322,338,4092524002,34024741,64.77660369873047
323,339,4092524002,34024741,65.83229064941406
324,340,4092524002,34024741,63.70935821533203
325,341,4092524002,34024741,62.07606887817383
326,342,4092524002,34024741,63.52894973754883
327,343,4092524002,34024741,65.07748413085938
328,344,4092524002,34024741,63.183860778808594
329,345,4092524002,34024741,59.48591995239258
330,346,4092524002,34024741,58.43406295776367
331,347,4092524002,34024741,58.162445068359375
332,348,4092524002,34024741,56.1697883605957
333,349,4092524002,34024741,53.31703567504883
334,350,4092524002,34024741,61.74653625488281
335,351,4092524002,34024741,59.260066986083984
336,352,4092524002,34024741,60.0538330078125
337,353,4092524002,34024741,60.69488525390625
338,354,4092524002,34024741,60.32516098022461
339,355,4092524002,34024741,60.19658279418945
340,356,4092524002,34024741,60.67795944213867
341,357,4092524002,34024741,58.8880615234375
342,358,4092524002,34024741,43.012657165527344
343,359,4092524002,34024741,49.88182067871094
344,360,4092524002,34024741,21.84892463684082
345,361,4092524002,34024741,19.44696807861328
346,362,4092524002,34024741,46.578514099121094
347,363,4092524002,34024741,67.30457305908203
348,364,4092524002,34024741,65.9669189453125
349,365,4092524002,34024741,68.42057800292969
350,366,4092524002,34024741,65.87645721435547
351,367,4092524002,34024741,65.447021484375
352,368,4092524002,34024741,68.873046875
353,369,4092524002,34024741,65.63790893554688
354,370,4092524002,34024741,62.45683670043945
355,371,4092524002,34024741,71.30400085449219
356,374,4092524002,34024741,63.44804000854492
357,376,4092524002,34024741,69.35740661621094
358,377,4092524002,34024741,59.90220642089844
359,378,4092524002,34024741,58.644962310791016
360,379,4092524002,34024741,57.96504211425781
361,380,4092524002,34024741,32.49017333984375
362,381,4092524002,34024741,28.523832321166992
363,382,4092524002,34024741,21.542816162109375
364,383,4092524002,34024741,18.263444900512695
365,384,4092524002,34024741,17.546314239501953
366,385,4092524002,34024741,21.577707290649414
367,386,4092524002,34024741,16.89237403869629
368,387,4092524002,34024741,16.302135467529297
369,388,4092524002,34024741,26.029197692871094
370,389,4092524002,34024741,56.2056884765625
371,390,4092524002,34024741,62.568641662597656
372,391,4092524002,34024741,61.61335754394531
373,392,4092524002,34024741,55.09312438964844
374,393,4092524002,34024741,61.9661979675293
375,394,4092524002,34024741,62.102386474609375
376,395,4092524002,34024741,62.25478744506836
377,396,4092524002,34024741,64.97866821289062
378,397,4092524002,34024741,64.03645324707031
379,398,4092524002,34024741,62.298614501953125
380,399,4092524002,34024741,64.28559875488281
381,400,4092524002,34024741,64.43304443359375
382,401,4092524002,34024741,62.63414001464844
383,402,4092524002,34024741,64.24716186523438
384,403,4092524002,34024741,64.02387237548828
385,404,4092524002,34024741,64.24775695800781
386,405,4092524002,34024741,62.711002349853516
387,406,4092524002,34024741,63.89556884765625
388,407,4092524002,34024741,58.94752883911133
389,408,4092524002,34024741,64.60418701171875
390,409,4092524002,34024741,61.39386749267578
391,410,4092524002,34024741,61.76519775390625
392,411,4092524002,34024741,63.554725646972656
393,412,4092524002,34024741,55.19936752319336
394,413,4092524002,34024741,23.785865783691406
395,414,4092524002,34024741,56.48151397705078
396,415,4092524002,34024741,65.398681640625
397,416,4092524002,34024741,61.59281921386719
398,417,4092524002,34024741,61.92362594604492
399,418,4092524002,34024741,64.48033905029297
400,419,4092524002,34024741,66.3968505859375
401,420,4092524002,34024741,65.2033462524414
402,421,4092524002,34024741,64.3570556640625
403,422,4092524002,34024741,65.94319152832031
404,423,4092524002,34024741,63.67657470703125
405,424,4092524002,34024741,61.16159439086914
406,425,4092524002,34024741,64.78765106201172
407,426,4092524002,34024741,65.02603912353516
408,427,4092524002,34024741,62.725948333740234
409,428,4092524002,34024741,64.91200256347656
410,429,4092524002,34024741,63.607086181640625
411,430,4092524002,34024741,63.6021614074707
412,431,4092524002,34024741,65.00968170166016
413,432,4092524002,34024741,65.6500473022461
414,433,4092524002,34024741,65.2577133178711
415,434,4092524002,34024741,64.58969116210938
416,435,4092524002,34024741,69.00547790527344
417,436,4092524002,34024741,67.80753326416016
418,437,4092524002,34024741,68.821044921875
419,438,4092524002,34024741,73.20550537109375
420,439,4092524002,34024741,52.6217155456543
421,440,4092524002,34024741,67.70521545410156
422,441,4092524002,34024741,64.8973388671875
423,443,4092524002,34024741,62.769508361816406
424,446,4092524002,34024741,65.31552124023438
425,447,4092524002,34024741,65.7346420288086
426,449,4092524002,34024741,62.60423278808594
427,450,4092524002,34024741,60.21305847167969
428,451,4092524002,34024741,55.914493560791016
429,452,4092524002,34024741,51.021339416503906
430,453,4092524002,34024741,51.2831916809082
431,454,4092524002,34024741,39.174560546875
432,455,4092524002,34024741,20.432600021362305
433,456,4092524002,34024741,15.051822662353516
434,457,4092524002,34024741,15.656055450439453
435,458,4092524002,34024741,17.416790008544922
436,459,4092524002,34024741,17.743850708007812
437,460,4092524002,34024741,13.179341316223145
438,461,4092524002,34024741,16.217086791992188
439,462,4092524002,34024741,12.651620864868164
440,463,4092524002,34024741,13.070627212524414
441,464,4092524002,34024741,15.647655487060547
442,465,4092524002,34024741,16.047290802001953
443,466,4092524002,34024741,18.851476669311523
444,467,4092524002,34024741,19.840608596801758
445,468,4092524002,34024741,20.25405502319336
446,469,4092524002,34024741,21.06710433959961
447,470,4092524002,34024741,18.839771270751953
448,471,4092524002,34024741,17.080095291137695
449,472,4092524002,34024741,22.315052032470703
450,473,4092524002,34024741,40.71017837524414
451,474,4092524002,34024741,35.915565490722656
452,475,4092524002,34024741,26.302160263061523
453,476,4092524002,34024741,60.711036682128906
454,477,4092524002,34024741,62.75621032714844
455,478,4092524002,34024741,58.548988342285156
456,479,4092524002,34024741,37.76172637939453
457,480,4092524002,34024741,54.73369216918945
458,481,4092524002,34024741,29.966629028320312
459,482,4092524002,34024741,15.048297882080078
460,483,4092524002,34024741,48.83724594116211
461,484,4092524002,34024741,14.912736892700195
462,485,4092524002,34024741,13.604270935058594
463,486,4092524002,34024741,16.23025131225586
464,487,4092524002,34024741,19.97051239013672
465,488,4092524002,34024741,58.349971771240234
466,489,4092524002,34024741,60.091487884521484
467,490,4092524002,34024741,60.85626983642578
468,491,4092524002,34024741,64.50688171386719
469,492,4092524002,34024741,63.532142639160156
470,493,4092524002,34024741,64.79281616210938
471,494,4092524002,34024741,62.472389221191406
472,495,4092524002,34024741,63.23391342163086
473,496,4092524002,34024741,64.251708984375
474,497,4092524002,34024741,63.81032180786133
475,498,4092524002,34024741,62.561180114746094
476,499,4092524002,34024741,64.67538452148438
477,500,4092524002,34024741,62.6312255859375
478,501,4092524002,34024741,64.7293472290039
479,502,4092524002,34024741,62.09385681152344
480,503,4092524002,34024741,62.25926971435547
