,slot,source,target,speed
0,0,28141627,4297872639,64.75334930419922
1,1,28141627,4297872639,64.96731567382812
2,2,28141627,4297872639,65.16716003417969
3,3,28141627,4297872639,63.809017181396484
4,4,28141627,4297872639,67.08428192138672
5,5,28141627,4297872639,68.64682006835938
6,6,28141627,4297872639,68.72383117675781
7,7,28141627,4297872639,65.8459701538086
8,8,28141627,4297872639,69.52867126464844
9,10,28141627,4297872639,68.81544494628906
10,12,28141627,4297872639,70.73094940185547
11,15,28141627,4297872639,68.67400360107422
12,16,28141627,4297872639,66.80001068115234
13,17,28141627,4297872639,62.22139358520508
14,18,28141627,4297872639,29.076894760131836
15,19,28141627,4297872639,22.434642791748047
16,20,28141627,4297872639,21.42814826965332
17,21,28141627,4297872639,17.690439224243164
18,22,28141627,4297872639,21.782123565673828
19,23,28141627,4297872639,20.670190811157227
20,24,28141627,4297872639,19.309389114379883
21,25,28141627,4297872639,18.086103439331055
22,26,28141627,4297872639,19.429018020629883
23,27,28141627,4297872639,18.40907859802246
24,28,28141627,4297872639,16.88718032836914
25,29,28141627,4297872639,17.899383544921875
26,30,28141627,4297872639,19.00914764404297
27,31,28141627,4297872639,18.592205047607422
28,32,28141627,4297872639,20.269136428833008
29,33,28141627,4297872639,25.510366439819336
30,34,28141627,4297872639,36.88313674926758
31,35,28141627,4297872639,28.655136108398438
32,36,28141627,4297872639,31.151897430419922
33,37,28141627,4297872639,51.5557861328125
34,38,28141627,4297872639,53.29375457763672
35,39,28141627,4297872639,46.748077392578125
36,40,28141627,4297872639,53.286834716796875
37,41,28141627,4297872639,59.304603576660156
38,42,28141627,4297872639,58.146697998046875
39,43,28141627,4297872639,60.07868194580078
40,44,28141627,4297872639,56.91213607788086
41,45,28141627,4297872639,57.74422073364258
42,46,28141627,4297872639,56.978546142578125
43,47,28141627,4297872639,51.27294158935547
44,48,28141627,4297872639,53.84259796142578
45,49,28141627,4297872639,55.52937316894531
46,50,28141627,4297872639,51.391212463378906
47,51,28141627,4297872639,52.72163009643555
48,52,28141627,4297872639,24.688373565673828
49,53,28141627,4297872639,20.209516525268555
50,54,28141627,4297872639,15.21391487121582
51,55,28141627,4297872639,20.028148651123047
52,56,28141627,4297872639,44.42031478881836
53,57,28141627,4297872639,44.719276428222656
54,58,28141627,4297872639,33.79963684082031
55,59,28141627,4297872639,52.727325439453125
56,60,28141627,4297872639,59.947086334228516
57,61,28141627,4297872639,58.006378173828125
58,62,28141627,4297872639,56.41049575805664
59,63,28141627,4297872639,57.76078796386719
60,64,28141627,4297872639,61.16729736328125
61,65,28141627,4297872639,61.41560745239258
62,66,28141627,4297872639,62.318092346191406
63,67,28141627,4297872639,64.14288330078125
64,68,28141627,4297872639,59.7815055847168
65,69,28141627,4297872639,60.87303161621094
66,70,28141627,4297872639,63.49813461303711
67,71,28141627,4297872639,63.52998733520508
68,72,28141627,4297872639,61.46528625488281
69,73,28141627,4297872639,63.03982925415039
70,74,28141627,4297872639,64.60591125488281
71,75,28141627,4297872639,64.27913665771484
72,76,28141627,4297872639,67.44888305664062
73,77,28141627,4297872639,63.87419128417969
74,78,28141627,4297872639,61.73590087890625
75,79,28141627,4297872639,64.074462890625
76,80,28141627,4297872639,69.62271881103516
77,82,28141627,4297872639,66.33980560302734
78,83,28141627,4297872639,68.82259368896484
79,84,28141627,4297872639,68.84883880615234
80,87,28141627,4297872639,69.62442016601562
81,88,28141627,4297872639,66.75276184082031
82,89,28141627,4297872639,62.956565856933594
83,90,28141627,4297872639,46.1492919921875
84,91,28141627,4297872639,23.177278518676758
85,92,28141627,4297872639,31.2558650970459
86,93,28141627,4297872639,23.833045959472656
87,94,28141627,4297872639,20.370155334472656
88,95,28141627,4297872639,19.71224021911621
89,96,28141627,4297872639,20.293031692504883
90,97,28141627,4297872639,18.405488967895508
91,98,28141627,4297872639,19.01980972290039
92,99,28141627,4297872639,18.95454216003418
93,100,28141627,4297872639,16.920269012451172
94,101,28141627,4297872639,17.461523056030273
95,102,28141627,4297872639,18.974445343017578
96,103,28141627,4297872639,19.43168067932129
97,104,28141627,4297872639,21.712120056152344
98,105,28141627,4297872639,21.05398941040039
99,106,28141627,4297872639,22.985511779785156
100,107,28141627,4297872639,22.115419387817383
101,108,28141627,4297872639,54.79662322998047
102,109,28141627,4297872639,45.57162857055664
103,110,28141627,4297872639,57.10212707519531
104,111,28141627,4297872639,57.79489517211914
105,112,28141627,4297872639,57.68634033203125
106,113,28141627,4297872639,60.98308563232422
107,114,28141627,4297872639,59.54487609863281
108,115,28141627,4297872639,57.61859893798828
109,116,28141627,4297872639,57.774227142333984
110,117,28141627,4297872639,60.5731201171875
111,118,28141627,4297872639,61.651729583740234
112,119,28141627,4297872639,60.24711990356445
113,120,28141627,4297872639,62.58675765991211
114,121,28141627,4297872639,57.514625549316406
115,122,28141627,4297872639,57.15758514404297
116,123,28141627,4297872639,57.521202087402344
117,124,28141627,4297872639,56.22484588623047
118,125,28141627,4297872639,57.25383377075195
119,126,28141627,4297872639,55.22381591796875
120,127,28141627,4297872639,53.6741943359375
121,128,28141627,4297872639,59.52301788330078
122,129,28141627,4297872639,50.86009979248047
123,130,28141627,4297872639,50.47755432128906
124,131,28141627,4297872639,60.040000915527344
125,132,28141627,4297872639,60.05258560180664
126,133,28141627,4297872639,59.28847122192383
127,134,28141627,4297872639,58.60403823852539
128,135,28141627,4297872639,59.750675201416016
129,136,28141627,4297872639,60.36989212036133
130,137,28141627,4297872639,59.7548828125
131,138,28141627,4297872639,60.1021614074707
132,139,28141627,4297872639,55.561031341552734
133,140,28141627,4297872639,58.220176696777344
134,141,28141627,4297872639,61.836158752441406
135,142,28141627,4297872639,60.88471984863281
136,143,28141627,4297872639,64.36275482177734
137,144,28141627,4297872639,62.012447357177734
138,145,28141627,4297872639,60.924163818359375
139,146,28141627,4297872639,63.17255401611328
140,147,28141627,4297872639,64.30343627929688
141,148,28141627,4297872639,60.683631896972656
142,149,28141627,4297872639,66.6578140258789
143,150,28141627,4297872639,70.74647521972656
144,151,28141627,4297872639,71.40853881835938
145,152,28141627,4297872639,69.45423126220703
146,154,28141627,4297872639,70.26142883300781
147,155,28141627,4297872639,66.85859680175781
148,156,28141627,4297872639,67.98776245117188
149,157,28141627,4297872639,66.95445251464844
150,160,28141627,4297872639,68.67678833007812
151,161,28141627,4297872639,57.777000427246094
152,162,28141627,4297872639,33.5593147277832
153,163,28141627,4297872639,23.12995719909668
154,164,28141627,4297872639,25.2884578704834
155,165,28141627,4297872639,23.47067642211914
156,166,28141627,4297872639,18.19632339477539
157,167,28141627,4297872639,20.044261932373047
158,168,28141627,4297872639,18.916343688964844
159,169,28141627,4297872639,19.553836822509766
160,170,28141627,4297872639,16.900840759277344
161,171,28141627,4297872639,18.221485137939453
162,172,28141627,4297872639,18.72394561767578
163,173,28141627,4297872639,19.18904685974121
164,174,28141627,4297872639,18.69101905822754
165,175,28141627,4297872639,19.787593841552734
166,176,28141627,4297872639,22.63175392150879
167,177,28141627,4297872639,53.39710998535156
168,178,28141627,4297872639,60.246482849121094
169,179,28141627,4297872639,56.86335754394531
170,180,28141627,4297872639,62.743194580078125
171,181,28141627,4297872639,61.7032356262207
172,182,28141627,4297872639,61.0675048828125
173,183,28141627,4297872639,62.01604461669922
174,184,28141627,4297872639,62.321441650390625
175,185,28141627,4297872639,60.51049041748047
176,186,28141627,4297872639,57.084930419921875
177,187,28141627,4297872639,56.78404235839844
178,188,28141627,4297872639,61.29026794433594
179,189,28141627,4297872639,60.01057434082031
180,190,28141627,4297872639,57.79303741455078
181,191,28141627,4297872639,54.767982482910156
182,192,28141627,4297872639,57.346580505371094
183,193,28141627,4297872639,58.368141174316406
184,194,28141627,4297872639,56.48960494995117
185,195,28141627,4297872639,54.607337951660156
186,196,28141627,4297872639,53.73445129394531
187,197,28141627,4297872639,49.10686111450195
188,198,28141627,4297872639,60.015472412109375
189,199,28141627,4297872639,60.14525604248047
190,200,28141627,4297872639,57.15510559082031
191,201,28141627,4297872639,46.460391998291016
192,202,28141627,4297872639,32.520347595214844
193,203,28141627,4297872639,60.09727478027344
194,204,28141627,4297872639,60.348228454589844
195,205,28141627,4297872639,57.26307678222656
196,206,28141627,4297872639,57.04072189331055
197,207,28141627,4297872639,60.4486198425293
198,208,28141627,4297872639,56.365142822265625
199,209,28141627,4297872639,57.24220275878906
200,210,28141627,4297872639,62.270164489746094
201,211,28141627,4297872639,56.98046112060547
202,212,28141627,4297872639,58.92502212524414
203,213,28141627,4297872639,55.795780181884766
204,214,28141627,4297872639,57.989688873291016
205,215,28141627,4297872639,61.226192474365234
206,216,28141627,4297872639,55.91409683227539
207,217,28141627,4297872639,59.84783172607422
208,218,28141627,4297872639,65.82717895507812
209,219,28141627,4297872639,61.32362747192383
210,220,28141627,4297872639,66.4738998413086
211,221,28141627,4297872639,66.27989196777344
212,222,28141627,4297872639,65.50332641601562
213,223,28141627,4297872639,67.78868865966797
214,224,28141627,4297872639,63.74034118652344
215,225,28141627,4297872639,68.17448425292969
216,226,28141627,4297872639,71.84552001953125
217,227,28141627,4297872639,70.4101333618164
218,228,28141627,4297872639,65.6744613647461
219,229,28141627,4297872639,70.55005645751953
220,230,28141627,4297872639,70.98945617675781
221,232,28141627,4297872639,66.93721771240234
222,233,28141627,4297872639,67.3516845703125
223,234,28141627,4297872639,64.48633575439453
224,235,28141627,4297872639,64.96167755126953
225,236,28141627,4297872639,62.4578857421875
226,237,28141627,4297872639,62.05873107910156
227,238,28141627,4297872639,53.549461364746094
228,239,28141627,4297872639,34.43994903564453
229,240,28141627,4297872639,51.88022232055664
230,241,28141627,4297872639,32.45761489868164
231,242,28141627,4297872639,37.98381805419922
232,243,28141627,4297872639,56.81574249267578
233,244,28141627,4297872639,53.57087707519531
234,245,28141627,4297872639,50.80976867675781
235,246,28141627,4297872639,55.66630554199219
236,247,28141627,4297872639,54.25816345214844
237,248,28141627,4297872639,56.982730865478516
238,249,28141627,4297872639,53.28691482543945
239,250,28141627,4297872639,59.39550018310547
240,251,28141627,4297872639,59.87158966064453
241,252,28141627,4297872639,58.49117660522461
242,253,28141627,4297872639,58.39253234863281
243,254,28141627,4297872639,58.36741638183594
244,255,28141627,4297872639,59.68732833862305
245,256,28141627,4297872639,62.691802978515625
246,257,28141627,4297872639,56.43544387817383
247,258,28141627,4297872639,62.06550598144531
248,259,28141627,4297872639,63.790061950683594
249,260,28141627,4297872639,62.62655258178711
250,261,28141627,4297872639,63.90557861328125
251,262,28141627,4297872639,64.8942642211914
252,263,28141627,4297872639,64.9874038696289
253,264,28141627,4297872639,61.485801696777344
254,265,28141627,4297872639,62.52788162231445
255,266,28141627,4297872639,64.4039306640625
256,267,28141627,4297872639,63.48566818237305
257,268,28141627,4297872639,62.096378326416016
258,269,28141627,4297872639,64.54409790039062
259,270,28141627,4297872639,61.393760681152344
260,271,28141627,4297872639,59.62376403808594
261,272,28141627,4297872639,61.63277816772461
262,273,28141627,4297872639,59.641929626464844
263,274,28141627,4297872639,55.825958251953125
264,275,28141627,4297872639,52.30538558959961
265,276,28141627,4297872639,49.31129455566406
266,277,28141627,4297872639,39.881587982177734
267,278,28141627,4297872639,30.55921745300293
268,279,28141627,4297872639,48.508697509765625
269,280,28141627,4297872639,53.79912567138672
270,281,28141627,4297872639,56.370872497558594
271,282,28141627,4297872639,59.78471374511719
272,283,28141627,4297872639,60.995391845703125
273,284,28141627,4297872639,58.54981994628906
274,285,28141627,4297872639,57.31842041015625
275,286,28141627,4297872639,53.73072052001953
276,287,28141627,4297872639,53.75495529174805
277,288,28141627,4297872639,51.711700439453125
278,289,28141627,4297872639,54.17981719970703
279,290,28141627,4297872639,53.87213897705078
280,291,28141627,4297872639,53.21571350097656
281,292,28141627,4297872639,61.02891540527344
282,293,28141627,4297872639,60.241943359375
283,294,28141627,4297872639,64.53084564208984
284,295,28141627,4297872639,64.77984619140625
285,296,28141627,4297872639,65.8034896850586
286,297,28141627,4297872639,64.7003173828125
287,298,28141627,4297872639,70.21202087402344
288,299,28141627,4297872639,68.35474395751953
289,300,28141627,4297872639,58.59505844116211
290,301,28141627,4297872639,56.275943756103516
291,302,28141627,4297872639,64.72401428222656
292,303,28141627,4297872639,65.5162124633789
293,304,28141627,4297872639,66.48779296875
294,305,28141627,4297872639,67.20240783691406
295,306,28141627,4297872639,65.45146179199219
296,307,28141627,4297872639,67.06327056884766
297,308,28141627,4297872639,67.51830291748047
298,309,28141627,4297872639,68.89167785644531
299,310,28141627,4297872639,67.89404296875
300,311,28141627,4297872639,67.94741821289062
301,312,28141627,4297872639,67.97359466552734
302,313,28141627,4297872639,67.8134765625
303,314,28141627,4297872639,68.38289642333984
304,315,28141627,4297872639,65.92328643798828
305,316,28141627,4297872639,69.09619140625
306,317,28141627,4297872639,65.30672454833984
307,318,28141627,4297872639,67.0179672241211
308,319,28141627,4297872639,67.38339233398438
309,320,28141627,4297872639,64.90210723876953
310,321,28141627,4297872639,61.03486633300781
311,322,28141627,4297872639,66.03780364990234
312,323,28141627,4297872639,65.01721954345703
313,324,28141627,4297872639,62.26736068725586
314,325,28141627,4297872639,59.470542907714844
315,326,28141627,4297872639,58.49311065673828
316,327,28141627,4297872639,66.63804626464844
317,328,28141627,4297872639,67.46422576904297
318,329,28141627,4297872639,67.09146118164062
319,330,28141627,4297872639,63.49795913696289
320,331,28141627,4297872639,61.81535720825195
321,332,28141627,4297872639,63.61655044555664
322,333,28141627,4297872639,65.404541015625
323,334,28141627,4297872639,65.33055877685547
324,335,28141627,4297872639,65.14393615722656
325,336,28141627,4297872639,65.88665771484375
326,337,28141627,4297872639,62.75231170654297
327,338,28141627,4297872639,63.02717590332031
328,339,28141627,4297872639,64.93186950683594
329,340,28141627,4297872639,60.65019607543945
330,341,28141627,4297872639,61.772377014160156
331,342,28141627,4297872639,61.57223892211914
332,343,28141627,4297872639,63.39834976196289
333,344,28141627,4297872639,58.97760772705078
334,345,28141627,4297872639,53.9157829284668
335,346,28141627,4297872639,58.416786193847656
336,347,28141627,4297872639,53.25236511230469
337,348,28141627,4297872639,49.09769058227539
338,349,28141627,4297872639,49.240413665771484
339,350,28141627,4297872639,54.6941032409668
340,351,28141627,4297872639,50.91678237915039
341,352,28141627,4297872639,54.381736755371094
342,353,28141627,4297872639,52.9637565612793
343,354,28141627,4297872639,57.25519561767578
344,355,28141627,4297872639,48.56751251220703
345,356,28141627,4297872639,52.22341537475586
346,357,28141627,4297872639,51.847103118896484
347,358,28141627,4297872639,46.349613189697266
348,359,28141627,4297872639,24.768333435058594
349,360,28141627,4297872639,23.405458450317383
350,361,28141627,4297872639,20.90767478942871
351,362,28141627,4297872639,22.233665466308594
352,363,28141627,4297872639,66.5010986328125
353,364,28141627,4297872639,64.00267028808594
354,365,28141627,4297872639,68.0868911743164
355,366,28141627,4297872639,62.23230743408203
356,367,28141627,4297872639,69.43846130371094
357,368,28141627,4297872639,61.546607971191406
358,369,28141627,4297872639,65.43677520751953
359,370,28141627,4297872639,55.52016830444336
360,371,28141627,4297872639,69.07207489013672
361,372,28141627,4297872639,70.33857727050781
362,373,28141627,4297872639,42.10209274291992
363,374,28141627,4297872639,71.07788848876953
364,375,28141627,4297872639,57.718570709228516
365,376,28141627,4297872639,67.18778228759766
366,377,28141627,4297872639,58.180946350097656
367,378,28141627,4297872639,32.316741943359375
368,379,28141627,4297872639,23.85439109802246
369,380,28141627,4297872639,22.594539642333984
370,381,28141627,4297872639,21.244428634643555
371,382,28141627,4297872639,20.685379028320312
372,383,28141627,4297872639,19.224544525146484
373,384,28141627,4297872639,17.571849822998047
374,385,28141627,4297872639,17.44919204711914
375,386,28141627,4297872639,17.720172882080078
376,387,28141627,4297872639,18.212528228759766
377,388,28141627,4297872639,37.608829498291016
378,389,28141627,4297872639,55.59337615966797
379,390,28141627,4297872639,60.89105224609375
380,391,28141627,4297872639,58.949378967285156
381,392,28141627,4297872639,55.188446044921875
382,393,28141627,4297872639,60.212310791015625
383,394,28141627,4297872639,59.46522521972656
384,395,28141627,4297872639,60.76396942138672
385,396,28141627,4297872639,61.487178802490234
386,397,28141627,4297872639,62.627899169921875
387,398,28141627,4297872639,59.727386474609375
388,399,28141627,4297872639,62.02553939819336
389,400,28141627,4297872639,63.202735900878906
390,401,28141627,4297872639,59.72896957397461
391,402,28141627,4297872639,62.719581604003906
392,403,28141627,4297872639,64.68096160888672
393,404,28141627,4297872639,62.82951736450195
394,405,28141627,4297872639,61.10972213745117
395,406,28141627,4297872639,62.015777587890625
396,407,28141627,4297872639,59.67882537841797
397,408,28141627,4297872639,60.70442581176758
398,409,28141627,4297872639,61.605377197265625
399,410,28141627,4297872639,62.517478942871094
400,411,28141627,4297872639,63.545654296875
401,412,28141627,4297872639,60.549625396728516
402,413,28141627,4297872639,63.284507751464844
403,414,28141627,4297872639,61.90370559692383
404,415,28141627,4297872639,62.89249801635742
405,416,28141627,4297872639,60.03282928466797
406,417,28141627,4297872639,54.98413848876953
407,418,28141627,4297872639,59.706336975097656
408,419,28141627,4297872639,62.40125274658203
409,420,28141627,4297872639,60.377471923828125
410,421,28141627,4297872639,61.354591369628906
411,422,28141627,4297872639,61.110321044921875
412,423,28141627,4297872639,59.0374870300293
413,424,28141627,4297872639,55.73871612548828
414,425,28141627,4297872639,60.325279235839844
415,426,28141627,4297872639,61.956024169921875
416,427,28141627,4297872639,62.09489440917969
417,428,28141627,4297872639,61.90593719482422
418,429,28141627,4297872639,62.801918029785156
419,430,28141627,4297872639,62.04130172729492
420,431,28141627,4297872639,64.84402465820312
421,432,28141627,4297872639,64.59037780761719
422,433,28141627,4297872639,64.16087341308594
423,434,28141627,4297872639,63.65509796142578
424,435,28141627,4297872639,68.45162200927734
425,436,28141627,4297872639,68.24600982666016
426,437,28141627,4297872639,66.93265533447266
427,438,28141627,4297872639,66.59695434570312
428,440,28141627,4297872639,71.81768798828125
429,441,28141627,4297872639,60.42621994018555
430,442,28141627,4297872639,66.65644073486328
431,443,28141627,4297872639,64.55644989013672
432,445,28141627,4297872639,66.49683380126953
433,446,28141627,4297872639,62.02880096435547
434,447,28141627,4297872639,66.33229064941406
435,448,28141627,4297872639,67.35940551757812
436,449,28141627,4297872639,61.865966796875
437,450,28141627,4297872639,38.3864631652832
438,451,28141627,4297872639,22.25644302368164
439,452,28141627,4297872639,21.932355880737305
440,453,28141627,4297872639,21.928268432617188
441,454,28141627,4297872639,22.76303482055664
442,455,28141627,4297872639,20.321062088012695
443,456,28141627,4297872639,19.058374404907227
444,457,28141627,4297872639,17.305118560791016
445,458,28141627,4297872639,17.975255966186523
446,459,28141627,4297872639,17.495269775390625
447,460,28141627,4297872639,15.314765930175781
448,461,28141627,4297872639,16.654088973999023
449,462,28141627,4297872639,17.767730712890625
450,463,28141627,4297872639,17.235939025878906
451,464,28141627,4297872639,16.503877639770508
452,465,28141627,4297872639,18.019058227539062
453,466,28141627,4297872639,18.476608276367188
454,467,28141627,4297872639,19.97443199157715
455,468,28141627,4297872639,19.800983428955078
456,469,28141627,4297872639,27.063024520874023
457,470,28141627,4297872639,56.41500473022461
458,471,28141627,4297872639,55.93876266479492
459,472,28141627,4297872639,55.99195098876953
460,473,28141627,4297872639,62.22919845581055
461,474,28141627,4297872639,58.890872955322266
462,475,28141627,4297872639,58.43411636352539
463,476,28141627,4297872639,59.87771987915039
464,477,28141627,4297872639,63.15177536010742
465,478,28141627,4297872639,61.705169677734375
466,479,28141627,4297872639,58.69438171386719
467,480,28141627,4297872639,59.03715515136719
468,481,28141627,4297872639,58.471031188964844
469,482,28141627,4297872639,61.477699279785156
470,483,28141627,4297872639,62.090023040771484
471,484,28141627,4297872639,55.184410095214844
472,485,28141627,4297872639,52.0606689453125
473,486,28141627,4297872639,59.55564498901367
474,487,28141627,4297872639,58.056129455566406
475,488,28141627,4297872639,59.25724792480469
476,489,28141627,4297872639,53.74718475341797
477,490,28141627,4297872639,55.34685516357422
478,491,28141627,4297872639,63.3563117980957
479,492,28141627,4297872639,60.059669494628906
480,493,28141627,4297872639,63.89504623413086
481,494,28141627,4297872639,58.48949432373047
482,495,28141627,4297872639,62.086769104003906
483,496,28141627,4297872639,59.66278839111328
484,497,28141627,4297872639,57.84843444824219
485,498,28141627,4297872639,61.082244873046875
486,499,28141627,4297872639,63.743194580078125
487,500,28141627,4297872639,58.205322265625
488,501,28141627,4297872639,57.07328796386719
489,502,28141627,4297872639,62.36968994140625
490,503,28141627,4297872639,59.53398513793945
