,slot,source,target,speed
0,0,34024778,4512612193,63.32011413574219
1,1,34024778,4512612193,62.58209228515625
2,2,34024778,4512612193,64.15559387207031
3,3,34024778,4512612193,64.20323181152344
4,4,34024778,4512612193,67.4541015625
5,5,34024778,4512612193,69.71310424804688
6,6,34024778,4512612193,69.38287353515625
7,7,34024778,4512612193,63.74662780761719
8,8,34024778,4512612193,59.86763381958008
9,10,34024778,4512612193,67.71199035644531
10,12,34024778,4512612193,67.55403900146484
11,13,34024778,4512612193,67.5741195678711
12,14,34024778,4512612193,72.24772644042969
13,15,34024778,4512612193,63.16996765136719
14,16,34024778,4512612193,63.092681884765625
15,17,34024778,4512612193,58.78464889526367
16,18,34024778,4512612193,38.93560028076172
17,19,34024778,4512612193,44.24644088745117
18,20,34024778,4512612193,47.96266174316406
19,21,34024778,4512612193,36.005332946777344
20,22,34024778,4512612193,34.9625358581543
21,23,34024778,4512612193,27.097145080566406
22,24,34024778,4512612193,27.106632232666016
23,25,34024778,4512612193,26.979185104370117
24,26,34024778,4512612193,28.573440551757812
25,27,34024778,4512612193,24.098873138427734
26,28,34024778,4512612193,23.52042579650879
27,29,34024778,4512612193,24.94548797607422
28,30,34024778,4512612193,22.80374526977539
29,31,34024778,4512612193,23.83495330810547
30,32,34024778,4512612193,27.708494186401367
31,33,34024778,4512612193,27.608375549316406
32,34,34024778,4512612193,31.40879249572754
33,35,34024778,4512612193,28.89909553527832
34,36,34024778,4512612193,22.73367691040039
35,37,34024778,4512612193,33.653419494628906
36,38,34024778,4512612193,47.02873229980469
37,39,34024778,4512612193,33.19165802001953
38,40,34024778,4512612193,29.565479278564453
39,41,34024778,4512612193,55.56594467163086
40,42,34024778,4512612193,55.42528533935547
41,43,34024778,4512612193,57.814632415771484
42,44,34024778,4512612193,53.22871398925781
43,45,34024778,4512612193,54.86354064941406
44,46,34024778,4512612193,47.83180236816406
45,47,34024778,4512612193,33.15242004394531
46,48,34024778,4512612193,38.465938568115234
47,49,34024778,4512612193,37.458953857421875
48,50,34024778,4512612193,32.8525276184082
49,51,34024778,4512612193,38.57832336425781
50,52,34024778,4512612193,21.58561897277832
51,53,34024778,4512612193,20.123233795166016
52,54,34024778,4512612193,25.130064010620117
53,55,34024778,4512612193,41.64393997192383
54,56,34024778,4512612193,44.11482238769531
55,57,34024778,4512612193,41.45357894897461
56,58,34024778,4512612193,47.12010192871094
57,59,34024778,4512612193,51.68138122558594
58,60,34024778,4512612193,58.99557113647461
59,61,34024778,4512612193,58.25421905517578
60,62,34024778,4512612193,55.956703186035156
61,63,34024778,4512612193,58.72808837890625
62,64,34024778,4512612193,55.26554870605469
63,65,34024778,4512612193,58.97254180908203
64,66,34024778,4512612193,58.60889434814453
65,67,34024778,4512612193,62.82829666137695
66,68,34024778,4512612193,61.463375091552734
67,69,34024778,4512612193,58.73952102661133
68,70,34024778,4512612193,62.90184020996094
69,71,34024778,4512612193,60.57461166381836
70,72,34024778,4512612193,62.89692687988281
71,73,34024778,4512612193,60.996734619140625
72,74,34024778,4512612193,62.910030364990234
73,75,34024778,4512612193,66.17628479003906
74,76,34024778,4512612193,65.63506317138672
75,77,34024778,4512612193,68.48309326171875
76,78,34024778,4512612193,68.00843811035156
77,79,34024778,4512612193,55.14411544799805
78,80,34024778,4512612193,68.25099182128906
79,81,34024778,4512612193,59.549564361572266
80,82,34024778,4512612193,43.645328521728516
81,83,34024778,4512612193,68.98021697998047
82,84,34024778,4512612193,66.71748352050781
83,86,34024778,4512612193,71.68529510498047
84,88,34024778,4512612193,68.00434875488281
85,89,34024778,4512612193,64.57186126708984
86,90,34024778,4512612193,46.2464599609375
87,91,34024778,4512612193,51.137454986572266
88,92,34024778,4512612193,50.88616943359375
89,93,34024778,4512612193,41.966773986816406
90,94,34024778,4512612193,41.01519775390625
91,95,34024778,4512612193,31.997129440307617
92,96,34024778,4512612193,32.12583541870117
93,97,34024778,4512612193,23.566343307495117
94,98,34024778,4512612193,24.640933990478516
95,99,34024778,4512612193,25.515705108642578
96,100,34024778,4512612193,24.195716857910156
97,101,34024778,4512612193,23.420185089111328
98,102,34024778,4512612193,22.173593521118164
99,103,34024778,4512612193,24.29292106628418
100,104,34024778,4512612193,29.0985107421875
101,105,34024778,4512612193,34.79426193237305
102,106,34024778,4512612193,37.59514617919922
103,107,34024778,4512612193,36.02595901489258
104,108,34024778,4512612193,53.86069869995117
105,109,34024778,4512612193,47.95705032348633
106,110,34024778,4512612193,44.102928161621094
107,111,34024778,4512612193,49.988712310791016
108,112,34024778,4512612193,57.675106048583984
109,113,34024778,4512612193,58.4194221496582
110,114,34024778,4512612193,57.61818313598633
111,115,34024778,4512612193,57.340614318847656
112,116,34024778,4512612193,54.39318084716797
113,117,34024778,4512612193,53.40962600708008
114,118,34024778,4512612193,61.60841369628906
115,119,34024778,4512612193,57.634613037109375
116,120,34024778,4512612193,56.799800872802734
117,121,34024778,4512612193,48.87701416015625
118,122,34024778,4512612193,51.12268829345703
119,123,34024778,4512612193,59.01447296142578
120,124,34024778,4512612193,53.99217224121094
121,125,34024778,4512612193,53.31623077392578
122,126,34024778,4512612193,51.89225769042969
123,127,34024778,4512612193,54.994728088378906
124,128,34024778,4512612193,55.070289611816406
125,129,34024778,4512612193,52.248348236083984
126,130,34024778,4512612193,52.33504867553711
127,131,34024778,4512612193,59.43580627441406
128,132,34024778,4512612193,55.54638671875
129,133,34024778,4512612193,55.833858489990234
130,134,34024778,4512612193,58.00604248046875
131,135,34024778,4512612193,56.394981384277344
132,136,34024778,4512612193,57.360069274902344
133,137,34024778,4512612193,57.70378875732422
134,138,34024778,4512612193,59.968544006347656
135,139,34024778,4512612193,56.56299591064453
136,140,34024778,4512612193,59.05078125
137,141,34024778,4512612193,57.942020416259766
138,142,34024778,4512612193,59.77479553222656
139,143,34024778,4512612193,59.70906066894531
140,144,34024778,4512612193,60.81349182128906
141,145,34024778,4512612193,55.923126220703125
142,146,34024778,4512612193,61.594749450683594
143,147,34024778,4512612193,62.90581130981445
144,148,34024778,4512612193,66.25761413574219
145,149,34024778,4512612193,64.4378662109375
146,150,34024778,4512612193,70.92398071289062
147,151,34024778,4512612193,67.62008666992188
148,152,34024778,4512612193,67.04519653320312
149,154,34024778,4512612193,65.36389923095703
150,155,34024778,4512612193,63.927154541015625
151,156,34024778,4512612193,66.65667724609375
152,157,34024778,4512612193,68.76980590820312
153,159,34024778,4512612193,70.70191955566406
154,160,34024778,4512612193,66.427001953125
155,161,34024778,4512612193,63.76020812988281
156,162,34024778,4512612193,42.87578201293945
157,163,34024778,4512612193,45.68429946899414
158,164,34024778,4512612193,43.21315383911133
159,165,34024778,4512612193,43.41355895996094
160,166,34024778,4512612193,27.76382827758789
161,167,34024778,4512612193,29.066158294677734
162,168,34024778,4512612193,27.672603607177734
163,169,34024778,4512612193,27.935081481933594
164,170,34024778,4512612193,22.933149337768555
165,171,34024778,4512612193,22.330764770507812
166,172,34024778,4512612193,24.217498779296875
167,173,34024778,4512612193,23.772077560424805
168,174,34024778,4512612193,25.309755325317383
169,175,34024778,4512612193,27.162948608398438
170,176,34024778,4512612193,26.601821899414062
171,177,34024778,4512612193,44.640785217285156
172,178,34024778,4512612193,53.39522171020508
173,179,34024778,4512612193,50.40385437011719
174,180,34024778,4512612193,60.22522735595703
175,181,34024778,4512612193,59.0076789855957
176,182,34024778,4512612193,58.858245849609375
177,183,34024778,4512612193,59.68095779418945
178,184,34024778,4512612193,61.52672576904297
179,185,34024778,4512612193,59.07954788208008
180,186,34024778,4512612193,60.04640579223633
181,187,34024778,4512612193,44.22150802612305
182,188,34024778,4512612193,57.76984405517578
183,189,34024778,4512612193,57.38581085205078
184,190,34024778,4512612193,56.886024475097656
185,191,34024778,4512612193,53.23482131958008
186,192,34024778,4512612193,46.10543441772461
187,193,34024778,4512612193,55.564971923828125
188,194,34024778,4512612193,48.00434875488281
189,195,34024778,4512612193,50.04003143310547
190,196,34024778,4512612193,47.78299331665039
191,197,34024778,4512612193,37.57590103149414
192,198,34024778,4512612193,55.403350830078125
193,199,34024778,4512612193,56.019676208496094
194,200,34024778,4512612193,56.95598602294922
195,201,34024778,4512612193,52.00083541870117
196,202,34024778,4512612193,48.87467575073242
197,203,34024778,4512612193,59.30995178222656
198,204,34024778,4512612193,58.83262252807617
199,205,34024778,4512612193,57.107688903808594
200,206,34024778,4512612193,55.657161712646484
201,207,34024778,4512612193,59.38388442993164
202,208,34024778,4512612193,56.88682556152344
203,209,34024778,4512612193,57.30025863647461
204,210,34024778,4512612193,59.859527587890625
205,211,34024778,4512612193,58.39568328857422
206,212,34024778,4512612193,58.63872146606445
207,213,34024778,4512612193,56.107566833496094
208,214,34024778,4512612193,57.811279296875
209,215,34024778,4512612193,58.65310287475586
210,216,34024778,4512612193,53.49435043334961
211,217,34024778,4512612193,59.7122917175293
212,218,34024778,4512612193,66.2520980834961
213,219,34024778,4512612193,64.42654418945312
214,220,34024778,4512612193,63.1924934387207
215,221,34024778,4512612193,66.41732025146484
216,222,34024778,4512612193,67.52516174316406
217,223,34024778,4512612193,66.77471160888672
218,224,34024778,4512612193,69.59810638427734
219,225,34024778,4512612193,66.60931396484375
220,226,34024778,4512612193,66.9878158569336
221,227,34024778,4512612193,64.08628845214844
222,228,34024778,4512612193,59.769840240478516
223,229,34024778,4512612193,66.46925354003906
224,230,34024778,4512612193,68.97016143798828
225,231,34024778,4512612193,69.08152770996094
226,232,34024778,4512612193,69.73432922363281
227,233,34024778,4512612193,67.96430969238281
228,234,34024778,4512612193,67.52439880371094
229,235,34024778,4512612193,66.80760955810547
230,236,34024778,4512612193,63.717018127441406
231,237,34024778,4512612193,62.525150299072266
232,238,34024778,4512612193,56.52721405029297
233,239,34024778,4512612193,48.66122817993164
234,240,34024778,4512612193,52.86807632446289
235,241,34024778,4512612193,51.13703918457031
236,242,34024778,4512612193,51.251041412353516
237,243,34024778,4512612193,57.383544921875
238,244,34024778,4512612193,55.0483512878418
239,245,34024778,4512612193,52.66663360595703
240,246,34024778,4512612193,53.030555725097656
241,247,34024778,4512612193,55.9659423828125
242,248,34024778,4512612193,57.26909255981445
243,249,34024778,4512612193,58.0179328918457
244,250,34024778,4512612193,58.223876953125
245,251,34024778,4512612193,62.93547439575195
246,252,34024778,4512612193,57.097328186035156
247,253,34024778,4512612193,54.8059196472168
248,254,34024778,4512612193,56.25440216064453
249,255,34024778,4512612193,55.79591751098633
250,256,34024778,4512612193,59.162353515625
251,257,34024778,4512612193,57.69617462158203
252,258,34024778,4512612193,62.68009948730469
253,259,34024778,4512612193,63.1265869140625
254,260,34024778,4512612193,64.97682189941406
255,261,34024778,4512612193,62.19612503051758
256,262,34024778,4512612193,64.25706481933594
257,263,34024778,4512612193,65.04701232910156
258,264,34024778,4512612193,64.09260559082031
259,265,34024778,4512612193,63.62272262573242
260,266,34024778,4512612193,63.582733154296875
261,267,34024778,4512612193,63.47307205200195
262,268,34024778,4512612193,62.29766845703125
263,269,34024778,4512612193,61.11429214477539
264,270,34024778,4512612193,60.97749328613281
265,271,34024778,4512612193,60.14511489868164
266,272,34024778,4512612193,61.19251251220703
267,273,34024778,4512612193,58.99799728393555
268,274,34024778,4512612193,54.049259185791016
269,275,34024778,4512612193,55.10552978515625
270,276,34024778,4512612193,51.96244812011719
271,277,34024778,4512612193,44.11100769042969
272,278,34024778,4512612193,43.17767333984375
273,279,34024778,4512612193,44.48926544189453
274,280,34024778,4512612193,55.63731384277344
275,281,34024778,4512612193,55.10719299316406
276,282,34024778,4512612193,58.209068298339844
277,283,34024778,4512612193,61.037864685058594
278,284,34024778,4512612193,58.81336212158203
279,285,34024778,4512612193,56.97397232055664
280,286,34024778,4512612193,53.6967658996582
281,287,34024778,4512612193,58.0062370300293
282,288,34024778,4512612193,51.36128234863281
283,289,34024778,4512612193,50.43442916870117
284,290,34024778,4512612193,55.16165542602539
285,291,34024778,4512612193,54.229698181152344
286,292,34024778,4512612193,54.84916305541992
287,293,34024778,4512612193,64.9809341430664
288,294,34024778,4512612193,65.13937377929688
289,295,34024778,4512612193,67.72918701171875
290,296,34024778,4512612193,66.53787231445312
291,297,34024778,4512612193,70.69671630859375
292,298,34024778,4512612193,67.96037292480469
293,299,34024778,4512612193,65.80347442626953
294,300,34024778,4512612193,58.714637756347656
295,301,34024778,4512612193,70.7483901977539
296,302,34024778,4512612193,68.6771240234375
297,303,34024778,4512612193,59.304832458496094
298,304,34024778,4512612193,70.5438003540039
299,305,34024778,4512612193,66.11148834228516
300,306,34024778,4512612193,63.508277893066406
301,307,34024778,4512612193,64.40509033203125
302,308,34024778,4512612193,68.077880859375
303,309,34024778,4512612193,63.18573760986328
304,310,34024778,4512612193,65.46977996826172
305,311,34024778,4512612193,67.86338806152344
306,312,34024778,4512612193,69.12522888183594
307,313,34024778,4512612193,68.33356475830078
308,314,34024778,4512612193,67.29795837402344
309,315,34024778,4512612193,65.20756530761719
310,316,34024778,4512612193,68.49484252929688
311,317,34024778,4512612193,65.39240264892578
312,318,34024778,4512612193,66.15400695800781
313,319,34024778,4512612193,65.92436218261719
314,320,34024778,4512612193,63.94165802001953
315,321,34024778,4512612193,64.00892639160156
316,322,34024778,4512612193,66.05486297607422
317,323,34024778,4512612193,65.56670379638672
318,324,34024778,4512612193,61.98393249511719
319,325,34024778,4512612193,58.26565170288086
320,326,34024778,4512612193,58.60662841796875
321,327,34024778,4512612193,60.974613189697266
322,328,34024778,4512612193,62.934871673583984
323,329,34024778,4512612193,62.39169692993164
324,330,34024778,4512612193,63.087677001953125
325,331,34024778,4512612193,59.516700744628906
326,332,34024778,4512612193,63.79370880126953
327,333,34024778,4512612193,65.25041198730469
328,334,34024778,4512612193,62.76910400390625
329,335,34024778,4512612193,64.36894226074219
330,336,34024778,4512612193,65.20790100097656
331,337,34024778,4512612193,64.51698303222656
332,338,34024778,4512612193,63.479637145996094
333,339,34024778,4512612193,63.627010345458984
334,340,34024778,4512612193,60.48422622680664
335,341,34024778,4512612193,63.050655364990234
336,342,34024778,4512612193,62.955039978027344
337,343,34024778,4512612193,62.627864837646484
338,344,34024778,4512612193,59.96997833251953
339,345,34024778,4512612193,56.61592483520508
340,346,34024778,4512612193,57.897769927978516
341,347,34024778,4512612193,50.255088806152344
342,348,34024778,4512612193,52.629913330078125
343,349,34024778,4512612193,49.28559875488281
344,350,34024778,4512612193,55.343563079833984
345,351,34024778,4512612193,53.446044921875
346,352,34024778,4512612193,54.999385833740234
347,353,34024778,4512612193,54.19591522216797
348,354,34024778,4512612193,55.26686096191406
349,355,34024778,4512612193,52.85597610473633
350,356,34024778,4512612193,53.94424819946289
351,357,34024778,4512612193,51.542911529541016
352,358,34024778,4512612193,43.95741653442383
353,359,34024778,4512612193,36.447181701660156
354,360,34024778,4512612193,34.38365936279297
355,361,34024778,4512612193,38.91699981689453
356,362,34024778,4512612193,44.67666244506836
357,363,34024778,4512612193,59.48125457763672
358,364,34024778,4512612193,62.74492645263672
359,365,34024778,4512612193,65.21062469482422
360,366,34024778,4512612193,67.61712646484375
361,367,34024778,4512612193,67.54289245605469
362,368,34024778,4512612193,61.73863220214844
363,369,34024778,4512612193,65.63790893554688
364,370,34024778,4512612193,65.33863067626953
365,371,34024778,4512612193,70.29582977294922
366,374,34024778,4512612193,65.59033966064453
367,375,34024778,4512612193,61.79048538208008
368,376,34024778,4512612193,55.6486701965332
369,377,34024778,4512612193,56.10408020019531
370,378,34024778,4512612193,47.747352600097656
371,379,34024778,4512612193,45.128623962402344
372,380,34024778,4512612193,38.61793899536133
373,381,34024778,4512612193,35.39570999145508
374,382,34024778,4512612193,28.87694549560547
375,383,34024778,4512612193,29.15839958190918
376,384,34024778,4512612193,26.92161750793457
377,385,34024778,4512612193,23.897151947021484
378,386,34024778,4512612193,25.703432083129883
379,387,34024778,4512612193,23.444976806640625
380,388,34024778,4512612193,45.633785247802734
381,389,34024778,4512612193,51.8670654296875
382,390,34024778,4512612193,58.77138900756836
383,391,34024778,4512612193,58.69290542602539
384,392,34024778,4512612193,53.282737731933594
385,393,34024778,4512612193,59.6329231262207
386,394,34024778,4512612193,60.19892120361328
387,395,34024778,4512612193,60.74922180175781
388,396,34024778,4512612193,62.47842025756836
389,397,34024778,4512612193,60.89439010620117
390,398,34024778,4512612193,60.56606674194336
391,399,34024778,4512612193,62.25292205810547
392,400,34024778,4512612193,63.11985778808594
393,401,34024778,4512612193,59.321258544921875
394,402,34024778,4512612193,60.8314323425293
395,403,34024778,4512612193,60.77456283569336
396,404,34024778,4512612193,60.648860931396484
397,405,34024778,4512612193,61.490013122558594
398,406,34024778,4512612193,61.33910369873047
399,407,34024778,4512612193,61.3265380859375
400,408,34024778,4512612193,61.5743408203125
401,409,34024778,4512612193,56.963157653808594
402,410,34024778,4512612193,55.61566162109375
403,411,34024778,4512612193,61.488792419433594
404,412,34024778,4512612193,56.58251953125
405,413,34024778,4512612193,48.28565979003906
406,414,34024778,4512612193,63.100013732910156
407,415,34024778,4512612193,60.814231872558594
408,416,34024778,4512612193,60.87200164794922
409,417,34024778,4512612193,54.21975326538086
410,418,34024778,4512612193,60.72956848144531
411,419,34024778,4512612193,62.780487060546875
412,420,34024778,4512612193,62.035499572753906
413,421,34024778,4512612193,60.59617233276367
414,422,34024778,4512612193,59.70954513549805
415,423,34024778,4512612193,58.14219665527344
416,424,34024778,4512612193,56.04719543457031
417,425,34024778,4512612193,60.5384521484375
418,426,34024778,4512612193,62.862369537353516
419,427,34024778,4512612193,60.76272964477539
420,428,34024778,4512612193,60.44245910644531
421,429,34024778,4512612193,62.404319763183594
422,430,34024778,4512612193,61.228782653808594
423,431,34024778,4512612193,64.16590881347656
424,432,34024778,4512612193,64.32373046875
425,433,34024778,4512612193,63.850196838378906
426,434,34024778,4512612193,62.15106964111328
427,435,34024778,4512612193,68.21294403076172
428,436,34024778,4512612193,64.43335723876953
429,437,34024778,4512612193,67.471435546875
430,438,34024778,4512612193,70.82801818847656
431,439,34024778,4512612193,46.5438346862793
432,440,34024778,4512612193,70.4156723022461
433,441,34024778,4512612193,64.36817169189453
434,442,34024778,4512612193,61.67717742919922
435,443,34024778,4512612193,67.1718521118164
436,446,34024778,4512612193,63.00062561035156
437,447,34024778,4512612193,68.68569946289062
438,448,34024778,4512612193,63.19083023071289
439,449,34024778,4512612193,65.97770690917969
440,450,34024778,4512612193,48.05467987060547
441,451,34024778,4512612193,44.86959457397461
442,452,34024778,4512612193,43.78348159790039
443,453,34024778,4512612193,42.117637634277344
444,454,34024778,4512612193,43.873531341552734
445,455,34024778,4512612193,33.37946701049805
446,456,34024778,4512612193,27.12935447692871
447,457,34024778,4512612193,27.745576858520508
448,458,34024778,4512612193,27.110740661621094
449,459,34024778,4512612193,24.763898849487305
450,460,34024778,4512612193,21.520496368408203
451,461,34024778,4512612193,20.586854934692383
452,462,34024778,4512612193,20.42667579650879
453,463,34024778,4512612193,25.357513427734375
454,464,34024778,4512612193,23.110095977783203
455,465,34024778,4512612193,24.46245002746582
456,466,34024778,4512612193,31.100481033325195
457,467,34024778,4512612193,26.65719985961914
458,468,34024778,4512612193,39.63836669921875
459,469,34024778,4512612193,27.151147842407227
460,470,34024778,4512612193,45.56145477294922
461,471,34024778,4512612193,55.029842376708984
462,472,34024778,4512612193,53.602848052978516
463,473,34024778,4512612193,51.39650344848633
464,474,34024778,4512612193,52.545570373535156
465,475,34024778,4512612193,40.38629150390625
466,476,34024778,4512612193,56.21928405761719
467,477,34024778,4512612193,60.66038513183594
468,478,34024778,4512612193,61.934959411621094
469,479,34024778,4512612193,55.97722244262695
470,480,34024778,4512612193,57.203697204589844
471,481,34024778,4512612193,55.42519760131836
472,482,34024778,4512612193,54.77559280395508
473,483,34024778,4512612193,57.78472137451172
474,484,34024778,4512612193,43.86513900756836
475,485,34024778,4512612193,46.23991012573242
476,486,34024778,4512612193,41.12364196777344
477,487,34024778,4512612193,48.31162643432617
478,488,34024778,4512612193,56.32597351074219
479,489,34024778,4512612193,52.96944046020508
480,490,34024778,4512612193,53.533363342285156
481,491,34024778,4512612193,63.48917770385742
482,492,34024778,4512612193,59.51112365722656
483,493,34024778,4512612193,59.54500198364258
484,494,34024778,4512612193,56.002197265625
485,495,34024778,4512612193,59.07842254638672
486,496,34024778,4512612193,61.540679931640625
487,497,34024778,4512612193,58.971290588378906
488,498,34024778,4512612193,60.31352233886719
489,499,34024778,4512612193,60.448463439941406
490,500,34024778,4512612193,59.48924255371094
491,501,34024778,4512612193,60.47187042236328
492,502,34024778,4512612193,62.57703399658203
493,503,34024778,4512612193,58.94874572753906
