,weekday,hour,source,target,median,var,cnt
0,2,0,3720918698,3720929238,23.215347290039062,0.0,1
1,6,19,3720918698,3720929238,28.203163146972656,9.07683277130127,2
2,4,13,3720918698,3720929238,29.017906188964844,0.0,1
3,6,9,3720918698,3720929238,30.011516571044922,0.0,1
4,2,11,3720918698,3720929238,27.3148250579834,0.0,1
5,3,20,3720918698,3720929238,29.454910278320312,0.0,1
6,1,10,3720918698,3720929238,29.750408172607422,9.165046691894531,2
7,6,0,3720918698,3720929238,26.723024368286133,0.0,1
8,1,23,3720918698,3720929238,28.927122116088867,2.0055809020996094,3
9,5,20,3720918698,3720929238,24.243221282958984,6.149423122406006,2
10,3,9,3720918698,3720929238,26.723024368286133,0.0,1
11,3,23,3720918698,3720929238,33.24932098388672,1.396400809288025,2
12,0,22,3720918698,3720929238,32.067626953125,0.0,1
13,4,2,3720918698,3720929238,25.320823669433594,0.06634587794542313,2
14,1,14,3720918698,3720929238,26.113101959228516,0.0,1
15,4,22,3720918698,3720929238,32.49021530151367,9.082603454589844,2
16,5,8,3720918698,3720929238,28.22568130493164,0.0,1
17,5,13,3720918698,3720929238,33.340152740478516,0.0,1
18,2,13,3720918698,3720929238,28.449617385864258,0.0,1
19,3,1,3720918698,3720929238,32.055233001708984,3.479536771774292,2
20,4,19,3720918698,3720929238,19.851388931274414,0.0,1
21,3,14,3720918698,3720929238,15.396326065063477,23.394838333129883,2
22,0,16,3720918698,3720929238,30.36110496520996,0.0,1
23,6,14,3720918698,3720929238,26.22874641418457,15.531098365783691,3
24,1,20,3720918698,3720929238,32.46223068237305,0.0,1
25,6,18,3720918698,3720929238,21.824363708496094,0.0,1
26,1,12,3720918698,3720929238,28.63469886779785,0.0,1
27,2,21,3720918698,3720929238,35.78741455078125,0.0,1
28,0,14,3720918698,3720929238,39.882179260253906,0.4864294230937958,2
29,6,7,3720918698,3720929238,31.212783813476562,0.0,1
30,6,2,3720918698,3720929238,32.067626953125,0.0,1
31,0,18,3720918698,3720929238,33.44195556640625,45.14405059814453,2
32,5,14,3720918698,3720929238,32.90662384033203,0.0,1
33,3,7,3720918698,3720929238,23.478084564208984,0.0,1
34,3,10,3720918698,3720929238,27.6802921295166,0.0,1
35,3,15,3720918698,3720929238,20.307476043701172,0.2080163210630417,2
36,3,16,3720918698,3720929238,24.050722122192383,0.0,1
37,5,23,3720918698,3720929238,28.934188842773438,4.889248371124268,2
38,2,8,3720918698,3720929238,32.77779006958008,0.0,1
39,6,20,3720918698,3720929238,33.53727722167969,19.751697540283203,2
40,5,1,3720918698,3720929238,32.29479217529297,8.498689651489258,3
41,6,15,3720918698,3720929238,29.2460994720459,0.0,1
42,4,20,3720918698,3720929238,23.93581199645996,1.0061204433441162,2
43,2,20,3720918698,3720929238,27.826496124267578,5.465826034545898,2
44,5,0,3720918698,3720929238,22.053144454956055,0.0,1
45,6,17,3720918698,3720929238,38.15447998046875,0.0,1
46,2,18,3720918698,3720929238,38.88554382324219,0.0,1
47,1,21,3720918698,3720929238,35.2821044921875,0.0,1
48,2,15,3720918698,3720929238,31.361867904663086,0.0,1
49,6,10,3720918698,3720929238,36.82107162475586,0.0,1
50,2,9,3720918698,3720929238,24.127073287963867,0.0,1
51,5,22,3720918698,3720929238,24.127073287963867,0.0,1
52,0,1,3720918698,3720929238,34.73371124267578,0.08557941764593124,2
53,5,18,3720918698,3720929238,28.052915573120117,0.0,1
54,2,12,3720918698,3720929238,36.19728469848633,0.0,1
55,0,0,3720918698,3720929238,26.723024368286133,45.15972900390625,3
56,4,16,3720918698,3720929238,17.34044647216797,0.0,1
57,6,23,3720918698,3720929238,20.23314666748047,0.0,1
58,1,16,3720918698,3720929238,28.065326690673828,0.0,1
59,1,13,3720918698,3720929238,23.478084564208984,0.0,1
60,5,21,3720918698,3720929238,27.19228744506836,24.388994216918945,3
61,4,21,3720918698,3720929238,19.11992645263672,0.5350373387336731,2
62,3,13,3720918698,3720929238,21.21914291381836,0.0,1
63,2,23,3720918698,3720929238,26.91806411743164,3.659372329711914,2
64,4,14,3720918698,3720929238,39.11054611206055,0.9486592411994934,2
65,0,6,3720918698,3720929238,17.41073989868164,0.0,1
66,4,18,3720918698,3720929238,25.98984146118164,0.6053268313407898,2
67,5,12,3720918698,3720929238,30.06130027770996,0.10025260597467422,3
68,1,9,3720918698,3720929238,36.30083465576172,2.6054956912994385,2
69,5,17,3720918698,3720929238,28.43020248413086,42.429176330566406,3
70,2,17,3720918698,3720929238,27.870458602905273,19.40316390991211,3
71,4,1,3720918698,3720929238,26.723024368286133,0.0,1
72,0,21,3720918698,3720929238,28.376081466674805,0.0,1
73,2,22,3720918698,3720929238,33.57780075073242,0.0,1
74,0,7,3720918698,3720929238,28.381139755249023,12.005234718322754,2
75,2,14,3720918698,3720929238,28.240751266479492,50.65123748779297,2
76,1,7,3720918698,3720929238,30.45107078552246,0.0,1
77,1,0,3720918698,3720929238,31.31920623779297,0.0,1
78,0,10,3720918698,3720929238,26.723024368286133,0.0,1
79,5,16,3720918698,3720929238,33.534061431884766,1.6574656963348389,2
80,6,22,3720918698,3720929238,28.199485778808594,0.0,1
81,4,3,3720918698,3720929238,37.74380874633789,0.0,1
