,slot,source,target,median,var,cnt
0,196,1056082968,1056082962,0.9001454710960388,,1
1,428,1056082968,1056082962,2.1430885791778564,,1
2,186,1056082968,1056082962,3.1998062133789062,2.2726352214813232,2
3,489,1056082968,1056082962,5.003940105438232,,1
4,241,1056082968,1056082962,0.35851144790649414,,1
5,473,1056082968,1056082962,8.66855525970459,,1
6,271,1056082968,1056082962,0.24035599827766418,,1
7,114,1056082968,1056082962,10.571650505065918,,1
8,267,1056082968,1056082962,2.4744606018066406,,1
