,slot,source,target,median,var,cnt
0,390,3116671937,3116671931,64.31949615478516,32.352142333984375,5
1,407,3116671937,3116671931,68.81710052490234,165.22314453125,6
2,40,3116671937,3116671931,55.626190185546875,24.00822639465332,7
3,211,3116671937,3116671931,67.9458236694336,19.352819442749023,8
4,245,3116671937,3116671931,67.20378875732422,80.97120666503906,5
5,241,3116671937,3116671931,65.75807189941406,1.3259111642837524,3
6,396,3116671937,3116671931,62.23935317993164,11.25578784942627,2
7,502,3116671937,3116671931,59.98193359375,85.3569107055664,2
8,170,3116671937,3116671931,69.37605285644531,31.8179988861084,4
9,477,3116671937,3116671931,65.31207275390625,81.87345123291016,5
10,486,3116671937,3116671931,72.97518920898438,,1
11,2,3116671937,3116671931,66.3095474243164,,1
12,209,3116671937,3116671931,65.28598022460938,39.82541275024414,9
13,256,3116671937,3116671931,67.29510498046875,99.91366577148438,9
14,274,3116671937,3116671931,62.891929626464844,30.701555252075195,8
15,374,3116671937,3116671931,70.12954711914062,,1
16,73,3116671937,3116671931,69.5927963256836,9.80518627166748,2
17,283,3116671937,3116671931,69.37973022460938,110.49285125732422,4
18,356,3116671937,3116671931,67.15052795410156,96.78384399414062,7
19,421,3116671937,3116671931,64.95963287353516,60.00214767456055,2
20,501,3116671937,3116671931,67.1082763671875,36.09852981567383,4
21,115,3116671937,3116671931,70.17852020263672,75.57928466796875,5
22,425,3116671937,3116671931,50.41338348388672,,1
23,426,3116671937,3116671931,66.91796875,110.2121353149414,8
24,482,3116671937,3116671931,61.53348159790039,107.50421142578125,9
25,136,3116671937,3116671931,55.9979248046875,97.81754302978516,4
26,325,3116671937,3116671931,56.54981231689453,114.17160034179688,3
27,335,3116671937,3116671931,70.13182067871094,62.64609146118164,6
28,462,3116671937,3116671931,70.49860382080078,41.50117111206055,7
29,51,3116671937,3116671931,66.79814910888672,144.92857360839844,8
30,104,3116671937,3116671931,57.663265228271484,19.45911407470703,3
31,378,3116671937,3116671931,75.10652923583984,36.05253219604492,3
32,439,3116671937,3116671931,64.85514068603516,65.01305389404297,3
33,67,3116671937,3116671931,68.29986572265625,93.6741714477539,4
34,184,3116671937,3116671931,68.08525848388672,22.548381805419922,9
35,446,3116671937,3116671931,80.73390197753906,,1
36,20,3116671937,3116671931,65.8966064453125,35.19097137451172,6
37,338,3116671937,3116671931,71.13050842285156,39.686729431152344,6
38,450,3116671937,3116671931,72.05635833740234,37.4389762878418,3
39,305,3116671937,3116671931,62.478118896484375,,1
40,6,3116671937,3116671931,64.34782409667969,226.52455139160156,2
41,194,3116671937,3116671931,65.2523193359375,36.464054107666016,5
42,322,3116671937,3116671931,73.5291748046875,1.6063700914382935,2
43,472,3116671937,3116671931,65.93984985351562,6.600005149841309,3
44,410,3116671937,3116671931,65.99383544921875,75.9563217163086,10
45,19,3116671937,3116671931,56.75920867919922,381.24560546875,4
46,161,3116671937,3116671931,69.58810424804688,73.33464813232422,2
47,344,3116671937,3116671931,68.90076446533203,15.258008003234863,4
48,85,3116671937,3116671931,58.453514099121094,606.1112670898438,2
49,135,3116671937,3116671931,55.71857833862305,,1
50,156,3116671937,3116671931,76.54309844970703,21.23664093017578,3
51,158,3116671937,3116671931,68.86831665039062,,1
52,459,3116671937,3116671931,60.88154602050781,62.19587707519531,8
53,277,3116671937,3116671931,65.54325103759766,80.14968872070312,15
54,285,3116671937,3116671931,64.26293182373047,65.79049682617188,5
55,391,3116671937,3116671931,67.88946533203125,75.68526458740234,5
56,460,3116671937,3116671931,62.51511764526367,15.844924926757812,3
57,500,3116671937,3116671931,64.09259033203125,36.05741882324219,3
58,57,3116671937,3116671931,71.13677215576172,,1
59,120,3116671937,3116671931,65.74421691894531,162.01834106445312,5
60,394,3116671937,3116671931,59.3188362121582,117.91182708740234,3
61,105,3116671937,3116671931,57.433685302734375,344.14404296875,2
62,140,3116671937,3116671931,61.669525146484375,182.72137451171875,6
63,434,3116671937,3116671931,60.96463394165039,11.926429748535156,3
64,494,3116671937,3116671931,60.03109359741211,,1
65,168,3116671937,3116671931,70.32205963134766,57.193912506103516,4
66,207,3116671937,3116671931,68.57106018066406,44.25287628173828,4
67,302,3116671937,3116671931,74.3174057006836,172.66473388671875,3
68,87,3116671937,3116671931,75.86616516113281,84.63191223144531,3
69,360,3116671937,3116671931,52.891841888427734,,1
70,384,3116671937,3116671931,67.96514129638672,96.37267303466797,4
71,389,3116671937,3116671931,68.6703109741211,90.13101196289062,7
72,125,3116671937,3116671931,67.17471313476562,90.14881896972656,4
73,127,3116671937,3116671931,61.26240158081055,388.53704833984375,3
74,401,3116671937,3116671931,65.91508483886719,,1
75,261,3116671937,3116671931,66.60608673095703,181.9996337890625,8
76,355,3116671937,3116671931,67.50267791748047,52.04978561401367,7
77,18,3116671937,3116671931,69.70899200439453,48.83932876586914,3
78,33,3116671937,3116671931,52.70721435546875,221.2063751220703,4
79,326,3116671937,3116671931,72.95437622070312,125.01927947998047,6
80,263,3116671937,3116671931,71.1246566772461,276.4140319824219,5
81,128,3116671937,3116671931,60.35020065307617,17.288753509521484,3
82,481,3116671937,3116671931,68.16644287109375,43.94337463378906,12
83,153,3116671937,3116671931,68.8292007446289,,1
84,288,3116671937,3116671931,73.09015655517578,88.16568756103516,3
85,74,3116671937,3116671931,58.168697357177734,,1
86,298,3116671937,3116671931,68.065185546875,5.88751745223999,3
87,474,3116671937,3116671931,62.625877380371094,133.02601623535156,6
88,483,3116671937,3116671931,72.73761749267578,952.9149780273438,3
89,311,3116671937,3116671931,71.78598022460938,176.62680053710938,4
90,466,3116671937,3116671931,62.93484878540039,124.3990707397461,7
91,8,3116671937,3116671931,68.09951782226562,55.72016143798828,2
92,260,3116671937,3116671931,66.57686614990234,19.23145294189453,2
93,292,3116671937,3116671931,68.89776611328125,14.744702339172363,4
94,367,3116671937,3116671931,71.08106994628906,165.1334991455078,4
95,385,3116671937,3116671931,66.46298217773438,211.35696411132812,3
96,471,3116671937,3116671931,59.7111930847168,66.62348175048828,9
97,354,3116671937,3116671931,67.03126525878906,53.35846710205078,9
98,71,3116671937,3116671931,68.30094909667969,79.49116516113281,3
99,137,3116671937,3116671931,67.98562622070312,157.41751098632812,5
100,220,3116671937,3116671931,62.74668502807617,,1
101,445,3116671937,3116671931,59.55492401123047,,1
102,36,3116671937,3116671931,73.8174819946289,,1
103,264,3116671937,3116671931,70.94340515136719,38.79755401611328,8
104,124,3116671937,3116671931,54.8887939453125,462.8887023925781,2
105,213,3116671937,3116671931,63.141761779785156,61.19572830200195,8
106,310,3116671937,3116671931,70.41966247558594,74.49811553955078,4
107,132,3116671937,3116671931,68.4009780883789,19.047809600830078,2
108,59,3116671937,3116671931,55.294410705566406,171.5881805419922,8
109,249,3116671937,3116671931,62.67141342163086,54.36734390258789,7
110,1,3116671937,3116671931,66.66485595703125,0.14157254993915558,3
111,16,3116671937,3116671931,75.33763122558594,208.01771545410156,4
112,142,3116671937,3116671931,68.80558776855469,55.45916748046875,5
113,366,3116671937,3116671931,78.96334075927734,,1
114,48,3116671937,3116671931,64.67823028564453,18.293500900268555,3
115,54,3116671937,3116671931,58.13768768310547,41.72305679321289,12
116,219,3116671937,3116671931,70.00755310058594,171.59765625,2
117,49,3116671937,3116671931,63.13018798828125,87.04480743408203,7
118,41,3116671937,3116671931,56.631072998046875,216.96607971191406,5
119,301,3116671937,3116671931,73.97373962402344,,1
120,400,3116671937,3116671931,66.8745346069336,13.514961242675781,4
121,198,3116671937,3116671931,69.06465148925781,104.06871795654297,4
122,112,3116671937,3116671931,62.60528564453125,162.3171844482422,2
123,253,3116671937,3116671931,68.66181945800781,78.38101196289062,5
124,309,3116671937,3116671931,71.05781555175781,3.410083532333374,3
125,447,3116671937,3116671931,72.25074005126953,38.021873474121094,2
126,116,3116671937,3116671931,66.50807189941406,38.56150817871094,4
127,343,3116671937,3116671931,69.02848815917969,51.6683349609375,7
128,361,3116671937,3116671931,30.36714744567871,580.7494506835938,2
129,141,3116671937,3116671931,68.32707214355469,,1
130,101,3116671937,3116671931,64.68305969238281,52.63518142700195,5
131,303,3116671937,3116671931,77.52033233642578,64.228515625,3
132,324,3116671937,3116671931,70.83528137207031,43.929931640625,6
133,61,3116671937,3116671931,69.71366882324219,170.13807678222656,7
134,122,3116671937,3116671931,56.833213806152344,41.91028594970703,3
135,405,3116671937,3116671931,72.77769470214844,56.87942123413086,2
136,430,3116671937,3116671931,62.464881896972656,61.60329818725586,3
137,487,3116671937,3116671931,64.2973403930664,147.34234619140625,5
138,496,3116671937,3116671931,65.31145477294922,11.218267440795898,4
139,498,3116671937,3116671931,61.56404113769531,78.84565734863281,10
140,189,3116671937,3116671931,62.09144592285156,40.70167541503906,6
141,340,3116671937,3116671931,59.07261657714844,48.24028396606445,4
142,490,3116671937,3116671931,73.05037689208984,,1
143,237,3116671937,3116671931,69.62239074707031,55.33461380004883,4
144,25,3116671937,3116671931,60.0027961730957,,1
145,317,3116671937,3116671931,65.77149963378906,,1
146,351,3116671937,3116671931,64.30876159667969,100.70108032226562,7
147,417,3116671937,3116671931,75.22294616699219,89.18218994140625,5
148,79,3116671937,3116671931,61.58815002441406,,1
149,204,3116671937,3116671931,59.992889404296875,,1
150,259,3116671937,3116671931,68.43907928466797,118.5838623046875,5
151,155,3116671937,3116671931,74.23519134521484,,1
152,172,3116671937,3116671931,59.109920501708984,1.6968108415603638,3
153,217,3116671937,3116671931,68.8554458618164,14.539968490600586,3
154,282,3116671937,3116671931,63.687320709228516,116.70074462890625,9
155,370,3116671937,3116671931,65.6187744140625,,1
156,412,3116671937,3116671931,71.21953582763672,50.6439094543457,6
157,95,3116671937,3116671931,73.91014099121094,62.73055648803711,7
158,167,3116671937,3116671931,65.48267364501953,77.6536636352539,3
159,46,3116671937,3116671931,64.17335510253906,15.751426696777344,4
160,27,3116671937,3116671931,66.11680603027344,70.56341552734375,4
161,236,3116671937,3116671931,70.01631927490234,42.317832946777344,5
162,319,3116671937,3116671931,68.61726379394531,34.09878158569336,4
163,347,3116671937,3116671931,71.44294738769531,46.55275344848633,4
164,438,3116671937,3116671931,79.9456558227539,,1
165,357,3116671937,3116671931,59.53838348388672,61.393943786621094,6
166,404,3116671937,3116671931,59.892486572265625,154.37860107421875,4
167,31,3116671937,3116671931,63.349613189697266,36.407440185546875,7
168,86,3116671937,3116671931,69.80770111083984,138.1849822998047,2
169,126,3116671937,3116671931,75.77188110351562,,1
170,480,3116671937,3116671931,67.50309753417969,83.37171173095703,8
171,109,3116671937,3116671931,67.20823669433594,7.02191686630249,4
172,269,3116671937,3116671931,59.771820068359375,70.34463500976562,12
173,348,3116671937,3116671931,63.651771545410156,66.70108795166016,8
174,392,3116671937,3116671931,58.86322021484375,135.04208374023438,4
175,393,3116671937,3116671931,59.0227165222168,50.114166259765625,7
176,431,3116671937,3116671931,51.57700729370117,,1
177,444,3116671937,3116671931,62.12074279785156,,1
178,492,3116671937,3116671931,50.19450759887695,345.1166687011719,4
179,332,3116671937,3116671931,67.89689636230469,21.572355270385742,3
180,24,3116671937,3116671931,67.45624542236328,88.6586685180664,4
181,247,3116671937,3116671931,64.91717529296875,77.70613098144531,6
182,163,3116671937,3116671931,68.27611541748047,36.637176513671875,6
183,91,3116671937,3116671931,77.20905303955078,,1
184,321,3116671937,3116671931,62.72587203979492,31.447717666625977,5
185,336,3116671937,3116671931,73.79792785644531,18.4917049407959,4
186,117,3116671937,3116671931,68.65182495117188,147.78021240234375,3
187,233,3116671937,3116671931,70.03772735595703,968.1737060546875,3
188,455,3116671937,3116671931,72.70896911621094,2.2785537242889404,4
189,476,3116671937,3116671931,66.845703125,71.80848693847656,6
190,441,3116671937,3116671931,77.65159606933594,,1
191,193,3116671937,3116671931,59.126380920410156,48.06391525268555,6
192,254,3116671937,3116671931,64.27973937988281,35.0984001159668,6
193,14,3116671937,3116671931,78.35557556152344,16.014265060424805,4
194,377,3116671937,3116671931,75.14733123779297,,1
195,475,3116671937,3116671931,62.955291748046875,114.82079315185547,3
196,234,3116671937,3116671931,76.11404418945312,13.816725730895996,3
197,299,3116671937,3116671931,60.35002899169922,,1
198,243,3116671937,3116671931,64.85464477539062,69.75176239013672,7
199,28,3116671937,3116671931,63.587379455566406,71.1208267211914,4
200,39,3116671937,3116671931,80.50287628173828,,1
201,154,3116671937,3116671931,73.10647583007812,,1
202,375,3116671937,3116671931,81.43843841552734,56.255794525146484,3
203,406,3116671937,3116671931,64.63516235351562,48.9788818359375,6
204,387,3116671937,3116671931,68.85664367675781,99.1494140625,8
205,484,3116671937,3116671931,56.33786392211914,149.08970642089844,4
206,130,3116671937,3116671931,53.676246643066406,465.0218200683594,2
207,133,3116671937,3116671931,66.51790618896484,94.72327423095703,7
208,160,3116671937,3116671931,79.4228744506836,,1
209,271,3116671937,3116671931,62.28872299194336,153.6450958251953,4
210,58,3116671937,3116671931,64.899169921875,43.66938781738281,6
211,227,3116671937,3116671931,81.18156433105469,28.960758209228516,2
212,244,3116671937,3116671931,69.10456848144531,116.56759643554688,5
213,414,3116671937,3116671931,66.09693908691406,129.4623260498047,7
214,15,3116671937,3116671931,74.42516326904297,,1
215,77,3116671937,3116671931,64.82685089111328,,1
216,169,3116671937,3116671931,66.20189666748047,38.9132080078125,7
217,239,3116671937,3116671931,76.25987243652344,15.139124870300293,5
218,232,3116671937,3116671931,72.01818084716797,341.3516845703125,3
219,250,3116671937,3116671931,62.934295654296875,80.30640411376953,8
220,422,3116671937,3116671931,56.26129150390625,1.1947182416915894,2
221,55,3116671937,3116671931,60.07855224609375,115.14257049560547,7
222,212,3116671937,3116671931,66.464599609375,20.399568557739258,3
223,165,3116671937,3116671931,68.61383056640625,6.020374774932861,2
224,359,3116671937,3116671931,56.922889709472656,135.848388671875,4
225,488,3116671937,3116671931,59.01374053955078,372.69921875,4
226,139,3116671937,3116671931,58.33589172363281,28.843048095703125,6
227,216,3116671937,3116671931,49.25352096557617,,1
228,279,3116671937,3116671931,66.63394165039062,84.12843322753906,13
229,291,3116671937,3116671931,67.4790267944336,,1
230,29,3116671937,3116671931,63.78969192504883,303.2236022949219,4
231,92,3116671937,3116671931,65.12128448486328,107.85274505615234,3
232,331,3116671937,3116671931,68.92744445800781,17.974042892456055,5
233,489,3116671937,3116671931,56.258995056152344,1.097515344619751,2
234,37,3116671937,3116671931,60.993404388427734,145.98915100097656,5
235,208,3116671937,3116671931,62.12168884277344,60.70195388793945,6
236,146,3116671937,3116671931,60.4024543762207,,1
237,320,3116671937,3116671931,63.950157165527344,29.336400985717773,6
238,379,3116671937,3116671931,66.21528625488281,42.15325927734375,2
239,420,3116671937,3116671931,66.61429595947266,251.5635528564453,4
240,419,3116671937,3116671931,67.03983306884766,177.10202026367188,5
241,94,3116671937,3116671931,62.71038818359375,4.15740442276001,2
242,222,3116671937,3116671931,84.4905776977539,,1
243,251,3116671937,3116671931,65.04512786865234,30.107158660888672,5
244,341,3116671937,3116671931,68.30745697021484,80.500732421875,4
245,436,3116671937,3116671931,49.990142822265625,,1
246,195,3116671937,3116671931,67.98445892333984,49.75789260864258,9
247,100,3116671937,3116671931,63.59648895263672,55.706424713134766,5
248,138,3116671937,3116671931,43.038936614990234,,1
249,451,3116671937,3116671931,74.23088073730469,5.785765171051025,2
250,35,3116671937,3116671931,66.3143310546875,78.71820068359375,4
251,280,3116671937,3116671931,63.162567138671875,85.88616180419922,16
252,34,3116671937,3116671931,70.59359741210938,202.9443359375,2
253,114,3116671937,3116671931,65.78694152832031,193.70912170410156,6
254,314,3116671937,3116671931,72.2433090209961,28.84644889831543,3
255,467,3116671937,3116671931,66.84838104248047,29.458635330200195,7
256,337,3116671937,3116671931,69.52294921875,216.6530303955078,6
257,503,3116671937,3116671931,62.99909210205078,14.997187614440918,3
258,272,3116671937,3116671931,73.6434097290039,100.1469955444336,9
259,411,3116671937,3116671931,62.684200286865234,104.14646911621094,12
260,32,3116671937,3116671931,51.63500213623047,89.74868774414062,3
261,63,3116671937,3116671931,60.02192306518555,24.528535842895508,3
262,182,3116671937,3116671931,64.02140045166016,371.7519836425781,7
263,350,3116671937,3116671931,68.30148315429688,53.78106689453125,6
264,478,3116671937,3116671931,68.19598388671875,22.653242111206055,4
265,129,3116671937,3116671931,74.64022827148438,45.734710693359375,2
266,286,3116671937,3116671931,62.940101623535156,490.6717834472656,6
267,23,3116671937,3116671931,70.75676727294922,27.98877716064453,3
268,103,3116671937,3116671931,68.59774017333984,34.0986328125,2
269,145,3116671937,3116671931,72.09135437011719,82.38871765136719,4
270,174,3116671937,3116671931,65.60369873046875,18.178804397583008,4
271,228,3116671937,3116671931,69.82201385498047,60.24128723144531,3
272,313,3116671937,3116671931,64.4962158203125,16.611845016479492,5
273,80,3116671937,3116671931,64.47920227050781,10.74899673461914,2
274,473,3116671937,3116671931,63.58325958251953,66.71109771728516,4
275,47,3116671937,3116671931,70.05294036865234,39.17071533203125,5
276,290,3116671937,3116671931,70.1829605102539,,1
277,17,3116671937,3116671931,67.0479736328125,127.55659484863281,2
278,229,3116671937,3116671931,82.13084411621094,,1
279,238,3116671937,3116671931,69.94503784179688,90.22647857666016,5
280,119,3116671937,3116671931,70.938232421875,249.51942443847656,4
281,159,3116671937,3116671931,71.18092346191406,34.35673141479492,5
282,177,3116671937,3116671931,62.20479965209961,25.873628616333008,10
283,50,3116671937,3116671931,66.85134887695312,127.61138153076172,13
284,214,3116671937,3116671931,51.9713134765625,39.395137786865234,2
285,270,3116671937,3116671931,67.13692474365234,31.964210510253906,5
286,275,3116671937,3116671931,68.18069458007812,50.39946746826172,13
287,328,3116671937,3116671931,62.78044891357422,162.49827575683594,2
288,329,3116671937,3116671931,63.37339401245117,114.83460235595703,5
289,418,3116671937,3116671931,60.67926025390625,9.14646053314209,3
290,427,3116671937,3116671931,69.86422729492188,45.9851188659668,6
291,183,3116671937,3116671931,67.43719482421875,97.05836486816406,10
292,316,3116671937,3116671931,65.83515167236328,33.82231903076172,3
293,75,3116671937,3116671931,62.40353775024414,123.44798278808594,3
294,423,3116671937,3116671931,50.49664306640625,207.05323791503906,4
295,200,3116671937,3116671931,72.00459289550781,291.445556640625,9
296,268,3116671937,3116671931,66.40518188476562,83.24512481689453,8
297,235,3116671937,3116671931,77.0631332397461,52.96712112426758,3
298,90,3116671937,3116671931,64.28169250488281,85.73358154296875,2
299,381,3116671937,3116671931,69.72457885742188,309.0155334472656,4
300,493,3116671937,3116671931,73.08967590332031,1.3335366249084473,2
301,152,3116671937,3116671931,78.57136535644531,3.3827736377716064,2
302,358,3116671937,3116671931,50.76737594604492,297.28448486328125,7
303,43,3116671937,3116671931,61.0703125,77.17924499511719,7
304,12,3116671937,3116671931,69.14225006103516,78.90913391113281,3
305,294,3116671937,3116671931,67.82526397705078,43.98629379272461,3
306,409,3116671937,3116671931,59.385284423828125,89.99237060546875,5
307,97,3116671937,3116671931,67.65274810791016,107.32969665527344,4
308,485,3116671937,3116671931,52.92839431762695,,1
309,206,3116671937,3116671931,69.95357513427734,178.6085662841797,9
310,395,3116671937,3116671931,73.10874938964844,5.6819562911987305,2
311,398,3116671937,3116671931,63.536094665527344,99.47643280029297,5
312,415,3116671937,3116671931,57.4549560546875,249.38613891601562,2
313,433,3116671937,3116671931,67.45055389404297,316.94915771484375,2
314,453,3116671937,3116671931,61.795719146728516,15.874242782592773,5
315,463,3116671937,3116671931,70.44891357421875,28.235666275024414,5
316,248,3116671937,3116671931,59.57496643066406,110.45740509033203,3
317,258,3116671937,3116671931,61.932655334472656,57.44581985473633,7
318,461,3116671937,3116671931,68.99262237548828,109.0730972290039,3
319,42,3116671937,3116671931,64.54949951171875,63.53471755981445,6
320,110,3116671937,3116671931,62.23116683959961,29.8925724029541,3
321,448,3116671937,3116671931,62.80579376220703,308.06622314453125,6
322,9,3116671937,3116671931,68.31147766113281,23.23518180847168,2
323,93,3116671937,3116671931,70.59576416015625,28.044605255126953,2
324,99,3116671937,3116671931,64.36634063720703,52.260684967041016,7
325,197,3116671937,3116671931,64.39303588867188,114.02999877929688,10
326,199,3116671937,3116671931,70.16828155517578,84.2711181640625,8
327,143,3116671937,3116671931,61.67457580566406,130.30340576171875,3
328,202,3116671937,3116671931,65.04840087890625,28.23064422607422,4
329,333,3116671937,3116671931,70.05542755126953,,1
330,424,3116671937,3116671931,66.12353515625,54.85963439941406,5
331,346,3116671937,3116671931,62.64411163330078,53.86763381958008,14
332,246,3116671937,3116671931,62.642189025878906,177.11830139160156,4
333,266,3116671937,3116671931,60.79247283935547,119.60496520996094,4
334,252,3116671937,3116671931,69.59677124023438,37.944854736328125,3
335,166,3116671937,3116671931,75.38003540039062,146.44149780273438,4
336,180,3116671937,3116671931,65.53620147705078,27.31410026550293,7
337,262,3116671937,3116671931,68.02330017089844,42.10544967651367,4
338,327,3116671937,3116671931,64.63849639892578,203.5517578125,6
339,118,3116671937,3116671931,64.67839050292969,45.505348205566406,13
340,185,3116671937,3116671931,66.17987823486328,85.91727447509766,8
341,0,3116671937,3116671931,66.63642120361328,40.80126953125,3
342,187,3116671937,3116671931,70.12118530273438,29.57111930847168,2
343,458,3116671937,3116671931,77.46378326416016,157.6966094970703,3
344,45,3116671937,3116671931,54.5742073059082,144.351318359375,4
345,226,3116671937,3116671931,60.250885009765625,,1
346,107,3116671937,3116671931,65.83865356445312,99.38692474365234,6
347,242,3116671937,3116671931,69.51702880859375,29.228761672973633,9
348,300,3116671937,3116671931,79.06876373291016,58.30405044555664,2
349,84,3116671937,3116671931,78.37108612060547,,1
350,281,3116671937,3116671931,66.92691040039062,39.04487609863281,14
351,352,3116671937,3116671931,65.69769287109375,115.01934814453125,7
352,464,3116671937,3116671931,74.42439270019531,100.58252716064453,5
353,7,3116671937,3116671931,71.277587890625,,1
354,56,3116671937,3116671931,69.85601806640625,21.774599075317383,5
355,171,3116671937,3116671931,56.77686309814453,,1
356,64,3116671937,3116671931,59.3242301940918,596.732421875,4
357,82,3116671937,3116671931,76.32796478271484,,1
358,164,3116671937,3116671931,66.39262390136719,27.5142879486084,4
359,306,3116671937,3116671931,77.94843292236328,57.701393127441406,2
360,30,3116671937,3116671931,62.26964569091797,39.993736267089844,5
361,273,3116671937,3116671931,73.55626678466797,93.82945251464844,7
362,330,3116671937,3116671931,67.51211547851562,29.858959197998047,5
363,162,3116671937,3116671931,67.10542297363281,83.6177978515625,5
364,267,3116671937,3116671931,65.30147552490234,63.614646911621094,11
365,323,3116671937,3116671931,63.93242645263672,33.289405822753906,3
366,44,3116671937,3116671931,68.43759155273438,143.07400512695312,4
367,52,3116671937,3116671931,58.952728271484375,96.92850494384766,4
368,413,3116671937,3116671931,75.05207061767578,204.1959991455078,3
369,66,3116671937,3116671931,65.7445068359375,39.9119758605957,10
370,83,3116671937,3116671931,63.96955108642578,,1
371,96,3116671937,3116671931,73.90940856933594,90.84854888916016,5
372,121,3116671937,3116671931,64.87831115722656,52.51085662841797,8
373,403,3116671937,3116671931,62.68485641479492,92.80208587646484,3
374,191,3116671937,3116671931,61.91620635986328,93.05144500732422,6
375,339,3116671937,3116671931,70.90094757080078,85.2730941772461,3
376,5,3116671937,3116671931,71.84852600097656,,1
377,106,3116671937,3116671931,60.774085998535156,79.9616470336914,4
378,342,3116671937,3116671931,67.06448364257812,38.75455856323242,8
379,497,3116671937,3116671931,65.9837646484375,101.61009216308594,5
380,192,3116671937,3116671931,64.81428527832031,134.2309112548828,6
381,408,3116671937,3116671931,60.546295166015625,135.31495666503906,4
382,21,3116671937,3116671931,49.490360260009766,287.5466003417969,4
383,308,3116671937,3116671931,68.06311798095703,0.44796255230903625,2
384,353,3116671937,3116671931,66.73121643066406,33.070281982421875,6
385,402,3116671937,3116671931,68.43971252441406,173.1500244140625,2
386,68,3116671937,3116671931,64.08197021484375,31.625520706176758,5
387,98,3116671937,3116671931,71.47111511230469,95.33160400390625,4
388,221,3116671937,3116671931,68.2424545288086,,1
389,449,3116671937,3116671931,71.59945678710938,29.4592227935791,3
390,175,3116671937,3116671931,66.15888214111328,105.08355712890625,7
391,454,3116671937,3116671931,61.46617889404297,174.96348571777344,4
392,69,3116671937,3116671931,74.63288879394531,21.883411407470703,3
393,134,3116671937,3116671931,57.77616500854492,29.95864486694336,3
394,349,3116671937,3116671931,62.29433059692383,35.71011734008789,8
395,372,3116671937,3116671931,76.75871276855469,95.20689392089844,5
396,147,3116671937,3116671931,67.93222045898438,56.20871353149414,4
397,210,3116671937,3116671931,61.407920837402344,101.62080383300781,6
398,287,3116671937,3116671931,64.38306427001953,15.956125259399414,4
399,289,3116671937,3116671931,70.30268096923828,1.2550019025802612,3
400,70,3116671937,3116671931,65.43445587158203,71.7627944946289,5
401,123,3116671937,3116671931,56.86863708496094,316.4755554199219,3
402,380,3116671937,3116671931,67.218994140625,93.93059539794922,6
403,416,3116671937,3116671931,69.48577117919922,205.57427978515625,2
404,429,3116671937,3116671931,73.77101135253906,55.28998947143555,3
405,491,3116671937,3116671931,57.80472183227539,186.99493408203125,5
406,76,3116671937,3116671931,70.13224029541016,,1
407,397,3116671937,3116671931,66.06843566894531,91.16366577148438,4
408,495,3116671937,3116671931,70.86637115478516,,1
409,371,3116671937,3116671931,78.93798065185547,,1
410,469,3116671937,3116671931,63.47076416015625,57.11201858520508,3
411,318,3116671937,3116671931,64.73690795898438,50.25031661987305,6
412,113,3116671937,3116671931,71.95936584472656,82.63264465332031,5
413,131,3116671937,3116671931,62.43642044067383,118.01529693603516,7
414,148,3116671937,3116671931,49.75056457519531,211.96163940429688,2
415,255,3116671937,3116671931,58.781829833984375,105.80857849121094,5
416,108,3116671937,3116671931,71.06827545166016,18.95250129699707,7
417,179,3116671937,3116671931,67.9008560180664,42.07538604736328,6
418,203,3116671937,3116671931,55.35990905761719,,1
419,334,3116671937,3116671931,72.71534729003906,0.12240058928728104,2
420,62,3116671937,3116671931,54.47071075439453,1202.230224609375,2
421,383,3116671937,3116671931,70.4316177368164,27.319246292114258,4
422,293,3116671937,3116671931,62.632843017578125,5.090847015380859,3
423,468,3116671937,3116671931,58.68939971923828,106.1645736694336,3
424,102,3116671937,3116671931,76.70550537109375,42.001548767089844,4
425,345,3116671937,3116671931,59.65519714355469,76.70356750488281,5
426,22,3116671937,3116671931,67.21605682373047,225.50726318359375,3
427,196,3116671937,3116671931,64.0101547241211,109.558837890625,8
428,456,3116671937,3116671931,76.15220642089844,32.567134857177734,3
429,65,3116671937,3116671931,66.65185546875,366.89239501953125,2
430,215,3116671937,3116671931,64.47393035888672,113.1733169555664,7
431,111,3116671937,3116671931,53.26451110839844,453.2797546386719,2
432,257,3116671937,3116671931,62.10136413574219,4.296518325805664,3
433,278,3116671937,3116671931,66.71360778808594,51.299400329589844,7
434,312,3116671937,3116671931,71.27377319335938,52.72611999511719,4
435,399,3116671937,3116671931,58.95637130737305,,1
436,465,3116671937,3116671931,62.07920455932617,179.587890625,5
437,265,3116671937,3116671931,66.0074234008789,41.10407257080078,5
438,88,3116671937,3116671931,64.9034652709961,,1
439,176,3116671937,3116671931,64.67076873779297,39.11988067626953,9
440,373,3116671937,3116671931,63.07952880859375,,1
441,382,3116671937,3116671931,63.900428771972656,119.6244125366211,2
442,470,3116671937,3116671931,58.15465545654297,47.38725662231445,7
443,276,3116671937,3116671931,66.28993225097656,67.19728088378906,12
444,188,3116671937,3116671931,58.81593322753906,137.17909240722656,4
445,295,3116671937,3116671931,66.86573791503906,,1
446,190,3116671937,3116671931,68.02125549316406,70.68673706054688,10
447,230,3116671937,3116671931,73.99251556396484,,1
448,284,3116671937,3116671931,63.0932502746582,27.199481964111328,8
449,38,3116671937,3116671931,58.00543975830078,129.3547821044922,5
450,205,3116671937,3116671931,60.30112838745117,101.18995666503906,7
451,452,3116671937,3116671931,60.415977478027344,57.88083267211914,4
452,89,3116671937,3116671931,68.93653106689453,,1
453,186,3116671937,3116671931,68.58004760742188,23.427915573120117,5
454,315,3116671937,3116671931,73.82058715820312,59.36641311645508,4
455,60,3116671937,3116671931,59.32263946533203,683.42236328125,5
456,178,3116671937,3116671931,72.15805053710938,97.99018859863281,3
457,499,3116671937,3116671931,59.36935043334961,167.80238342285156,4
458,72,3116671937,3116671931,56.04258346557617,257.021240234375,4
459,201,3116671937,3116671931,72.1287841796875,79.79190063476562,6
460,364,3116671937,3116671931,69.86385345458984,28.40909767150879,3
461,428,3116671937,3116671931,64.61280059814453,7.166630268096924,3
462,53,3116671937,3116671931,49.649715423583984,780.5977172851562,5
463,181,3116671937,3116671931,63.15883255004883,59.68785095214844,5
464,240,3116671937,3116671931,67.29325866699219,99.47821807861328,4
465,362,3116671937,3116671931,64.65721130371094,70.78056335449219,3
466,4,3116671937,3116671931,70.10157012939453,217.93736267089844,2
467,173,3116671937,3116671931,65.99908447265625,229.19151306152344,5
