,weekday,hour,source,target,speed
0,0,0,3720918698,3720929238,26.723024368286133
1,0,1,3720918698,3720929238,34.73371124267578
2,0,6,3720918698,3720929238,17.41073989868164
3,0,7,3720918698,3720929238,28.381139755249023
4,0,10,3720918698,3720929238,26.723024368286133
5,0,14,3720918698,3720929238,39.882179260253906
6,0,15,3720918698,3720929238,35.12164306640625
7,0,16,3720918698,3720929238,30.36110496520996
8,0,17,3720918698,3720929238,31.901531219482422
9,0,18,3720918698,3720929238,33.44195556640625
10,0,21,3720918698,3720929238,28.376081466674805
11,0,22,3720918698,3720929238,32.067626953125
12,0,23,3720918698,3720929238,31.693416595458984
13,1,0,3720918698,3720929238,31.31920623779297
14,1,7,3720918698,3720929238,30.45107078552246
15,1,8,3720918698,3720929238,33.375953674316406
16,1,9,3720918698,3720929238,36.30083465576172
17,1,10,3720918698,3720929238,29.750408172607422
18,1,11,3720918698,3720929238,29.192554473876953
19,1,12,3720918698,3720929238,28.63469886779785
20,1,13,3720918698,3720929238,24.776689529418945
21,1,14,3720918698,3720929238,26.113101959228516
22,1,15,3720918698,3720929238,27.089214324951172
23,1,16,3720918698,3720929238,28.065326690673828
24,1,20,3720918698,3720929238,32.46223068237305
25,1,21,3720918698,3720929238,35.2821044921875
26,1,22,3720918698,3720929238,32.1046142578125
27,1,23,3720918698,3720929238,28.927122116088867
28,2,0,3720918698,3720929238,23.215347290039062
29,2,8,3720918698,3720929238,32.77779006958008
30,2,9,3720918698,3720929238,24.127073287963867
31,2,10,3720918698,3720929238,25.720949172973633
32,2,11,3720918698,3720929238,27.3148250579834
33,2,12,3720918698,3720929238,33.42559814453125
34,2,13,3720918698,3720929238,29.706085205078125
35,2,14,3720918698,3720929238,28.795747756958008
36,2,15,3720918698,3720929238,31.361867904663086
37,2,16,3720918698,3720929238,29.61616325378418
38,2,17,3720918698,3720929238,27.870458602905273
39,2,18,3720918698,3720929238,38.88554382324219
40,2,19,3720918698,3720929238,33.35601806640625
41,2,20,3720918698,3720929238,27.826496124267578
42,2,21,3720918698,3720929238,34.09232711791992
43,2,22,3720918698,3720929238,32.83611297607422
44,2,23,3720918698,3720929238,26.91806411743164
45,3,0,3720918698,3720929238,29.486648559570312
46,3,1,3720918698,3720929238,32.055233001708984
47,3,7,3720918698,3720929238,23.478084564208984
48,3,8,3720918698,3720929238,25.100555419921875
49,3,9,3720918698,3720929238,26.723024368286133
50,3,10,3720918698,3720929238,27.6802921295166
51,3,13,3720918698,3720929238,21.21914291381836
52,3,14,3720918698,3720929238,17.185319900512695
53,3,15,3720918698,3720929238,20.112825393676758
54,3,16,3720918698,3720929238,24.050722122192383
55,3,20,3720918698,3720929238,29.454910278320312
56,3,23,3720918698,3720929238,33.24932098388672
57,4,0,3720918698,3720929238,29.98617172241211
58,4,1,3720918698,3720929238,26.723024368286133
59,4,2,3720918698,3720929238,27.62502098083496
60,4,3,3720918698,3720929238,37.74380874633789
61,4,13,3720918698,3720929238,29.017906188964844
62,4,14,3720918698,3720929238,39.11054611206055
63,4,15,3720918698,3720929238,28.225496292114258
64,4,16,3720918698,3720929238,17.34044647216797
65,4,17,3720918698,3720929238,21.665143966674805
66,4,18,3720918698,3720929238,25.98984146118164
67,4,19,3720918698,3720929238,21.55520248413086
68,4,20,3720918698,3720929238,22.45242691040039
69,4,21,3720918698,3720929238,22.150955200195312
70,4,22,3720918698,3720929238,32.49021530151367
71,4,23,3720918698,3720929238,27.271678924560547
72,5,0,3720918698,3720929238,22.053144454956055
73,5,1,3720918698,3720929238,32.29479217529297
74,5,8,3720918698,3720929238,28.22568130493164
75,5,12,3720918698,3720929238,30.06130027770996
76,5,13,3720918698,3720929238,32.7214241027832
77,5,14,3720918698,3720929238,32.90662384033203
78,5,15,3720918698,3720929238,33.22034454345703
79,5,16,3720918698,3720929238,33.534061431884766
80,5,17,3720918698,3720929238,29.21796417236328
81,5,18,3720918698,3720929238,28.052915573120117
82,5,19,3720918698,3720929238,26.148067474365234
83,5,20,3720918698,3720929238,24.243221282958984
84,5,21,3720918698,3720929238,26.18990707397461
85,5,22,3720918698,3720929238,25.439128875732422
86,5,23,3720918698,3720929238,27.764474868774414
87,6,0,3720918698,3720929238,26.723024368286133
88,6,1,3720918698,3720929238,29.39532470703125
89,6,2,3720918698,3720929238,32.067626953125
90,6,7,3720918698,3720929238,31.212783813476562
91,6,8,3720918698,3720929238,30.612150192260742
92,6,9,3720918698,3720929238,30.011516571044922
93,6,10,3720918698,3720929238,36.82107162475586
94,6,14,3720918698,3720929238,26.22874641418457
95,6,15,3720918698,3720929238,29.2460994720459
96,6,16,3720918698,3720929238,33.70029067993164
97,6,17,3720918698,3720929238,38.15447998046875
98,6,18,3720918698,3720929238,25.609182357788086
99,6,19,3720918698,3720929238,28.029048919677734
100,6,20,3720918698,3720929238,33.53727722167969
101,6,21,3720918698,3720929238,30.86838150024414
102,6,22,3720918698,3720929238,28.199485778808594
103,6,23,3720918698,3720929238,20.23314666748047
