,slot,source,target,median,var,cnt
0,284,423811144,28141627,59.13286209106445,56.12974166870117,71
1,294,423811144,28141627,62.89535140991211,24.255268096923828,12
2,320,423811144,28141627,65.3265151977539,27.073610305786133,41
3,401,423811144,28141627,58.86066818237305,48.183250427246094,69
4,464,423811144,28141627,14.519820213317871,19.462060928344727,53
5,473,423811144,28141627,60.83087921142578,162.1219024658203,76
6,498,423811144,28141627,61.553497314453125,91.91559600830078,51
7,156,423811144,28141627,67.50794982910156,4.485505104064941,4
8,138,423811144,28141627,61.130767822265625,48.84074401855469,72
9,228,423811144,28141627,65.0368423461914,58.53565979003906,2
10,37,423811144,28141627,50.98809814453125,389.5473937988281,38
11,118,423811144,28141627,61.383506774902344,46.612369537353516,66
12,250,423811144,28141627,60.569278717041016,44.665550231933594,94
13,268,423811144,28141627,62.56822204589844,51.06208419799805,72
14,143,423811144,28141627,63.99904251098633,61.55433654785156,46
15,150,423811144,28141627,70.9176254272461,2.685458183288574,5
16,258,423811144,28141627,64.08543395996094,30.959245681762695,75
17,357,423811144,28141627,56.04145050048828,65.56687927246094,64
18,398,423811144,28141627,59.765838623046875,46.384456634521484,88
19,364,423811144,28141627,64.32514190673828,23.97503662109375,18
20,96,423811144,28141627,15.587922096252441,16.595773696899414,91
21,147,423811144,28141627,65.82769775390625,36.10187530517578,30
22,260,423811144,28141627,62.09137725830078,41.921348571777344,64
23,315,423811144,28141627,67.74031066894531,33.99235534667969,17
24,40,423811144,28141627,55.47230911254883,158.1680908203125,95
25,63,423811144,28141627,59.2898063659668,74.8611068725586,67
26,68,423811144,28141627,59.859004974365234,49.77164840698242,58
27,50,423811144,28141627,52.861793518066406,402.72955322265625,67
28,153,423811144,28141627,70.62091827392578,,1
29,389,423811144,28141627,56.9543571472168,181.25279235839844,131
30,4,423811144,28141627,67.05494689941406,110.44334411621094,12
31,98,423811144,28141627,16.113866806030273,16.23277473449707,81
32,330,423811144,28141627,62.871490478515625,37.18120193481445,48
33,387,423811144,28141627,15.993279457092285,19.027013778686523,65
34,369,423811144,28141627,65.24424743652344,34.641990661621094,2
35,76,423811144,28141627,68.3616943359375,28.75271224975586,20
36,164,423811144,28141627,18.912559509277344,179.9348907470703,34
37,269,423811144,28141627,65.23422241210938,38.40774154663086,62
38,378,423811144,28141627,37.72213363647461,181.16615295410156,33
39,169,423811144,28141627,15.545500755310059,142.0289764404297,108
40,275,423811144,28141627,52.11966323852539,327.6488952636719,101
41,318,423811144,28141627,66.69389343261719,18.118751525878906,38
42,356,423811144,28141627,54.14189529418945,78.39391326904297,48
43,155,423811144,28141627,65.23197937011719,19.37400245666504,5
44,146,423811144,28141627,63.04360580444336,38.479881286621094,53
45,336,423811144,28141627,66.5132064819336,43.63444900512695,52
46,295,423811144,28141627,62.46859359741211,18.24275016784668,6
47,365,423811144,28141627,67.02427673339844,14.295689582824707,9
48,58,423811144,28141627,36.47648239135742,392.60479736328125,118
49,251,423811144,28141627,61.302146911621094,95.74459838867188,91
50,178,423811144,28141627,59.95444869995117,202.21783447265625,81
51,276,423811144,28141627,52.038082122802734,130.6567840576172,102
52,323,423811144,28141627,65.05165100097656,38.50840377807617,43
53,466,423811144,28141627,13.490608215332031,30.29892921447754,43
54,72,423811144,28141627,61.65854263305664,85.38394165039062,34
55,480,423811144,28141627,59.20674514770508,136.85984802246094,77
56,497,423811144,28141627,57.84843444824219,33.49066925048828,39
57,22,423811144,28141627,17.688615798950195,17.35455894470215,59
58,240,423811144,28141627,53.89250183105469,228.4044189453125,88
59,115,423811144,28141627,58.5286865234375,48.991519927978516,73
60,252,423811144,28141627,58.52983856201172,67.35977935791016,83
61,331,423811144,28141627,63.13264465332031,99.34636688232422,56
62,382,423811144,28141627,17.293426513671875,12.560378074645996,60
63,440,423811144,28141627,71.60578155517578,,1
64,17,423811144,28141627,60.592185974121094,33.100006103515625,12
65,102,423811144,28141627,15.847966194152832,10.230511665344238,75
66,345,423811144,28141627,54.18117141723633,206.44161987304688,63
67,25,423811144,28141627,15.849433898925781,11.113115310668945,62
68,53,423811144,28141627,19.625564575195312,313.7630310058594,45
69,296,423811144,28141627,63.51510238647461,18.998693466186523,9
70,59,423811144,28141627,56.30879592895508,407.8288269042969,63
71,233,423811144,28141627,67.23194885253906,6.252677917480469,7
72,416,423811144,28141627,60.16371536254883,42.770790100097656,107
73,137,423811144,28141627,58.238773345947266,75.79944610595703,63
74,309,423811144,28141627,69.84881591796875,34.001155853271484,14
75,368,423811144,28141627,61.18250274658203,65.5938949584961,2
76,106,423811144,28141627,18.91193389892578,457.29345703125,72
77,453,423811144,28141627,17.740310668945312,22.43446159362793,51
78,463,423811144,28141627,13.527902603149414,14.61162281036377,54
79,170,423811144,28141627,15.396087646484375,102.75934600830078,93
80,386,423811144,28141627,15.842260360717773,28.866872787475586,85
81,33,423811144,28141627,21.312679290771484,334.4345703125,74
82,346,423811144,28141627,58.234458923339844,66.050537109375,62
83,385,423811144,28141627,14.629883766174316,11.719136238098145,94
84,202,423811144,28141627,28.731760025024414,318.26739501953125,160
85,230,423811144,28141627,70.98945617675781,10.562848091125488,3
86,449,423811144,28141627,64.18226623535156,38.25830841064453,7
87,502,423811144,28141627,64.15544891357422,48.26546859741211,29
88,207,423811144,28141627,60.03408432006836,34.729618072509766,81
89,347,423811144,28141627,53.67897033691406,75.06683349609375,60
90,194,423811144,28141627,57.34907913208008,445.9558410644531,102
91,35,423811144,28141627,32.53273391723633,280.2051696777344,57
92,83,423811144,28141627,68.59735107421875,1.9247742891311646,4
93,248,423811144,28141627,59.0445556640625,75.56889343261719,118
94,279,423811144,28141627,49.26403045654297,236.7422637939453,72
95,292,423811144,28141627,61.68877029418945,55.37969207763672,33
96,430,423811144,28141627,63.03263473510742,43.82194137573242,49
97,183,423811144,28141627,61.44465255737305,41.17167663574219,63
98,184,423811144,28141627,61.5856819152832,64.47706604003906,79
99,339,423811144,28141627,62.800113677978516,58.67655944824219,61
100,142,423811144,28141627,60.88818359375,46.658592224121094,55
101,227,423811144,28141627,69.74430084228516,0.8866658806800842,2
102,404,423811144,28141627,62.387855529785156,46.097320556640625,62
103,420,423811144,28141627,60.60272979736328,40.92140197753906,54
104,438,423811144,28141627,69.66475677490234,26.850624084472656,3
105,87,423811144,28141627,69.23999786376953,14.543734550476074,2
106,132,423811144,28141627,58.27272033691406,38.12425231933594,82
107,423,423811144,28141627,60.39306640625,37.6238899230957,64
108,426,423811144,28141627,63.354068756103516,70.5179672241211,58
109,433,423811144,28141627,65.71150207519531,23.561847686767578,21
110,122,423811144,28141627,56.83466339111328,301.874755859375,74
111,253,423811144,28141627,59.28784942626953,47.36075210571289,104
112,485,423811144,28141627,53.84535598754883,302.93609619140625,77
113,39,423811144,28141627,49.78187561035156,93.53527069091797,101
114,151,423811144,28141627,69.86137390136719,28.223155975341797,5
115,208,423811144,28141627,58.59556198120117,74.95126342773438,86
116,375,423811144,28141627,68.76228332519531,179.0931396484375,3
117,479,423811144,28141627,58.2733154296875,68.65904998779297,82
118,226,423811144,28141627,71.33338928222656,,1
119,353,423811144,28141627,54.38417053222656,61.51947784423828,58
120,355,423811144,28141627,50.27256393432617,113.30506896972656,59
121,484,423811144,28141627,55.62337875366211,289.7027587890625,75
122,176,423811144,28141627,19.621639251708984,258.95123291015625,89
123,298,423811144,28141627,71.49845123291016,2.4740352630615234,5
124,333,423811144,28141627,64.02342224121094,49.419097900390625,45
125,20,423811144,28141627,17.887897491455078,91.87162017822266,34
126,104,423811144,28141627,18.297069549560547,395.3582458496094,71
127,216,423811144,28141627,57.112998962402344,229.38316345214844,50
128,283,423811144,28141627,62.15665817260742,54.96086120605469,63
129,391,423811144,28141627,58.463043212890625,47.17653274536133,117
130,78,423811144,28141627,58.53038024902344,27.150007247924805,3
131,206,423811144,28141627,57.33872985839844,48.181739807128906,91
132,38,423811144,28141627,56.059120178222656,64.70249938964844,78
133,219,423811144,28141627,62.438560485839844,55.34565734863281,48
134,458,423811144,28141627,14.50258731842041,24.16675567626953,67
135,437,423811144,28141627,69.93801879882812,6.041281700134277,5
136,111,423811144,28141627,57.34359359741211,47.20028305053711,63
137,242,423811144,28141627,43.25495910644531,376.2138977050781,108
138,442,423811144,28141627,66.14434051513672,,1
139,447,423811144,28141627,67.41297912597656,3.0179576873779297,2
140,186,423811144,28141627,56.83560562133789,62.48651123046875,83
141,54,423811144,28141627,13.507896423339844,122.77115631103516,36
142,236,423811144,28141627,61.413509368896484,58.510963439941406,52
143,454,423811144,28141627,17.869876861572266,16.337976455688477,70
144,481,423811144,28141627,58.29940414428711,338.36456298828125,97
145,7,423811144,28141627,65.5030746459961,,1
146,51,423811144,28141627,53.41454315185547,391.6405944824219,73
147,450,423811144,28141627,39.74066925048828,175.1646270751953,31
148,112,423811144,28141627,58.40601348876953,48.77719497680664,47
149,218,423811144,28141627,65.26737976074219,34.64348602294922,30
150,222,423811144,28141627,65.50332641601562,24.777482986450195,5
151,273,423811144,28141627,60.590091705322266,41.36576461791992,82
152,157,423811144,28141627,68.30449676513672,9.71189022064209,2
153,213,423811144,28141627,57.45628356933594,238.6820526123047,97
154,429,423811144,28141627,65.1347427368164,35.110435485839844,45
155,93,423811144,28141627,19.756710052490234,83.23696899414062,52
156,128,423811144,28141627,59.354591369628906,181.39414978027344,99
157,462,423811144,28141627,15.268411636352539,19.680288314819336,60
158,465,423811144,28141627,13.682896614074707,11.037361145019531,65
159,489,423811144,28141627,55.595821380615234,95.44606018066406,140
160,243,423811144,28141627,57.49303436279297,335.31787109375,125
161,448,423811144,28141627,70.76371002197266,10.177422523498535,5
162,304,423811144,28141627,68.8046646118164,,1
163,371,423811144,28141627,68.30247497558594,32.53534698486328,4
164,74,423811144,28141627,66.08729553222656,33.22297668457031,28
165,126,423811144,28141627,56.28826141357422,608.2789916992188,72
166,144,423811144,28141627,62.071102142333984,35.92638397216797,30
167,192,423811144,28141627,61.86906814575195,72.7191162109375,67
168,223,423811144,28141627,68.25341796875,8.277369499206543,3
169,231,423811144,28141627,68.79447174072266,,1
170,363,423811144,28141627,68.54044342041016,145.3297882080078,10
171,167,423811144,28141627,16.575950622558594,67.74626922607422,75
172,367,423811144,28141627,69.01182556152344,15.885296821594238,10
173,34,423811144,28141627,43.88349914550781,353.9410095214844,48
174,110,423811144,28141627,57.09406661987305,166.26187133789062,55
175,129,423811144,28141627,51.91682434082031,232.8434600830078,114
176,359,423811144,28141627,19.94739532470703,73.9155044555664,26
177,75,423811144,28141627,63.84770202636719,27.860027313232422,14
178,114,423811144,28141627,60.60600662231445,51.64316177368164,57
179,179,423811144,28141627,56.88933563232422,68.90474700927734,88
180,287,423811144,28141627,56.11332321166992,68.03572845458984,41
181,319,423811144,28141627,67.83020782470703,16.208873748779297,37
182,239,423811144,28141627,30.630023956298828,306.1534423828125,78
183,338,423811144,28141627,64.2584228515625,54.92384719848633,46
184,399,423811144,28141627,62.32431411743164,36.3408088684082,71
185,477,423811144,28141627,63.06049346923828,30.59459114074707,67
186,165,423811144,28141627,17.991872787475586,178.5398712158203,55
187,237,423811144,28141627,63.50320053100586,46.31514358520508,69
188,312,423811144,28141627,67.24956512451172,40.133426666259766,19
189,55,423811144,28141627,18.148563385009766,435.9283447265625,39
190,351,423811144,28141627,54.38056945800781,111.25619506835938,48
191,405,423811144,28141627,61.740440368652344,44.01901626586914,88
192,135,423811144,28141627,60.01533508300781,35.05870056152344,74
193,241,423811144,28141627,33.557579040527344,375.939453125,125
194,317,423811144,28141627,67.45628356933594,16.682811737060547,23
195,428,423811144,28141627,61.28031539916992,38.283836364746094,53
196,334,423811144,28141627,63.932518005371094,34.87016296386719,44
197,107,423811144,28141627,23.457660675048828,416.62786865234375,51
198,108,423811144,28141627,54.79662322998047,464.9901123046875,59
199,124,423811144,28141627,57.08154296875,533.4476318359375,64
200,181,423811144,28141627,61.536773681640625,39.855892181396484,68
201,400,423811144,28141627,62.130592346191406,31.426240921020508,82
202,402,423811144,28141627,60.417388916015625,109.31475830078125,63
203,23,423811144,28141627,15.837138175964355,10.926919937133789,81
204,200,423811144,28141627,56.75959777832031,62.23994445800781,127
205,274,423811144,28141627,54.116615295410156,66.15373229980469,103
206,326,423811144,28141627,59.596221923828125,61.294254302978516,51
207,417,423811144,28141627,55.06422805786133,137.40069580078125,127
208,3,423811144,28141627,66.45051574707031,13.765405654907227,23
209,28,423811144,28141627,15.160674095153809,18.621952056884766,61
210,446,423811144,28141627,64.39628601074219,4.253598213195801,2
211,471,423811144,28141627,56.45824432373047,388.54962158203125,34
212,217,423811144,28141627,60.21232604980469,106.35891723632812,43
213,12,423811144,28141627,70.73094940185547,,1
214,341,423811144,28141627,62.11051940917969,36.49556350708008,51
215,476,423811144,28141627,60.54952621459961,60.49197006225586,59
216,342,423811144,28141627,61.615264892578125,44.180912017822266,52
217,80,423811144,28141627,70.97747802734375,,1
218,324,423811144,28141627,62.56829071044922,134.26307678222656,37
219,66,423811144,28141627,62.5029182434082,90.49584197998047,52
220,288,423811144,28141627,54.4412841796875,102.12884521484375,47
221,459,423811144,28141627,16.53294563293457,13.888686180114746,81
222,310,423811144,28141627,67.80364990234375,13.235984802246094,12
223,337,423811144,28141627,64.36415100097656,30.571849822998047,46
224,281,423811144,28141627,56.867454528808594,66.002197265625,61
225,335,423811144,28141627,63.51660919189453,54.92457580566406,48
226,91,423811144,28141627,19.793560028076172,489.943115234375,30
227,103,423811144,28141627,14.92120361328125,19.234025955200195,75
228,238,423811144,28141627,53.086524963378906,224.30941772460938,97
229,313,423811144,28141627,67.12733459472656,15.957891464233398,24
230,168,423811144,28141627,16.638484954833984,88.36476135253906,80
231,247,423811144,28141627,56.894775390625,68.38045501708984,110
232,361,423811144,28141627,18.07332420349121,60.783329010009766,15
233,199,423811144,28141627,60.22461700439453,40.64662170410156,112
234,311,423811144,28141627,66.97753143310547,8.2133207321167,19
235,441,423811144,28141627,61.92426681518555,,1
236,19,423811144,28141627,17.98952293395996,9.250677108764648,38
237,224,423811144,28141627,68.53221893310547,53.81925964355469,6
238,234,423811144,28141627,66.68587493896484,16.792442321777344,15
239,383,423811144,28141627,16.114015579223633,16.2310848236084,82
240,424,423811144,28141627,58.435237884521484,60.846431732177734,65
241,499,423811144,28141627,63.47521209716797,67.98223876953125,54
242,57,423811144,28141627,47.504154205322266,158.3016357421875,101
243,293,423811144,28141627,60.15279769897461,54.485809326171875,19
244,29,423811144,28141627,15.91211986541748,17.94399070739746,75
245,278,423811144,28141627,29.53008270263672,242.1813201904297,83
246,18,423811144,28141627,25.44211769104004,176.6656951904297,21
247,120,423811144,28141627,61.922950744628906,38.3828239440918,89
248,130,423811144,28141627,53.47615051269531,213.15370178222656,115
249,285,423811144,28141627,59.215362548828125,47.070762634277344,94
250,488,423811144,28141627,60.46540832519531,61.372039794921875,82
251,174,423811144,28141627,17.020416259765625,167.94017028808594,56
252,220,423811144,28141627,67.635498046875,25.212085723876953,26
253,483,423811144,28141627,63.354312896728516,53.62623596191406,57
254,358,423811144,28141627,49.14189529418945,228.58181762695312,38
255,121,423811144,28141627,57.9100456237793,59.55645751953125,96
256,328,423811144,28141627,68.08818054199219,36.124454498291016,28
257,472,423811144,28141627,55.26191329956055,359.75518798828125,53
258,152,423811144,28141627,69.51217651367188,25.70281982421875,7
259,259,423811144,28141627,63.941890716552734,37.0604248046875,75
260,301,423811144,28141627,64.5615234375,,1
261,302,423811144,28141627,67.62126159667969,12.663918495178223,4
262,443,423811144,28141627,64.55644989013672,39.96506118774414,2
263,67,423811144,28141627,63.72218322753906,46.97442626953125,58
264,299,423811144,28141627,70.16033935546875,10.598716735839844,6
265,90,423811144,28141627,49.310569763183594,241.8465118408203,27
266,265,423811144,28141627,62.35332489013672,49.14588165283203,90
267,348,423811144,28141627,48.929229736328125,65.79997253417969,71
268,457,423811144,28141627,14.559989929199219,16.98883628845215,58
269,467,423811144,28141627,16.68401527404785,84.91109466552734,44
270,503,423811144,28141627,61.716644287109375,54.30129623413086,30
271,221,423811144,28141627,66.45063018798828,103.82904052734375,7
272,421,423811144,28141627,62.96105194091797,41.82952880859375,74
273,27,423811144,28141627,15.120109558105469,22.042240142822266,89
274,64,423811144,28141627,60.65379333496094,53.546897888183594,51
275,77,423811144,28141627,64.91849517822266,15.464192390441895,7
276,189,423811144,28141627,60.817230224609375,55.065643310546875,62
277,105,423811144,28141627,16.84435272216797,372.7235107421875,60
278,145,423811144,28141627,62.268592834472656,30.98923110961914,48
279,373,423811144,28141627,42.10209274291992,,1
280,48,423811144,28141627,54.07844161987305,133.189697265625,69
281,229,423811144,28141627,37.31295394897461,,1
282,172,423811144,28141627,16.497121810913086,165.21368408203125,91
283,427,423811144,28141627,63.527549743652344,51.720096588134766,44
284,388,423811144,28141627,40.99317932128906,304.3476257324219,114
285,286,423811144,28141627,54.897804260253906,73.67131042480469,56
286,290,423811144,28141627,56.849159240722656,123.50457000732422,34
287,198,423811144,28141627,59.988712310791016,71.18473815917969,85
288,232,423811144,28141627,67.6154556274414,28.23950958251953,7
289,282,423811144,28141627,61.25285339355469,47.74821472167969,48
290,372,423811144,28141627,70.66597747802734,,1
291,370,423811144,28141627,56.274295806884766,,1
292,396,423811144,28141627,61.697784423828125,50.15225601196289,70
293,482,423811144,28141627,61.651309967041016,48.00033187866211,79
294,30,423811144,28141627,16.868366241455078,23.114450454711914,69
295,161,423811144,28141627,58.98070526123047,126.62120056152344,10
296,352,423811144,28141627,54.8376579284668,45.73616027832031,47
297,407,423811144,28141627,61.19470977783203,37.606964111328125,81
298,264,423811144,28141627,61.719482421875,42.40513610839844,88
299,411,423811144,28141627,63.10341262817383,35.95545196533203,73
300,491,423811144,28141627,62.2752571105957,34.463748931884766,71
301,26,423811144,28141627,15.730260848999023,13.712442398071289,86
302,84,423811144,28141627,66.4766616821289,5.9036407470703125,2
303,322,423811144,28141627,66.43367004394531,29.95693016052246,37
304,474,423811144,28141627,59.020267486572266,163.98089599609375,62
305,196,423811144,28141627,55.457672119140625,142.1120147705078,105
306,171,423811144,28141627,16.302549362182617,125.9671630859375,89
307,180,423811144,28141627,61.952606201171875,46.97305679321289,63
308,344,423811144,28141627,59.54777526855469,69.1061019897461,82
309,376,423811144,28141627,68.35600280761719,4.5613274574279785,3
310,431,423811144,28141627,64.52653503417969,29.23531723022461,35
311,494,423811144,28141627,61.03009796142578,32.326210021972656,45
312,6,423811144,28141627,69.30084991455078,14.592217445373535,5
313,43,423811144,28141627,59.3260498046875,56.29227066040039,97
314,149,423811144,28141627,66.88999938964844,8.232696533203125,13
315,263,423811144,28141627,63.00027847290039,33.630470275878906,72
316,297,423811144,28141627,65.48736572265625,15.427630424499512,4
317,460,423811144,28141627,14.313335418701172,16.211502075195312,81
318,49,423811144,28141627,56.6663818359375,223.60195922851562,90
319,62,423811144,28141627,57.73017883300781,70.4398422241211,90
320,414,423811144,28141627,61.81144714355469,41.512752532958984,53
321,254,423811144,28141627,58.57251739501953,70.24490356445312,75
322,394,423811144,28141627,58.43199920654297,55.84909439086914,83
323,410,423811144,28141627,63.14255905151367,38.01401138305664,85
324,478,423811144,28141627,61.4859619140625,46.33490753173828,98
325,82,423811144,28141627,66.77217864990234,,1
326,486,423811144,28141627,59.714324951171875,56.29052734375,81
327,136,423811144,28141627,60.55010223388672,35.66492462158203,66
328,327,423811144,28141627,67.06552124023438,44.08681106567383,36
329,88,423811144,28141627,65.67955017089844,20.2499942779541,6
330,173,423811144,28141627,15.096070289611816,233.09707641601562,92
331,305,423811144,28141627,66.22228240966797,3.965874671936035,4
332,500,423811144,28141627,60.53703308105469,72.26564025878906,48
333,47,423811144,28141627,55.28431701660156,376.5176696777344,71
334,325,423811144,28141627,58.11270523071289,48.76260757446289,27
335,95,423811144,28141627,16.54257583618164,12.175780296325684,91
336,461,423811144,28141627,14.664651870727539,19.541168212890625,66
337,289,423811144,28141627,54.70068359375,143.93344116210938,46
338,89,423811144,28141627,62.91284942626953,55.113739013671875,11
339,291,423811144,28141627,55.17607116699219,50.97383499145508,29
340,493,423811144,28141627,63.911502838134766,28.475875854492188,51
341,65,423811144,28141627,61.803932189941406,45.98225402832031,46
342,94,423811144,28141627,16.897836685180664,12.547086715698242,57
343,101,423811144,28141627,15.911981582641602,14.172859191894531,76
344,413,423811144,28141627,63.50605773925781,50.1910285949707,78
345,123,423811144,28141627,58.36691665649414,510.0526123046875,48
346,272,423811144,28141627,61.607852935791016,41.810943603515625,92
347,340,423811144,28141627,62.2620849609375,116.06199645996094,55
348,444,423811144,28141627,71.39823150634766,,1
349,140,423811144,28141627,58.35206604003906,57.43327713012695,65
350,492,423811144,28141627,61.5194091796875,32.59473419189453,71
351,203,423811144,28141627,61.1849365234375,88.83879089355469,96
352,244,423811144,28141627,53.58348083496094,297.2113342285156,125
353,403,423811144,28141627,64.97273254394531,28.49041175842285,48
354,97,423811144,28141627,15.791053771972656,18.642587661743164,74
355,362,423811144,28141627,19.991525650024414,59.1224250793457,12
356,379,423811144,28141627,18.697265625,26.66752052307129,42
357,495,423811144,28141627,60.27593231201172,65.91995239257812,30
358,190,423811144,28141627,59.03828048706055,74.97692108154297,73
359,412,423811144,28141627,61.45298385620117,48.424808502197266,59
360,10,423811144,28141627,66.27400207519531,,1
361,139,423811144,28141627,57.21471405029297,85.90946960449219,64
362,306,423811144,28141627,65.35144805908203,7.5326032638549805,7
363,8,423811144,28141627,67.95474243164062,,1
364,46,423811144,28141627,58.27664566040039,137.09225463867188,89
365,451,423811144,28141627,19.00313949584961,18.115617752075195,52
366,160,423811144,28141627,69.38162231445312,24.20084571838379,8
367,314,423811144,28141627,67.07667541503906,15.881885528564453,31
368,435,423811144,28141627,69.86013793945312,27.726606369018555,13
369,445,423811144,28141627,66.97295379638672,,1
370,456,423811144,28141627,16.772232055664062,14.701898574829102,73
371,175,423811144,28141627,17.699058532714844,272.7555236816406,73
372,409,423811144,28141627,61.8598747253418,43.353641510009766,77
373,70,423811144,28141627,63.57708740234375,33.01689910888672,31
374,185,423811144,28141627,60.86274337768555,50.38523483276367,71
375,201,423811144,28141627,49.4882698059082,299.76885986328125,167
376,257,423811144,28141627,57.48054504394531,62.85056686401367,100
377,99,423811144,28141627,14.804460525512695,17.497711181640625,83
378,393,423811144,28141627,59.74164962768555,40.93806076049805,94
379,501,423811144,28141627,59.780677795410156,60.138763427734375,28
380,211,423811144,28141627,58.50482940673828,112.6364517211914,93
381,303,423811144,28141627,65.5162124633789,,1
382,154,423811144,28141627,71.57535552978516,2.5903332233428955,2
383,204,423811144,28141627,60.467769622802734,44.366127014160156,105
384,321,423811144,28141627,61.05999755859375,38.40928649902344,31
385,452,423811144,28141627,18.209266662597656,14.973307609558105,41
386,0,423811144,28141627,66.12357330322266,51.61481857299805,22
387,73,423811144,28141627,63.072044372558594,56.9771728515625,41
388,397,423811144,28141627,60.97227478027344,36.0296745300293,65
389,209,423811144,28141627,58.35870361328125,67.8244857788086,110
390,377,423811144,28141627,58.553382873535156,27.33587646484375,10
391,432,423811144,28141627,65.56294250488281,21.379209518432617,28
392,163,423811144,28141627,18.467269897460938,131.47613525390625,42
393,267,423811144,28141627,63.827247619628906,34.56887435913086,78
394,24,423811144,28141627,15.861593246459961,19.00189971923828,81
395,42,423811144,28141627,57.670230865478516,54.49951934814453,100
396,162,423811144,28141627,37.09772491455078,306.68646240234375,28
397,177,423811144,28141627,54.84013366699219,391.5433044433594,78
398,261,423811144,28141627,63.535865783691406,49.05946350097656,65
399,100,423811144,28141627,16.087627410888672,13.447340965270996,99
400,468,423811144,28141627,17.457456588745117,332.5223693847656,55
401,205,423811144,28141627,59.001808166503906,46.94584655761719,80
402,392,423811144,28141627,55.589759826660156,57.36784362792969,111
403,418,423811144,28141627,62.065303802490234,96.7403335571289,90
404,490,423811144,28141627,56.29895782470703,242.20028686523438,129
405,16,423811144,28141627,66.22177124023438,10.187271118164062,3
406,469,423811144,28141627,29.13198471069336,301.1164855957031,42
407,182,423811144,28141627,59.985660552978516,79.06770324707031,87
408,187,423811144,28141627,57.428585052490234,51.67390823364258,92
409,212,423811144,28141627,59.79081344604492,39.38632583618164,75
410,256,423811144,28141627,61.27726364135742,43.05636978149414,78
411,343,423811144,28141627,62.56748962402344,35.9905891418457,52
412,1,423811144,28141627,64.44294738769531,33.47184371948242,26
413,455,423811144,28141627,16.9078369140625,20.35640525817871,114
414,193,423811144,28141627,58.438106536865234,100.693359375,106
415,225,423811144,28141627,68.52528381347656,1.8903533220291138,3
416,71,423811144,28141627,63.54714584350586,21.790224075317383,43
417,470,423811144,28141627,57.349342346191406,389.0229797363281,42
418,21,423811144,28141627,16.3433837890625,24.119918823242188,47
419,36,423811144,28141627,41.215301513671875,188.96624755859375,41
420,210,423811144,28141627,61.98664855957031,68.73131561279297,54
421,214,423811144,28141627,59.339561462402344,90.00919342041016,56
422,215,423811144,28141627,61.642005920410156,61.90596008300781,64
423,245,423811144,28141627,53.10127258300781,91.75531768798828,138
424,266,423811144,28141627,64.27334594726562,30.802291870117188,78
425,354,423811144,28141627,58.23899841308594,58.11285400390625,60
426,360,423811144,28141627,15.36336612701416,53.82200241088867,13
427,5,423811144,28141627,70.4747085571289,2.722860097885132,5
428,52,423811144,28141627,29.867835998535156,266.3184509277344,58
429,141,423811144,28141627,62.00853729248047,50.090755462646484,52
430,308,423811144,28141627,67.67626953125,12.329666137695312,8
431,395,423811144,28141627,60.39274597167969,33.154964447021484,70
432,45,423811144,28141627,57.28651428222656,76.31874084472656,76
433,380,423811144,28141627,18.363109588623047,18.627199172973633,42
434,496,423811144,28141627,60.8986701965332,39.025733947753906,45
435,92,423811144,28141627,24.523666381835938,498.0558166503906,47
436,300,423811144,28141627,65.74446868896484,32.37858581542969,2
437,131,423811144,28141627,60.05348587036133,89.56953430175781,69
438,329,423811144,28141627,66.70499420166016,76.49250030517578,45
439,415,423811144,28141627,63.27424240112305,34.11056900024414,68
440,487,423811144,28141627,58.25383758544922,64.47798156738281,86
441,374,423811144,28141627,70.46359252929688,1.6775962114334106,2
442,422,423811144,28141627,61.308509826660156,47.90339660644531,66
443,280,423811144,28141627,54.4102783203125,160.39376831054688,89
444,166,423811144,28141627,16.338151931762695,192.50474548339844,70
445,332,423811144,28141627,64.33804321289062,31.90231704711914,49
446,116,423811144,28141627,56.19998550415039,61.04384994506836,78
447,255,423811144,28141627,59.619667053222656,41.528926849365234,91
448,349,423811144,28141627,50.214324951171875,73.50006103515625,61
449,425,423811144,28141627,62.157745361328125,39.59129333496094,57
450,195,423811144,28141627,55.96905517578125,293.29296875,107
451,32,423811144,28141627,16.519371032714844,23.223957061767578,74
452,191,423811144,28141627,55.232200622558594,216.86204528808594,85
453,85,423811144,28141627,71.94573974609375,,1
454,125,423811144,28141627,56.756710052490234,459.8816223144531,66
455,270,423811144,28141627,61.81395721435547,99.97455596923828,82
456,31,423811144,28141627,16.411645889282227,18.384313583374023,81
457,188,423811144,28141627,62.65713119506836,38.783119201660156,82
458,381,423811144,28141627,16.40635871887207,19.862459182739258,37
459,475,423811144,28141627,58.90317153930664,170.36595153808594,63
460,246,423811144,28141627,56.30352020263672,84.7038345336914,110
461,307,423811144,28141627,68.32919311523438,6.6090617179870605,6
462,436,423811144,28141627,66.29031372070312,21.163326263427734,9
463,79,423811144,28141627,62.94516372680664,4.672295570373535,2
464,406,423811144,28141627,60.96554183959961,46.69641876220703,85
465,271,423811144,28141627,58.69485092163086,82.17522430419922,103
466,408,423811144,28141627,60.37535095214844,63.85502624511719,87
467,134,423811144,28141627,58.72457504272461,49.27881622314453,73
468,148,423811144,28141627,62.223533630371094,105.60541534423828,28
469,262,423811144,28141627,64.32170104980469,83.13581085205078,83
470,69,423811144,28141627,61.34857940673828,111.65018463134766,54
471,197,423811144,28141627,53.1832275390625,205.7881622314453,90
472,366,423811144,28141627,63.89219665527344,72.38928985595703,6
473,384,423811144,28141627,15.749754905700684,20.830320358276367,73
474,109,423811144,28141627,46.32530212402344,349.4084167480469,57
475,117,423811144,28141627,60.70451736450195,139.8916778564453,70
476,390,423811144,28141627,60.466636657714844,56.122772216796875,94
477,434,423811144,28141627,63.42747497558594,20.32402801513672,20
478,2,423811144,28141627,66.72062683105469,18.163789749145508,17
479,61,423811144,28141627,59.79212188720703,38.41111755371094,74
480,119,423811144,28141627,60.12733459472656,70.93623352050781,87
481,56,423811144,28141627,48.80382537841797,203.68966674804688,72
482,60,423811144,28141627,60.86471939086914,40.066436767578125,73
483,235,423811144,28141627,65.51944732666016,17.297231674194336,47
484,249,423811144,28141627,53.58369827270508,203.66978454589844,122
485,419,423811144,28141627,64.0686264038086,40.93413162231445,77
486,41,423811144,28141627,59.52193069458008,41.24773406982422,103
487,127,423811144,28141627,54.55815887451172,474.4125061035156,73
488,15,423811144,28141627,69.28992462158203,,1
489,350,423811144,28141627,56.102638244628906,72.65518951416016,53
490,133,423811144,28141627,59.78824234008789,49.73605728149414,73
491,44,423811144,28141627,56.99529266357422,182.92449951171875,110
492,113,423811144,28141627,62.330902099609375,36.34363555908203,72
493,277,423811144,28141627,43.26769256591797,254.02610778808594,92
494,316,423811144,28141627,68.6854019165039,20.453598022460938,40
