,slot,source,target,speed
0,0,4736153268,4736153269,62.73041534423828
1,1,4736153268,4736153269,63.22285079956055
2,2,4736153268,4736153269,63.319393157958984
3,3,4736153268,4736153269,63.14457321166992
4,4,4736153268,4736153269,66.7904281616211
5,5,4736153268,4736153269,68.30498504638672
6,6,4736153268,4736153269,68.63382720947266
7,7,4736153268,4736153269,65.29668426513672
8,8,4736153268,4736153269,60.59067916870117
9,9,4736153268,4736153269,62.586631774902344
10,10,4736153268,4736153269,67.71199035644531
11,11,4736153268,4736153269,67.93036651611328
12,12,4736153268,4736153269,68.0266342163086
13,13,4736153268,4736153269,67.7723388671875
14,14,4736153268,4736153269,67.09049224853516
15,15,4736153268,4736153269,63.049564361572266
16,16,4736153268,4736153269,60.930686950683594
17,17,4736153268,4736153269,54.607398986816406
18,18,4736153268,4736153269,45.58908462524414
19,19,4736153268,4736153269,46.878761291503906
20,20,4736153268,4736153269,46.531761169433594
21,21,4736153268,4736153269,38.5006103515625
22,22,4736153268,4736153269,33.867958068847656
23,23,4736153268,4736153269,30.22201919555664
24,24,4736153268,4736153269,28.868091583251953
25,25,4736153268,4736153269,28.908252716064453
26,26,4736153268,4736153269,29.732444763183594
27,27,4736153268,4736153269,26.572925567626953
28,28,4736153268,4736153269,24.66437530517578
29,29,4736153268,4736153269,25.22859764099121
30,30,4736153268,4736153269,26.388402938842773
31,31,4736153268,4736153269,26.546586990356445
32,32,4736153268,4736153269,27.942935943603516
33,33,4736153268,4736153269,28.270339965820312
34,34,4736153268,4736153269,28.883447647094727
35,35,4736153268,4736153269,28.467580795288086
36,36,4736153268,4736153269,26.457189559936523
37,37,4736153268,4736153269,33.75074005126953
38,38,4736153268,4736153269,44.30112838745117
39,39,4736153268,4736153269,39.53450393676758
40,40,4736153268,4736153269,36.61405944824219
41,41,4736153268,4736153269,50.304447174072266
42,42,4736153268,4736153269,54.603450775146484
43,43,4736153268,4736153269,55.209495544433594
44,44,4736153268,4736153269,53.41109848022461
45,45,4736153268,4736153269,49.68781661987305
46,46,4736153268,4736153269,42.78058624267578
47,47,4736153268,4736153269,32.92012405395508
48,48,4736153268,4736153269,33.31315612792969
49,49,4736153268,4736153269,35.18915939331055
50,50,4736153268,4736153269,34.339149475097656
51,51,4736153268,4736153269,32.676002502441406
52,52,4736153268,4736153269,27.585731506347656
53,53,4736153268,4736153269,24.79099464416504
54,54,4736153268,4736153269,28.992021560668945
55,55,4736153268,4736153269,37.22467803955078
56,56,4736153268,4736153269,37.96857452392578
57,57,4736153268,4736153269,40.53666687011719
58,58,4736153268,4736153269,44.90771484375
59,59,4736153268,4736153269,50.202239990234375
60,60,4736153268,4736153269,57.14171600341797
61,61,4736153268,4736153269,57.09601593017578
62,62,4736153268,4736153269,55.96787643432617
63,63,4736153268,4736153269,56.515560150146484
64,64,4736153268,4736153269,56.72077560424805
65,65,4736153268,4736153269,59.044273376464844
66,66,4736153268,4736153269,59.586795806884766
67,67,4736153268,4736153269,62.12261199951172
68,68,4736153268,4736153269,61.10685729980469
69,69,4736153268,4736153269,59.43095397949219
70,70,4736153268,4736153269,61.9233512878418
71,71,4736153268,4736153269,61.267581939697266
72,72,4736153268,4736153269,61.804779052734375
73,73,4736153268,4736153269,61.98860168457031
74,74,4736153268,4736153269,63.29673385620117
75,75,4736153268,4736153269,65.53599548339844
76,76,4736153268,4736153269,65.69152069091797
77,77,4736153268,4736153269,66.39177703857422
78,78,4736153268,4736153269,65.46307373046875
79,79,4736153268,4736153269,60.87529754638672
80,80,4736153268,4736153269,65.8913803100586
81,81,4736153268,4736153269,57.879112243652344
82,82,4736153268,4736153269,47.16153335571289
83,83,4736153268,4736153269,65.0976791381836
84,84,4736153268,4736153269,66.5980224609375
85,85,4736153268,4736153269,67.94602966308594
86,86,4736153268,4736153269,71.68529510498047
87,87,4736153268,4736153269,67.70404052734375
88,88,4736153268,4736153269,64.3880844116211
89,89,4736153268,4736153269,57.27656555175781
90,90,4736153268,4736153269,47.78458786010742
91,91,4736153268,4736153269,50.961368560791016
92,92,4736153268,4736153269,49.322715759277344
93,93,4736153268,4736153269,43.86454391479492
94,94,4736153268,4736153269,37.860416412353516
95,95,4736153268,4736153269,33.207576751708984
96,96,4736153268,4736153269,31.39206886291504
97,97,4736153268,4736153269,28.76657485961914
98,98,4736153268,4736153269,28.18526268005371
99,99,4736153268,4736153269,27.362571716308594
100,100,4736153268,4736153269,26.34751319885254
101,101,4736153268,4736153269,26.1573543548584
102,102,4736153268,4736153269,25.28224754333496
103,103,4736153268,4736153269,25.334949493408203
104,104,4736153268,4736153269,30.438697814941406
105,105,4736153268,4736153269,36.23750305175781
106,106,4736153268,4736153269,36.58974838256836
107,107,4736153268,4736153269,35.59238052368164
108,108,4736153268,4736153269,43.73102569580078
109,109,4736153268,4736153269,44.979339599609375
110,110,4736153268,4736153269,43.076839447021484
111,111,4736153268,4736153269,48.369140625
112,112,4736153268,4736153269,51.167015075683594
113,113,4736153268,4736153269,56.543636322021484
114,114,4736153268,4736153269,54.982730865478516
115,115,4736153268,4736153269,51.284629821777344
116,116,4736153268,4736153269,50.42723846435547
117,117,4736153268,4736153269,53.3841552734375
118,118,4736153268,4736153269,58.930728912353516
119,119,4736153268,4736153269,56.97152328491211
120,120,4736153268,4736153269,52.352195739746094
121,121,4736153268,4736153269,46.320430755615234
122,122,4736153268,4736153269,43.7180290222168
123,123,4736153268,4736153269,46.763206481933594
124,124,4736153268,4736153269,47.91682815551758
125,125,4736153268,4736153269,47.91668701171875
126,126,4736153268,4736153269,46.13405990600586
127,127,4736153268,4736153269,49.10838317871094
128,128,4736153268,4736153269,51.01359939575195
129,129,4736153268,4736153269,50.91059494018555
130,130,4736153268,4736153269,51.735626220703125
131,131,4736153268,4736153269,56.43711853027344
132,132,4736153268,4736153269,56.43394470214844
133,133,4736153268,4736153269,56.709983825683594
134,134,4736153268,4736153269,58.19234085083008
135,135,4736153268,4736153269,57.05588150024414
136,136,4736153268,4736153269,57.21038055419922
137,137,4736153268,4736153269,58.103981018066406
138,138,4736153268,4736153269,59.1844482421875
139,139,4736153268,4736153269,57.82736587524414
140,140,4736153268,4736153269,57.914764404296875
141,141,4736153268,4736153269,57.98394775390625
142,142,4736153268,4736153269,59.10435104370117
143,143,4736153268,4736153269,59.587249755859375
144,144,4736153268,4736153269,58.43026351928711
145,145,4736153268,4736153269,57.17094802856445
146,146,4736153268,4736153269,60.245452880859375
147,147,4736153268,4736153269,62.2648811340332
148,148,4736153268,4736153269,64.0663833618164
149,149,4736153268,4736153269,64.75663757324219
150,150,4736153268,4736153269,68.28772735595703
151,151,4736153268,4736153269,68.70777893066406
152,152,4736153268,4736153269,67.25605773925781
153,153,4736153268,4736153269,66.00868225097656
154,154,4736153268,4736153269,63.1994514465332
155,155,4736153268,4736153269,63.36775207519531
156,156,4736153268,4736153269,65.4576187133789
157,157,4736153268,4736153269,67.53939056396484
158,158,4736153268,4736153269,69.7474594116211
159,159,4736153268,4736153269,68.90096282958984
160,160,4736153268,4736153269,66.15743255615234
161,161,4736153268,4736153269,56.7603645324707
162,162,4736153268,4736153269,46.0284423828125
163,163,4736153268,4736153269,45.942893981933594
164,164,4736153268,4736153269,44.50553894042969
165,165,4736153268,4736153269,40.22896194458008
166,166,4736153268,4736153269,31.544206619262695
167,167,4736153268,4736153269,29.54604148864746
168,168,4736153268,4736153269,29.218996047973633
169,169,4736153268,4736153269,29.201982498168945
170,170,4736153268,4736153269,27.630779266357422
171,171,4736153268,4736153269,26.15897560119629
172,172,4736153268,4736153269,26.185327529907227
173,173,4736153268,4736153269,25.520998001098633
174,174,4736153268,4736153269,28.025964736938477
175,175,4736153268,4736153269,27.697755813598633
176,176,4736153268,4736153269,28.679590225219727
177,177,4736153268,4736153269,35.45741271972656
178,178,4736153268,4736153269,46.93708038330078
179,179,4736153268,4736153269,48.029327392578125
180,180,4736153268,4736153269,55.784610748291016
181,181,4736153268,4736153269,57.30305862426758
182,182,4736153268,4736153269,58.88051986694336
183,183,4736153268,4736153269,59.37541580200195
184,184,4736153268,4736153269,59.746620178222656
185,185,4736153268,4736153269,58.48332595825195
186,186,4736153268,4736153269,54.58628463745117
187,187,4736153268,4736153269,45.730133056640625
188,188,4736153268,4736153269,51.31901931762695
189,189,4736153268,4736153269,55.04070281982422
190,190,4736153268,4736153269,53.9608268737793
191,191,4736153268,4736153269,48.66714859008789
192,192,4736153268,4736153269,44.31197738647461
193,193,4736153268,4736153269,48.32296371459961
194,194,4736153268,4736153269,43.58820343017578
195,195,4736153268,4736153269,43.663246154785156
196,196,4736153268,4736153269,41.22920608520508
197,197,4736153268,4736153269,38.089786529541016
198,198,4736153268,4736153269,49.78298568725586
199,199,4736153268,4736153269,53.943294525146484
200,200,4736153268,4736153269,54.344970703125
201,201,4736153268,4736153269,51.87416076660156
202,202,4736153268,4736153269,50.825862884521484
203,203,4736153268,4736153269,55.922115325927734
204,204,4736153268,4736153269,58.16151428222656
205,205,4736153268,4736153269,56.9639778137207
206,206,4736153268,4736153269,55.66970443725586
207,207,4736153268,4736153269,58.373985290527344
208,208,4736153268,4736153269,57.066436767578125
209,209,4736153268,4736153269,56.462318420410156
210,210,4736153268,4736153269,58.35264205932617
211,211,4736153268,4736153269,58.18246078491211
212,212,4736153268,4736153269,57.818729400634766
213,213,4736153268,4736153269,56.384117126464844
214,214,4736153268,4736153269,57.058509826660156
215,215,4736153268,4736153269,57.7320671081543
216,216,4736153268,4736153269,55.39570999145508
217,217,4736153268,4736153269,59.48583984375
218,218,4736153268,4736153269,64.40082550048828
219,219,4736153268,4736153269,64.3819351196289
220,220,4736153268,4736153269,63.48970413208008
221,221,4736153268,4736153269,65.60612487792969
222,222,4736153268,4736153269,67.4804916381836
223,223,4736153268,4736153269,67.5604476928711
224,224,4736153268,4736153269,68.83623504638672
225,225,4736153268,4736153269,67.1903305053711
226,226,4736153268,4736153269,65.20172882080078
227,227,4736153268,4736153269,61.71177673339844
228,228,4736153268,4736153269,59.4615364074707
229,229,4736153268,4736153269,58.76195526123047
230,230,4736153268,4736153269,66.23511505126953
231,231,4736153268,4736153269,69.45121002197266
232,232,4736153268,4736153269,69.02899932861328
233,233,4736153268,4736153269,67.27945709228516
234,234,4736153268,4736153269,67.0264663696289
235,235,4736153268,4736153269,66.47834777832031
236,236,4736153268,4736153269,63.99974822998047
237,237,4736153268,4736153269,61.35003662109375
238,238,4736153268,4736153269,56.1218376159668
239,239,4736153268,4736153269,49.786163330078125
240,240,4736153268,4736153269,50.197879791259766
241,241,4736153268,4736153269,50.194881439208984
242,242,4736153268,4736153269,51.11003112792969
243,243,4736153268,4736153269,55.51300811767578
244,244,4736153268,4736153269,54.163185119628906
245,245,4736153268,4736153269,51.64955139160156
246,246,4736153268,4736153269,51.67863845825195
247,247,4736153268,4736153269,54.901390075683594
248,248,4736153268,4736153269,57.230918884277344
249,249,4736153268,4736153269,57.176361083984375
250,250,4736153268,4736153269,57.622642517089844
251,251,4736153268,4736153269,60.90419387817383
252,252,4736153268,4736153269,57.56809997558594
253,253,4736153268,4736153269,54.20549011230469
254,254,4736153268,4736153269,55.00531005859375
255,255,4736153268,4736153269,54.33221435546875
256,256,4736153268,4736153269,57.90509033203125
257,257,4736153268,4736153269,58.365509033203125
258,258,4736153268,4736153269,61.28818130493164
259,259,4736153268,4736153269,63.07228088378906
260,260,4736153268,4736153269,63.47650909423828
261,261,4736153268,4736153269,63.91490936279297
262,262,4736153268,4736153269,64.24751281738281
263,263,4736153268,4736153269,63.23344039916992
264,264,4736153268,4736153269,62.100914001464844
265,265,4736153268,4736153269,62.13433837890625
266,266,4736153268,4736153269,62.2640495300293
267,267,4736153268,4736153269,62.90626525878906
268,268,4736153268,4736153269,62.15679168701172
269,269,4736153268,4736153269,61.103519439697266
270,270,4736153268,4736153269,60.21556091308594
271,271,4736153268,4736153269,59.645774841308594
272,272,4736153268,4736153269,59.57836151123047
273,273,4736153268,4736153269,57.46794891357422
274,274,4736153268,4736153269,54.362403869628906
275,275,4736153268,4736153269,53.96515655517578
276,276,4736153268,4736153269,49.352516174316406
277,277,4736153268,4736153269,42.894100189208984
278,278,4736153268,4736153269,40.96512222290039
279,279,4736153268,4736153269,42.47467041015625
280,280,4736153268,4736153269,52.560001373291016
281,281,4736153268,4736153269,54.82062530517578
282,282,4736153268,4736153269,56.59683609008789
283,283,4736153268,4736153269,59.926658630371094
284,284,4736153268,4736153269,58.50718307495117
285,285,4736153268,4736153269,56.891143798828125
286,286,4736153268,4736153269,54.711551666259766
287,287,4736153268,4736153269,55.148895263671875
288,288,4736153268,4736153269,53.23807907104492
289,289,4736153268,4736153269,52.59175491333008
290,290,4736153268,4736153269,52.32756423950195
291,291,4736153268,4736153269,53.66273880004883
292,292,4736153268,4736153269,54.513771057128906
293,293,4736153268,4736153269,61.72609329223633
294,294,4736153268,4736153269,64.95592498779297
295,295,4736153268,4736153269,66.09199523925781
296,296,4736153268,4736153269,65.78964233398438
297,297,4736153268,4736153269,65.05469512939453
298,298,4736153268,4736153269,66.8734130859375
299,299,4736153268,4736153269,65.35922241210938
300,300,4736153268,4736153269,61.77984619140625
301,301,4736153268,4736153269,67.39561462402344
302,302,4736153268,4736153269,66.7033462524414
303,303,4736153268,4736153269,61.613677978515625
304,304,4736153268,4736153269,65.47218322753906
305,305,4736153268,4736153269,64.63954162597656
306,306,4736153268,4736153269,63.74687194824219
307,307,4736153268,4736153269,63.87137222290039
308,308,4736153268,4736153269,59.30729293823242
309,309,4736153268,4736153269,62.935935974121094
310,310,4736153268,4736153269,66.14244079589844
311,311,4736153268,4736153269,67.85107421875
312,312,4736153268,4736153269,68.52605438232422
313,313,4736153268,4736153269,67.65898895263672
314,314,4736153268,4736153269,66.95677185058594
315,315,4736153268,4736153269,66.06645202636719
316,316,4736153268,4736153269,68.16102600097656
317,317,4736153268,4736153269,67.32255554199219
318,318,4736153268,4736153269,65.19239807128906
319,319,4736153268,4736153269,64.11456298828125
320,320,4736153268,4736153269,63.19735336303711
321,321,4736153268,4736153269,64.37934112548828
322,322,4736153268,4736153269,65.84651947021484
323,323,4736153268,4736153269,65.77133178710938
324,324,4736153268,4736153269,62.415794372558594
325,325,4736153268,4736153269,59.29127883911133
326,326,4736153268,4736153269,59.07963943481445
327,327,4736153268,4736153269,61.163848876953125
328,328,4736153268,4736153269,62.394683837890625
329,329,4736153268,4736153269,62.17060089111328
330,330,4736153268,4736153269,62.1629753112793
331,331,4736153268,4736153269,59.48408889770508
332,332,4736153268,4736153269,61.42725372314453
333,333,4736153268,4736153269,63.37384796142578
334,334,4736153268,4736153269,62.86958312988281
335,335,4736153268,4736153269,63.95180892944336
336,336,4736153268,4736153269,64.96733093261719
337,337,4736153268,4736153269,63.50950241088867
338,338,4736153268,4736153269,62.35169219970703
339,339,4736153268,4736153269,62.798892974853516
340,340,4736153268,4736153269,60.813907623291016
341,341,4736153268,4736153269,61.148746490478516
342,342,4736153268,4736153269,61.18735122680664
343,343,4736153268,4736153269,61.10004425048828
344,344,4736153268,4736153269,59.185604095458984
345,345,4736153268,4736153269,56.83671951293945
346,346,4736153268,4736153269,54.18901062011719
347,347,4736153268,4736153269,51.78912353515625
348,348,4736153268,4736153269,52.130226135253906
349,349,4736153268,4736153269,50.461402893066406
350,350,4736153268,4736153269,52.10441589355469
351,351,4736153268,4736153269,52.97406005859375
352,352,4736153268,4736153269,53.917293548583984
353,353,4736153268,4736153269,51.51035690307617
354,354,4736153268,4736153269,52.591026306152344
355,355,4736153268,4736153269,53.16444778442383
356,356,4736153268,4736153269,52.96284484863281
357,357,4736153268,4736153269,49.26247024536133
358,358,4736153268,4736153269,44.23120880126953
359,359,4736153268,4736153269,38.12919616699219
360,360,4736153268,4736153269,36.23749923706055
361,361,4736153268,4736153269,37.442283630371094
362,362,4736153268,4736153269,45.21442413330078
363,363,4736153268,4736153269,57.95189666748047
364,364,4736153268,4736153269,61.2070198059082
365,365,4736153268,4736153269,63.35044479370117
366,366,4736153268,4736153269,66.12149810791016
367,367,4736153268,4736153269,66.93893432617188
368,368,4736153268,4736153269,60.324703216552734
369,369,4736153268,4736153269,61.754825592041016
370,370,4736153268,4736153269,67.2750244140625
371,371,4736153268,4736153269,69.79407501220703
372,372,4736153268,4736153269,69.3482894897461
373,373,4736153268,4736153269,66.70429992675781
374,374,4736153268,4736153269,62.495567321777344
375,375,4736153268,4736153269,60.0573616027832
376,376,4736153268,4736153269,61.20114517211914
377,377,4736153268,4736153269,53.05968475341797
378,378,4736153268,4736153269,50.42487716674805
379,379,4736153268,4736153269,46.45732116699219
380,380,4736153268,4736153269,40.42306900024414
381,381,4736153268,4736153269,35.42542266845703
382,382,4736153268,4736153269,30.909624099731445
383,383,4736153268,4736153269,30.150253295898438
384,384,4736153268,4736153269,30.966894149780273
385,385,4736153268,4736153269,29.30837059020996
386,386,4736153268,4736153269,28.003881454467773
387,387,4736153268,4736153269,29.161916732788086
388,388,4736153268,4736153269,40.40138626098633
389,389,4736153268,4736153269,48.372310638427734
390,390,4736153268,4736153269,56.11737060546875
391,391,4736153268,4736153269,57.494224548339844
392,392,4736153268,4736153269,54.83207702636719
393,393,4736153268,4736153269,58.56068420410156
394,394,4736153268,4736153269,60.155616760253906
395,395,4736153268,4736153269,60.543758392333984
396,396,4736153268,4736153269,60.42644119262695
397,397,4736153268,4736153269,59.87664794921875
398,398,4736153268,4736153269,59.78140640258789
399,399,4736153268,4736153269,61.41703414916992
400,400,4736153268,4736153269,62.38246536254883
401,401,4736153268,4736153269,60.72822189331055
402,402,4736153268,4736153269,60.19481658935547
403,403,4736153268,4736153269,60.628116607666016
404,404,4736153268,4736153269,61.21088409423828
405,405,4736153268,4736153269,61.801544189453125
406,406,4736153268,4736153269,60.3388671875
407,407,4736153268,4736153269,58.9061393737793
408,408,4736153268,4736153269,59.220680236816406
409,409,4736153268,4736153269,54.16350555419922
410,410,4736153268,4736153269,51.68769073486328
411,411,4736153268,4736153269,56.54861831665039
412,412,4736153268,4736153269,52.28434753417969
413,413,4736153268,4736153269,46.28736114501953
414,414,4736153268,4736153269,55.881893157958984
415,415,4736153268,4736153269,59.873619079589844
416,416,4736153268,4736153269,58.96662139892578
417,417,4736153268,4736153269,55.579986572265625
418,418,4736153268,4736153269,59.30549621582031
419,419,4736153268,4736153269,62.02960205078125
420,420,4736153268,4736153269,60.75484848022461
421,421,4736153268,4736153269,59.243309020996094
422,422,4736153268,4736153269,59.66865539550781
423,423,4736153268,4736153269,58.25062561035156
424,424,4736153268,4736153269,57.09812545776367
425,425,4736153268,4736153269,59.4511833190918
426,426,4736153268,4736153269,60.38804244995117
427,427,4736153268,4736153269,60.87939453125
428,428,4736153268,4736153269,59.25788879394531
429,429,4736153268,4736153269,59.55978012084961
430,430,4736153268,4736153269,61.06782531738281
431,431,4736153268,4736153269,63.367279052734375
432,432,4736153268,4736153269,64.08535766601562
433,433,4736153268,4736153269,64.98129272460938
434,434,4736153268,4736153269,64.8826675415039
435,435,4736153268,4736153269,66.00108337402344
436,436,4736153268,4736153269,65.38473510742188
437,437,4736153268,4736153269,66.80406951904297
438,438,4736153268,4736153269,69.22905731201172
439,439,4736153268,4736153269,59.68511199951172
440,440,4736153268,4736153269,65.8272705078125
441,441,4736153268,4736153269,62.6988410949707
442,442,4736153268,4736153269,55.383750915527344
443,443,4736153268,4736153269,62.8033561706543
444,444,4736153268,4736153269,63.94237518310547
445,445,4736153268,4736153269,63.461769104003906
446,446,4736153268,4736153269,64.12998962402344
447,447,4736153268,4736153269,65.8918685913086
448,448,4736153268,4736153269,64.4328842163086
449,449,4736153268,4736153269,55.11152648925781
450,450,4736153268,4736153269,48.74162292480469
451,451,4736153268,4736153269,46.27197265625
452,452,4736153268,4736153269,44.72236251831055
453,453,4736153268,4736153269,42.9295539855957
454,454,4736153268,4736153269,39.90332794189453
455,455,4736153268,4736153269,33.05381774902344
456,456,4736153268,4736153269,29.54566764831543
457,457,4736153268,4736153269,28.352535247802734
458,458,4736153268,4736153269,27.78035545349121
459,459,4736153268,4736153269,27.64499282836914
460,460,4736153268,4736153269,25.248559951782227
461,461,4736153268,4736153269,23.907026290893555
462,462,4736153268,4736153269,23.60601806640625
463,463,4736153268,4736153269,24.838973999023438
464,464,4736153268,4736153269,24.803298950195312
465,465,4736153268,4736153269,25.82238006591797
466,466,4736153268,4736153269,27.631519317626953
467,467,4736153268,4736153269,29.18976593017578
468,468,4736153268,4736153269,34.637420654296875
469,469,4736153268,4736153269,32.66925811767578
470,470,4736153268,4736153269,38.305023193359375
471,471,4736153268,4736153269,47.32464599609375
472,472,4736153268,4736153269,46.70001220703125
473,473,4736153268,4736153269,46.27074432373047
474,474,4736153268,4736153269,45.670814514160156
475,475,4736153268,4736153269,41.40467834472656
476,476,4736153268,4736153269,51.965999603271484
477,477,4736153268,4736153269,59.23814010620117
478,478,4736153268,4736153269,59.457298278808594
479,479,4736153268,4736153269,53.97468185424805
480,480,4736153268,4736153269,53.648345947265625
481,481,4736153268,4736153269,52.864070892333984
482,482,4736153268,4736153269,49.01344299316406
483,483,4736153268,4736153269,48.82707214355469
484,484,4736153268,4736153269,41.23698425292969
485,485,4736153268,4736153269,39.11993408203125
486,486,4736153268,4736153269,35.9030647277832
487,487,4736153268,4736153269,39.83941650390625
488,488,4736153268,4736153269,51.367313385009766
489,489,4736153268,4736153269,53.16315460205078
490,490,4736153268,4736153269,54.55387496948242
491,491,4736153268,4736153269,59.46066665649414
492,492,4736153268,4736153269,59.40008544921875
493,493,4736153268,4736153269,59.17387008666992
494,494,4736153268,4736153269,57.02092742919922
495,495,4736153268,4736153269,58.403743743896484
496,496,4736153268,4736153269,60.00615310668945
497,497,4736153268,4736153269,59.234249114990234
498,498,4736153268,4736153269,58.49233627319336
499,499,4736153268,4736153269,59.97515869140625
500,500,4736153268,4736153269,60.10496520996094
501,501,4736153268,4736153269,61.15154266357422
502,502,4736153268,4736153269,61.089599609375
503,503,4736153268,4736153269,59.39236831665039
