,slot,source,target,median,var,cnt
0,364,4736153268,4736153269,60.974918365478516,93.55431365966797,16
1,184,4736153268,4736153269,60.25629425048828,120.25433349609375,58
2,361,4736153268,4736153269,36.34474182128906,50.674644470214844,13
3,436,4736153268,4736153269,64.7574462890625,43.52423858642578,10
4,367,4736153268,4736153269,68.14130401611328,22.85172462463379,9
5,435,4736153268,4736153269,66.75613403320312,51.98817825317383,15
6,483,4736153268,4736153269,51.615360260009766,179.38729858398438,57
7,5,4736153268,4736153269,67.68800354003906,8.202034950256348,2
8,38,4736153268,4736153269,46.82160949707031,132.70272827148438,59
9,280,4736153268,4736153269,55.19084167480469,107.9278564453125,62
10,375,4736153268,4736153269,56.99722671508789,314.2558898925781,2
11,348,4736153268,4736153269,52.972652435302734,136.6302947998047,53
12,460,4736153268,4736153269,24.642024993896484,47.32484817504883,78
13,7,4736153268,4736153269,62.85759353637695,71.45291900634766,2
14,55,4736153268,4736153269,39.172611236572266,145.3797149658203,37
15,56,4736153268,4736153269,37.17406463623047,194.11856079101562,57
16,345,4736153268,4736153269,56.53519821166992,63.136474609375,51
17,8,4736153268,4736153269,60.02395248413086,86.42636108398438,2
18,145,4736153268,4736153269,55.92741394042969,73.25560760498047,47
19,252,4736153268,4736153269,57.37562942504883,94.41934204101562,51
20,424,4736153268,4736153269,55.996612548828125,97.54656982421875,50
21,432,4736153268,4736153269,63.820152282714844,85.83390045166016,31
22,77,4736153268,4736153269,67.43368530273438,50.967010498046875,5
23,59,4736153268,4736153269,50.19132995605469,118.24390411376953,57
24,61,4736153268,4736153269,57.1495246887207,87.46005249023438,66
25,63,4736153268,4736153269,57.04242706298828,73.72854614257812,48
26,347,4736153268,4736153269,50.77078628540039,182.47984313964844,43
27,476,4736153268,4736153269,53.67338180541992,224.1243896484375,51
28,10,4736153268,4736153269,67.71199035644531,,1
29,39,4736153268,4736153269,40.485939025878906,143.7001953125,62
30,134,4736153268,4736153269,59.04325866699219,70.88563537597656,68
31,338,4736153268,4736153269,61.621070861816406,152.06640625,41
32,383,4736153268,4736153269,29.663143157958984,40.611656188964844,74
33,491,4736153268,4736153269,62.32318115234375,90.74105834960938,58
34,265,4736153268,4736153269,62.228607177734375,54.43796157836914,79
35,17,4736153268,4736153269,57.998409271240234,103.93608093261719,15
36,358,4736153268,4736153269,44.0947380065918,131.88705444335938,33
37,201,4736153268,4736153269,51.833805084228516,94.6766586303711,126
38,3,4736153268,4736153269,61.94413375854492,43.264461517333984,17
39,27,4736153268,4736153269,25.871322631835938,52.35673904418945,75
40,64,4736153268,4736153269,55.901695251464844,66.3218002319336,46
41,65,4736153268,4736153269,60.102569580078125,57.4399528503418,40
42,161,4736153268,4736153269,64.2280502319336,35.552734375,9
43,378,4736153268,4736153269,51.401710510253906,25.70465087890625,29
44,12,4736153268,4736153269,68.14874267578125,,1
45,339,4736153268,4736153269,63.710235595703125,38.225093841552734,54
46,420,4736153268,4736153269,60.866153717041016,57.60554885864258,47
47,131,4736153268,4736153269,58.76188659667969,120.7304458618164,64
48,341,4736153268,4736153269,61.59718322753906,65.31427001953125,42
49,139,4736153268,4736153269,57.078826904296875,47.47711181640625,54
50,353,4736153268,4736153269,50.26797866821289,96.74262237548828,49
51,485,4736153268,4736153269,40.916168212890625,302.86468505859375,57
52,24,4736153268,4736153269,28.766529083251953,55.47846603393555,78
53,179,4736153268,4736153269,45.40040588378906,190.12176513671875,70
54,249,4736153268,4736153269,57.1475830078125,73.69049835205078,80
55,416,4736153268,4736153269,60.505149841308594,73.63516235351562,88
56,431,4736153268,4736153269,64.21080780029297,63.77086639404297,37
57,503,4736153268,4736153269,58.903656005859375,112.57665252685547,31
58,193,4736153268,4736153269,51.09451675415039,274.7160339355469,89
59,53,4736153268,4736153269,23.713275909423828,54.55900192260742,36
60,203,4736153268,4736153269,58.05370330810547,96.92054748535156,79
61,482,4736153268,4736153269,47.08076477050781,258.3150634765625,69
62,107,4736153268,4736153269,31.839242935180664,325.8485412597656,32
63,501,4736153268,4736153269,61.683937072753906,41.25897216796875,26
64,262,4736153268,4736153269,64.50245666503906,54.829307556152344,79
65,407,4736153268,4736153269,58.04965591430664,125.50381469726562,71
66,104,4736153268,4736153269,30.5687255859375,225.24807739257812,58
67,93,4736153268,4736153269,43.83706283569336,105.93221282958984,51
68,268,4736153268,4736153269,62.061241149902344,66.7442626953125,64
69,282,4736153268,4736153269,55.638816833496094,125.47317504882812,31
70,286,4736153268,4736153269,53.347206115722656,64.10537719726562,48
71,333,4736153268,4736153269,64.20066833496094,51.9024772644043,33
72,459,4736153268,4736153269,28.349044799804688,60.23149490356445,88
73,82,4736153268,4736153269,28.443889617919922,,1
74,102,4736153268,4736153269,25.256458282470703,39.146018981933594,66
75,404,4736153268,4736153269,60.903053283691406,124.03289794921875,48
76,54,4736153268,4736153269,27.38299560546875,170.95523071289062,29
77,189,4736153268,4736153269,55.65525817871094,152.00408935546875,42
78,197,4736153268,4736153269,33.54222869873047,289.0235290527344,74
79,447,4736153268,4736153269,66.80288696289062,,1
80,57,4736153268,4736153269,39.614349365234375,223.2751007080078,83
81,165,4736153268,4736153269,43.54920196533203,103.23763275146484,45
82,148,4736153268,4736153269,64.49398803710938,33.04325485229492,26
83,251,4736153268,4736153269,62.969573974609375,79.57709503173828,63
84,360,4736153268,4736153269,35.873268127441406,92.5738525390625,10
85,95,4736153268,4736153269,32.72517776489258,116.893310546875,89
86,336,4736153268,4736153269,65.66194152832031,48.70292663574219,40
87,443,4736153268,4736153269,63.94237518310547,11.648835182189941,4
88,51,4736153268,4736153269,33.4802131652832,190.36883544921875,49
89,305,4736153268,4736153269,65.0313491821289,7.613116264343262,2
90,414,4736153268,4736153269,59.617408752441406,162.91937255859375,46
91,136,4736153268,4736153269,57.29615783691406,58.749061584472656,57
92,237,4736153268,4736153269,62.525150299072266,68.4157485961914,59
93,495,4736153268,4736153269,58.5774040222168,135.2783660888672,28
94,112,4736153268,4736153269,49.23414611816406,259.7000732421875,40
95,138,4736153268,4736153269,59.868560791015625,67.94276428222656,69
96,6,4736153268,4736153269,69.053955078125,81.45149993896484,8
97,81,4736153268,4736153269,59.549564361572266,,1
98,137,4736153268,4736153269,57.739990234375,76.48978424072266,52
99,101,4736153268,4736153269,26.39847183227539,52.86774444580078,70
100,4,4736153268,4736153269,68.22956848144531,33.078125,14
101,492,4736153268,4736153269,58.59589385986328,127.83345794677734,62
102,44,4736153268,4736153269,53.42633056640625,243.63429260253906,92
103,152,4736153268,4736153269,67.04519653320312,14.55109977722168,5
104,174,4736153268,4736153269,29.58123016357422,101.37266540527344,54
105,200,4736153268,4736153269,55.23137664794922,104.3753662109375,103
106,269,4736153268,4736153269,61.10980987548828,86.86894989013672,54
107,318,4736153268,4736153269,64.90238189697266,66.68475341796875,27
108,350,4736153268,4736153269,52.881378173828125,91.5886001586914,36
109,120,4736153268,4736153269,52.88666534423828,159.45790100097656,82
110,440,4736153268,4736153269,68.42008972167969,1.3079068660736084,2
111,125,4736153268,4736153269,48.7412223815918,370.410400390625,63
112,216,4736153268,4736153269,53.23546600341797,123.9320068359375,41
113,48,4736153268,4736153269,33.847145080566406,231.9470672607422,49
114,309,4736153268,4736153269,63.18573760986328,265.54638671875,8
115,40,4736153268,4736153269,31.313583374023438,220.3952178955078,81
116,470,4736153268,4736153269,38.29191589355469,92.788818359375,36
117,239,4736153268,4736153269,47.3094482421875,136.20777893066406,66
118,406,4736153268,4736153269,60.407936096191406,53.29811477661133,72
119,472,4736153268,4736153269,46.33832931518555,150.8317413330078,43
120,478,4736153268,4736153269,61.115169525146484,90.15110778808594,82
121,164,4736153268,4736153269,44.24162292480469,166.20846557617188,36
122,217,4736153268,4736153269,59.74705505371094,60.71110916137695,38
123,332,4736153268,4736153269,61.88922119140625,60.05012130737305,45
124,264,4736153268,4736153269,61.85491180419922,92.511962890625,74
125,395,4736153268,4736153269,60.65606689453125,98.17974853515625,66
126,434,4736153268,4736153269,64.35774230957031,127.74951171875,20
127,427,4736153268,4736153269,61.72157287597656,66.00100708007812,40
128,89,4736153268,4736153269,62.55220413208008,75.35823822021484,13
129,236,4736153268,4736153269,63.698001861572266,53.82670211791992,45
130,256,4736153268,4736153269,59.367855072021484,101.17806243896484,63
131,66,4736153268,4736153269,58.49386215209961,63.918983459472656,45
132,294,4736153268,4736153269,65.1282730102539,152.9758758544922,15
133,423,4736153268,4736153269,58.167259216308594,87.32826232910156,63
134,162,4736153268,4736153269,44.29728698730469,84.15534210205078,27
135,355,4736153268,4736153269,52.99439239501953,73.3119888305664,50
136,271,4736153268,4736153269,59.41936492919922,75.32311248779297,76
137,272,4736153268,4736153269,59.96919250488281,85.78445434570312,73
138,279,4736153268,4736153269,39.267906188964844,172.6993408203125,56
139,37,4736153268,4736153269,27.2396297454834,77.53416442871094,21
140,115,4736153268,4736153269,50.80292510986328,170.50851440429688,59
141,387,4736153268,4736153269,25.084125518798828,99.78105163574219,60
142,396,4736153268,4736153269,60.50410842895508,141.31520080566406,49
143,484,4736153268,4736153269,38.31208038330078,303.8421325683594,49
144,191,4736153268,4736153269,48.89767837524414,269.2515563964844,67
145,198,4736153268,4736153269,52.62839126586914,227.8766326904297,71
146,391,4736153268,4736153269,58.56951141357422,87.40486907958984,91
147,466,4736153268,4736153269,28.423816680908203,324.2369384765625,33
148,278,4736153268,4736153269,41.306541442871094,141.78201293945312,60
149,58,4736153268,4736153269,45.233619689941406,117.7365951538086,106
150,299,4736153268,4736153269,65.2947998046875,744.4447631835938,4
151,430,4736153268,4736153269,60.8421630859375,80.83536529541016,55
152,80,4736153268,4736153269,69.25581359863281,1.3506109714508057,2
153,176,4736153268,4736153269,28.0953369140625,91.8946304321289,81
154,275,4736153268,4736153269,55.462154388427734,266.86419677734375,55
155,356,4736153268,4736153269,54.357120513916016,79.78157043457031,31
156,437,4736153268,4736153269,67.64506530761719,0.31615057587623596,2
157,206,4736153268,4736153269,54.15475845336914,66.8532485961914,65
158,389,4736153268,4736153269,48.18888473510742,158.84317016601562,98
159,50,4736153268,4736153269,34.184410095214844,98.30108642578125,62
160,213,4736153268,4736153269,55.87308883666992,79.38704681396484,95
161,458,4736153268,4736153269,27.447973251342773,95.38327026367188,69
162,140,4736153268,4736153269,58.158199310302734,67.4174575805664,63
163,263,4736153268,4736153269,63.24143600463867,43.506168365478516,55
164,454,4736153268,4736153269,42.207664489746094,80.55535125732422,62
165,16,4736153268,4736153269,63.092681884765625,106.21749877929688,5
166,151,4736153268,4736153269,68.66178131103516,54.325782775878906,3
167,357,4736153268,4736153269,49.32809829711914,102.55308532714844,48
168,502,4736153268,4736153269,61.556663513183594,43.84066390991211,28
169,147,4736153268,4736153269,62.30329513549805,31.13490867614746,27
170,202,4736153268,4736153269,49.61405944824219,101.02210235595703,144
171,183,4736153268,4736153269,59.09117889404297,102.9859619140625,45
172,499,4736153268,4736153269,60.54469299316406,83.81200408935547,47
173,327,4736153268,4736153269,61.77975845336914,94.36853790283203,31
174,283,4736153268,4736153269,61.11980056762695,61.41056823730469,47
175,243,4736153268,4736153269,57.03432846069336,109.2193374633789,95
176,218,4736153268,4736153269,65.67327880859375,40.273311614990234,35
177,261,4736153268,4736153269,63.833946228027344,69.94807434082031,61
178,69,4736153268,4736153269,58.236228942871094,102.26114654541016,49
179,141,4736153268,4736153269,57.58403778076172,98.29910278320312,49
180,52,4736153268,4736153269,26.696319580078125,49.750606536865234,42
181,208,4736153268,4736153269,56.74338150024414,70.19520568847656,72
182,303,4736153268,4736153269,56.420082092285156,481.77801513671875,2
183,310,4736153268,4736153269,66.30628204345703,239.93283081054688,7
184,326,4736153268,4736153269,58.665679931640625,78.4945068359375,46
185,313,4736153268,4736153269,67.49654388427734,54.745391845703125,21
186,329,4736153268,4736153269,61.670433044433594,93.7545394897461,37
187,288,4736153268,4736153269,52.620452880859375,126.47748565673828,42
188,337,4736153268,4736153269,63.4578857421875,62.363243103027344,42
189,451,4736153268,4736153269,46.08013916015625,61.354278564453125,41
190,73,4736153268,4736153269,61.64628601074219,88.2572250366211,34
191,130,4736153268,4736153269,50.781166076660156,162.09756469726562,99
192,321,4736153268,4736153269,64.32024383544922,33.019798278808594,32
193,368,4736153268,4736153269,54.01948547363281,176.41900634765625,3
194,473,4736153268,4736153269,45.840789794921875,209.551513671875,52
195,46,4736153268,4736153269,44.00725555419922,156.03564453125,75
196,133,4736153268,4736153269,56.293800354003906,100.23677062988281,64
197,232,4736153268,4736153269,70.77030944824219,4.418614864349365,2
198,481,4736153268,4736153269,53.88825607299805,217.29147338867188,79
199,67,4736153268,4736153269,63.180606842041016,59.81574249267578,49
200,123,4736153268,4736153269,48.15772247314453,421.6529235839844,42
201,349,4736153268,4736153269,49.049766540527344,191.93214416503906,39
202,412,4736153268,4736153269,53.26519012451172,235.30001831054688,54
203,465,4736153268,4736153269,25.666343688964844,69.06819915771484,48
204,78,4736153268,4736153269,65.95626831054688,43.03867721557617,5
205,471,4736153268,4736153269,51.153709411621094,218.62049865722656,24
206,498,4736153268,4736153269,57.79731369018555,55.07143783569336,45
207,33,4736153268,4736153269,28.078556060791016,88.6805648803711,52
208,100,4736153268,4736153269,26.05275535583496,50.93433380126953,77
209,167,4736153268,4736153269,29.50823211669922,92.60457611083984,70
210,302,4736153268,4736153269,67.43073272705078,36.6226692199707,5
211,468,4736153268,4736153269,37.8840446472168,113.67040252685547,32
212,88,4736153268,4736153269,66.376953125,6.089893817901611,3
213,281,4736153268,4736153269,54.55802917480469,106.3075942993164,46
214,2,4736153268,4736153269,63.562171936035156,46.763427734375,25
215,225,4736153268,4736153269,66.08006286621094,22.074016571044922,4
216,207,4736153268,4736153269,59.73389434814453,82.96044158935547,72
217,106,4736153268,4736153269,37.01521301269531,169.494873046875,58
218,160,4736153268,4736153269,66.427001953125,15.011321067810059,7
219,180,4736153268,4736153269,58.933998107910156,63.2447624206543,56
220,230,4736153268,4736153269,68.45829772949219,1065.6160888671875,3
221,273,4736153268,4736153269,58.077781677246094,84.93109130859375,68
222,363,4736153268,4736153269,60.32632827758789,57.06539535522461,11
223,394,4736153268,4736153269,60.142208099365234,80.27257537841797,69
224,31,4736153268,4736153269,26.05409049987793,47.94609069824219,63
225,248,4736153268,4736153269,57.70133972167969,161.19744873046875,91
226,403,4736153268,4736153269,60.72595977783203,122.12861633300781,41
227,75,4736153268,4736153269,66.46720886230469,64.12671661376953,20
228,105,4736153268,4736153269,37.655914306640625,224.16209411621094,50
229,408,4736153268,4736153269,60.8930778503418,111.98332214355469,68
230,187,4736153268,4736153269,41.742313385009766,263.7777099609375,74
231,295,4736153268,4736153269,66.79537963867188,37.193809509277344,6
232,382,4736153268,4736153269,30.55133819580078,112.01094818115234,49
233,455,4736153268,4736153269,32.23929214477539,85.74115753173828,92
234,144,4736153268,4736153269,58.88527297973633,50.971595764160156,27
235,214,4736153268,4736153269,57.15718078613281,87.99246978759766,51
236,441,4736153268,4736153269,64.36817169189453,,1
237,497,4736153268,4736153269,59.387428283691406,67.8568115234375,32
238,190,4736153268,4736153269,55.09669494628906,274.422119140625,59
239,215,4736153268,4736153269,58.65310287475586,68.95184326171875,58
240,308,4736153268,4736153269,55.039405822753906,108.92572784423828,4
241,397,4736153268,4736153269,59.902687072753906,162.4945526123047,58
242,173,4736153268,4736153269,24.54956817626953,102.1116943359375,82
243,297,4736153268,4736153269,63.38047790527344,40.54544448852539,4
244,311,4736153268,4736153269,67.73126983642578,40.359291076660156,12
245,342,4736153268,4736153269,60.80702209472656,160.67579650878906,32
246,381,4736153268,4736153269,36.150394439697266,108.68281555175781,31
247,110,4736153268,4736153269,39.90497970581055,278.2591247558594,34
248,188,4736153268,4736153269,53.37586975097656,130.57275390625,64
249,254,4736153268,4736153269,56.60808181762695,234.70578002929688,42
250,346,4736153268,4736153269,54.34428405761719,110.27102661132812,44
251,446,4736153268,4736153269,63.461769104003906,,1
252,461,4736153268,4736153269,23.855167388916016,56.35246658325195,60
253,142,4736153268,4736153269,59.30560302734375,62.94981002807617,51
254,266,4736153268,4736153269,61.99628448486328,171.66156005859375,66
255,456,4736153268,4736153269,28.803133010864258,67.80044555664062,63
256,83,4736153268,4736153269,67.98904418945312,4.622450351715088,3
257,98,4736153268,4736153269,28.424072265625,61.42982482910156,80
258,149,4736153268,4736153269,64.35116577148438,74.16181945800781,11
259,220,4736153268,4736153269,62.86164855957031,52.17911911010742,28
260,494,4736153268,4736153269,55.78496170043945,86.92860412597656,37
261,354,4736153268,4736153269,53.10005187988281,74.95242309570312,46
262,86,4736153268,4736153269,71.68529510498047,,1
263,29,4736153268,4736153269,25.11515998840332,62.46530532836914,71
264,35,4736153268,4736153269,28.83812713623047,122.96814727783203,39
265,178,4736153268,4736153269,50.11994171142578,212.89263916015625,60
266,301,4736153268,4736153269,69.71278381347656,0.005047260783612728,2
267,405,4736153268,4736153269,62.292869567871094,68.25183868408203,73
268,18,4736153268,4736153269,42.89849853515625,127.51441192626953,21
269,28,4736153268,4736153269,24.03923988342285,52.33156204223633,49
270,331,4736153268,4736153269,58.131473541259766,143.65921020507812,53
271,335,4736153268,4736153269,63.929466247558594,45.03762435913086,46
272,171,4736153268,4736153269,25.67699432373047,88.94847869873047,79
273,260,4736153268,4736153269,63.455238342285156,54.18802261352539,58
274,385,4736153268,4736153269,29.000743865966797,73.54830932617188,83
275,409,4736153268,4736153269,53.58811950683594,164.4864501953125,66
276,117,4736153268,4736153269,52.463504791259766,238.1468963623047,47
277,157,4736153268,4736153269,68.42924499511719,11.481704711914062,2
278,175,4736153268,4736153269,27.066097259521484,173.6462860107422,53
279,241,4736153268,4736153269,50.19171142578125,128.08462524414062,94
280,255,4736153268,4736153269,52.768455505371094,88.220458984375,66
281,289,4736153268,4736153269,52.741886138916016,87.7703857421875,42
282,118,4736153268,4736153269,60.950401306152344,118.52616882324219,51
283,235,4736153268,4736153269,67.14009857177734,18.358837127685547,45
284,238,4736153268,4736153269,56.73575973510742,73.51219177246094,83
285,438,4736153268,4736153269,71.38349151611328,1.255791187286377,3
286,500,4736153268,4736153269,59.79006576538086,95.56686401367188,49
287,392,4736153268,4736153269,52.70904541015625,111.13221740722656,88
288,488,4736153268,4736153269,54.438087463378906,106.10169219970703,60
289,1,4736153268,4736153269,63.28483963012695,38.041812896728516,26
290,194,4736153268,4736153269,41.203826904296875,265.6885681152344,79
291,296,4736153268,4736153269,65.87151336669922,29.836767196655273,11
292,374,4736153268,4736153269,65.24473571777344,,1
293,156,4736153268,4736153269,65.75967407226562,3.6451914310455322,4
294,209,4736153268,4736153269,55.92831039428711,71.77340698242188,87
295,135,4736153268,4736153269,56.474483489990234,45.355552673339844,64
296,169,4736153268,4736153269,29.56522560119629,139.53591918945312,103
297,222,4736153268,4736153269,68.04417419433594,5.517890930175781,3
298,253,4736153268,4736153269,53.26768493652344,230.27484130859375,70
299,168,4736153268,4736153269,29.027530670166016,106.60478973388672,73
300,196,4736153268,4736153269,42.113319396972656,233.630126953125,78
301,257,4736153268,4736153269,57.50511169433594,84.54844665527344,74
302,429,4736153268,4736153269,59.35898971557617,88.72157287597656,39
303,467,4736153268,4736153269,27.32990837097168,201.6903533935547,34
304,487,4736153268,4736153269,38.168949127197266,217.77076721191406,67
305,70,4736153268,4736153269,63.804561614990234,104.39849090576172,31
306,111,4736153268,4736153269,49.71584701538086,118.93814849853516,47
307,242,4736153268,4736153269,49.60216522216797,108.54790496826172,79
308,442,4736153268,4736153269,44.57902145385742,,1
309,150,4736153268,4736153269,70.92398071289062,29.582731246948242,4
310,226,4736153268,4736153269,68.10018920898438,,1
311,185,4736153268,4736153269,58.189613342285156,123.38325500488281,57
312,229,4736153268,4736153269,56.241966247558594,319.0424499511719,3
313,469,4736153268,4736153269,30.239728927612305,81.18701934814453,38
314,114,4736153268,4736153269,55.374366760253906,84.68511199951172,48
315,166,4736153268,4736153269,30.200603485107422,119.0599594116211,74
316,233,4736153268,4736153269,67.22427368164062,38.761898040771484,8
317,402,4736153268,4736153269,60.086570739746094,80.74859619140625,54
318,79,4736153268,4736153269,55.60456085205078,16.228309631347656,2
319,92,4736153268,4736153269,50.34836196899414,204.3885955810547,45
320,304,4736153268,4736153269,67.84541320800781,53.624305725097656,2
321,493,4736153268,4736153269,60.050086975097656,148.07908630371094,46
322,30,4736153268,4736153269,26.904430389404297,45.56357192993164,54
323,343,4736153268,4736153269,61.9192008972168,44.15176773071289,43
324,14,4736153268,4736153269,68.33245086669922,,1
325,221,4736153268,4736153269,67.1863784790039,105.46450805664062,11
326,43,4736153268,4736153269,55.849727630615234,277.328857421875,87
327,177,4736153268,4736153269,34.06808090209961,313.5554504394531,51
328,325,4736153268,4736153269,58.68303680419922,87.87396240234375,19
329,186,4736153268,4736153269,57.85411071777344,72.62787628173828,57
330,340,4736153268,4736153269,59.88596725463867,71.02070617675781,51
331,393,4736153268,4736153269,59.79793930053711,107.82809448242188,82
332,464,4736153268,4736153269,24.3118839263916,52.049556732177734,37
333,246,4736153268,4736153269,51.033241271972656,149.09996032714844,86
334,474,4736153268,4736153269,48.547691345214844,213.9447479248047,38
335,34,4736153268,4736153269,29.23523712158203,109.39167785644531,31
336,292,4736153268,4736153269,52.66862869262695,73.93696594238281,29
337,300,4736153268,4736153269,58.03913497924805,62.88995361328125,2
338,415,4736153268,4736153269,59.678131103515625,117.74036407470703,56
339,71,4736153268,4736153269,60.57461166381836,66.06399536132812,39
340,60,4736153268,4736153269,58.73710632324219,131.7110137939453,62
341,453,4736153268,4736153269,42.7462272644043,81.65650939941406,47
342,463,4736153268,4736153269,25.38298988342285,76.65635681152344,54
343,74,4736153268,4736153269,63.23790740966797,107.31430053710938,31
344,244,4736153268,4736153269,54.317909240722656,109.38316345214844,93
345,247,4736153268,4736153269,55.14780044555664,73.3770523071289,79
346,250,4736153268,4736153269,56.700260162353516,88.62285614013672,81
347,390,4736153268,4736153269,57.870052337646484,95.96141815185547,79
348,32,4736153268,4736153269,28.4517765045166,44.54867935180664,55
349,146,4736153268,4736153269,60.99742126464844,54.084136962890625,49
350,199,4736153268,4736153269,53.84196853637695,132.0492401123047,97
351,99,4736153268,4736153269,27.411155700683594,50.664337158203125,82
352,128,4736153268,4736153269,51.3737678527832,189.4609832763672,77
353,334,4736153268,4736153269,62.25984573364258,63.153045654296875,38
354,421,4736153268,4736153269,58.72735595703125,157.39051818847656,70
355,479,4736153268,4736153269,52.03074264526367,263.15972900390625,76
356,124,4736153268,4736153269,47.65388488769531,331.5500793457031,59
357,323,4736153268,4736153269,66.58299255371094,46.309810638427734,32
358,45,4736153268,4736153269,50.008514404296875,229.52297973632812,64
359,116,4736153268,4736153269,49.95195770263672,184.09817504882812,62
360,127,4736153268,4736153269,49.449424743652344,300.3061218261719,62
361,365,4736153268,4736153269,63.933902740478516,109.30523681640625,9
362,119,4736153268,4736153269,57.42997741699219,115.70689392089844,72
363,287,4736153268,4736153269,56.353118896484375,84.59960174560547,40
364,22,4736153268,4736153269,34.454307556152344,72.26203918457031,62
365,163,4736153268,4736153269,46.63813781738281,111.1820068359375,38
366,258,4736153268,4736153269,62.120994567871094,83.07440948486328,51
367,276,4736153268,4736153269,49.764915466308594,218.7796173095703,68
368,439,4736153268,4736153269,46.5438346862793,,1
369,96,4736153268,4736153269,31.773731231689453,107.48005676269531,82
370,270,4736153268,4736153269,60.25685119628906,64.24481201171875,74
371,274,4736153268,4736153269,53.46259689331055,167.77423095703125,87
372,428,4736153268,4736153269,58.68849563598633,44.85466003417969,45
373,448,4736153268,4736153269,64.67788696289062,,1
374,371,4736153268,4736153269,70.29582977294922,21.0718994140625,5
375,401,4736153268,4736153269,60.223976135253906,72.64344787597656,55
376,417,4736153268,4736153269,53.72873306274414,113.1317138671875,111
377,192,4736153268,4736153269,39.66459274291992,294.3066101074219,49
378,210,4736153268,4736153269,59.47319793701172,105.45774841308594,55
379,49,4736153268,4736153269,35.75079345703125,155.67955017089844,57
380,398,4736153268,4736153269,59.37953186035156,144.79281616210938,74
381,42,4736153268,4736153269,54.48420333862305,154.72695922851562,81
382,293,4736153268,4736153269,64.02645874023438,54.379913330078125,23
383,21,4736153268,4736153269,37.79576110839844,93.53621673583984,43
384,267,4736153268,4736153269,63.31391143798828,53.1928825378418,70
385,13,4736153268,4736153269,67.53821563720703,,1
386,219,4736153268,4736153269,64.36260223388672,38.02309799194336,34
387,312,4736153268,4736153269,69.12522888183594,310.3336486816406,13
388,181,4736153268,4736153269,56.2048454284668,193.4595947265625,51
389,315,4736153268,4736153269,64.51012420654297,66.53009033203125,13
390,379,4736153268,4736153269,47.163780212402344,38.510154724121094,41
391,386,4736153268,4736153269,28.285728454589844,38.465999603271484,82
392,344,4736153268,4736153269,59.2476692199707,39.446109771728516,71
393,413,4736153268,4736153269,42.64771270751953,340.9215087890625,68
394,317,4736153268,4736153269,67.70087432861328,52.86048889160156,21
395,322,4736153268,4736153269,66.02203369140625,39.77189254760742,36
396,425,4736153268,4736153269,60.097084045410156,97.1051025390625,51
397,113,4736153268,4736153269,58.157081604003906,103.24867248535156,54
398,129,4736153268,4736153269,50.83918762207031,168.65878295898438,80
399,384,4736153268,4736153269,31.85616683959961,101.838623046875,73
400,462,4736153268,4736153269,23.119590759277344,60.96392822265625,57
401,227,4736153268,4736153269,61.42493438720703,120.88429260253906,4
402,314,4736153268,4736153269,67.29795837402344,38.24454879760742,15
403,490,4736153268,4736153269,53.960777282714844,132.93873596191406,111
404,205,4736153268,4736153269,57.13731002807617,73.91919708251953,69
405,298,4736153268,4736153269,67.5979232788086,9.316329956054688,7
406,306,4736153268,4736153269,63.275794982910156,192.30697631835938,7
407,23,4736153268,4736153269,29.732303619384766,47.42350769042969,76
408,159,4736153268,4736153269,71.065673828125,2.1145401000976562,2
409,26,4736153268,4736153269,30.975969314575195,51.31513977050781,76
410,259,4736153268,4736153269,63.18566131591797,157.2762908935547,58
411,290,4736153268,4736153269,51.57533264160156,79.73828887939453,26
412,316,4736153268,4736153269,68.78194427490234,134.4364776611328,23
413,369,4736153268,4736153269,65.63790893554688,,1
414,154,4736153268,4736153269,63.417396545410156,1.7584490776062012,2
415,212,4736153268,4736153269,58.39403533935547,73.97228240966797,77
416,277,4736153268,4736153269,41.203365325927734,169.25868225097656,55
417,475,4736153268,4736153269,37.091514587402344,273.2183532714844,52
418,0,4736153268,4736153269,62.57373046875,57.92076873779297,23
419,76,4736153268,4736153269,65.35507202148438,56.554908752441406,18
420,170,4736153268,4736153269,27.49047088623047,121.28801727294922,80
421,426,4736153268,4736153269,60.20979309082031,72.6202392578125,54
422,377,4736153268,4736153269,53.33806228637695,159.21783447265625,7
423,496,4736153268,4736153269,60.3895149230957,138.65997314453125,39
424,62,4736153268,4736153269,55.5301513671875,83.86751556396484,74
425,47,4736153268,4736153269,29.38399887084961,103.30017852783203,62
426,108,4736153268,4736153269,45.5393180847168,392.79022216796875,40
427,121,4736153268,4736153269,45.417510986328125,232.517822265625,78
428,489,4736153268,4736153269,52.77022171020508,108.68160247802734,105
429,319,4736153268,4736153269,64.33815002441406,39.80018615722656,25
430,372,4736153268,4736153269,68.16385650634766,,1
431,449,4736153268,4736153269,63.76288604736328,44.665740966796875,5
432,68,4736153268,4736153269,61.29104232788086,42.55239486694336,53
433,97,4736153268,4736153269,28.005510330200195,51.6898193359375,72
434,122,4736153268,4736153269,42.545135498046875,324.5734558105469,68
435,284,4736153268,4736153269,58.4760627746582,49.101322174072266,63
436,223,4736153268,4736153269,66.77471160888672,61.764766693115234,5
437,328,4736153268,4736153269,62.91581726074219,39.86924362182617,22
438,15,4736153268,4736153269,61.67494583129883,,1
439,234,4736153268,4736153269,66.90689849853516,47.145912170410156,14
440,330,4736153268,4736153269,63.45127487182617,134.74009704589844,45
441,228,4736153268,4736153269,59.91281509399414,,1
442,231,4736153268,4736153269,69.53634643554688,,1
443,351,4736153268,4736153269,52.30031967163086,236.22926330566406,37
444,366,4736153268,4736153269,66.18441772460938,33.394187927246094,6
445,224,4736153268,4736153269,69.59810638427734,95.94139862060547,7
446,452,4736153268,4736153269,44.96088790893555,163.98080444335938,39
447,41,4736153268,4736153269,53.79194641113281,160.0262451171875,86
448,103,4736153268,4736153269,24.131811141967773,46.1664924621582,62
449,285,4736153268,4736153269,57.1053466796875,75.29592895507812,82
450,370,4736153268,4736153269,65.59166717529297,19.43611717224121,2
451,90,4736153268,4736153269,44.16203308105469,72.0382080078125,23
452,155,4736153268,4736153269,62.76356506347656,30.88726234436035,4
453,400,4736153268,4736153269,63.039058685302734,91.1487045288086,63
454,418,4736153268,4736153269,60.62599182128906,86.21209716796875,77
455,380,4736153268,4736153269,39.45066452026367,123.38571166992188,37
456,94,4736153268,4736153269,38.56517028808594,115.52108001708984,54
457,126,4736153268,4736153269,44.483150482177734,382.58453369140625,56
458,352,4736153268,4736153269,55.214271545410156,67.49616241455078,46
459,450,4736153268,4736153269,49.02507781982422,43.48539352416992,30
460,307,4736153268,4736153269,65.51707458496094,147.00624084472656,6
461,411,4736153268,4736153269,58.902687072753906,260.238037109375,67
462,388,4736153268,4736153269,40.83433532714844,221.10592651367188,90
463,480,4736153268,4736153269,54.06098175048828,241.963134765625,63
464,132,4736153268,4736153269,55.869354248046875,156.00694274902344,62
465,362,4736153268,4736153269,44.057037353515625,127.864501953125,11
466,422,4736153268,4736153269,60.276527404785156,60.5967903137207,66
467,91,4736153268,4736153269,52.49445343017578,174.7604522705078,30
468,182,4736153268,4736153269,59.37653350830078,128.82948303222656,64
469,245,4736153268,4736153269,51.21393585205078,124.06932830810547,112
470,457,4736153268,4736153269,28.499202728271484,81.01094055175781,58
471,143,4736153268,4736153269,59.74742889404297,115.73343658447266,52
472,376,4736153268,4736153269,66.48859405517578,36.98143768310547,3
473,25,4736153268,4736153269,28.328523635864258,49.769676208496094,63
474,291,4736153268,4736153269,54.35525131225586,105.6863021850586,30
475,109,4736153268,4736153269,45.8521842956543,337.69293212890625,43
476,324,4736153268,4736153269,61.877620697021484,94.5433120727539,29
477,477,4736153268,4736153269,59.8394660949707,92.7229232788086,54
478,486,4736153268,4736153269,34.55256652832031,361.0979309082031,81
479,19,4736153268,4736153269,46.918060302734375,53.34223556518555,30
480,72,4736153268,4736153269,62.24949264526367,50.733497619628906,30
481,172,4736153268,4736153269,26.704050064086914,112.62884521484375,84
482,195,4736153268,4736153269,44.55867004394531,235.4414825439453,88
483,240,4736153268,4736153269,50.871177673339844,165.93600463867188,71
484,320,4736153268,4736153269,62.660247802734375,107.88658142089844,30
485,359,4736153268,4736153269,36.676666259765625,202.6114044189453,30
486,211,4736153268,4736153269,57.9130744934082,94.1205062866211,81
487,419,4736153268,4736153269,62.67547607421875,95.78573608398438,63
488,84,4736153268,4736153269,66.0763931274414,14.714977264404297,2
489,204,4736153268,4736153269,58.36772918701172,90.19698333740234,96
490,20,4736153268,4736153269,49.13218307495117,142.3162841796875,35
491,36,4736153268,4736153269,25.445266723632812,126.93582916259766,27
492,399,4736153268,4736153269,61.61616134643555,50.775054931640625,61
493,410,4736153268,4736153269,49.23271942138672,245.35324096679688,62
494,433,4736153268,4736153269,65.65443420410156,48.802764892578125,18
