,slot,source,target,speed
0,0,4512612193,4092524004,62.65685272216797
1,1,4512612193,4092524004,62.888771057128906
2,2,4512612193,4092524004,63.127193450927734
3,3,4512612193,4092524004,63.41625213623047
4,4,4512612193,4092524004,66.61376190185547
5,5,4512612193,4092524004,68.79429626464844
6,6,4512612193,4092524004,69.10498809814453
7,7,4512612193,4092524004,65.83799743652344
8,8,4512612193,4092524004,60.76848602294922
9,9,4512612193,4092524004,62.586631774902344
10,10,4512612193,4092524004,67.71199035644531
11,11,4512612193,4092524004,66.96946716308594
12,12,4512612193,4092524004,66.48919677734375
13,13,4512612193,4092524004,67.8558349609375
14,14,4512612193,4092524004,68.53683471679688
15,15,4512612193,4092524004,62.88665771484375
16,16,4512612193,4092524004,61.30304718017578
17,17,4512612193,4092524004,54.95249557495117
18,18,4512612193,4092524004,44.150943756103516
19,19,4512612193,4092524004,44.720550537109375
20,20,4512612193,4092524004,45.799400329589844
21,21,4512612193,4092524004,37.55677032470703
22,22,4512612193,4092524004,33.57471466064453
23,23,4512612193,4092524004,29.095178604125977
24,24,4512612193,4092524004,28.45760154724121
25,25,4512612193,4092524004,28.80646514892578
26,26,4512612193,4092524004,29.36787223815918
27,27,4512612193,4092524004,26.25020408630371
28,28,4512612193,4092524004,24.739301681518555
29,29,4512612193,4092524004,25.42331886291504
30,30,4512612193,4092524004,24.7819881439209
31,31,4512612193,4092524004,25.436147689819336
32,32,4512612193,4092524004,27.36520767211914
33,33,4512612193,4092524004,27.824758529663086
34,34,4512612193,4092524004,27.76029396057129
35,35,4512612193,4092524004,27.07233428955078
36,36,4512612193,4092524004,25.910058975219727
37,37,4512612193,4092524004,35.69807434082031
38,38,4512612193,4092524004,45.584266662597656
39,39,4512612193,4092524004,38.26293182373047
40,40,4512612193,4092524004,35.07335662841797
41,41,4512612193,4092524004,50.592010498046875
42,42,4512612193,4092524004,55.2372932434082
43,43,4512612193,4092524004,56.480194091796875
44,44,4512612193,4092524004,53.38526153564453
45,45,4512612193,4092524004,51.46726989746094
46,46,4512612193,4092524004,44.05796432495117
47,47,4512612193,4092524004,33.93600082397461
48,48,4512612193,4092524004,33.98078155517578
49,49,4512612193,4092524004,35.80160140991211
50,50,4512612193,4092524004,34.64735412597656
51,51,4512612193,4092524004,34.99102020263672
52,52,4512612193,4092524004,26.49140167236328
53,53,4512612193,4092524004,24.53075408935547
54,54,4512612193,4092524004,28.908994674682617
55,55,4512612193,4092524004,39.10163879394531
56,56,4512612193,4092524004,41.01386642456055
57,57,4512612193,4092524004,41.37889099121094
58,58,4512612193,4092524004,45.44570541381836
59,59,4512612193,4092524004,50.98537063598633
60,60,4512612193,4092524004,57.40882873535156
61,61,4512612193,4092524004,57.27616500854492
62,62,4512612193,4092524004,55.92441177368164
63,63,4512612193,4092524004,56.32394790649414
64,64,4512612193,4092524004,56.56277847290039
65,65,4512612193,4092524004,59.19834899902344
66,66,4512612193,4092524004,60.02756118774414
67,67,4512612193,4092524004,62.05925750732422
68,68,4512612193,4092524004,61.242950439453125
69,69,4512612193,4092524004,58.9403190612793
70,70,4512612193,4092524004,60.69796371459961
71,71,4512612193,4092524004,61.276756286621094
72,72,4512612193,4092524004,61.71883773803711
73,73,4512612193,4092524004,61.198333740234375
74,74,4512612193,4092524004,62.53904342651367
75,75,4512612193,4092524004,65.3631362915039
76,76,4512612193,4092524004,65.56714630126953
77,77,4512612193,4092524004,65.8384017944336
78,78,4512612193,4092524004,66.2692642211914
79,79,4512612193,4092524004,60.028778076171875
80,80,4512612193,4092524004,65.40792846679688
81,81,4512612193,4092524004,57.879112243652344
82,82,4512612193,4092524004,47.53322219848633
83,83,4512612193,4092524004,65.9760971069336
84,84,4512612193,4092524004,67.3345947265625
85,85,4512612193,4092524004,68.37342071533203
86,86,4512612193,4092524004,71.68529510498047
87,87,4512612193,4092524004,67.70404052734375
88,88,4512612193,4092524004,63.68350601196289
89,89,4512612193,4092524004,56.373260498046875
90,90,4512612193,4092524004,47.654109954833984
91,91,4512612193,4092524004,50.961368560791016
92,92,4512612193,4092524004,49.06605911254883
93,93,4512612193,4092524004,43.420448303222656
94,94,4512612193,4092524004,39.100830078125
95,95,4512612193,4092524004,33.26723098754883
96,96,4512612193,4092524004,30.77091407775879
97,97,4512612193,4092524004,27.740602493286133
98,98,4512612193,4092524004,26.08899688720703
99,99,4512612193,4092524004,26.34814453125
100,100,4512612193,4092524004,25.64971160888672
101,101,4512612193,4092524004,25.06202507019043
102,102,4512612193,4092524004,24.362308502197266
103,103,4512612193,4092524004,25.32903480529785
104,104,4512612193,4092524004,30.593385696411133
105,105,4512612193,4092524004,36.41122817993164
106,106,4512612193,4092524004,35.99372863769531
107,107,4512612193,4092524004,37.109771728515625
108,108,4512612193,4092524004,45.524681091308594
109,109,4512612193,4092524004,46.27957534790039
110,110,4512612193,4092524004,45.605079650878906
111,111,4512612193,4092524004,51.37477111816406
112,112,4512612193,4092524004,55.78620147705078
113,113,4512612193,4092524004,57.59898376464844
114,114,4512612193,4092524004,56.28010177612305
115,115,4512612193,4092524004,55.308021545410156
116,116,4512612193,4092524004,52.83837890625
117,117,4512612193,4092524004,54.09482192993164
118,118,4512612193,4092524004,59.07363510131836
119,119,4512612193,4092524004,57.09752655029297
120,120,4512612193,4092524004,54.14263916015625
121,121,4512612193,4092524004,48.64215087890625
122,122,4512612193,4092524004,46.2414436340332
123,123,4512612193,4092524004,51.57687759399414
124,124,4512612193,4092524004,52.427791595458984
125,125,4512612193,4092524004,51.498104095458984
126,126,4512612193,4092524004,51.25374221801758
127,127,4512612193,4092524004,52.657012939453125
128,128,4512612193,4092524004,52.39716720581055
129,129,4512612193,4092524004,51.28765869140625
130,130,4512612193,4092524004,51.71593475341797
131,131,4512612193,4092524004,55.955867767333984
132,132,4512612193,4092524004,55.60063171386719
133,133,4512612193,4092524004,56.27592849731445
134,134,4512612193,4092524004,57.55448913574219
135,135,4512612193,4092524004,56.38438034057617
136,136,4512612193,4092524004,57.011512756347656
137,137,4512612193,4092524004,57.895938873291016
138,138,4512612193,4092524004,58.964107513427734
139,139,4512612193,4092524004,57.2596321105957
140,140,4512612193,4092524004,58.103729248046875
141,141,4512612193,4092524004,57.249576568603516
142,142,4512612193,4092524004,59.477325439453125
143,143,4512612193,4092524004,59.928184509277344
144,144,4512612193,4092524004,59.417152404785156
145,145,4512612193,4092524004,57.56386947631836
146,146,4512612193,4092524004,60.72188949584961
147,147,4512612193,4092524004,62.59945297241211
148,148,4512612193,4092524004,64.89848327636719
149,149,4512612193,4092524004,64.9140625
150,150,4512612193,4092524004,67.97168731689453
151,151,4512612193,4092524004,68.4198226928711
152,152,4512612193,4092524004,67.1903305053711
153,153,4512612193,4092524004,66.21598815917969
154,154,4512612193,4092524004,63.62602615356445
155,155,4512612193,4092524004,63.53944396972656
156,156,4512612193,4092524004,66.37905883789062
157,157,4512612193,4092524004,68.18885040283203
158,158,4512612193,4092524004,69.91773986816406
159,159,4512612193,4092524004,68.90096282958984
160,160,4512612193,4092524004,66.01327514648438
161,161,4512612193,4092524004,56.43909454345703
162,162,4512612193,4092524004,45.85824966430664
163,163,4512612193,4092524004,45.55488204956055
164,164,4512612193,4092524004,44.34173583984375
165,165,4512612193,4092524004,40.0316047668457
166,166,4512612193,4092524004,30.873117446899414
167,167,4512612193,4092524004,28.688045501708984
168,168,4512612193,4092524004,28.015945434570312
169,169,4512612193,4092524004,28.449302673339844
170,170,4512612193,4092524004,26.524433135986328
171,171,4512612193,4092524004,24.671598434448242
172,172,4512612193,4092524004,25.03830337524414
173,173,4512612193,4092524004,25.076190948486328
174,174,4512612193,4092524004,27.532215118408203
175,175,4512612193,4092524004,27.14777183532715
176,176,4512612193,4092524004,27.733732223510742
177,177,4512612193,4092524004,35.43895721435547
178,178,4512612193,4092524004,48.31253433227539
179,179,4512612193,4092524004,50.20627975463867
180,180,4512612193,4092524004,56.45376205444336
181,181,4512612193,4092524004,57.444488525390625
182,182,4512612193,4092524004,59.269676208496094
183,183,4512612193,4092524004,59.72542953491211
184,184,4512612193,4092524004,60.47410202026367
185,185,4512612193,4092524004,58.907501220703125
186,186,4512612193,4092524004,55.9721565246582
187,187,4512612193,4092524004,48.953006744384766
188,188,4512612193,4092524004,53.812496185302734
189,189,4512612193,4092524004,56.71323776245117
190,190,4512612193,4092524004,54.96281051635742
191,191,4512612193,4092524004,49.42048645019531
192,192,4512612193,4092524004,45.408348083496094
193,193,4512612193,4092524004,51.68947982788086
194,194,4512612193,4092524004,48.501808166503906
195,195,4512612193,4092524004,47.318241119384766
196,196,4512612193,4092524004,44.260040283203125
197,197,4512612193,4092524004,38.550289154052734
198,198,4512612193,4092524004,50.83876037597656
199,199,4512612193,4092524004,55.15093231201172
200,200,4512612193,4092524004,55.11396408081055
201,201,4512612193,4092524004,51.81593704223633
202,202,4512612193,4092524004,50.6104736328125
203,203,4512612193,4092524004,55.8936653137207
204,204,4512612193,4092524004,58.18754577636719
205,205,4512612193,4092524004,56.984989166259766
206,206,4512612193,4092524004,56.03812789916992
207,207,4512612193,4092524004,58.313899993896484
208,208,4512612193,4092524004,56.67144012451172
209,209,4512612193,4092524004,57.035430908203125
210,210,4512612193,4092524004,58.488277435302734
211,211,4512612193,4092524004,57.518821716308594
212,212,4512612193,4092524004,57.362186431884766
213,213,4512612193,4092524004,56.297454833984375
214,214,4512612193,4092524004,57.25232696533203
215,215,4512612193,4092524004,57.578582763671875
216,216,4512612193,4092524004,55.38311767578125
217,217,4512612193,4092524004,59.11682891845703
218,218,4512612193,4092524004,64.19297790527344
219,219,4512612193,4092524004,64.18726348876953
220,220,4512612193,4092524004,62.44512939453125
221,221,4512612193,4092524004,64.97178649902344
222,222,4512612193,4092524004,67.58609008789062
223,223,4512612193,4092524004,67.57272338867188
224,224,4512612193,4092524004,68.83623504638672
225,225,4512612193,4092524004,67.1903305053711
226,226,4512612193,4092524004,65.20172882080078
227,227,4512612193,4092524004,61.71177673339844
228,228,4512612193,4092524004,62.250797271728516
229,229,4512612193,4092524004,66.43241882324219
230,230,4512612193,4092524004,68.12409210205078
231,231,4512612193,4092524004,69.1384506225586
232,232,4512612193,4092524004,68.5920181274414
233,233,4512612193,4092524004,67.06814575195312
234,234,4512612193,4092524004,67.00875091552734
235,235,4512612193,4092524004,65.86235046386719
236,236,4512612193,4092524004,63.44688415527344
237,237,4512612193,4092524004,60.87168884277344
238,238,4512612193,4092524004,55.940643310546875
239,239,4512612193,4092524004,49.89508056640625
240,240,4512612193,4092524004,50.43474578857422
241,241,4512612193,4092524004,50.98591995239258
242,242,4512612193,4092524004,51.55453109741211
243,243,4512612193,4092524004,55.49399948120117
244,244,4512612193,4092524004,54.338218688964844
245,245,4512612193,4092524004,52.81769943237305
246,246,4512612193,4092524004,52.733795166015625
247,247,4512612193,4092524004,55.008140563964844
248,248,4512612193,4092524004,57.05388641357422
249,249,4512612193,4092524004,57.31682205200195
250,250,4512612193,4092524004,57.70314407348633
251,251,4512612193,4092524004,60.90818405151367
252,252,4512612193,4092524004,57.56920623779297
253,253,4512612193,4092524004,54.85951232910156
254,254,4512612193,4092524004,55.72270202636719
255,255,4512612193,4092524004,56.02062225341797
256,256,4512612193,4092524004,58.1494255065918
257,257,4512612193,4092524004,58.36341094970703
258,258,4512612193,4092524004,61.58879852294922
259,259,4512612193,4092524004,63.409271240234375
260,260,4512612193,4092524004,64.10707092285156
261,261,4512612193,4092524004,63.40102767944336
262,262,4512612193,4092524004,64.0535659790039
263,263,4512612193,4092524004,63.388946533203125
264,264,4512612193,4092524004,62.840911865234375
265,265,4512612193,4092524004,62.554134368896484
266,266,4512612193,4092524004,63.17098617553711
267,267,4512612193,4092524004,63.15528869628906
268,268,4512612193,4092524004,62.12751007080078
269,269,4512612193,4092524004,61.000511169433594
270,270,4512612193,4092524004,60.22093963623047
271,271,4512612193,4092524004,59.80087661743164
272,272,4512612193,4092524004,60.25107955932617
273,273,4512612193,4092524004,57.93071365356445
274,274,4512612193,4092524004,54.144378662109375
275,275,4512612193,4092524004,53.5184211730957
276,276,4512612193,4092524004,50.80741882324219
277,277,4512612193,4092524004,44.06525802612305
278,278,4512612193,4092524004,42.17047882080078
279,279,4512612193,4092524004,45.44707489013672
280,280,4512612193,4092524004,53.021034240722656
281,281,4512612193,4092524004,54.26250457763672
282,282,4512612193,4092524004,56.69749450683594
283,283,4512612193,4092524004,59.82524871826172
284,284,4512612193,4092524004,58.09632110595703
285,285,4512612193,4092524004,56.80312728881836
286,286,4512612193,4092524004,55.28952407836914
287,287,4512612193,4092524004,56.04335021972656
288,288,4512612193,4092524004,53.43854904174805
289,289,4512612193,4092524004,52.19017791748047
290,290,4512612193,4092524004,52.6027946472168
291,291,4512612193,4092524004,54.15223693847656
292,292,4512612193,4092524004,55.17863845825195
293,293,4512612193,4092524004,61.79623031616211
294,294,4512612193,4092524004,64.09830474853516
295,295,4512612193,4092524004,65.72480773925781
296,296,4512612193,4092524004,66.50759887695312
297,297,4512612193,4092524004,69.28861999511719
298,298,4512612193,4092524004,67.79835510253906
299,299,4512612193,4092524004,64.69029235839844
300,300,4512612193,4092524004,61.55160140991211
301,301,4512612193,4092524004,67.65837860107422
302,302,4512612193,4092524004,66.98480224609375
303,303,4512612193,4092524004,63.196868896484375
304,304,4512612193,4092524004,66.17626953125
305,305,4512612193,4092524004,64.42069244384766
306,306,4512612193,4092524004,63.25906753540039
307,307,4512612193,4092524004,64.07402801513672
308,308,4512612193,4092524004,61.31740951538086
309,309,4512612193,4092524004,63.22066116333008
310,310,4512612193,4092524004,65.77108764648438
311,311,4512612193,4092524004,68.15950775146484
312,312,4512612193,4092524004,68.59912872314453
313,313,4512612193,4092524004,67.67430114746094
314,314,4512612193,4092524004,67.0898208618164
315,315,4512612193,4092524004,66.50390625
316,316,4512612193,4092524004,67.67011260986328
317,317,4512612193,4092524004,65.87223052978516
318,318,4512612193,4092524004,65.14409637451172
319,319,4512612193,4092524004,65.32600402832031
320,320,4512612193,4092524004,64.05912780761719
321,321,4512612193,4092524004,64.30609893798828
322,322,4512612193,4092524004,65.62733459472656
323,323,4512612193,4092524004,65.04124450683594
324,324,4512612193,4092524004,62.120445251464844
325,325,4512612193,4092524004,59.26844024658203
326,326,4512612193,4092524004,58.920047760009766
327,327,4512612193,4092524004,60.06535720825195
328,328,4512612193,4092524004,61.463218688964844
329,329,4512612193,4092524004,61.97224426269531
330,330,4512612193,4092524004,62.331172943115234
331,331,4512612193,4092524004,60.30152130126953
332,332,4512612193,4092524004,62.239036560058594
333,333,4512612193,4092524004,63.76477813720703
334,334,4512612193,4092524004,62.744903564453125
335,335,4512612193,4092524004,63.78938293457031
336,336,4512612193,4092524004,64.89094543457031
337,337,4512612193,4092524004,64.07367706298828
338,338,4512612193,4092524004,63.48073959350586
339,339,4512612193,4092524004,62.95680618286133
340,340,4512612193,4092524004,60.92628860473633
341,341,4512612193,4092524004,62.06217956542969
342,342,4512612193,4092524004,61.94668197631836
343,343,4512612193,4092524004,60.944252014160156
344,344,4512612193,4092524004,59.125282287597656
345,345,4512612193,4092524004,57.046722412109375
346,346,4512612193,4092524004,56.255279541015625
347,347,4512612193,4092524004,51.866371154785156
348,348,4512612193,4092524004,51.6116828918457
349,349,4512612193,4092524004,50.605712890625
350,350,4512612193,4092524004,53.711944580078125
351,351,4512612193,4092524004,53.12889862060547
352,352,4512612193,4092524004,53.7379150390625
353,353,4512612193,4092524004,52.19729995727539
354,354,4512612193,4092524004,53.21945571899414
355,355,4512612193,4092524004,53.11726379394531
356,356,4512612193,4092524004,52.336456298828125
357,357,4512612193,4092524004,49.45419692993164
358,358,4512612193,4092524004,43.9576416015625
359,359,4512612193,4092524004,37.23807907104492
360,360,4512612193,4092524004,35.77391815185547
361,361,4512612193,4092524004,37.541934967041016
362,362,4512612193,4092524004,45.47865676879883
363,363,4512612193,4092524004,57.179466247558594
364,364,4512612193,4092524004,60.068443298339844
365,365,4512612193,4092524004,63.029319763183594
366,366,4512612193,4092524004,66.1766357421875
367,367,4512612193,4092524004,67.2392349243164
368,368,4512612193,4092524004,60.156314849853516
369,369,4512612193,4092524004,61.07979202270508
370,370,4512612193,4092524004,65.53923034667969
371,371,4512612193,4092524004,69.59202575683594
372,372,4512612193,4092524004,70.29582977294922
373,373,4512612193,4092524004,65.49275207519531
374,374,4512612193,4092524004,62.660911560058594
375,375,4512612193,4092524004,58.77556228637695
376,376,4512612193,4092524004,58.09431838989258
377,377,4512612193,4092524004,51.11384201049805
378,378,4512612193,4092524004,47.9454460144043
379,379,4512612193,4092524004,45.0345458984375
380,380,4512612193,4092524004,39.12752914428711
381,381,4512612193,4092524004,34.81136703491211
382,382,4512612193,4092524004,30.248268127441406
383,383,4512612193,4092524004,29.404226303100586
384,384,4512612193,4092524004,29.148326873779297
385,385,4512612193,4092524004,27.52809715270996
386,386,4512612193,4092524004,26.662452697753906
387,387,4512612193,4092524004,28.082609176635742
388,388,4512612193,4092524004,41.27256774902344
389,389,4512612193,4092524004,50.305274963378906
390,390,4512612193,4092524004,57.15835952758789
391,391,4512612193,4092524004,57.67379379272461
392,392,4512612193,4092524004,54.811439514160156
393,393,4512612193,4092524004,58.464149475097656
394,394,4512612193,4092524004,60.37270736694336
395,395,4512612193,4092524004,60.58268356323242
396,396,4512612193,4092524004,61.073524475097656
397,397,4512612193,4092524004,60.54930877685547
398,398,4512612193,4092524004,60.33920669555664
399,399,4512612193,4092524004,62.04058837890625
400,400,4512612193,4092524004,62.3203239440918
401,401,4512612193,4092524004,60.50448989868164
402,402,4512612193,4092524004,60.6495361328125
403,403,4512612193,4092524004,60.8314208984375
404,404,4512612193,4092524004,60.856143951416016
405,405,4512612193,4092524004,61.65830993652344
406,406,4512612193,4092524004,60.450843811035156
407,407,4512612193,4092524004,59.40093231201172
408,408,4512612193,4092524004,59.83482360839844
409,409,4512612193,4092524004,55.03196716308594
410,410,4512612193,4092524004,53.933624267578125
411,411,4512612193,4092524004,57.45427703857422
412,412,4512612193,4092524004,53.379791259765625
413,413,4512612193,4092524004,47.91956329345703
414,414,4512612193,4092524004,58.113101959228516
415,415,4512612193,4092524004,60.47859191894531
416,416,4512612193,4092524004,59.044586181640625
417,417,4512612193,4092524004,55.47672653198242
418,418,4512612193,4092524004,59.257057189941406
419,419,4512612193,4092524004,61.749061584472656
420,420,4512612193,4092524004,60.431915283203125
421,421,4512612193,4092524004,59.04688262939453
422,422,4512612193,4092524004,59.168670654296875
423,423,4512612193,4092524004,57.566158294677734
424,424,4512612193,4092524004,56.2769889831543
425,425,4512612193,4092524004,60.10541915893555
426,426,4512612193,4092524004,61.2381706237793
427,427,4512612193,4092524004,60.42108154296875
428,428,4512612193,4092524004,59.54502487182617
429,429,4512612193,4092524004,60.334693908691406
430,430,4512612193,4092524004,61.60830307006836
431,431,4512612193,4092524004,63.67576217651367
432,432,4512612193,4092524004,64.18599700927734
433,433,4512612193,4092524004,64.39909362792969
434,434,4512612193,4092524004,64.04650115966797
435,435,4512612193,4092524004,65.77201843261719
436,436,4512612193,4092524004,65.1717758178711
437,437,4512612193,4092524004,66.73394775390625
438,438,4512612193,4092524004,69.22905731201172
439,439,4512612193,4092524004,59.819026947021484
440,440,4512612193,4092524004,66.30937194824219
441,441,4512612193,4092524004,62.87101745605469
442,442,4512612193,4092524004,55.69416427612305
443,443,4512612193,4092524004,63.4607048034668
444,444,4512612193,4092524004,64.64080810546875
445,445,4512612193,4092524004,63.461769104003906
446,446,4512612193,4092524004,64.12998962402344
447,447,4512612193,4092524004,65.7679443359375
448,448,4512612193,4092524004,64.79147338867188
449,449,4512612193,4092524004,55.53245544433594
450,450,4512612193,4092524004,47.79471969604492
451,451,4512612193,4092524004,45.81278610229492
452,452,4512612193,4092524004,44.54931640625
453,453,4512612193,4092524004,42.61988067626953
454,454,4512612193,4092524004,39.99394226074219
455,455,4512612193,4092524004,32.99637222290039
456,456,4512612193,4092524004,28.630626678466797
457,457,4512612193,4092524004,27.940898895263672
458,458,4512612193,4092524004,27.728763580322266
459,459,4512612193,4092524004,27.650827407836914
460,460,4512612193,4092524004,25.23819923400879
461,461,4512612193,4092524004,23.813074111938477
462,462,4512612193,4092524004,23.299480438232422
463,463,4512612193,4092524004,25.06707000732422
464,464,4512612193,4092524004,24.77397346496582
465,465,4512612193,4092524004,24.374948501586914
466,466,4512612193,4092524004,27.680564880371094
467,467,4512612193,4092524004,28.791709899902344
468,468,4512612193,4092524004,33.740238189697266
469,469,4512612193,4092524004,30.968616485595703
470,470,4512612193,4092524004,40.432655334472656
471,471,4512612193,4092524004,50.83393859863281
472,472,4512612193,4092524004,49.836185455322266
473,473,4512612193,4092524004,48.324520111083984
474,474,4512612193,4092524004,47.52703094482422
475,475,4512612193,4092524004,43.24483108520508
476,476,4512612193,4092524004,53.380733489990234
477,477,4512612193,4092524004,59.750511169433594
478,478,4512612193,4092524004,59.89344787597656
479,479,4512612193,4092524004,55.69844436645508
480,480,4512612193,4092524004,54.80769348144531
481,481,4512612193,4092524004,54.252872467041016
482,482,4512612193,4092524004,51.54124450683594
483,483,4512612193,4092524004,50.34184646606445
484,484,4512612193,4092524004,42.402767181396484
485,485,4512612193,4092524004,42.20058059692383
486,486,4512612193,4092524004,40.19573211669922
487,487,4512612193,4092524004,43.64900588989258
488,488,4512612193,4092524004,53.256385803222656
489,489,4512612193,4092524004,53.34714126586914
490,490,4512612193,4092524004,54.545127868652344
491,491,4512612193,4092524004,59.4863395690918
492,492,4512612193,4092524004,59.26087188720703
493,493,4512612193,4092524004,57.87849807739258
494,494,4512612193,4092524004,56.667198181152344
495,495,4512612193,4092524004,58.75312423706055
496,496,4512612193,4092524004,60.41291427612305
497,497,4512612193,4092524004,59.08156204223633
498,498,4512612193,4092524004,58.43510818481445
499,499,4512612193,4092524004,59.844749450683594
500,500,4512612193,4092524004,59.51474380493164
501,501,4512612193,4092524004,60.68804168701172
502,502,4512612193,4092524004,60.788394927978516
503,503,4512612193,4092524004,59.36600875854492
