,slot,source,target,speed
0,0,423811145,423811144,64.76948547363281
1,1,423811145,423811144,64.08660125732422
2,2,423811145,423811144,65.60623168945312
3,3,423811145,423811144,65.97189331054688
4,4,423811145,423811144,66.8392105102539
5,5,423811145,423811144,69.4425048828125
6,6,423811145,423811144,69.4195327758789
7,7,423811145,423811144,66.94575500488281
8,8,423811145,423811144,64.68816375732422
9,9,423811145,423811144,65.17743682861328
10,10,423811145,423811144,66.27400207519531
11,11,423811145,423811144,68.50247192382812
12,12,423811145,423811144,70.83707427978516
13,13,423811145,423811144,71.15543365478516
14,14,423811145,423811144,70.07705688476562
15,15,423811145,423811144,67.77445983886719
16,16,423811145,423811144,64.69747161865234
17,17,423811145,423811144,52.3181266784668
18,18,423811145,423811144,25.777015686035156
19,19,423811145,423811144,18.256122589111328
20,20,423811145,423811144,17.755401611328125
21,21,423811145,423811144,17.18105125427246
22,22,423811145,423811144,17.11648178100586
23,23,423811145,423811144,16.5892276763916
24,24,423811145,423811144,16.21556282043457
25,25,423811145,423811144,16.06561851501465
26,26,423811145,423811144,15.6846342086792
27,27,423811145,423811144,16.465572357177734
28,28,423811145,423811144,15.881417274475098
29,29,423811145,423811144,15.84974193572998
30,30,423811145,423811144,17.113563537597656
31,31,423811145,423811144,16.31243133544922
32,32,423811145,423811144,17.03685760498047
33,33,423811145,423811144,23.433330535888672
34,34,423811145,423811144,38.69929122924805
35,35,423811145,423811144,45.81989288330078
36,36,423811145,423811144,47.992149353027344
37,37,423811145,423811144,55.321632385253906
38,38,423811145,423811144,57.20136260986328
39,39,423811145,423811144,56.148223876953125
40,40,423811145,423811144,58.451805114746094
41,41,423811145,423811144,59.442630767822266
42,42,423811145,423811144,58.579429626464844
43,43,423811145,423811144,59.41707229614258
44,44,423811145,423811144,58.65933609008789
45,45,423811145,423811144,57.74589920043945
46,46,423811145,423811144,57.80593490600586
47,47,423811145,423811144,56.57448196411133
48,48,423811145,423811144,55.94182205200195
49,49,423811145,423811144,57.313194274902344
50,50,423811145,423811144,55.97654724121094
51,51,423811145,423811144,53.46531295776367
52,52,423811145,423811144,46.77965545654297
53,53,423811145,423811144,29.951623916625977
54,54,423811145,423811144,19.821638107299805
55,55,423811145,423811144,32.468162536621094
56,56,423811145,423811144,51.71214294433594
57,57,423811145,423811144,50.591941833496094
58,58,423811145,423811144,48.155391693115234
59,59,423811145,423811144,53.95702362060547
60,60,423811145,423811144,59.776851654052734
61,61,423811145,423811144,59.79169845581055
62,62,423811145,423811144,59.13555908203125
63,63,423811145,423811144,59.746524810791016
64,64,423811145,423811144,60.73417663574219
65,65,423811145,423811144,62.17660140991211
66,66,423811145,423811144,62.28456497192383
67,67,423811145,423811144,62.42872619628906
68,68,423811145,423811144,61.859737396240234
69,69,423811145,423811144,62.6152458190918
70,70,423811145,423811144,63.08897018432617
71,71,423811145,423811144,63.32136154174805
72,72,423811145,423811144,62.00000762939453
73,73,423811145,423811144,62.48937225341797
74,74,423811145,423811144,64.3867416381836
75,75,423811145,423811144,65.6393814086914
76,76,423811145,423811144,68.2305679321289
77,77,423811145,423811144,68.17874908447266
78,78,423811145,423811144,65.17008972167969
79,79,423811145,423811144,63.71183395385742
80,80,423811145,423811144,62.63485336303711
81,81,423811145,423811144,64.87364959716797
82,82,423811145,423811144,66.69987487792969
83,83,423811145,423811144,68.07515716552734
84,84,423811145,423811144,65.28563690185547
85,85,423811145,423811144,64.6213607788086
86,86,423811145,423811144,67.53665161132812
87,87,423811145,423811144,67.27328491210938
88,88,423811145,423811144,64.61781311035156
89,89,423811145,423811144,60.074119567871094
90,90,423811145,423811144,46.5508918762207
91,91,423811145,423811144,26.988351821899414
92,92,423811145,423811144,22.696155548095703
93,93,423811145,423811144,20.481712341308594
94,94,423811145,423811144,17.89564323425293
95,95,423811145,423811144,17.24208641052246
96,96,423811145,423811144,16.164920806884766
97,97,423811145,423811144,15.45110034942627
98,98,423811145,423811144,15.968536376953125
99,99,423811145,423811144,15.057283401489258
100,100,423811145,423811144,15.366852760314941
101,101,423811145,423811144,15.857710838317871
102,102,423811145,423811144,15.653836250305176
103,103,423811145,423811144,15.588570594787598
104,104,423811145,423811144,16.543542861938477
105,105,423811145,423811144,17.78083038330078
106,106,423811145,423811144,22.291746139526367
107,107,423811145,423811144,35.056793212890625
108,108,423811145,423811144,51.02510452270508
109,109,423811145,423811144,52.915382385253906
110,110,423811145,423811144,57.062522888183594
111,111,423811145,423811144,58.375038146972656
112,112,423811145,423811144,58.33551025390625
113,113,423811145,423811144,61.00801086425781
114,114,423811145,423811144,59.451663970947266
115,115,423811145,423811144,58.10972213745117
116,116,423811145,423811144,57.24352264404297
117,117,423811145,423811144,60.77305221557617
118,118,423811145,423811144,62.1087532043457
119,119,423811145,423811144,61.41069793701172
120,120,423811145,423811144,61.66789245605469
121,121,423811145,423811144,59.98517608642578
122,122,423811145,423811144,58.179412841796875
123,123,423811145,423811144,58.1107063293457
124,124,423811145,423811144,57.2861328125
125,125,423811145,423811144,57.64974594116211
126,126,423811145,423811144,56.23402404785156
127,127,423811145,423811144,55.54366683959961
128,128,423811145,423811144,58.083553314208984
129,129,423811145,423811144,54.360313415527344
130,130,423811145,423811144,55.215476989746094
131,131,423811145,423811144,60.50077438354492
132,132,423811145,423811144,60.923519134521484
133,133,423811145,423811144,60.29110336303711
134,134,423811145,423811144,60.567970275878906
135,135,423811145,423811144,60.62956619262695
136,136,423811145,423811144,60.65702819824219
137,137,423811145,423811144,58.79901885986328
138,138,423811145,423811144,59.794925689697266
139,139,423811145,423811144,60.16581344604492
140,140,423811145,423811144,61.26360321044922
141,141,423811145,423811144,61.7902946472168
142,142,423811145,423811144,61.61783981323242
143,143,423811145,423811144,62.46355056762695
144,144,423811145,423811144,62.293792724609375
145,145,423811145,423811144,63.097869873046875
146,146,423811145,423811144,62.608924865722656
147,147,423811145,423811144,62.4150390625
148,148,423811145,423811144,64.10739135742188
149,149,423811145,423811144,65.393798828125
150,150,423811145,423811144,67.62137603759766
151,151,423811145,423811144,67.88204193115234
152,152,423811145,423811144,69.89068603515625
153,153,423811145,423811144,70.60416412353516
154,154,423811145,423811144,68.78160095214844
155,155,423811145,423811144,66.34959411621094
156,156,423811145,423811144,66.32105255126953
157,157,423811145,423811144,66.36466217041016
158,158,423811145,423811144,66.31880187988281
159,159,423811145,423811144,71.27772521972656
160,160,423811145,423811144,68.2339096069336
161,161,423811145,423811144,54.72310256958008
162,162,423811145,423811144,38.61182403564453
163,163,423811145,423811144,20.191804885864258
164,164,423811145,423811144,16.946516036987305
165,165,423811145,423811144,18.237585067749023
166,166,423811145,423811144,16.811294555664062
167,167,423811145,423811144,16.630626678466797
168,168,423811145,423811144,16.344959259033203
169,169,423811145,423811144,15.510679244995117
170,170,423811145,423811144,15.395063400268555
171,171,423811145,423811144,16.41992950439453
172,172,423811145,423811144,15.812638282775879
173,173,423811145,423811144,16.613006591796875
174,174,423811145,423811144,17.524738311767578
175,175,423811145,423811144,18.377805709838867
176,176,423811145,423811144,25.66245460510254
177,177,423811145,423811144,50.07939910888672
178,178,423811145,423811144,59.49151611328125
179,179,423811145,423811144,59.33003616333008
180,180,423811145,423811144,60.275146484375
181,181,423811145,423811144,60.31285858154297
182,182,423811145,423811144,60.8004264831543
183,183,423811145,423811144,60.8102912902832
184,184,423811145,423811144,61.49055480957031
185,185,423811145,423811144,61.887821197509766
186,186,423811145,423811144,59.053672790527344
187,187,423811145,423811144,58.73497009277344
188,188,423811145,423811144,61.7229118347168
189,189,423811145,423811144,60.69309997558594
190,190,423811145,423811144,60.68928909301758
191,191,423811145,423811144,59.38663864135742
192,192,423811145,423811144,61.04077911376953
193,193,423811145,423811144,59.67781066894531
194,194,423811145,423811144,58.10346984863281
195,195,423811145,423811144,56.527610778808594
196,196,423811145,423811144,56.27446365356445
197,197,423811145,423811144,56.533203125
198,198,423811145,423811144,59.06824493408203
199,199,423811145,423811144,59.110206604003906
200,200,423811145,423811144,56.06743621826172
201,201,423811145,423811144,48.706199645996094
202,202,423811145,423811144,37.059329986572266
203,203,423811145,423811144,52.79970169067383
204,204,423811145,423811144,59.5522575378418
205,205,423811145,423811144,58.34880065917969
206,206,423811145,423811144,58.03996276855469
207,207,423811145,423811144,59.72795867919922
208,208,423811145,423811144,58.99120330810547
209,209,423811145,423811144,59.585628509521484
210,210,423811145,423811144,61.09519958496094
211,211,423811145,423811144,59.90949249267578
212,212,423811145,423811144,59.031307220458984
213,213,423811145,423811144,56.48439025878906
214,214,423811145,423811144,58.604400634765625
215,215,423811145,423811144,60.2449951171875
216,216,423811145,423811144,58.313995361328125
217,217,423811145,423811144,60.447452545166016
218,218,423811145,423811144,63.971717834472656
219,219,423811145,423811144,63.27593231201172
220,220,423811145,423811144,65.58605194091797
221,221,423811145,423811144,66.5367202758789
222,222,423811145,423811144,65.7225112915039
223,223,423811145,423811144,65.78888702392578
224,224,423811145,423811144,64.95262145996094
225,225,423811145,423811144,65.97257995605469
226,226,423811145,423811144,68.63116455078125
227,227,423811145,423811144,68.74394989013672
228,228,423811145,423811144,61.986637115478516
229,229,423811145,423811144,47.84577178955078
230,230,423811145,423811144,64.2373046875
231,231,423811145,423811144,66.27576446533203
232,232,423811145,423811144,65.79178619384766
233,233,423811145,423811144,67.58306884765625
234,234,423811145,423811144,67.91092681884766
235,235,423811145,423811144,66.06083679199219
236,236,423811145,423811144,64.23616027832031
237,237,423811145,423811144,61.82069778442383
238,238,423811145,423811144,54.24610137939453
239,239,423811145,423811144,43.09543991088867
240,240,423811145,423811144,48.03767776489258
241,241,423811145,423811144,39.12907409667969
242,242,423811145,423811144,46.58914566040039
243,243,423811145,423811144,55.283782958984375
244,244,423811145,423811144,56.8258056640625
245,245,423811145,423811144,55.6760139465332
246,246,423811145,423811144,56.71531677246094
247,247,423811145,423811144,58.097190856933594
248,248,423811145,423811144,58.84473419189453
249,249,423811145,423811144,57.40959548950195
250,250,423811145,423811144,59.51049041748047
251,251,423811145,423811144,60.728275299072266
252,252,423811145,423811144,59.93305206298828
253,253,423811145,423811144,59.867122650146484
254,254,423811145,423811144,59.32858657836914
255,255,423811145,423811144,60.461849212646484
256,256,423811145,423811144,60.7014045715332
257,257,423811145,423811144,59.98171615600586
258,258,423811145,423811144,63.57191467285156
259,259,423811145,423811144,63.40738296508789
260,260,423811145,423811144,61.8962516784668
261,261,423811145,423811144,63.04035949707031
262,262,423811145,423811144,62.981319427490234
263,263,423811145,423811144,62.441307067871094
264,264,423811145,423811144,61.95444107055664
265,265,423811145,423811144,62.39906311035156
266,266,423811145,423811144,64.05970001220703
267,267,423811145,423811144,63.1757698059082
268,268,423811145,423811144,62.640785217285156
269,269,423811145,423811144,63.918460845947266
270,270,423811145,423811144,61.65787887573242
271,271,423811145,423811144,60.0803337097168
272,272,423811145,423811144,60.36552047729492
273,273,423811145,423811144,59.10142135620117
274,274,423811145,423811144,56.04593276977539
275,275,423811145,423811144,54.93408203125
276,276,423811145,423811144,53.55915069580078
277,277,423811145,423811144,47.095272064208984
278,278,423811145,423811144,42.652679443359375
279,279,423811145,423811144,50.41218948364258
280,280,423811145,423811144,55.823097229003906
281,281,423811145,423811144,58.832950592041016
282,282,423811145,423811144,61.90605545043945
283,283,423811145,423811144,62.139801025390625
284,284,423811145,423811144,60.247005462646484
285,285,423811145,423811144,59.555545806884766
286,286,423811145,423811144,57.70264434814453
287,287,423811145,423811144,57.83871841430664
288,288,423811145,423811144,57.02818298339844
289,289,423811145,423811144,57.42531204223633
290,290,423811145,423811144,58.3619384765625
291,291,423811145,423811144,58.11981201171875
292,292,423811145,423811144,59.75333023071289
293,293,423811145,423811144,61.095462799072266
294,294,423811145,423811144,63.792694091796875
295,295,423811145,423811144,64.54217529296875
296,296,423811145,423811144,62.80245590209961
297,297,423811145,423811144,65.67605590820312
298,298,423811145,423811144,70.19091796875
299,299,423811145,423811144,68.2590560913086
300,300,423811145,423811144,66.52031707763672
301,301,423811145,423811144,67.12417602539062
302,302,423811145,423811144,67.92990112304688
303,303,423811145,423811144,69.00106811523438
304,304,423811145,423811144,71.04825592041016
305,305,423811145,423811144,67.97698974609375
306,306,423811145,423811144,67.55347442626953
307,307,423811145,423811144,68.83321380615234
308,308,423811145,423811144,68.8161392211914
309,309,423811145,423811144,69.09931182861328
310,310,423811145,423811144,67.4326400756836
311,311,423811145,423811144,65.99828338623047
312,312,423811145,423811144,67.02638244628906
313,313,423811145,423811144,66.85688781738281
314,314,423811145,423811144,67.77622985839844
315,315,423811145,423811144,67.89900207519531
316,316,423811145,423811144,67.93146514892578
317,317,423811145,423811144,66.87560272216797
318,318,423811145,423811144,65.56657409667969
319,319,423811145,423811144,66.50390625
320,320,423811145,423811144,64.89485168457031
321,321,423811145,423811144,62.79793167114258
322,322,423811145,423811144,64.96256256103516
323,323,423811145,423811144,64.49459075927734
324,324,423811145,423811144,62.30931854248047
325,325,423811145,423811144,61.2481575012207
326,326,423811145,423811144,61.59921646118164
327,327,423811145,423811144,64.94591522216797
328,328,423811145,423811144,67.2535629272461
329,329,423811145,423811144,65.70816802978516
330,330,423811145,423811144,63.53130340576172
331,331,423811145,423811144,64.22518920898438
332,332,423811145,423811144,64.379638671875
333,333,423811145,423811144,63.892189025878906
334,334,423811145,423811144,64.83068084716797
335,335,423811145,423811144,64.32170867919922
336,336,423811145,423811144,65.73208618164062
337,337,423811145,423811144,65.2881088256836
338,338,423811145,423811144,63.5804557800293
339,339,423811145,423811144,62.57467269897461
340,340,423811145,423811144,62.716896057128906
341,341,423811145,423811144,61.9052734375
342,342,423811145,423811144,61.4807014465332
343,343,423811145,423811144,61.206451416015625
344,344,423811145,423811144,59.843936920166016
345,345,423811145,423811144,57.3983039855957
346,346,423811145,423811144,57.67292785644531
347,347,423811145,423811144,55.00529098510742
348,348,423811145,423811144,52.38509750366211
349,349,423811145,423811144,53.13401794433594
350,350,423811145,423811144,55.3219108581543
351,351,423811145,423811144,55.34623336791992
352,352,423811145,423811144,55.97447204589844
353,353,423811145,423811144,56.06292724609375
354,354,423811145,423811144,56.006378173828125
355,355,423811145,423811144,53.530418395996094
356,356,423811145,423811144,56.048744201660156
357,357,423811145,423811144,56.865997314453125
358,358,423811145,423811144,49.94108581542969
359,359,423811145,423811144,28.879074096679688
360,360,423811145,423811144,18.915193557739258
361,361,423811145,423811144,18.787212371826172
362,362,423811145,423811144,22.116432189941406
363,363,423811145,423811144,55.981178283691406
364,364,423811145,423811144,65.5770263671875
365,365,423811145,423811144,65.81391906738281
366,366,423811145,423811144,67.21147918701172
367,367,423811145,423811144,68.06351470947266
368,368,423811145,423811144,64.48603820800781
369,369,423811145,423811144,64.62535095214844
370,370,423811145,423811144,64.23171997070312
371,371,423811145,423811144,67.42056274414062
372,372,423811145,423811144,67.87481689453125
373,373,423811145,423811144,69.34093475341797
374,374,423811145,423811144,68.92115783691406
375,375,423811145,423811144,68.26483917236328
376,376,423811145,423811144,65.47572326660156
377,377,423811145,423811144,52.56988525390625
378,378,423811145,423811144,39.56618881225586
379,379,423811145,423811144,22.583919525146484
380,380,423811145,423811144,16.47701644897461
381,381,423811145,423811144,16.647933959960938
382,382,423811145,423811144,17.182735443115234
383,383,423811145,423811144,16.56303596496582
384,384,423811145,423811144,15.453113555908203
385,385,423811145,423811144,14.6309814453125
386,386,423811145,423811144,16.080154418945312
387,387,423811145,423811144,23.260513305664062
388,388,423811145,423811144,46.2560920715332
389,389,423811145,423811144,57.178226470947266
390,390,423811145,423811144,60.89198303222656
391,391,423811145,423811144,59.54079818725586
392,392,423811145,423811144,57.378173828125
393,393,423811145,423811144,58.77341842651367
394,394,423811145,423811144,59.417396545410156
395,395,423811145,423811144,59.863460540771484
396,396,423811145,423811144,60.97811508178711
397,397,423811145,423811144,60.991336822509766
398,398,423811145,423811144,60.4588508605957
399,399,423811145,423811144,61.558082580566406
400,400,423811145,423811144,60.43366241455078
401,401,423811145,423811144,58.61038589477539
402,402,423811145,423811144,60.52953338623047
403,403,423811145,423811144,62.74673843383789
404,404,423811145,423811144,62.07463836669922
405,405,423811145,423811144,61.59134292602539
406,406,423811145,423811144,61.60519027709961
407,407,423811145,423811144,61.16683578491211
408,408,423811145,423811144,60.6769905090332
409,409,423811145,423811144,61.7642822265625
410,410,423811145,423811144,62.63054656982422
411,411,423811145,423811144,63.011226654052734
412,412,423811145,423811144,62.54238510131836
413,413,423811145,423811144,63.67171859741211
414,414,423811145,423811144,63.494972229003906
415,415,423811145,423811144,62.65006637573242
416,416,423811145,423811144,59.44696044921875
417,417,423811145,423811144,57.06238555908203
418,418,423811145,423811144,60.920997619628906
419,419,423811145,423811144,62.98211669921875
420,420,423811145,423811144,61.62202835083008
421,421,423811145,423811144,62.07223129272461
422,422,423811145,423811144,61.62995910644531
423,423,423811145,423811144,60.70051193237305
424,424,423811145,423811144,60.0683479309082
425,425,423811145,423811144,62.92906951904297
426,426,423811145,423811144,63.88202667236328
427,427,423811145,423811144,64.93993377685547
428,428,423811145,423811144,63.95948791503906
429,429,423811145,423811144,65.30227661132812
430,430,423811145,423811144,64.6086196899414
431,431,423811145,423811144,64.88114929199219
432,432,423811145,423811144,65.27822875976562
433,433,423811145,423811144,65.4496841430664
434,434,423811145,423811144,63.597930908203125
435,435,423811145,423811144,67.75799560546875
436,436,423811145,423811144,66.2823257446289
437,437,423811145,423811144,68.80043029785156
438,438,423811145,423811144,68.2390365600586
439,439,423811145,423811144,67.7305908203125
440,440,423811145,423811144,68.6827621459961
441,441,423811145,423811144,64.7374267578125
442,442,423811145,423811144,64.17840576171875
443,443,423811145,423811144,65.316650390625
444,444,423811145,423811144,68.91050720214844
445,445,423811145,423811144,67.90534973144531
446,446,423811145,423811144,65.30147552490234
447,447,423811145,423811144,66.99388122558594
448,448,423811145,423811144,68.74205017089844
449,449,423811145,423811144,53.915931701660156
450,450,423811145,423811144,38.14590835571289
451,451,423811145,423811144,20.369083404541016
452,452,423811145,423811144,16.836387634277344
453,453,423811145,423811144,17.417348861694336
454,454,423811145,423811144,17.076480865478516
455,455,423811145,423811144,16.60196876525879
456,456,423811145,423811144,15.95886516571045
457,457,423811145,423811144,14.953309059143066
458,458,423811145,423811144,15.079099655151367
459,459,423811145,423811144,16.054323196411133
460,460,423811145,423811144,14.746718406677246
461,461,423811145,423811144,14.284832000732422
462,462,423811145,423811144,14.32204532623291
463,463,423811145,423811144,14.022457122802734
464,464,423811145,423811144,14.519259452819824
465,465,423811145,423811144,14.12525463104248
466,466,423811145,423811144,13.350672721862793
467,467,423811145,423811144,15.65311336517334
468,468,423811145,423811144,20.689781188964844
469,469,423811145,423811144,41.18047332763672
470,470,423811145,423811144,54.85011672973633
471,471,423811145,423811144,56.89909362792969
472,472,423811145,423811144,57.36001205444336
473,473,423811145,423811144,60.4699592590332
474,474,423811145,423811144,58.95145034790039
475,475,423811145,423811144,59.06138229370117
476,476,423811145,423811144,59.862510681152344
477,477,423811145,423811144,62.27901840209961
478,478,423811145,423811144,60.83525848388672
479,479,423811145,423811144,59.02399444580078
480,480,423811145,423811144,59.947898864746094
481,481,423811145,423811144,59.0714225769043
482,482,423811145,423811144,60.81267166137695
483,483,423811145,423811144,61.53962707519531
484,484,423811145,423811144,57.827945709228516
485,485,423811145,423811144,56.38967514038086
486,486,423811145,423811144,59.551212310791016
487,487,423811145,423811144,60.381778717041016
488,488,423811145,423811144,59.38603210449219
489,489,423811145,423811144,56.53569793701172
490,490,423811145,423811144,57.014705657958984
491,491,423811145,423811144,60.959678649902344
492,492,423811145,423811144,62.063594818115234
493,493,423811145,423811144,63.059993743896484
494,494,423811145,423811144,62.006568908691406
495,495,423811145,423811144,60.96875762939453
496,496,423811145,423811144,61.2238883972168
497,497,423811145,423811144,60.30301284790039
498,498,423811145,423811144,61.409271240234375
499,499,423811145,423811144,61.79052734375
500,500,423811145,423811144,61.320335388183594
501,501,423811145,423811144,61.16762924194336
502,502,423811145,423811144,63.92472457885742
503,503,423811145,423811144,62.985164642333984
