,slot,source,target,median,var,cnt
0,234,4313969139,4092524002,65.84334564208984,28.524078369140625,14
1,284,4313969139,4092524002,61.292415618896484,24.370222091674805,61
2,301,4313969139,4092524002,69.5400390625,4.674488067626953,2
3,366,4313969139,4092524002,67.04202270507812,20.363262176513672,7
4,381,4313969139,4092524002,36.08613586425781,181.88796997070312,25
5,125,4313969139,4092524002,45.55762481689453,436.0857238769531,44
6,127,4313969139,4092524002,62.16096878051758,420.76873779296875,41
7,201,4313969139,4092524002,55.66411209106445,67.12459564208984,107
8,257,4313969139,4092524002,59.0560302734375,158.36123657226562,64
9,29,4313969139,4092524002,19.84600830078125,65.0333480834961,71
10,46,4313969139,4092524002,27.61295509338379,163.12942504882812,57
11,168,4313969139,4092524002,20.022418975830078,127.50313568115234,53
12,237,4313969139,4092524002,65.46754455566406,26.295543670654297,60
13,258,4313969139,4092524002,63.77219772338867,30.425357818603516,52
14,280,4313969139,4092524002,58.02297592163086,124.70852661132812,53
15,374,4313969139,4092524002,64.73023223876953,,1
16,247,4313969139,4092524002,58.316856384277344,44.5351676940918,71
17,285,4313969139,4092524002,60.060523986816406,29.411439895629883,74
18,492,4313969139,4092524002,63.65617752075195,32.512542724609375,53
19,69,4313969139,4092524002,61.96111297607422,44.96495819091797,45
20,303,4313969139,4092524002,69.46127319335938,,1
21,254,4313969139,4092524002,59.1722297668457,298.54705810546875,34
22,263,4313969139,4092524002,65.87384033203125,70.068603515625,53
23,500,4313969139,4092524002,61.56967544555664,41.81966018676758,47
24,40,4313969139,4092524002,45.529541015625,99.52227783203125,56
25,265,4313969139,4092524002,63.657249450683594,38.44097137451172,74
26,432,4313969139,4092524002,65.06548309326172,26.98014259338379,25
27,160,4313969139,4092524002,63.354854583740234,38.871360778808594,7
28,418,4313969139,4092524002,65.06768035888672,32.343963623046875,57
29,477,4313969139,4092524002,62.65316390991211,59.066951751708984,43
30,87,4313969139,4092524002,68.95783233642578,,1
31,131,4313969139,4092524002,62.19410705566406,109.96905517578125,52
32,225,4313969139,4092524002,66.45968627929688,15.964653015136719,4
33,117,4313969139,4092524002,54.86335754394531,374.7188415527344,39
34,200,4313969139,4092524002,60.14216995239258,49.94264221191406,75
35,236,4313969139,4092524002,66.1513900756836,34.04520034790039,41
36,363,4313969139,4092524002,64.56173706054688,22.04612922668457,9
37,408,4313969139,4092524002,64.20222473144531,109.2295150756836,53
38,80,4313969139,4092524002,69.25581359863281,1.3506109714508057,2
39,422,4313969139,4092524002,64.47750091552734,28.008398056030273,60
40,143,4313969139,4092524002,63.16046905517578,127.99909973144531,49
41,241,4313969139,4092524002,54.819725036621094,178.67877197265625,74
42,260,4313969139,4092524002,64.20219421386719,21.45798110961914,58
43,107,4313969139,4092524002,23.284679412841797,303.49176025390625,26
44,295,4313969139,4092524002,67.51046752929688,33.399173736572266,7
45,439,4313969139,4092524002,51.88126754760742,,1
46,61,4313969139,4092524002,61.544437408447266,29.960660934448242,55
47,108,4313969139,4092524002,30.661996841430664,567.6690063476562,35
48,196,4313969139,4092524002,23.741348266601562,465.7073669433594,56
49,239,4313969139,4092524002,52.819236755371094,237.08836364746094,59
50,406,4313969139,4092524002,62.560340881347656,30.092266082763672,67
51,433,4313969139,4092524002,65.68826293945312,26.69713020324707,17
52,441,4313969139,4092524002,64.8973388671875,,1
53,468,4313969139,4092524002,26.358875274658203,168.7170867919922,28
54,5,4313969139,4092524002,69.2084732055664,13.336118698120117,3
55,56,4313969139,4092524002,26.943084716796875,253.4736785888672,44
56,185,4313969139,4092524002,61.3367919921875,55.274478912353516,43
57,209,4313969139,4092524002,59.118324279785156,44.28727340698242,87
58,349,4313969139,4092524002,52.86599349975586,201.3024139404297,33
59,30,4313969139,4092524002,20.23877716064453,50.670650482177734,42
60,79,4313969139,4092524002,58.453094482421875,66.10498809814453,3
61,83,4313969139,4092524002,70.58704376220703,0.28088465332984924,3
62,481,4313969139,4092524002,43.82508850097656,434.3924865722656,61
63,71,4313969139,4092524002,64.9552001953125,27.171232223510742,35
64,264,4313969139,4092524002,64.62117004394531,30.1718807220459,68
65,291,4313969139,4092524002,58.14991760253906,48.73805236816406,28
66,121,4313969139,4092524002,36.75428771972656,334.63427734375,66
67,337,4313969139,4092524002,65.90737915039062,34.815277099609375,34
68,340,4313969139,4092524002,63.09040069580078,29.69879150390625,43
69,400,4313969139,4092524002,64.570068359375,14.924935340881348,54
70,31,4313969139,4092524002,23.203001022338867,72.62610626220703,51
71,50,4313969139,4092524002,18.828033447265625,104.80249786376953,39
72,198,4313969139,4092524002,55.52107620239258,496.7275695800781,46
73,10,4313969139,4092524002,66.99971771240234,,1
74,188,4313969139,4092524002,41.30766296386719,214.94491577148438,54
75,437,4313969139,4092524002,66.83554077148438,9.13436222076416,2
76,20,4313969139,4092524002,54.5755500793457,200.20571899414062,31
77,471,4313969139,4092524002,34.60685729980469,347.99560546875,17
78,23,4313969139,4092524002,21.75360107421875,56.16934585571289,54
79,297,4313969139,4092524002,69.40264892578125,31.493894577026367,5
80,316,4313969139,4092524002,68.7885971069336,14.253640174865723,21
81,377,4313969139,4092524002,59.338539123535156,44.12800216674805,6
82,403,4313969139,4092524002,63.95293045043945,39.269004821777344,32
83,482,4313969139,4092524002,31.26252555847168,256.4213562011719,41
84,183,4313969139,4092524002,63.60426330566406,143.7310333251953,38
85,144,4313969139,4092524002,62.6573600769043,28.986461639404297,25
86,184,4313969139,4092524002,63.04362487792969,42.38593292236328,52
87,192,4313969139,4092524002,20.946115493774414,296.5118408203125,46
88,315,4313969139,4092524002,68.02132415771484,4.492857456207275,13
89,344,4313969139,4092524002,62.187503814697266,21.994903564453125,64
90,473,4313969139,4092524002,47.05332565307617,84.40119171142578,45
91,89,4313969139,4092524002,64.82366943359375,32.53776931762695,13
92,249,4313969139,4092524002,61.175079345703125,39.45058059692383,68
93,419,4313969139,4092524002,65.97781372070312,30.1422119140625,48
94,450,4313969139,4092524002,55.51536178588867,18.962604522705078,29
95,311,4313969139,4092524002,68.06269073486328,25.07776641845703,13
96,154,4313969139,4092524002,66.63641357421875,0.15220150351524353,2
97,276,4313969139,4092524002,55.698829650878906,317.0854187011719,51
98,322,4313969139,4092524002,65.60420227050781,21.02522087097168,32
99,425,4313969139,4092524002,62.78451919555664,23.048776626586914,42
100,194,4313969139,4092524002,27.2536563873291,362.7386474609375,63
101,446,4313969139,4092524002,64.66926574707031,,1
102,474,4313969139,4092524002,45.951080322265625,296.775390625,27
103,151,4313969139,4092524002,71.00260162353516,0.1919531375169754,3
104,287,4313969139,4092524002,59.81749725341797,39.253944396972656,36
105,329,4313969139,4092524002,66.01016998291016,21.674882888793945,29
106,382,4313969139,4092524002,28.352813720703125,200.68650817871094,33
107,252,4313969139,4092524002,61.042274475097656,166.7580108642578,40
108,429,4313969139,4092524002,63.24103546142578,25.70182991027832,35
109,3,4313969139,4092524002,64.99205017089844,24.744773864746094,17
110,18,4313969139,4092524002,54.522796630859375,48.525794982910156,19
111,357,4313969139,4092524002,55.54048156738281,106.13771057128906,48
112,470,4313969139,4092524002,23.24811553955078,197.69345092773438,34
113,359,4313969139,4092524002,46.265342712402344,345.72296142578125,24
114,323,4313969139,4092524002,66.67951965332031,16.3210506439209,29
115,371,4313969139,4092524002,70.66319274902344,36.79635238647461,5
116,134,4313969139,4092524002,61.283939361572266,27.009952545166016,58
117,150,4313969139,4092524002,70.92398071289062,20.913860321044922,6
118,132,4313969139,4092524002,59.19907760620117,39.11091613769531,48
119,64,4313969139,4092524002,61.73621368408203,32.929908752441406,41
120,139,4313969139,4092524002,60.877281188964844,31.28131675720215,57
121,203,4313969139,4092524002,61.99266052246094,38.139400482177734,59
122,417,4313969139,4092524002,59.32746505737305,32.329586029052734,85
123,190,4313969139,4092524002,43.15580749511719,389.3872985839844,53
124,218,4313969139,4092524002,65.83418273925781,32.08623123168945,37
125,44,4313969139,4092524002,55.89878845214844,292.61761474609375,85
126,105,4313969139,4092524002,41.11052703857422,316.001708984375,43
127,180,4313969139,4092524002,58.21342086791992,206.97793579101562,52
128,430,4313969139,4092524002,63.65565490722656,42.66912078857422,54
129,28,4313969139,4092524002,13.992910385131836,67.27699279785156,46
130,167,4313969139,4092524002,21.745100021362305,184.2394561767578,58
131,324,4313969139,4092524002,63.717323303222656,26.192689895629883,25
132,308,4313969139,4092524002,70.37581634521484,24.0044002532959,3
133,389,4313969139,4092524002,56.890647888183594,309.46514892578125,73
134,352,4313969139,4092524002,57.744197845458984,48.94133377075195,45
135,355,4313969139,4092524002,57.4144401550293,42.933380126953125,45
136,169,4313969139,4092524002,21.078643798828125,269.7957458496094,77
137,283,4313969139,4092524002,63.06835174560547,28.840925216674805,42
138,300,4313969139,4092524002,66.32537078857422,2.081824541091919,3
139,313,4313969139,4092524002,68.53961944580078,20.703725814819336,21
140,91,4313969139,4092524002,58.59574890136719,118.77867889404297,26
141,271,4313969139,4092524002,62.0856819152832,85.05059814453125,73
142,13,4313969139,4092524002,70.60128784179688,,1
143,330,4313969139,4092524002,65.84614562988281,28.710628509521484,43
144,364,4313969139,4092524002,66.21644592285156,24.996509552001953,9
145,454,4313969139,4092524002,42.81871795654297,224.9471893310547,51
146,476,4313969139,4092524002,57.684326171875,414.8025207519531,37
147,159,4313969139,4092524002,69.94697570800781,0.14058686792850494,2
148,376,4313969139,4092524002,69.33663940429688,17.163022994995117,3
149,98,4313969139,4092524002,19.03265380859375,48.55312728881836,68
150,458,4313969139,4092524002,20.850292205810547,91.53583526611328,58
151,92,4313969139,4092524002,61.29726791381836,286.49322509765625,33
152,401,4313969139,4092524002,63.035850524902344,40.8664665222168,48
153,75,4313969139,4092524002,67.62857055664062,14.436715126037598,20
154,181,4313969139,4092524002,58.78995132446289,98.86503601074219,42
155,78,4313969139,4092524002,65.45219421386719,45.5285758972168,5
156,195,4313969139,4092524002,26.646520614624023,469.8095397949219,51
157,405,4313969139,4092524002,62.61956787109375,42.39186477661133,69
158,281,4313969139,4092524002,59.76645278930664,35.90786361694336,37
159,38,4313969139,4092524002,47.93695068359375,123.20891571044922,43
160,41,4313969139,4092524002,55.2230110168457,86.52655029296875,68
161,494,4313969139,4092524002,61.116119384765625,22.627168655395508,31
162,223,4313969139,4092524002,66.83777618408203,10.062662124633789,3
163,255,4313969139,4092524002,58.84861755371094,220.93336486816406,47
164,346,4313969139,4092524002,58.22919464111328,139.79183959960938,34
165,55,4313969139,4092524002,26.518972396850586,302.5579528808594,24
166,231,4313969139,4092524002,69.87710571289062,,1
167,304,4313969139,4092524002,66.52277374267578,,1
168,496,4313969139,4092524002,63.04402542114258,35.858150482177734,34
169,133,4313969139,4092524002,59.77992248535156,31.890621185302734,55
170,176,4313969139,4092524002,18.444530487060547,132.96592712402344,60
171,193,4313969139,4092524002,34.195030212402344,427.2627868652344,70
172,156,4313969139,4092524002,65.20201873779297,6.413521766662598,5
173,310,4313969139,4092524002,69.95773315429688,8.118192672729492,5
174,480,4313969139,4092524002,57.895164489746094,366.47265625,53
175,232,4313969139,4092524002,69.283935546875,,1
176,338,4313969139,4092524002,64.93525695800781,35.16902160644531,42
177,100,4313969139,4092524002,17.582059860229492,76.20828247070312,66
178,39,4313969139,4092524002,48.0839729309082,323.466796875,49
179,178,4313969139,4092524002,41.02118682861328,240.058349609375,49
180,259,4313969139,4092524002,65.46795654296875,48.063194274902344,48
181,262,4313969139,4092524002,65.99482727050781,19.630971908569336,72
182,503,4313969139,4092524002,61.23452377319336,33.341796875,27
183,306,4313969139,4092524002,66.97817993164062,8.905339241027832,6
184,412,4313969139,4092524002,58.607818603515625,598.9553833007812,41
185,421,4313969139,4092524002,63.37742233276367,40.220947265625,61
186,43,4313969139,4092524002,59.08629608154297,453.6146545410156,75
187,335,4313969139,4092524002,65.33980560302734,23.24402618408203,45
188,353,4313969139,4092524002,56.88792419433594,39.14457702636719,47
189,488,4313969139,4092524002,56.99354553222656,366.5004577636719,41
190,443,4313969139,4092524002,62.645179748535156,58.71937942504883,4
191,261,4313969139,4092524002,65.49427795410156,32.527137756347656,55
192,312,4313969139,4092524002,69.57679748535156,11.980446815490723,10
193,14,4313969139,4092524002,68.33245086669922,,1
194,34,4313969139,4092524002,21.067184448242188,173.21847534179688,32
195,113,4313969139,4092524002,58.49310302734375,228.4705047607422,39
196,173,4313969139,4092524002,15.537327766418457,131.96937561035156,73
197,415,4313969139,4092524002,65.95745849609375,25.2172794342041,34
198,22,4313969139,4092524002,34.73796463012695,97.19257354736328,37
199,414,4313969139,4092524002,60.99310302734375,323.5547180175781,42
200,36,4313969139,4092524002,19.281673431396484,157.74224853515625,22
201,148,4313969139,4092524002,65.56623840332031,20.213363647460938,24
202,347,4313969139,4092524002,55.88024139404297,223.31617736816406,36
203,463,4313969139,4092524002,17.219850540161133,32.24210739135742,55
204,122,4313969139,4092524002,26.02454948425293,424.0984802246094,54
205,238,4313969139,4092524002,59.387290954589844,39.593109130859375,77
206,467,4313969139,4092524002,22.138280868530273,149.4604034423828,31
207,109,4313969139,4092524002,34.336063385009766,504.7031555175781,31
208,348,4313969139,4092524002,55.422149658203125,142.59622192382812,47
209,447,4313969139,4092524002,65.7346420288086,,1
210,110,4313969139,4092524002,26.290424346923828,345.6174011230469,28
211,140,4313969139,4092524002,61.164695739746094,35.663719177246094,60
212,214,4313969139,4092524002,62.19385528564453,61.34750747680664,52
213,427,4313969139,4092524002,62.42902374267578,29.75053596496582,38
214,53,4313969139,4092524002,18.444217681884766,52.12898635864258,26
215,453,4313969139,4092524002,50.06562042236328,88.36847686767578,34
216,486,4313969139,4092524002,21.63806915283203,421.5614929199219,66
217,0,4313969139,4092524002,63.661949157714844,21.03826141357422,22
218,326,4313969139,4092524002,61.059165954589844,38.905487060546875,40
219,369,4313969139,4092524002,65.63790893554688,,1
220,466,4313969139,4092524002,22.08601188659668,416.62603759765625,34
221,210,4313969139,4092524002,63.03480529785156,45.28177261352539,47
222,334,4313969139,4092524002,64.45510864257812,21.868183135986328,35
223,6,4313969139,4092524002,66.98831176757812,26.734975814819336,4
224,319,4313969139,4092524002,67.95616149902344,31.695541381835938,23
225,383,4313969139,4092524002,20.21129035949707,66.67188262939453,45
226,420,4313969139,4092524002,64.65540313720703,137.3170166015625,43
227,42,4313969139,4092524002,51.460121154785156,99.66011047363281,72
228,116,4313969139,4092524002,45.38725662231445,350.28253173828125,50
229,267,4313969139,4092524002,64.22689056396484,19.338558197021484,63
230,2,4313969139,4092524002,64.86747741699219,24.184850692749023,20
231,118,4313969139,4092524002,64.29695129394531,31.084867477416992,38
232,130,4313969139,4092524002,56.89439392089844,313.70135498046875,88
233,202,4313969139,4092524002,54.28108215332031,47.78777313232422,118
234,449,4313969139,4092524002,63.76288604736328,19.303157806396484,5
235,266,4313969139,4092524002,66.0846176147461,25.797372817993164,46
236,399,4313969139,4092524002,63.451576232910156,23.9363956451416,53
237,8,4313969139,4092524002,68.12387084960938,1.0590369701385498,2
238,228,4313969139,4092524002,62.81639099121094,,1
239,342,4313969139,4092524002,64.93709564208984,32.428688049316406,29
240,413,4313969139,4092524002,34.96726989746094,499.8948974609375,55
241,115,4313969139,4092524002,42.89289855957031,334.59552001953125,46
242,499,4313969139,4092524002,63.11732482910156,41.343536376953125,45
243,141,4313969139,4092524002,61.527896881103516,41.15705108642578,41
244,163,4313969139,4092524002,53.14376449584961,84.97993469238281,31
245,288,4313969139,4092524002,56.93376922607422,48.30146026611328,39
246,452,4313969139,4092524002,49.15501403808594,153.34051513671875,36
247,33,4313969139,4092524002,21.848543167114258,79.2907485961914,41
248,128,4313969139,4092524002,55.05427551269531,425.428955078125,52
249,459,4313969139,4092524002,20.010086059570312,112.82450866699219,67
250,208,4313969139,4092524002,59.72831344604492,36.512149810791016,65
251,86,4313969139,4092524002,71.68529510498047,,1
252,165,4313969139,4092524002,42.406471252441406,215.8304443359375,36
253,123,4313969139,4092524002,25.556354522705078,582.8594970703125,34
254,410,4313969139,4092524002,62.984283447265625,414.23486328125,42
255,493,4313969139,4092524002,63.57376480102539,30.867708206176758,30
256,270,4313969139,4092524002,64.4287109375,19.59796142578125,64
257,378,4313969139,4092524002,56.07099914550781,15.617456436157227,28
258,495,4313969139,4092524002,60.52155685424805,38.505615234375,25
259,26,4313969139,4092524002,23.76415252685547,66.1065902709961,65
260,145,4313969139,4092524002,60.65816116333008,29.267650604248047,44
261,251,4313969139,4092524002,64.36212158203125,34.264747619628906,56
262,362,4313969139,4092524002,46.97264862060547,118.77608489990234,10
263,235,4313969139,4092524002,67.52261352539062,14.558370590209961,44
264,320,4313969139,4092524002,66.83251953125,22.450363159179688,31
265,32,4313969139,4092524002,20.993600845336914,43.985633850097656,54
266,164,4313969139,4092524002,51.679054260253906,269.5306396484375,31
267,220,4313969139,4092524002,64.75837707519531,32.62767791748047,25
268,296,4313969139,4092524002,66.5667724609375,10.040632247924805,9
269,27,4313969139,4092524002,15.783599853515625,70.43708801269531,60
270,124,4313969139,4092524002,39.756813049316406,496.495361328125,42
271,224,4313969139,4092524002,69.5435562133789,27.014358520507812,7
272,356,4313969139,4092524002,57.66579055786133,19.446338653564453,27
273,394,4313969139,4092524002,62.08906936645508,30.688430786132812,63
274,54,4313969139,4092524002,12.781444549560547,178.39952087402344,20
275,187,4313969139,4092524002,35.13520050048828,377.0014953613281,56
276,365,4313969139,4092524002,66.96817016601562,27.089590072631836,9
277,490,4313969139,4092524002,57.82940673828125,40.317298889160156,96
278,15,4313969139,4092524002,62.68789291381836,,1
279,240,4313969139,4092524002,57.17335891723633,176.64854431152344,60
280,70,4313969139,4092524002,65.7030258178711,35.04981994628906,30
281,309,4313969139,4092524002,67.79582214355469,17.150056838989258,8
282,392,4313969139,4092524002,52.972938537597656,225.29481506347656,74
283,273,4313969139,4092524002,62.21211624145508,17.093311309814453,54
284,293,4313969139,4092524002,65.25833129882812,21.48491859436035,20
285,404,4313969139,4092524002,63.075687408447266,31.763280868530273,45
286,60,4313969139,4092524002,62.326847076416016,83.96623229980469,48
287,221,4313969139,4092524002,67.73759460449219,13.578177452087402,10
288,274,4313969139,4092524002,57.10093688964844,199.24151611328125,71
289,286,4313969139,4092524002,57.29353332519531,24.740076065063477,46
290,368,4313969139,4092524002,62.62428665161133,44.99394607543945,3
291,424,4313969139,4092524002,59.184322357177734,33.6616096496582,43
292,216,4313969139,4092524002,59.083011627197266,75.61775207519531,43
293,341,4313969139,4092524002,61.101524353027344,39.330970764160156,35
294,460,4313969139,4092524002,16.775020599365234,38.8287239074707,62
295,120,4313969139,4092524002,46.228172302246094,371.8753662109375,67
296,387,4313969139,4092524002,19.561843872070312,94.5994873046875,50
297,428,4313969139,4092524002,61.89616012573242,38.72416305541992,47
298,333,4313969139,4092524002,66.22090911865234,47.130767822265625,33
299,411,4313969139,4092524002,61.37470626831055,534.2381591796875,51
300,250,4313969139,4092524002,57.563385009765625,174.6757354736328,70
301,104,4313969139,4092524002,20.42642593383789,297.05621337890625,50
302,171,4313969139,4092524002,19.363853454589844,103.89693450927734,70
303,277,4313969139,4092524002,38.78383255004883,305.0477294921875,34
304,217,4313969139,4092524002,63.32684326171875,41.053733825683594,35
305,242,4313969139,4092524002,54.88454818725586,222.63340759277344,57
306,63,4313969139,4092524002,60.130165100097656,33.99003601074219,42
307,475,4313969139,4092524002,31.953310012817383,475.7391052246094,42
308,502,4313969139,4092524002,62.85390090942383,30.76540184020996,25
309,189,4313969139,4092524002,59.687129974365234,177.89657592773438,27
310,68,4313969139,4092524002,63.595821380615234,34.85187911987305,51
311,35,4313969139,4092524002,18.53191375732422,112.81158447265625,34
312,76,4313969139,4092524002,68.01403045654297,16.337106704711914,19
313,328,4313969139,4092524002,65.60404205322266,31.128992080688477,22
314,229,4313969139,4092524002,66.46925354003906,,1
315,179,4313969139,4092524002,39.1181640625,334.8729248046875,61
316,7,4313969139,4092524002,60.84722900390625,52.0293083190918,2
317,45,4313969139,4092524002,33.53445053100586,340.3194274902344,53
318,227,4313969139,4092524002,70.46681213378906,0.23677942156791687,2
319,409,4313969139,4092524002,60.821205139160156,234.94064331054688,50
320,472,4313969139,4092524002,32.57201385498047,242.37107849121094,35
321,16,4313969139,4092524002,67.65306091308594,67.28086853027344,4
322,90,4313969139,4092524002,54.33469772338867,27.43260955810547,23
323,212,4313969139,4092524002,61.41124725341797,33.81291198730469,72
324,12,4313969139,4092524002,68.14874267578125,,1
325,182,4313969139,4092524002,61.832061767578125,94.23445129394531,50
326,370,4313969139,4092524002,60.60834503173828,,1
327,138,4313969139,4092524002,61.882835388183594,48.37495422363281,64
328,416,4313969139,4092524002,62.15716552734375,36.643829345703125,78
329,321,4313969139,4092524002,65.82244873046875,20.079750061035156,33
330,345,4313969139,4092524002,58.67911911010742,33.4889030456543,43
331,62,4313969139,4092524002,59.174842834472656,54.77252197265625,68
332,84,4313969139,4092524002,68.99170684814453,16.890098571777344,3
333,136,4313969139,4092524002,59.64105987548828,18.738208770751953,53
334,292,4313969139,4092524002,58.808494567871094,29.790895462036133,26
335,19,4313969139,4092524002,53.497432708740234,23.33777618408203,33
336,37,4313969139,4092524002,16.938690185546875,74.60994720458984,12
337,226,4313969139,4092524002,70.6671142578125,1.7734827995300293,2
338,339,4313969139,4092524002,65.14439392089844,27.46364402770996,56
339,65,4313969139,4092524002,62.124027252197266,26.342214584350586,35
340,207,4313969139,4092524002,60.56775665283203,27.620546340942383,63
341,350,4313969139,4092524002,59.34683609008789,61.47018814086914,31
342,155,4313969139,4092524002,62.751258850097656,22.693273544311523,2
343,278,4313969139,4092524002,42.28956604003906,270.1681213378906,38
344,451,4313969139,4092524002,53.62851333618164,28.995725631713867,39
345,491,4313969139,4092524002,64.35313415527344,41.077552795410156,55
346,17,4313969139,4092524002,61.90462875366211,32.95606994628906,13
347,211,4313969139,4092524002,60.45755386352539,38.8450813293457,81
348,298,4313969139,4092524002,69.7330093383789,13.614972114562988,8
349,448,4313969139,4092524002,64.67788696289062,,1
350,146,4313969139,4092524002,63.52764892578125,31.18918800354004,46
351,327,4313969139,4092524002,66.22193908691406,34.20178985595703,32
352,1,4313969139,4092524002,66.8499755859375,35.58611297607422,25
353,96,4313969139,4092524002,21.934906005859375,128.1061248779297,54
354,354,4313969139,4092524002,57.23332977294922,41.342201232910156,46
355,396,4313969139,4092524002,65.1469497680664,34.14822769165039,42
356,393,4313969139,4092524002,62.54814910888672,31.730363845825195,64
357,402,4313969139,4092524002,63.893707275390625,30.0654239654541,43
358,142,4313969139,4092524002,62.48951721191406,44.74972152709961,50
359,172,4313969139,4092524002,19.333816528320312,145.02867126464844,66
360,351,4313969139,4092524002,56.827857971191406,325.4791259765625,33
361,66,4313969139,4092524002,63.154903411865234,51.39791488647461,41
362,440,4313969139,4092524002,67.57559204101562,1.2416298389434814,2
363,73,4313969139,4092524002,63.09422302246094,29.982934951782227,30
364,204,4313969139,4092524002,60.45033645629883,46.954132080078125,77
365,213,4313969139,4092524002,59.71735382080078,52.489280700683594,90
366,103,4313969139,4092524002,17.5518798828125,70.83425903320312,41
367,302,4313969139,4092524002,68.86112976074219,3.2267532348632812,4
368,336,4313969139,4092524002,66.95651245117188,24.638137817382812,41
369,380,4313969139,4092524002,38.34281921386719,140.09149169921875,34
370,174,4313969139,4092524002,23.963315963745117,173.20652770996094,49
371,434,4313969139,4092524002,63.952735900878906,116.09028625488281,19
372,438,4313969139,4092524002,71.50871276855469,0.2897964119911194,3
373,111,4313969139,4092524002,36.63877868652344,328.6905212402344,38
374,135,4313969139,4092524002,61.32256317138672,24.484102249145508,56
375,74,4313969139,4092524002,63.4637336730957,58.31883239746094,27
376,407,4313969139,4092524002,59.12569808959961,133.82386779785156,59
377,331,4313969139,4092524002,63.154972076416016,76.32782745361328,47
378,435,4313969139,4092524002,68.27922821044922,14.904231071472168,14
379,489,4313969139,4092524002,57.663307189941406,59.65031051635742,77
380,487,4313969139,4092524002,23.999755859375,379.2724304199219,40
381,51,4313969139,4092524002,15.252189636230469,171.06689453125,32
382,205,4313969139,4092524002,61.245277404785156,51.97685241699219,63
383,464,4313969139,4092524002,17.74168586730957,62.78586959838867,34
384,59,4313969139,4092524002,53.82482147216797,96.54863739013672,50
385,294,4313969139,4092524002,64.16525268554688,59.35014343261719,16
386,465,4313969139,4092524002,17.480789184570312,74.21946716308594,44
387,137,4313969139,4092524002,60.51282501220703,35.20931625366211,44
388,161,4313969139,4092524002,64.76933288574219,31.24393653869629,9
389,162,4313969139,4092524002,53.245216369628906,53.87701416015625,22
390,367,4313969139,4092524002,69.28760528564453,19.183364868164062,10
391,469,4313969139,4092524002,21.05242156982422,200.38429260253906,32
392,24,4313969139,4092524002,19.340402603149414,63.18951416015625,57
393,57,4313969139,4092524002,48.898170471191406,234.36642456054688,59
394,269,4313969139,4092524002,63.952980041503906,37.680198669433594,52
395,282,4313969139,4092524002,59.189693450927734,48.861724853515625,27
396,149,4313969139,4092524002,68.39862060546875,13.776278495788574,11
397,501,4313969139,4092524002,63.172874450683594,25.968128204345703,24
398,386,4313969139,4092524002,20.304445266723633,59.343116760253906,67
399,397,4313969139,4092524002,63.71964645385742,34.462886810302734,47
400,431,4313969139,4092524002,64.44349670410156,18.44766616821289,31
401,49,4313969139,4092524002,14.241914749145508,150.53494262695312,36
402,343,4313969139,4092524002,65.13135528564453,26.309988021850586,40
403,478,4313969139,4092524002,59.80149841308594,104.87541961669922,75
404,88,4313969139,4092524002,67.51670837402344,1.565207600593567,4
405,102,4313969139,4092524002,18.71119499206543,59.946067810058594,51
406,398,4313969139,4092524002,62.23109436035156,26.831438064575195,64
407,436,4313969139,4092524002,65.91226959228516,21.709142684936523,10
408,253,4313969139,4092524002,56.76375198364258,383.3268127441406,55
409,256,4313969139,4092524002,64.04225158691406,28.910804748535156,48
410,426,4313969139,4092524002,63.14778137207031,51.113792419433594,57
411,385,4313969139,4092524002,27.603004455566406,243.3509521484375,67
412,461,4313969139,4092524002,19.0067081451416,74.220703125,47
413,77,4313969139,4092524002,64.5436782836914,50.95500564575195,6
414,498,4313969139,4092524002,60.8553352355957,28.609159469604492,42
415,230,4313969139,4092524002,69.760498046875,0.24987466633319855,3
416,245,4313969139,4092524002,56.397613525390625,101.09003448486328,103
417,126,4313969139,4092524002,58.982322692871094,704.719970703125,33
418,129,4313969139,4092524002,54.87444305419922,266.9039611816406,67
419,170,4313969139,4092524002,20.285587310791016,85.79212188720703,61
420,423,4313969139,4092524002,62.31680679321289,26.725191116333008,55
421,485,4313969139,4092524002,24.39255714416504,184.6970672607422,37
422,48,4313969139,4092524002,22.763378143310547,140.7565155029297,39
423,93,4313969139,4092524002,52.957481384277344,163.64801025390625,45
424,152,4313969139,4092524002,68.39837646484375,9.801907539367676,4
425,233,4313969139,4092524002,67.64695739746094,12.652585983276367,6
426,290,4313969139,4092524002,60.510986328125,36.806884765625,23
427,191,4313969139,4092524002,40.72978973388672,437.5162048339844,51
428,47,4313969139,4092524002,18.956684112548828,59.1234245300293,46
429,186,4313969139,4092524002,61.584285736083984,37.41701126098633,44
430,244,4313969139,4092524002,59.7790412902832,45.3098258972168,81
431,318,4313969139,4092524002,67.078125,20.79888343811035,28
432,325,4313969139,4092524002,61.39923858642578,45.752140045166016,17
433,455,4313969139,4092524002,29.24220085144043,147.8282470703125,55
434,462,4313969139,4092524002,13.952423095703125,41.42280197143555,50
435,479,4313969139,4092524002,49.04717254638672,413.6052551269531,62
436,497,4313969139,4092524002,61.465702056884766,28.227502822875977,30
437,275,4313969139,4092524002,59.40292739868164,427.4673767089844,48
438,384,4313969139,4092524002,22.415380477905273,117.67150115966797,52
439,4,4313969139,4092524002,66.71395111083984,20.50589370727539,12
440,97,4313969139,4092524002,17.571212768554688,59.28395462036133,57
441,248,4313969139,4092524002,58.024322509765625,242.5772705078125,84
442,388,4313969139,4092524002,34.8090934753418,344.3246765136719,57
443,112,4313969139,4092524002,57.6634521484375,375.7890930175781,32
444,219,4313969139,4092524002,66.40118408203125,30.492130279541016,35
445,390,4313969139,4092524002,61.93634796142578,105.12645721435547,56
446,114,4313969139,4092524002,57.999855041503906,191.7296600341797,30
447,119,4313969139,4092524002,60.88225555419922,98.15438079833984,66
448,305,4313969139,4092524002,65.74229431152344,14.17229175567627,2
449,314,4313969139,4092524002,68.37403106689453,12.324654579162598,15
450,197,4313969139,4092524002,16.579477310180664,226.0066375732422,44
451,289,4313969139,4092524002,56.75499725341797,35.29338455200195,36
452,299,4313969139,4092524002,64.86358642578125,15.780033111572266,3
453,358,4313969139,4092524002,44.91411590576172,213.23199462890625,30
454,457,4313969139,4092524002,16.940513610839844,80.02847290039062,42
455,94,4313969139,4092524002,40.82146453857422,238.6002960205078,38
456,268,4313969139,4092524002,65.61376953125,29.834781646728516,51
457,272,4313969139,4092524002,63.122161865234375,44.2027702331543,59
458,58,4313969139,4092524002,52.199676513671875,70.24706268310547,80
459,222,4313969139,4092524002,68.5260009765625,1.7080870866775513,3
460,72,4313969139,4092524002,65.33488464355469,36.67416000366211,29
461,177,4313969139,4092524002,24.505146026611328,432.1476745605469,51
462,360,4313969139,4092524002,39.094696044921875,285.6661376953125,5
463,361,4313969139,4092524002,31.439064025878906,49.868324279785156,12
464,199,4313969139,4092524002,61.446998596191406,137.4862823486328,62
465,215,4313969139,4092524002,61.21773910522461,47.30513000488281,50
466,379,4313969139,4092524002,54.881866455078125,20.98453140258789,38
467,456,4313969139,4092524002,15.770864486694336,67.43807983398438,46
468,166,4313969139,4092524002,26.993236541748047,208.4398193359375,57
469,175,4313969139,4092524002,15.620285987854004,285.2972106933594,47
470,483,4313969139,4092524002,51.65838623046875,478.78448486328125,37
471,157,4313969139,4092524002,65.35211181640625,,1
472,52,4313969139,4092524002,13.082463264465332,30.47201156616211,25
473,67,4313969139,4092524002,64.76528930664062,35.516849517822266,42
474,106,4313969139,4092524002,25.173185348510742,162.5536346435547,52
475,147,4313969139,4092524002,63.96880340576172,23.45225715637207,29
476,243,4313969139,4092524002,61.297603607177734,49.62703323364258,83
477,307,4313969139,4092524002,68.0931396484375,2.5115303993225098,2
478,317,4313969139,4092524002,67.33998107910156,16.00861358642578,21
479,101,4313969139,4092524002,20.93750762939453,76.20653533935547,56
480,206,4313969139,4092524002,59.039276123046875,29.531532287597656,55
481,391,4313969139,4092524002,60.9870719909668,177.28317260742188,76
482,395,4313969139,4092524002,63.072898864746094,21.875370025634766,51
483,21,4313969139,4092524002,41.0775032043457,152.6853485107422,35
484,25,4313969139,4092524002,21.85690689086914,74.79742431640625,47
485,99,4313969139,4092524002,23.533714294433594,79.4070053100586,65
486,279,4313969139,4092524002,39.34402084350586,277.2480163574219,49
487,332,4313969139,4092524002,64.12999725341797,21.211654663085938,41
488,95,4313969139,4092524002,28.41787338256836,186.71983337402344,56
489,246,4313969139,4092524002,55.318931579589844,143.73878479003906,67
490,484,4313969139,4092524002,19.33758544921875,393.54046630859375,31
