,slot,source,target,median,var,cnt
0,385,4429444667,34024778,23.317729949951172,37.02747344970703,83
1,418,4429444667,34024778,62.43903350830078,57.85343933105469,78
2,69,4429444667,34024778,59.042972564697266,85.62063598632812,50
3,137,4429444667,34024778,58.30950164794922,47.94564437866211,55
4,142,4429444667,34024778,60.24784851074219,50.61912155151367,54
5,323,4429444667,34024778,64.68474578857422,28.24273681640625,33
6,174,4429444667,34024778,25.73151969909668,153.65863037109375,54
7,413,4429444667,34024778,56.55549621582031,267.10162353515625,66
8,30,4429444667,34024778,24.74797821044922,58.01273727416992,56
9,32,4429444667,34024778,28.96712875366211,51.84777069091797,54
10,38,4429444667,34024778,44.06341552734375,145.34164428710938,62
11,112,4429444667,34024778,59.7113037109375,90.41648864746094,40
12,145,4429444667,34024778,59.1630859375,55.096702575683594,48
13,264,4429444667,34024778,64.04972839355469,32.5118293762207,74
14,118,4429444667,34024778,62.843631744384766,88.048095703125,55
15,138,4429444667,34024778,61.01526641845703,70.53424072265625,71
16,310,4429444667,34024778,66.68084716796875,75.01936340332031,8
17,494,4429444667,34024778,57.63053894042969,38.260093688964844,37
18,212,4429444667,34024778,59.6018180847168,44.036617279052734,75
19,366,4429444667,34024778,68.39314270019531,36.74641036987305,7
20,423,4429444667,34024778,58.72888946533203,48.03107833862305,62
21,105,4429444667,34024778,33.14061737060547,279.0448913574219,50
22,177,4429444667,34024778,45.93486022949219,332.88836669921875,54
23,195,4429444667,34024778,52.977298736572266,300.1734313964844,85
24,267,4429444667,34024778,64.15629577636719,22.830162048339844,70
25,307,4429444667,34024778,64.78780364990234,53.21799087524414,5
26,447,4429444667,34024778,68.25315856933594,20.230093002319336,2
27,285,4429444667,34024778,57.01268005371094,42.83528518676758,84
28,49,4429444667,34024778,39.404396057128906,229.7453155517578,58
29,336,4429444667,34024778,64.61180114746094,34.437984466552734,38
30,359,4429444667,34024778,41.29336166381836,163.82070922851562,29
31,496,4429444667,34024778,60.29941940307617,98.10741424560547,41
32,318,4429444667,34024778,67.23885345458984,25.402524948120117,26
33,72,4429444667,34024778,61.494606018066406,58.47671127319336,30
34,192,4429444667,34024778,49.9482421875,333.2472839355469,46
35,328,4429444667,34024778,64.59706115722656,41.433837890625,21
36,489,4429444667,34024778,54.654396057128906,50.057430267333984,111
37,143,4429444667,34024778,60.515892028808594,122.64383697509766,50
38,256,4429444667,34024778,59.22293472290039,55.24681854248047,61
39,362,4429444667,34024778,46.111610412597656,62.08673095703125,12
40,421,4429444667,34024778,60.85761642456055,57.50242614746094,71
41,97,4429444667,34024778,24.412986755371094,46.56132507324219,74
42,5,4429444667,34024778,69.31336975097656,1.3409370183944702,3
43,132,4429444667,34024778,56.3830680847168,54.74435806274414,65
44,271,4429444667,34024778,60.19261169433594,52.19501876831055,79
45,296,4429444667,34024778,65.87151336669922,20.28672218322754,9
46,410,4429444667,34024778,58.09014892578125,276.6070861816406,66
47,123,4429444667,34024778,58.68682861328125,528.9931640625,41
48,472,4429444667,34024778,55.28197479248047,301.0453186035156,44
49,163,4429444667,34024778,43.64983367919922,113.18495178222656,40
50,165,4429444667,34024778,43.939186096191406,75.86979675292969,44
51,308,4429444667,34024778,69.00279235839844,48.01142883300781,8
52,92,4429444667,34024778,50.34836196899414,267.81488037109375,47
53,106,4429444667,34024778,38.09185791015625,227.38442993164062,58
54,427,4429444667,34024778,61.32479476928711,45.625465393066406,41
55,152,4429444667,34024778,67.68901062011719,23.735610961914062,5
56,340,4429444667,34024778,61.64439392089844,43.53218078613281,51
57,367,4429444667,34024778,67.82427978515625,19.81484031677246,9
58,13,4429444667,34024778,72.1915054321289,,1
59,218,4429444667,34024778,64.89036560058594,36.404991149902344,38
60,462,4429444667,34024778,22.548065185546875,55.633792877197266,56
61,479,4429444667,34024778,56.885902404785156,194.65550231933594,70
62,40,4429444667,34024778,35.43549728393555,300.3433532714844,77
63,412,4429444667,34024778,58.60966491699219,86.4805679321289,53
64,440,4429444667,34024778,71.80863189697266,3.7791521549224854,2
65,502,4429444667,34024778,63.17597961425781,40.55534744262695,30
66,355,4429444667,34024778,53.67412567138672,49.36114501953125,50
67,383,4429444667,34024778,28.992189407348633,47.17390060424805,73
68,493,4429444667,34024778,58.43606948852539,52.932796478271484,47
69,96,4429444667,34024778,31.650259017944336,175.55311584472656,82
70,216,4429444667,34024778,53.66374588012695,144.2830047607422,45
71,252,4429444667,34024778,58.152000427246094,63.29585266113281,52
72,167,4429444667,34024778,29.208345413208008,140.41839599609375,70
73,198,4429444667,34024778,57.735328674316406,277.5867614746094,71
74,109,4429444667,34024778,43.62374496459961,277.2251281738281,45
75,238,4429444667,34024778,55.917442321777344,59.13918685913086,79
76,333,4429444667,34024778,65.3033676147461,37.72019958496094,34
77,392,4429444667,34024778,54.675682067871094,60.633583068847656,89
78,364,4429444667,34024778,62.445884704589844,54.93400573730469,16
79,301,4429444667,34024778,70.7483901977539,4.591794490814209,3
80,29,4429444667,34024778,24.099342346191406,63.06230926513672,70
81,150,4429444667,34024778,71.05946350097656,33.37992477416992,4
82,23,4429444667,34024778,27.352771759033203,81.2066879272461,78
83,287,4429444667,34024778,57.26460647583008,53.8303108215332,37
84,420,4429444667,34024778,61.9366569519043,56.61323547363281,49
85,443,4429444667,34024778,69.00446319580078,7.159034729003906,4
86,499,4429444667,34024778,62.51997375488281,52.675445556640625,48
87,273,4429444667,34024778,61.411441802978516,47.515777587890625,69
88,376,4429444667,34024778,61.46248245239258,224.2118682861328,2
89,67,4429444667,34024778,63.59965515136719,54.88143539428711,51
90,107,4429444667,34024778,35.66196060180664,287.1159362792969,33
91,450,4429444667,34024778,46.83958435058594,32.514976501464844,30
92,130,4429444667,34024778,53.55857849121094,107.29263305664062,99
93,298,4429444667,34024778,69.6015396118164,11.266589164733887,7
94,397,4429444667,34024778,62.47657775878906,46.6789665222168,62
95,320,4429444667,34024778,64.28043365478516,94.57604217529297,32
96,88,4429444667,34024778,66.376953125,13.755942344665527,3
97,169,4429444667,34024778,29.0899600982666,111.59001922607422,101
98,98,4429444667,34024778,24.493404388427734,38.337886810302734,78
99,283,4429444667,34024778,61.11980056762695,41.61465835571289,47
100,400,4429444667,34024778,63.049076080322266,38.45108413696289,65
101,407,4429444667,34024778,60.90919876098633,74.5892333984375,72
102,210,4429444667,34024778,60.653812408447266,46.032440185546875,52
103,263,4429444667,34024778,66.46246337890625,44.368167877197266,62
104,313,4429444667,34024778,69.1016616821289,11.519111633300781,21
105,428,4429444667,34024778,61.86641311645508,40.874549865722656,51
106,80,4429444667,34024778,67.24617004394531,0.15461452305316925,2
107,39,4429444667,34024778,27.147018432617188,227.18370056152344,62
108,347,4429444667,34024778,51.60034942626953,114.63566589355469,42
109,370,4429444667,34024778,68.52841186523438,3.0053935050964355,2
110,449,4429444667,34024778,66.55514526367188,51.40153121948242,6
111,25,4429444667,34024778,25.490468978881836,56.42621612548828,63
112,41,4429444667,34024778,57.520103454589844,93.41971588134766,85
113,230,4429444667,34024778,69.48202514648438,691.4469604492188,5
114,415,4429444667,34024778,62.38091278076172,23.143539428710938,54
115,265,4429444667,34024778,63.34741973876953,48.83710861206055,79
116,303,4429444667,34024778,46.66898727416992,,1
117,454,4429444667,34024778,44.424034118652344,91.5704574584961,62
118,28,4429444667,34024778,23.81008529663086,30.86370277404785,52
119,171,4429444667,34024778,23.429590225219727,101.5098876953125,82
120,246,4429444667,34024778,52.674156188964844,87.42134094238281,83
121,417,4429444667,34024778,54.99053955078125,58.69951248168945,109
122,148,4429444667,34024778,66.96797943115234,21.205646514892578,27
123,275,4429444667,34024778,55.14616775512695,202.09341430664062,57
124,34,4429444667,34024778,39.05039978027344,187.00271606445312,32
125,327,4429444667,34024778,61.66080093383789,79.75314331054688,33
126,484,4429444667,34024778,51.273216247558594,426.71368408203125,48
127,488,4429444667,34024778,58.26350784301758,73.8746337890625,61
128,305,4429444667,34024778,67.1916275024414,33.805816650390625,2
129,492,4429444667,34024778,60.26191329956055,56.746578216552734,59
130,14,4429444667,34024778,72.24772644042969,4.455228328704834,2
131,20,4429444667,34024778,45.64846420288086,135.58383178710938,36
132,56,4429444667,34024778,45.663002014160156,282.59869384765625,59
133,215,4429444667,34024778,58.86750030517578,46.68206024169922,57
134,406,4429444667,34024778,62.391693115234375,36.46539306640625,75
135,435,4429444667,34024778,69.3767318725586,23.189722061157227,15
136,3,4429444667,34024778,64.703369140625,37.07097244262695,16
137,74,4429444667,34024778,63.25820541381836,48.73988723754883,28
138,188,4429444667,34024778,59.579078674316406,112.20817565917969,62
139,202,4429444667,34024778,48.446956634521484,79.26982879638672,144
140,237,4429444667,34024778,62.366432189941406,61.25260925292969,58
141,290,4429444667,34024778,54.951087951660156,57.219730377197266,26
142,448,4429444667,34024778,66.42207336425781,20.881839752197266,2
143,459,4429444667,34024778,24.478700637817383,49.17424774169922,88
144,270,4429444667,34024778,61.23701095581055,35.0592155456543,75
145,291,4429444667,34024778,54.54353332519531,48.244441986083984,28
146,401,4429444667,34024778,58.17455291748047,53.955833435058594,55
147,189,4429444667,34024778,59.764591217041016,62.29557800292969,41
148,250,4429444667,34024778,58.24333190917969,78.0482406616211,80
149,10,4429444667,34024778,67.71199035644531,,1
150,16,4429444667,34024778,61.985477447509766,43.3896598815918,5
151,349,4429444667,34024778,49.914337158203125,138.52883911132812,38
152,52,4429444667,34024778,21.148723602294922,164.11959838867188,44
153,124,4429444667,34024778,58.08185577392578,395.7969665527344,55
154,424,4429444667,34024778,55.40966033935547,67.87190246582031,48
155,66,4429444667,34024778,58.78478240966797,43.9545783996582,45
156,363,4429444667,34024778,60.88547897338867,41.50881576538086,11
157,382,4429444667,34024778,28.870330810546875,75.48828887939453,50
158,22,4429444667,34024778,37.115482330322266,63.64724349975586,65
159,168,4429444667,34024778,29.153770446777344,116.99459838867188,72
160,321,4429444667,34024778,64.08259582519531,30.930574417114258,32
161,391,4429444667,34024778,60.15035629272461,57.25824737548828,91
162,156,4429444667,34024778,66.17924499511719,2.874797821044922,4
163,159,4429444667,34024778,67.69652557373047,,1
164,476,4429444667,34024778,60.06246566772461,84.48197937011719,52
165,15,4429444667,34024778,65.67794036865234,,1
166,416,4429444667,34024778,61.105018615722656,60.33921432495117,86
167,434,4429444667,34024778,64.27857208251953,43.857444763183594,21
168,500,4429444667,34024778,59.978397369384766,48.06038284301758,47
169,170,4429444667,34024778,22.27640151977539,200.008544921875,81
170,261,4429444667,34024778,62.552879333496094,47.06443405151367,57
171,295,4429444667,34024778,67.23997497558594,20.43144989013672,7
172,302,4429444667,34024778,65.93621826171875,23.40822410583496,4
173,403,4429444667,34024778,62.012508392333984,99.99765014648438,41
174,446,4429444667,34024778,62.29225540161133,,1
175,182,4429444667,34024778,60.437522888183594,96.63365936279297,64
176,225,4429444667,34024778,67.13856506347656,28.810789108276367,4
177,451,4429444667,34024778,45.375770568847656,39.61783218383789,41
178,68,4429444667,34024778,62.08036422729492,30.425870895385742,55
179,231,4429444667,34024778,68.76708984375,1.79222571849823,2
180,322,4429444667,34024778,65.53956604003906,19.645015716552734,34
181,104,4429444667,34024778,31.3490047454834,208.59176635742188,57
182,220,4429444667,34024778,63.705589294433594,27.737058639526367,28
183,389,4429444667,34024778,53.15134048461914,143.26914978027344,101
184,477,4429444667,34024778,61.23895263671875,55.38978576660156,57
185,6,4429444667,34024778,67.36691284179688,37.447872161865234,6
186,186,4429444667,34024778,60.49110412597656,47.28328323364258,62
187,463,4429444667,34024778,25.559431076049805,145.77886962890625,55
188,486,4429444667,34024778,46.89152145385742,368.6739196777344,79
189,21,4429444667,34024778,36.31039047241211,107.72654724121094,43
190,111,4429444667,34024778,54.57884216308594,109.59696197509766,46
191,196,4429444667,34024778,51.75075149536133,347.4429931640625,83
192,429,4429444667,34024778,63.82220458984375,66.19991302490234,44
193,464,4429444667,34024778,21.864076614379883,65.37152099609375,40
194,149,4429444667,34024778,65.56844329833984,21.274757385253906,14
195,178,4429444667,34024778,55.25898361206055,150.5105438232422,59
196,315,4429444667,34024778,65.9227294921875,40.878421783447266,12
197,136,4429444667,34024778,57.69655227661133,30.490007400512695,58
198,190,4429444667,34024778,59.36408615112305,241.4574737548828,60
199,379,4429444667,34024778,43.91828918457031,28.59285545349121,41
200,47,4429444667,34024778,39.11890411376953,144.71331787109375,63
201,243,4429444667,34024778,57.75196838378906,79.58808135986328,97
202,248,4429444667,34024778,57.226158142089844,80.61195373535156,88
203,353,4429444667,34024778,54.82659912109375,74.51968383789062,51
204,360,4429444667,34024778,31.297321319580078,58.905235290527344,9
205,460,4429444667,34024778,21.536277770996094,41.46031188964844,79
206,480,4429444667,34024778,59.39691162109375,189.7727508544922,61
207,108,4429444667,34024778,56.27680969238281,519.9207153320312,40
208,483,4429444667,34024778,59.92529296875,62.75814437866211,56
209,495,4429444667,34024778,59.4187126159668,73.73336791992188,30
210,299,4429444667,34024778,68.93074798583984,800.614013671875,4
211,36,4429444667,34024778,21.947982788085938,176.76365661621094,28
212,134,4429444667,34024778,57.799842834472656,50.63699722290039,67
213,140,4429444667,34024778,57.996612548828125,39.88201141357422,64
214,184,4429444667,34024778,61.11989974975586,82.13387298583984,59
215,126,4429444667,34024778,51.18818664550781,462.91278076171875,57
216,294,4429444667,34024778,65.6600570678711,95.00662231445312,15
217,380,4429444667,34024778,38.394039154052734,109.04332733154297,37
218,422,4429444667,34024778,59.95413589477539,46.55787658691406,62
219,77,4429444667,34024778,66.47956848144531,440.76959228515625,6
220,95,4429444667,34024778,30.606416702270508,149.43896484375,90
221,249,4429444667,34024778,58.30162811279297,55.06549835205078,83
222,324,4429444667,34024778,63.74427032470703,41.366859436035156,28
223,338,4429444667,34024778,63.448936462402344,43.20732116699219,42
224,452,4429444667,34024778,43.47456359863281,108.90275573730469,40
225,185,4429444667,34024778,58.98493194580078,87.65425109863281,57
226,233,4429444667,34024778,69.4994888305664,4.037630558013916,8
227,339,4429444667,34024778,63.60634231567383,27.53960609436035,53
228,8,4429444667,34024778,67.32717895507812,,1
229,7,4429444667,34024778,65.12922668457031,27.461851119995117,2
230,162,4429444667,34024778,42.87578201293945,94.2862319946289,27
231,197,4429444667,34024778,48.378238677978516,372.52813720703125,71
232,456,4429444667,34024778,25.345478057861328,77.93448638916016,66
233,470,4429444667,34024778,48.663360595703125,265.11962890625,37
234,453,4429444667,34024778,44.47993469238281,81.10779571533203,47
235,99,4429444667,34024778,26.06890296936035,59.65742874145508,80
236,481,4429444667,34024778,57.5172119140625,228.88414001464844,78
237,194,4429444667,34024778,51.26087188720703,287.1718444824219,80
238,1,4429444667,34024778,63.09873962402344,25.81389617919922,29
239,84,4429444667,34024778,63.635311126708984,,1
240,117,4429444667,34024778,54.57474136352539,99.79252624511719,46
241,187,4429444667,34024778,48.08140182495117,197.54147338867188,71
242,51,4429444667,34024778,37.59029006958008,166.6811065673828,49
243,235,4429444667,34024778,66.88040924072266,24.67421531677246,41
244,368,4429444667,34024778,64.73919677734375,16.35293197631836,3
245,122,4429444667,34024778,54.228397369384766,406.27911376953125,70
246,469,4429444667,34024778,27.809429168701172,119.96136474609375,38
247,18,4429444667,34024778,37.702972412109375,82.14238739013672,20
248,372,4429444667,34024778,68.7593994140625,,1
249,375,4429444667,34024778,66.583740234375,5.331879138946533,2
250,405,4429444667,34024778,61.49773406982422,59.109771728515625,73
251,76,4429444667,34024778,65.56684875488281,21.200206756591797,17
252,356,4429444667,34024778,53.874900817871094,30.03659439086914,31
253,81,4429444667,34024778,59.549564361572266,,1
254,282,4429444667,34024778,57.916587829589844,48.53874969482422,36
255,45,4429444667,34024778,54.86354064941406,227.2041778564453,63
256,487,4429444667,34024778,52.71353530883789,345.1570129394531,69
257,135,4429444667,34024778,57.249244689941406,43.40209197998047,64
258,286,4429444667,34024778,53.460330963134766,59.21262741088867,46
259,269,4429444667,34024778,61.69667053222656,57.2310791015625,53
260,378,4429444667,34024778,47.110042572021484,24.32381820678711,30
261,205,4429444667,34024778,58.20646667480469,45.14516067504883,69
262,4,4429444667,34024778,66.36184692382812,17.61079216003418,14
263,55,4429444667,34024778,38.97285461425781,144.69647216796875,37
264,121,4429444667,34024778,50.9863166809082,167.008544921875,78
265,335,4429444667,34024778,65.38323211669922,40.849571228027344,49
266,346,4429444667,34024778,58.717796325683594,69.27600860595703,43
267,411,4429444667,34024778,61.970237731933594,110.38256072998047,63
268,466,4429444667,34024778,25.992204666137695,320.6488342285156,35
269,223,4429444667,34024778,65.3594970703125,42.45669174194336,4
270,432,4429444667,34024778,64.15887451171875,33.866024017333984,26
271,27,4429444667,34024778,24.094589233398438,38.87996292114258,78
272,33,4429444667,34024778,28.6735897064209,133.8328857421875,55
273,91,4429444667,34024778,50.00751495361328,165.6920623779297,30
274,166,4429444667,34024778,28.62157440185547,120.4801025390625,72
275,458,4429444667,34024778,24.370914459228516,115.68580627441406,68
276,245,4429444667,34024778,52.66139221191406,87.31631469726562,114
277,471,4429444667,34024778,56.802215576171875,290.5947265625,25
278,26,4429444667,34024778,27.78429412841797,59.50910568237305,75
279,141,4429444667,34024778,58.79220962524414,63.31675720214844,49
280,330,4429444667,34024778,63.086788177490234,56.786865234375,45
281,58,4429444667,34024778,47.04856872558594,69.27218627929688,108
282,278,4429444667,34024778,46.05895233154297,88.25341796875,63
283,468,4429444667,34024778,46.34898376464844,207.6124267578125,29
284,110,4429444667,34024778,44.102928161621094,255.83920288085938,33
285,465,4429444667,34024778,24.1496524810791,103.7564468383789,46
286,474,4429444667,34024778,55.717445373535156,331.1138916015625,40
287,396,4429444667,34024778,61.25653839111328,84.23884582519531,52
288,419,4429444667,34024778,63.78014373779297,43.514976501464844,66
289,129,4429444667,34024778,53.16884231567383,87.8717041015625,83
290,262,4429444667,34024778,65.66275787353516,28.53623390197754,76
291,154,4429444667,34024778,67.00193786621094,6.322693824768066,3
292,183,4429444667,34024778,60.20947265625,74.89285278320312,43
293,437,4429444667,34024778,67.34814453125,12.065069198608398,3
294,490,4429444667,34024778,53.825469970703125,142.987548828125,110
295,43,4429444667,34024778,58.056941986083984,197.71360778808594,86
296,357,4429444667,34024778,52.786231994628906,64.79756927490234,48
297,229,4429444667,34024778,66.50231170654297,0.0021856848616153,2
298,317,4429444667,34024778,65.31893157958984,23.42496109008789,15
299,371,4429444667,34024778,70.29582977294922,11.09557056427002,5
300,62,4429444667,34024778,56.55662155151367,59.388858795166016,74
301,94,4429444667,34024778,41.87375259399414,122.87483215332031,53
302,115,4429444667,34024778,58.42169189453125,111.97183227539062,59
303,37,4429444667,34024778,38.469242095947266,84.19883728027344,19
304,179,4429444667,34024778,52.44342803955078,170.58363342285156,71
305,114,4429444667,34024778,60.33794403076172,46.304443359375,50
306,247,4429444667,34024778,56.477962493896484,64.57926177978516,80
307,326,4429444667,34024778,59.048583984375,59.090396881103516,45
308,173,4429444667,34024778,24.427492141723633,125.02555084228516,86
309,251,4429444667,34024778,61.91707229614258,40.64533233642578,61
310,377,4429444667,34024778,59.19585418701172,166.2076873779297,8
311,203,4429444667,34024778,60.91283416748047,73.87326049804688,85
312,257,4429444667,34024778,57.79523468017578,75.15106964111328,74
313,260,4429444667,34024778,64.47565460205078,37.62857437133789,60
314,204,4429444667,34024778,59.24397277832031,79.08173370361328,99
315,209,4429444667,34024778,58.76522445678711,72.18184661865234,88
316,42,4429444667,34024778,55.64345169067383,76.90431213378906,83
317,172,4429444667,34024778,23.094825744628906,124.12171936035156,86
318,200,4429444667,34024778,57.166595458984375,71.2103042602539,108
319,341,4429444667,34024778,63.45979309082031,39.46189880371094,43
320,352,4429444667,34024778,55.839237213134766,43.52058029174805,47
321,103,4429444667,34024778,24.027706146240234,43.61423873901367,61
322,409,4429444667,34024778,58.50059509277344,84.63843536376953,64
323,191,4429444667,34024778,54.25616455078125,320.9014587402344,68
324,314,4429444667,34024778,67.87973022460938,17.058115005493164,16
325,306,4429444667,34024778,64.44279479980469,16.72493553161621,8
326,441,4429444667,34024778,64.36817169189453,,1
327,221,4429444667,34024778,66.32907104492188,42.142906188964844,9
328,381,4429444667,34024778,34.56949234008789,99.17537689208984,32
329,44,4429444667,34024778,54.518821716308594,267.2022399902344,89
330,292,4429444667,34024778,57.4402961730957,57.621360778808594,31
331,277,4429444667,34024778,45.67673110961914,179.34564208984375,53
332,331,4429444667,34024778,61.047607421875,104.76530456542969,54
333,79,4429444667,34024778,59.60248565673828,9.851205825805664,2
334,211,4429444667,34024778,58.28375244140625,56.36570358276367,82
335,386,4429444667,34024778,24.926557540893555,46.77051544189453,80
336,438,4429444667,34024778,71.53887176513672,6.452821731567383,3
337,467,4429444667,34024778,29.03072166442871,201.86415100097656,38
338,155,4429444667,34024778,63.87506103515625,29.605823516845703,4
339,254,4429444667,34024778,57.52752685546875,116.9345932006836,39
340,31,4429444667,34024778,24.7253475189209,79.9684066772461,63
341,181,4429444667,34024778,58.563697814941406,82.5523681640625,53
342,201,4429444667,34024778,52.332763671875,50.71491241455078,126
343,224,4429444667,34024778,69.59810638427734,44.24422073364258,7
344,344,4429444667,34024778,61.774417877197266,35.809532165527344,72
345,116,4429444667,34024778,56.885318756103516,67.3555679321289,61
346,279,4429444667,34024778,47.685035705566406,202.38499450683594,53
347,461,4429444667,34024778,21.757789611816406,78.6602783203125,63
348,425,4429444667,34024778,61.1897087097168,40.23845672607422,53
349,253,4429444667,34024778,56.35511779785156,94.93058776855469,73
350,276,4429444667,34024778,51.90570831298828,194.49960327148438,68
351,334,4429444667,34024778,63.57273483276367,31.95221519470215,39
352,393,4429444667,34024778,58.83548355102539,56.71156692504883,82
353,430,4429444667,34024778,62.49242401123047,55.65721893310547,56
354,439,4429444667,34024778,47.60799789428711,,1
355,207,4429444667,34024778,60.37206268310547,27.43274688720703,72
356,213,4429444667,34024778,56.69416809082031,64.77271270751953,97
357,157,4429444667,34024778,68.59713745117188,7.089678764343262,2
358,175,4429444667,34024778,28.960512161254883,128.16091918945312,53
359,240,4429444667,34024778,52.86236572265625,123.13285827636719,72
360,244,4429444667,34024778,55.96139144897461,78.36096954345703,93
361,354,4429444667,34024778,55.72309875488281,54.22951889038086,46
362,431,4429444667,34024778,63.88138198852539,30.97889518737793,37
363,473,4429444667,34024778,54.03520202636719,344.1327209472656,53
364,71,4429444667,34024778,60.57051086425781,33.7690315246582,38
365,180,4429444667,34024778,60.34980010986328,54.79888153076172,55
366,217,4429444667,34024778,60.366844177246094,35.0489616394043,36
367,304,4429444667,34024778,66.9405288696289,25.9671573638916,2
368,501,4429444667,34024778,59.902198791503906,28.742515563964844,24
369,119,4429444667,34024778,58.264060974121094,96.71773529052734,68
370,219,4429444667,34024778,64.00053405761719,49.25651931762695,34
371,274,4429444667,34024778,55.117408752441406,105.50498962402344,84
372,293,4429444667,34024778,65.49210357666016,49.7111930847168,21
373,485,4429444667,34024778,48.285972595214844,352.91802978515625,61
374,75,4429444667,34024778,66.46647644042969,40.578372955322266,19
375,433,4429444667,34024778,65.05035400390625,48.47239303588867,16
376,24,4429444667,34024778,27.322036743164062,78.01759338378906,78
377,242,4429444667,34024778,51.63074493408203,94.23458099365234,79
378,226,4429444667,34024778,65.87544250488281,,1
379,227,4429444667,34024778,67.33934020996094,75.78356170654297,4
380,255,4429444667,34024778,57.63341522216797,102.2008056640625,70
381,388,4429444667,34024778,47.8320198059082,214.43682861328125,92
382,497,4429444667,34024778,58.53120040893555,49.07429885864258,32
383,50,4429444667,34024778,32.32637023925781,170.6032257080078,61
384,228,4429444667,34024778,59.62686538696289,,1
385,348,4429444667,34024778,51.444374084472656,115.54126739501953,54
386,390,4429444667,34024778,59.323402404785156,53.61372756958008,80
387,329,4429444667,34024778,62.274024963378906,51.69188690185547,36
388,503,4429444667,34024778,59.294281005859375,44.52403259277344,30
389,64,4429444667,34024778,57.47279739379883,53.114051818847656,47
390,102,4429444667,34024778,22.36347198486328,30.75275421142578,67
391,206,4429444667,34024778,56.24877166748047,48.81489944458008,66
392,266,4429444667,34024778,65.01245880126953,33.3912467956543,61
393,297,4429444667,34024778,70.7009506225586,27.348854064941406,6
394,93,4429444667,34024778,43.53307342529297,67.3395767211914,52
395,193,4429444667,34024778,57.7931022644043,187.0164031982422,91
396,369,4429444667,34024778,65.63790893554688,,1
397,146,4429444667,34024778,61.814735412597656,34.61935806274414,49
398,161,4429444667,34024778,60.97100830078125,40.593441009521484,8
399,436,4429444667,34024778,65.66845703125,62.49668884277344,10
400,127,4429444667,34024778,55.029518127441406,289.9103088378906,62
401,46,4429444667,34024778,53.36378479003906,100.95135498046875,71
402,351,4429444667,34024778,54.57732391357422,210.67922973632812,36
403,2,4429444667,34024778,64.83075714111328,24.594524383544922,23
404,258,4429444667,34024778,63.78260040283203,62.28049087524414,51
405,455,4429444667,34024778,35.45555114746094,93.7359619140625,94
406,151,4429444667,34024778,65.06317901611328,8.153669357299805,2
407,61,4429444667,34024778,58.27143096923828,53.30427932739258,64
408,101,4429444667,34024778,23.02958869934082,36.739967346191406,73
409,288,4429444667,34024778,52.58110809326172,57.609718322753906,41
410,402,4429444667,34024778,61.42241668701172,45.970638275146484,54
411,241,4429444667,34024778,51.236236572265625,106.3918228149414,92
412,398,4429444667,34024778,61.20106506347656,61.74436569213867,76
413,234,4429444667,34024778,67.01271057128906,38.40436935424805,14
414,59,4429444667,34024778,51.815650939941406,108.48623657226562,57
415,208,4429444667,34024778,58.33452224731445,43.030033111572266,73
416,131,4429444667,34024778,60.59437942504883,61.47772979736328,63
417,57,4429444667,34024778,44.19057083129883,190.51611328125,81
418,70,4429444667,34024778,63.32374954223633,54.64091873168945,35
419,408,4429444667,34024778,62.30975341796875,60.8493537902832,68
420,498,4429444667,34024778,62.43815231323242,40.051483154296875,47
421,100,4429444667,34024778,23.062437057495117,57.21462631225586,77
422,239,4429444667,34024778,47.63131332397461,141.73703002929688,69
423,414,4429444667,34024778,64.17938232421875,59.814178466796875,48
424,133,4429444667,34024778,56.532318115234375,85.95149993896484,64
425,280,4429444667,34024778,54.823368072509766,103.11045837402344,62
426,426,4429444667,34024778,63.768211364746094,66.2218246459961,56
427,457,4429444667,34024778,26.02802276611328,112.07411193847656,59
428,345,4429444667,34024778,56.65617752075195,35.87538528442383,51
429,491,4429444667,34024778,62.93260955810547,111.16963195800781,61
430,139,4429444667,34024778,56.454341888427734,39.87261199951172,53
431,222,4429444667,34024778,66.76073455810547,1.0240757465362549,3
432,48,4429444667,34024778,45.47181701660156,287.3562927246094,50
433,475,4429444667,34024778,45.790626525878906,268.0914611816406,51
434,268,4429444667,34024778,64.19418334960938,34.64645767211914,64
435,399,4429444667,34024778,61.742401123046875,49.335052490234375,66
436,35,4429444667,34024778,30.641714096069336,176.10458374023438,40
437,482,4429444667,34024778,59.49797439575195,301.5577697753906,70
438,89,4429444667,34024778,66.47505950927734,75.08181762695312,12
439,113,4429444667,34024778,58.946746826171875,45.28226852416992,54
440,125,4429444667,34024778,55.165382385253906,399.1476135253906,60
441,147,4429444667,34024778,62.26696014404297,21.890804290771484,28
442,319,4429444667,34024778,65.64292907714844,26.586877822875977,28
443,395,4429444667,34024778,60.34547424316406,49.031192779541016,66
444,284,4429444667,34024778,58.97706604003906,46.07996368408203,64
445,365,4429444667,34024778,67.5436019897461,21.460811614990234,12
446,232,4429444667,34024778,69.18946838378906,1.5762090682983398,2
447,300,4429444667,34024778,66.34872436523438,80.15037536621094,3
448,358,4429444667,34024778,44.15656661987305,111.8768539428711,34
449,63,4429444667,34024778,58.53623580932617,45.10969161987305,51
450,65,4429444667,34024778,59.27190017700195,40.29756546020508,41
451,54,4429444667,34024778,24.687171936035156,230.05645751953125,26
452,199,4429444667,34024778,59.17089080810547,64.60692596435547,96
453,236,4429444667,34024778,63.226463317871094,37.20062255859375,46
454,361,4429444667,34024778,42.73984146118164,49.72028732299805,13
455,404,4429444667,34024778,61.43429183959961,39.62157440185547,47
456,164,4429444667,34024778,45.098724365234375,108.28594970703125,34
457,337,4429444667,34024778,62.815277099609375,45.93135070800781,38
458,0,4429444667,34024778,62.59801483154297,41.1885871887207,25
459,128,4429444667,34024778,57.47623825073242,117.6352767944336,79
460,176,4429444667,34024778,29.636089324951172,167.06900024414062,80
461,309,4429444667,34024778,63.888370513916016,238.93023681640625,10
462,316,4429444667,34024778,69.79364013671875,155.52178955078125,18
463,342,4429444667,34024778,63.15544509887695,34.244651794433594,31
464,442,4429444667,34024778,66.65644073486328,9.33446216583252,2
465,12,4429444667,34024778,68.88113403320312,,1
466,17,4429444667,34024778,57.89013671875,80.29975891113281,14
467,272,4429444667,34024778,61.385536193847656,40.518882751464844,74
468,281,4429444667,34024778,55.53141784667969,56.273345947265625,45
469,350,4429444667,34024778,55.13914489746094,50.00532531738281,37
470,312,4429444667,34024778,69.12522888183594,77.18941497802734,11
471,384,4429444667,34024778,25.552207946777344,133.6134796142578,74
472,73,4429444667,34024778,62.495792388916016,59.81884002685547,37
473,82,4429444667,34024778,60.51762390136719,,1
474,60,4429444667,34024778,60.137794494628906,41.84920120239258,66
475,160,4429444667,34024778,66.25060272216797,12.95902156829834,5
476,374,4429444667,34024778,65.68793487548828,,1
477,387,4429444667,34024778,24.217750549316406,101.51737976074219,61
478,19,4429444667,34024778,43.51313018798828,28.024860382080078,31
479,53,4429444667,34024778,19.174287796020508,107.55501556396484,36
480,90,4429444667,34024778,48.948638916015625,97.73587799072266,24
481,394,4429444667,34024778,59.52967834472656,72.63297271728516,69
482,478,4429444667,34024778,61.846031188964844,62.912105560302734,79
483,144,4429444667,34024778,60.60142517089844,46.26308822631836,28
484,289,4429444667,34024778,52.610137939453125,53.49386978149414,41
485,332,4429444667,34024778,63.735103607177734,49.73338317871094,45
486,214,4429444667,34024778,58.35730743408203,67.3450698852539,52
487,311,4429444667,34024778,66.55488586425781,21.539037704467773,11
488,325,4429444667,34024778,57.65087127685547,46.2142448425293,19
489,78,4429444667,34024778,66.13714599609375,13.50781536102295,5
490,83,4429444667,34024778,68.98021697998047,0.2077368199825287,3
491,343,4429444667,34024778,62.934837341308594,28.66722297668457,44
492,120,4429444667,34024778,58.942935943603516,79.1575927734375,84
493,259,4429444667,34024778,62.97479248046875,71.542236328125,60
