,slot,source,target,median,var,cnt
0,182,4092524004,4736153268,59.88245391845703,121.11453247070312,64
1,365,4092524004,4736153268,63.933902740478516,104.23258209228516,9
2,93,4092524004,4736153268,43.333866119384766,101.76596069335938,51
3,169,4092524004,4736153268,29.098560333251953,116.80314636230469,100
4,216,4092524004,4736153268,53.61414337158203,132.85186767578125,44
5,336,4092524004,4736153268,65.47859954833984,51.976261138916016,39
6,411,4092524004,4736153268,59.707515716552734,228.53562927246094,65
7,261,4092524004,4736153268,63.24776840209961,68.06169891357422,61
8,387,4092524004,4736153268,23.415847778320312,98.18052673339844,60
9,32,4092524004,4736153268,27.462291717529297,48.39631271362305,56
10,210,4092524004,4736153268,59.33783721923828,88.60652923583984,54
11,340,4092524004,4736153268,59.82878875732422,65.4521255493164,52
12,113,4092524004,4736153268,58.04035568237305,95.87354278564453,54
13,148,4092524004,4736153268,65.2234878540039,33.14318084716797,26
14,184,4092524004,4736153268,60.05464172363281,107.97158813476562,58
15,224,4092524004,4736153268,69.59810638427734,93.50062561035156,7
16,301,4092524004,4736153268,69.95912170410156,0.17592090368270874,2
17,381,4092524004,4736153268,35.9074592590332,91.27083587646484,31
18,435,4092524004,4736153268,66.75613403320312,44.23351287841797,15
19,141,4092524004,4736153268,56.58937454223633,89.98394012451172,49
20,227,4092524004,4736153268,61.42493438720703,120.88429260253906,4
21,277,4092524004,4736153268,42.31041717529297,190.19847106933594,55
22,469,4092524004,4736153268,28.160280227661133,91.88045501708984,38
23,493,4092524004,4736153268,58.43606948852539,146.0018768310547,45
24,494,4092524004,4736153268,55.85163497924805,83.70209503173828,38
25,424,4092524004,4736153268,54.607521057128906,96.00151062011719,50
26,23,4092524004,4736153268,29.02065658569336,51.575679779052734,76
27,212,4092524004,4736153268,58.63872146606445,74.37421417236328,77
28,335,4092524004,4736153268,63.81955337524414,44.455989837646484,47
29,83,4092524004,4736153268,67.43209838867188,1.7817473411560059,3
30,441,4092524004,4736153268,64.36817169189453,,1
31,6,4092524004,4736153268,69.21841430664062,82.33363342285156,8
32,193,4092524004,4736153268,53.57872009277344,254.48631286621094,88
33,361,4092524004,4736153268,36.34474182128906,61.58927917480469,13
34,168,4092524004,4736153268,28.14099884033203,105.6251220703125,72
35,379,4092524004,4736153268,47.154972076416016,41.534603118896484,41
36,401,4092524004,4736153268,60.1352653503418,62.429649353027344,55
37,179,4092524004,4736153268,46.80278778076172,174.9004364013672,70
38,211,4092524004,4736153268,56.32457733154297,87.55669403076172,79
39,339,4092524004,4736153268,63.710235595703125,41.36530303955078,54
40,388,4092524004,4736153268,40.93994903564453,241.00071716308594,90
41,425,4092524004,4736153268,60.87185287475586,85.70135498046875,52
42,117,4092524004,4736153268,52.463504791259766,198.97640991210938,47
43,145,4092524004,4736153268,55.92741394042969,71.14897918701172,47
44,270,4092524004,4736153268,60.20610809326172,59.00576400756836,74
45,322,4092524004,4736153268,66.02203369140625,38.81501007080078,34
46,330,4092524004,4736153268,63.29801940917969,143.3562774658203,44
47,465,4092524004,4736153268,24.61936378479004,84.55370330810547,48
48,491,4092524004,4736153268,62.32318115234375,82.22388458251953,58
49,172,4092524004,4736153268,25.451427459716797,105.20738220214844,84
50,186,4092524004,4736153268,57.903656005859375,52.018638610839844,58
51,296,4092524004,4736153268,65.87151336669922,29.836767196655273,11
52,177,4092524004,4736153268,34.06808090209961,323.88458251953125,51
53,246,4092524004,4736153268,51.54690933227539,140.57154846191406,87
54,268,4092524004,4736153268,62.061241149902344,65.62120056152344,64
55,406,4092524004,4736153268,60.29439926147461,52.038936614990234,72
56,99,4092524004,4736153268,26.963382720947266,48.811180114746094,82
57,398,4092524004,4736153268,59.85232925415039,120.54934692382812,74
58,97,4092524004,4736153268,26.670061111450195,51.68001937866211,72
59,164,4092524004,4736153268,45.157711029052734,144.99888610839844,35
60,325,4092524004,4736153268,59.021358489990234,69.82057189941406,19
61,453,4092524004,4736153268,40.979061126708984,81.04769897460938,47
62,110,4092524004,4736153268,39.877159118652344,287.0158386230469,33
63,250,4092524004,4736153268,56.17988967895508,84.83287048339844,81
64,368,4092524004,4736153268,54.01948547363281,176.41900634765625,3
65,418,4092524004,4736153268,60.65142059326172,76.98340606689453,79
66,436,4092524004,4736153268,64.7574462890625,50.70075988769531,10
67,187,4092524004,4736153268,42.752864837646484,278.6777648925781,73
68,483,4092524004,4736153268,52.17335510253906,150.978759765625,58
69,151,4092524004,4736153268,68.15786743164062,52.865047454833984,3
70,259,4092524004,4736153268,63.26912307739258,143.98211669921875,59
71,266,4092524004,4736153268,62.184322357177734,132.85052490234375,66
72,288,4092524004,4736153268,52.014286041259766,128.9795684814453,43
73,404,4092524004,4736153268,60.648860931396484,108.24362182617188,47
74,135,4092524004,4736153268,55.650150299072266,46.96734619140625,63
75,352,4092524004,4736153268,54.36188507080078,56.799949645996094,46
76,234,4092524004,4736153268,67.52439880371094,49.069820404052734,15
77,104,4092524004,4736153268,31.80929183959961,243.89886474609375,57
78,237,4092524004,4736153268,61.91286087036133,68.13905334472656,59
79,22,4092524004,4736153268,33.77778244018555,73.04427337646484,63
80,100,4092524004,4736153268,25.753219604492188,45.72563934326172,76
81,15,4092524004,4736153268,60.66199493408203,,1
82,109,4092524004,4736153268,46.64092254638672,316.4766540527344,44
83,472,4092524004,4736153268,47.68707275390625,183.5833282470703,44
84,258,4092524004,4736153268,62.59918212890625,77.88817596435547,52
85,297,4092524004,4736153268,69.384521484375,44.75476837158203,6
86,56,4092524004,4736153268,38.05775833129883,204.095458984375,57
87,139,4092524004,4736153268,56.44646453857422,47.1202507019043,56
88,397,4092524004,4736153268,60.16380310058594,103.52234649658203,58
89,460,4092524004,4736153268,24.72552490234375,50.8010368347168,79
90,115,4092524004,4736153268,53.66609191894531,170.2669219970703,58
91,209,4092524004,4736153268,56.80991744995117,74.1094741821289,87
92,329,4092524004,4736153268,62.07086944580078,87.24958801269531,37
93,449,4092524004,4736153268,63.76288604736328,44.665740966796875,5
94,36,4092524004,4736153268,24.31302833557129,130.29119873046875,26
95,129,4092524004,4736153268,51.283546447753906,158.62451171875,82
96,159,4092524004,4736153268,71.065673828125,2.1145401000976562,2
97,414,4092524004,4736153268,62.51689147949219,143.98077392578125,47
98,467,4092524004,4736153268,27.022537231445312,209.09573364257812,34
99,470,4092524004,4736153268,38.8330078125,108.74691772460938,37
100,35,4092524004,4736153268,28.222965240478516,110.33064270019531,41
101,49,4092524004,4736153268,37.11756896972656,158.4097442626953,57
102,133,4092524004,4736153268,56.08612060546875,92.00420379638672,64
103,188,4092524004,4736153268,54.763607025146484,142.29685974121094,63
104,291,4092524004,4736153268,54.719242095947266,45.1561164855957,29
105,497,4092524004,4736153268,59.707454681396484,68.60057830810547,31
106,199,4092524004,4736153268,54.60776901245117,121.39036560058594,95
107,421,4092524004,4736153268,58.87766647338867,152.14822387695312,71
108,79,4092524004,4736153268,54.27506637573242,4.614983081817627,2
109,477,4092524004,4736153268,60.20899963378906,87.67366027832031,55
110,143,4092524004,4736153268,59.74742889404297,118.7594985961914,52
111,166,4092524004,4736153268,30.042390823364258,126.30377960205078,74
112,503,4092524004,4736153268,58.911781311035156,118.91668701171875,30
113,364,4092524004,4736153268,59.596275329589844,78.98026275634766,15
114,489,4092524004,4736153268,52.71965789794922,97.49838256835938,105
115,90,4092524004,4736153268,44.16203308105469,84.9078598022461,23
116,239,4092524004,4736153268,47.17739486694336,139.163330078125,67
117,451,4092524004,4736153268,45.764190673828125,64.01042175292969,41
118,78,4092524004,4736153268,65.95626831054688,43.1495361328125,5
119,190,4092524004,4736153268,55.33534240722656,270.15338134765625,59
120,233,4092524004,4736153268,66.5943603515625,40.38450622558594,7
121,416,4092524004,4736153268,60.630043029785156,71.86507415771484,88
122,454,4092524004,4736153268,42.601341247558594,90.06653594970703,62
123,60,4092524004,4736153268,58.8138542175293,119.9120101928711,63
124,255,4092524004,4736153268,53.46918487548828,78.47897338867188,67
125,276,4092524004,4736153268,51.30398178100586,216.889404296875,67
126,468,4092524004,4736153268,37.66703796386719,112.58467102050781,32
127,252,4092524004,4736153268,57.37562942504883,83.23129272460938,51
128,350,4092524004,4736153268,54.21137237548828,80.95565032958984,36
129,30,4092524004,4736153268,24.852643966674805,45.178749084472656,54
130,302,4092524004,4736153268,67.43073272705078,36.3452262878418,5
131,377,4092524004,4736153268,53.33806228637695,158.95098876953125,7
132,391,4092524004,4736153268,58.6340217590332,87.72454833984375,91
133,181,4092524004,4736153268,56.2048454284668,195.97901916503906,51
134,231,4092524004,4736153268,69.07818603515625,,1
135,324,4092524004,4736153268,61.836082458496094,95.57684326171875,29
136,384,4092524004,4736153268,30.27467918395996,94.2119369506836,73
137,305,4092524004,4736153268,65.0313491821289,7.613116264343262,2
138,407,4092524004,4736153268,58.429805755615234,115.0427474975586,70
139,279,4092524004,4736153268,40.00234603881836,171.0596160888672,55
140,146,4092524004,4736153268,61.31269836425781,52.69442367553711,49
141,422,4092524004,4736153268,59.682701110839844,58.10547637939453,65
142,318,4092524004,4736153268,64.33910369873047,52.59794998168945,28
143,430,4092524004,4736153268,61.359188079833984,78.21861267089844,54
144,473,4092524004,4736153268,47.63761520385742,274.0634765625,52
145,120,4092524004,4736153268,54.921966552734375,131.13644409179688,83
146,260,4092524004,4736153268,64.16011047363281,50.78402328491211,60
147,293,4092524004,4736153268,63.69045639038086,41.4947624206543,23
148,43,4092524004,4736153268,56.177528381347656,258.2264709472656,86
149,461,4092524004,4736153268,23.870729446411133,58.68398666381836,61
150,57,4092524004,4736153268,39.614349365234375,230.43316650390625,83
151,314,4092524004,4736153268,67.29795837402344,25.042869567871094,15
152,39,4092524004,4736153268,39.51386260986328,148.7265167236328,61
153,312,4092524004,4736153268,69.12522888183594,316.1159973144531,13
154,63,4092524004,4736153268,56.76322555541992,66.44419860839844,48
155,189,4092524004,4736153268,56.150482177734375,122.12938690185547,42
156,235,4092524004,4736153268,67.14009857177734,17.79871940612793,45
157,376,4092524004,4736153268,66.48859405517578,36.98143768310547,3
158,68,4092524004,4736153268,61.24236297607422,44.39604949951172,53
159,205,4092524004,4736153268,57.007781982421875,70.92149353027344,69
160,479,4092524004,4736153268,54.348854064941406,258.67919921875,76
161,8,4092524004,4736153268,60.02395248413086,86.42636108398438,2
162,434,4092524004,4736153268,64.35774230957031,46.68165969848633,18
163,155,4092524004,4736153268,62.59212875366211,27.619834899902344,4
164,88,4092524004,4736153268,66.376953125,8.295414924621582,3
165,183,4092524004,4736153268,59.09117889404297,100.89628601074219,45
166,108,4092524004,4736153268,47.23607635498047,410.6449890136719,40
167,207,4092524004,4736153268,59.85247802734375,78.35049438476562,72
168,385,4092524004,4736153268,27.985836029052734,57.49678039550781,83
169,13,4092524004,4736153268,67.53821563720703,,1
170,14,4092524004,4736153268,69.5438232421875,,1
171,463,4092524004,4736153268,25.508350372314453,80.39909362792969,54
172,71,4092524004,4736153268,61.34142303466797,65.39129638671875,40
173,53,4092524004,4736153268,24.092683792114258,40.54377746582031,36
174,77,4092524004,4736153268,65.92195129394531,82.35089111328125,4
175,118,4092524004,4736153268,61.21832275390625,118.33367156982422,52
176,240,4092524004,4736153268,50.8525390625,163.7410430908203,70
177,271,4092524004,4736153268,59.44858169555664,72.82168579101562,77
178,332,4092524004,4736153268,62.973331451416016,54.446922302246094,45
179,500,4092524004,4736153268,58.384620666503906,95.7974853515625,49
180,17,4092524004,4736153268,58.9596061706543,97.24272155761719,15
181,55,4092524004,4736153268,39.052574157714844,145.77706909179688,37
182,69,4092524004,4736153268,57.6732292175293,104.28933715820312,48
183,262,4092524004,4736153268,64.50245666503906,50.89598846435547,79
184,4,4092524004,4736153268,68.22956848144531,30.130176544189453,14
185,107,4092524004,4736153268,34.46954345703125,321.22296142578125,31
186,218,4092524004,4736153268,65.45000457763672,37.74232482910156,34
187,228,4092524004,4736153268,59.91281509399414,,1
188,256,4092524004,4736153268,59.162353515625,99.93439483642578,63
189,267,4092524004,4736153268,63.19691467285156,55.564002990722656,72
190,485,4092524004,4736153268,42.50924301147461,304.70416259765625,58
191,28,4092524004,4736153268,23.690753936767578,42.079307556152344,50
192,70,4092524004,4736153268,61.75216293334961,81.86399841308594,31
193,112,4092524004,4736153268,50.72702407836914,223.659912109375,39
194,200,4092524004,4736153268,55.94139862060547,103.24976348876953,104
195,242,4092524004,4736153268,49.60216522216797,97.10968780517578,79
196,394,4092524004,4736153268,59.49699401855469,78.4192123413086,68
197,369,4092524004,4736153268,65.63790893554688,,1
198,426,4092524004,4736153268,60.78518295288086,66.04708862304688,54
199,238,4092524004,4736153268,56.65327453613281,75.0670166015625,82
200,264,4092524004,4736153268,62.186256408691406,76.7657241821289,76
201,317,4092524004,4736153268,65.46587371826172,45.89107894897461,21
202,392,4092524004,4736153268,52.96086883544922,91.91666412353516,88
203,486,4092524004,4736153268,35.611236572265625,356.9231872558594,82
204,5,4092524004,4736153268,69.71310424804688,6.557457447052002,3
205,98,4092524004,4736153268,26.84577178955078,70.10127258300781,80
206,348,4092524004,4736153268,52.661651611328125,138.98660278320312,53
207,437,4092524004,4736153268,67.64506530761719,0.31615057587623596,2
208,226,4092524004,4736153268,68.10018920898438,,1
209,7,4092524004,4736153268,63.30210876464844,61.220306396484375,2
210,367,4092524004,4736153268,68.14130401611328,22.783004760742188,9
211,428,4092524004,4736153268,59.11130905151367,43.93638229370117,45
212,144,4092524004,4736153268,59.62587356567383,49.15863037109375,27
213,383,4092524004,4736153268,29.23508071899414,37.95355224609375,74
214,149,4092524004,4736153268,64.30879974365234,46.492183685302734,12
215,192,4092524004,4736153268,39.88218688964844,319.7677917480469,49
216,380,4092524004,4736153268,37.88292694091797,106.40044403076172,37
217,409,4092524004,4736153268,53.68559646606445,144.54933166503906,64
218,420,4092524004,4736153268,60.43407440185547,57.949745178222656,47
219,423,4092524004,4736153268,58.019020080566406,79.29694366455078,63
220,16,4092524004,4736153268,63.092681884765625,106.21749877929688,5
221,315,4092524004,4736153268,65.0208969116211,48.11967086791992,13
222,167,4092524004,4736153268,29.136760711669922,89.65127563476562,70
223,323,4092524004,4736153268,66.33625793457031,46.07596969604492,32
224,389,4092524004,4736153268,49.55382537841797,158.33152770996094,98
225,175,4092524004,4736153268,26.75263786315918,180.89125061035156,52
226,195,4092524004,4736153268,47.24798583984375,235.80728149414062,87
227,12,4092524004,4736153268,67.1878433227539,,1
228,27,4092524004,4736153268,25.86975860595703,48.32389831542969,76
229,247,4092524004,4736153268,54.63984680175781,69.71483612060547,80
230,355,4092524004,4736153268,52.37242889404297,64.29912567138672,50
231,362,4092524004,4736153268,44.057037353515625,109.26956939697266,11
232,40,4092524004,4736153268,30.032455444335938,241.2456817626953,82
233,244,4092524004,4736153268,54.181270599365234,103.54776763916016,92
234,94,4092524004,4736153268,40.02074432373047,124.93074798583984,54
235,46,4092524004,4736153268,44.76264572143555,174.1298828125,74
236,333,4092524004,4736153268,64.59272766113281,54.43769073486328,34
237,309,4092524004,4736153268,63.18573760986328,265.54638671875,8
238,351,4092524004,4736153268,52.30031967163086,205.61769104003906,37
239,42,4092524004,4736153268,54.48420333862305,143.1383819580078,83
240,44,4092524004,4736153268,52.69499969482422,243.9349365234375,92
241,303,4092524004,4736153268,59.304832458496094,319.3292541503906,2
242,66,4092524004,4736153268,59.28974151611328,62.153961181640625,46
243,375,4092524004,4736153268,56.99722671508789,314.2558898925781,2
244,334,4092524004,4736153268,61.94855880737305,64.61456298828125,37
245,363,4092524004,4736153268,59.48125457763672,46.372318267822266,11
246,382,4092524004,4736153268,30.24205207824707,77.37527465820312,49
247,132,4092524004,4736153268,54.88170623779297,151.8355712890625,61
248,254,4092524004,4736153268,56.35579299926758,234.53555297851562,41
249,440,4092524004,4736153268,69.02271270751953,3.98353910446167,2
250,54,4092524004,4736153268,26.719318389892578,182.4231719970703,28
251,58,4092524004,4736153268,44.99006652832031,119.6141586303711,108
252,342,4092524004,4736153268,60.62514877319336,136.792236328125,31
253,457,4092524004,4736153268,28.187618255615234,67.61005401611328,58
254,269,4092524004,4736153268,60.92482376098633,82.05060577392578,54
255,456,4092524004,4736153268,27.59087371826172,66.72228240966797,64
256,338,4092524004,4736153268,62.92723083496094,158.31649780273438,41
257,412,4092524004,4736153268,53.26519012451172,219.1426239013672,54
258,466,4092524004,4736153268,28.863496780395508,305.2064514160156,33
259,484,4092524004,4736153268,38.92791748046875,326.3031005859375,50
260,82,4092524004,4736153268,28.443889617919922,,1
261,417,4092524004,4736153268,53.040077209472656,103.85674285888672,111
262,357,4092524004,4736153268,49.08930206298828,100.93914031982422,48
263,275,4092524004,4736153268,54.12153244018555,222.3689422607422,55
264,326,4092524004,4736153268,58.836158752441406,75.49726867675781,46
265,10,4092524004,4736153268,67.71199035644531,,1
266,448,4092524004,4736153268,64.67788696289062,,1
267,105,4092524004,4736153268,37.967708587646484,227.0170135498047,50
268,220,4092524004,4736153268,61.976924896240234,50.80705261230469,29
269,230,4092524004,4736153268,68.45829772949219,1083.5799560546875,3
270,294,4092524004,4736153268,64.06083679199219,154.62020874023438,14
271,378,4092524004,4736153268,49.22673416137695,27.096773147583008,30
272,359,4092524004,4736153268,38.447181701660156,181.10304260253906,30
273,496,4092524004,4736153268,60.96509552001953,130.48602294921875,40
274,52,4092524004,4736153268,25.535011291503906,77.06372833251953,42
275,126,4092524004,4736153268,48.686038970947266,391.07220458984375,55
276,185,4092524004,4736153268,58.98493194580078,105.16771697998047,57
277,356,4092524004,4736153268,53.05112075805664,76.10980987548828,31
278,462,4092524004,4736153268,22.560779571533203,52.19876480102539,56
279,96,4092524004,4736153268,31.20854949951172,107.3653335571289,82
280,137,4092524004,4736153268,57.82658004760742,72.2178726196289,52
281,427,4092524004,4736153268,61.12114334106445,63.84565734863281,40
282,51,4092524004,4736153268,36.28557205200195,164.30645751953125,49
283,72,4092524004,4736153268,62.24949264526367,52.225196838378906,30
284,198,4092524004,4736153268,53.169219970703125,246.37338256835938,72
285,251,4092524004,4736153268,62.969573974609375,69.76168823242188,63
286,64,4092524004,4736153268,55.620758056640625,68.20732879638672,46
287,114,4092524004,4736153268,55.374366760253906,68.77256774902344,48
288,316,4092524004,4736153268,69.24844360351562,136.297607421875,23
289,432,4092524004,4736153268,64.01263427734375,87.71961975097656,31
290,263,4092524004,4736153268,63.24143600463867,46.262081146240234,55
291,283,4092524004,4736153268,61.05615997314453,56.71490478515625,48
292,24,4092524004,4736153268,28.36776351928711,64.58673858642578,77
293,106,4092524004,4736153268,35.7622184753418,176.80699157714844,59
294,344,4092524004,4736153268,59.314002990722656,34.94881057739258,72
295,73,4092524004,4736153268,61.245460510253906,89.71306610107422,34
296,176,4092524004,4736153268,28.10836410522461,99.40122985839844,80
297,327,4092524004,4736153268,60.938804626464844,89.74034881591797,31
298,450,4092524004,4736153268,48.08147430419922,49.34429931640625,30
299,134,4092524004,4736153268,58.23734664916992,62.24754333496094,68
300,499,4092524004,4736153268,60.54469299316406,92.35667419433594,47
301,208,4092524004,4736153268,56.5711669921875,61.88858413696289,71
302,222,4092524004,4736153268,68.04417419433594,4.866746425628662,3
303,402,4092524004,4736153268,60.81110382080078,67.7409896850586,54
304,25,4092524004,4736153268,28.37122344970703,52.17091751098633,63
305,161,4092524004,4736153268,63.60335922241211,48.451148986816406,9
306,197,4092524004,4736153268,33.21916198730469,308.7259826660156,74
307,152,4092524004,4736153268,67.04519653320312,16.661468505859375,5
308,171,4092524004,4736153268,24.757415771484375,91.14912414550781,79
309,281,4092524004,4736153268,53.590965270996094,107.73399353027344,46
310,415,4092524004,4736153268,59.65275192260742,85.76707458496094,55
311,202,4092524004,4736153268,49.344173431396484,102.0555648803711,144
312,219,4092524004,4736153268,64.45802307128906,42.8978157043457,34
313,272,4092524004,4736153268,60.096397399902344,74.89421844482422,75
314,346,4092524004,4736153268,57.897769927978516,97.65400695800781,45
315,37,4092524004,4736153268,29.541297912597656,50.00008010864258,20
316,282,4092524004,4736153268,55.638816833496094,117.00170135498047,31
317,313,4092524004,4736153268,67.52410888671875,46.57234191894531,22
318,345,4092524004,4736153268,56.53519821166992,57.10516357421875,51
319,393,4092524004,4736153268,59.655303955078125,96.7167739868164,82
320,102,4092524004,4736153268,24.614633560180664,33.54494094848633,65
321,111,4092524004,4736153268,49.71584701538086,111.88079071044922,47
322,150,4092524004,4736153268,70.92398071289062,29.582731246948242,4
323,162,4092524004,4736153268,44.29728698730469,92.12726593017578,27
324,67,4092524004,4736153268,62.562339782714844,59.80223083496094,50
325,86,4092524004,4736153268,71.68529510498047,,1
326,124,4092524004,4736153268,52.38561248779297,341.6457824707031,60
327,217,4092524004,4736153268,59.81710433959961,57.466941833496094,37
328,360,4092524004,4736153268,35.539451599121094,94.32159423828125,10
329,349,4092524004,4736153268,48.875633239746094,184.1813201904297,39
330,371,4092524004,4736153268,70.29582977294922,20.73595428466797,5
331,386,4092524004,4736153268,27.45479965209961,30.746618270874023,81
332,455,4092524004,4736153268,32.451969146728516,90.03968811035156,93
333,103,4092524004,4736153268,23.917064666748047,44.85053634643555,62
334,214,4092524004,4736153268,57.6303596496582,92.0165786743164,52
335,492,4092524004,4736153268,58.78617477416992,124.2815933227539,64
336,501,4092524004,4736153268,61.35683059692383,33.516029357910156,25
337,147,4092524004,4736153268,62.31977081298828,36.20281219482422,28
338,290,4092524004,4736153268,52.41006851196289,76.76359558105469,26
339,95,4092524004,4736153268,32.72517776489258,104.4114990234375,89
340,243,4092524004,4736153268,56.93390655517578,101.46870422363281,96
341,121,4092524004,4736153268,45.82035446166992,237.6140594482422,78
342,321,4092524004,4736153268,64.04447174072266,32.12754440307617,31
343,337,4092524004,4736153268,63.93620681762695,61.721439361572266,42
344,366,4092524004,4736153268,66.18441772460938,33.394187927246094,6
345,495,4092524004,4736153268,58.5774040222168,134.2789306640625,28
346,0,4092524004,4736153268,61.026485443115234,58.62123489379883,23
347,92,4092524004,4736153268,50.34836196899414,209.21885681152344,45
348,101,4092524004,4736153268,25.939048767089844,47.75971221923828,70
349,213,4092524004,4736153268,55.45429992675781,79.48546600341797,96
350,295,4092524004,4736153268,66.79537963867188,37.193809509277344,6
351,299,4092524004,4736153268,64.24960327148438,733.5733642578125,4
352,403,4092524004,4736153268,60.75106430053711,110.26611328125,42
353,18,4092524004,4736153268,42.16461181640625,148.54393005371094,21
354,165,4092524004,4736153268,43.54920196533203,94.49102020263672,45
355,178,4092524004,4736153268,51.35427474975586,216.23216247558594,61
356,203,4092524004,4736153268,58.05370330810547,100.64736938476562,81
357,481,4092524004,4736153268,53.88825607299805,219.8128662109375,79
358,65,4092524004,4736153268,59.81153106689453,59.05588150024414,40
359,241,4092524004,4736153268,51.21052551269531,130.64175415039062,95
360,413,4092524004,4736153268,45.57672119140625,342.2618408203125,68
361,21,4092524004,4736153268,35.811466217041016,103.17871856689453,43
362,116,4092524004,4736153268,51.120399475097656,157.6671142578125,62
363,292,4092524004,4736153268,53.584903717041016,65.37471008300781,29
364,488,4092524004,4736153268,55.04801559448242,90.02913665771484,60
365,201,4092524004,4736153268,51.65552520751953,83.8446044921875,125
366,245,4092524004,4736153268,52.23895263671875,123.3177719116211,114
367,471,4092524004,4736153268,54.77911376953125,170.5744171142578,23
368,253,4092524004,4736153268,53.919189453125,196.26315307617188,71
369,447,4092524004,4736153268,66.80288696289062,,1
370,464,4092524004,4736153268,24.584514617919922,50.461265563964844,37
371,20,4092524004,4736153268,49.13218307495117,117.827392578125,35
372,34,4092524004,4736153268,29.5510311126709,122.1528549194336,31
373,74,4092524004,4736153268,62.377681732177734,113.20417785644531,32
374,125,4092524004,4736153268,50.42704391479492,367.6225891113281,63
375,225,4092524004,4736153268,66.08006286621094,25.053043365478516,4
376,370,4092524004,4736153268,64.07283782958984,42.988807678222656,2
377,320,4092524004,4736153268,63.67905044555664,107.39739227294922,29
378,1,4092524004,4736153268,63.30609893798828,33.27817153930664,26
379,438,4092524004,4736153268,71.38349151611328,1.255791187286377,3
380,154,4092524004,4736153268,63.7451171875,0.7440665364265442,2
381,280,4092524004,4736153268,55.19084167480469,98.02494812011719,62
382,343,4092524004,4736153268,61.52784729003906,43.38861846923828,42
383,431,4092524004,4736153268,64.450439453125,60.9171142578125,37
384,61,4092524004,4736153268,57.42192077636719,82.9249038696289,66
385,490,4092524004,4736153268,53.629295349121094,138.27919006347656,111
386,319,4092524004,4736153268,65.91799926757812,37.39895248413086,25
387,26,4092524004,4736153268,30.734786987304688,44.059078216552734,76
388,89,4092524004,4736153268,61.19724655151367,75.20732879638672,13
389,2,4092524004,4736153268,63.292049407958984,38.44070053100586,25
390,45,4092524004,4736153268,52.937034606933594,234.2669219970703,65
391,80,4092524004,4736153268,69.25581359863281,1.3506109714508057,2
392,81,4092524004,4736153268,59.549564361572266,,1
393,140,4092524004,4736153268,58.158199310302734,65.11554718017578,63
394,163,4092524004,4736153268,46.16742706298828,138.1574249267578,41
395,136,4092524004,4736153268,57.22658920288086,55.5441780090332,57
396,331,4092524004,4736153268,58.131473541259766,147.76889038085938,53
397,130,4092524004,4736153268,50.781166076660156,150.5345001220703,99
398,232,4092524004,4736153268,70.52474975585938,5.999161720275879,2
399,458,4092524004,4736153268,27.447973251342773,92.76175689697266,69
400,160,4092524004,4736153268,66.427001953125,13.836283683776855,7
401,196,4092524004,4736153268,43.0849609375,262.62554931640625,79
402,76,4092524004,4736153268,65.28575134277344,40.627384185791016,19
403,248,4092524004,4736153268,57.807891845703125,139.22068786621094,90
404,474,4092524004,4736153268,49.03940200805664,258.3092956542969,39
405,274,4092524004,4736153268,53.33405303955078,173.40591430664062,87
406,265,4092524004,4736153268,62.188255310058594,58.92780303955078,82
407,459,4092524004,4736153268,28.460466384887695,62.45057678222656,88
408,156,4092524004,4736153268,67.02694702148438,2.155546188354492,4
409,328,4092524004,4736153268,62.06813049316406,41.228946685791016,22
410,47,4092524004,4736153268,30.5842227935791,111.6796646118164,63
411,50,4092524004,4736153268,33.918907165527344,103.05309295654297,61
412,249,4092524004,4736153268,57.43891143798828,66.73152923583984,81
413,273,4092524004,4736153268,58.40833282470703,68.20248413085938,69
414,353,4092524004,4736153268,50.47005844116211,98.71638488769531,50
415,138,4092524004,4736153268,59.87656784057617,55.36054992675781,68
416,284,4092524004,4736153268,58.09791946411133,43.24026107788086,63
417,374,4092524004,4736153268,65.49275207519531,,1
418,405,4092524004,4736153268,62.071495056152344,68.46892547607422,73
419,452,4092524004,4736153268,44.96088790893555,143.79257202148438,39
420,122,4092524004,4736153268,43.76988220214844,342.058837890625,68
421,131,4092524004,4736153268,58.238250732421875,104.53337860107422,64
422,399,4092524004,4736153268,61.972537994384766,49.68412399291992,60
423,91,4092524004,4736153268,52.49445343017578,167.78640747070312,30
424,170,4092524004,4736153268,27.233104705810547,130.12351989746094,80
425,433,4092524004,4736153268,64.0688705444336,48.434505462646484,16
426,38,4092524004,4736153268,48.64693832397461,126.70913696289062,60
427,48,4092524004,4736153268,34.207611083984375,245.23675537109375,49
428,400,4092524004,4736153268,62.70567321777344,77.4053955078125,64
429,476,4092524004,4736153268,54.992549896240234,186.1914520263672,51
430,480,4092524004,4736153268,54.12409591674805,237.39576721191406,63
431,84,4092524004,4736153268,66.42748260498047,17.30356216430664,2
432,128,4092524004,4736153268,52.58643341064453,173.04830932617188,76
433,287,4092524004,4736153268,56.60321807861328,85.24653625488281,39
434,396,4092524004,4736153268,61.415794372558594,134.74298095703125,50
435,194,4092524004,4736153268,46.450592041015625,262.4200744628906,79
436,443,4092524004,4736153268,63.94237518310547,10.21325969696045,4
437,29,4092524004,4736153268,26.12589454650879,59.27873611450195,71
438,341,4092524004,4736153268,62.25226974487305,57.87639617919922,43
439,180,4092524004,4736153268,59.05730438232422,114.68205261230469,57
440,482,4092524004,4736153268,49.11095428466797,263.3391418457031,69
441,33,4092524004,4736153268,27.492448806762695,85.76058197021484,53
442,236,4092524004,4736153268,63.21500015258789,47.374691009521484,45
443,419,4092524004,4736153268,62.319236755371094,88.91494750976562,66
444,429,4092524004,4736153268,59.35898971557617,89.3310775756836,39
445,307,4092524004,4736153268,65.51707458496094,63.29135513305664,6
446,311,4092524004,4736153268,67.86338806152344,38.41682434082031,13
447,59,4092524004,4736153268,51.134342193603516,119.62821960449219,57
448,119,4092524004,4736153268,57.23958969116211,110.7385482788086,71
449,41,4092524004,4736153268,54.452598571777344,145.55215454101562,86
450,395,4092524004,4736153268,59.72285461425781,81.43392181396484,66
451,487,4092524004,4736153268,41.49871826171875,214.80369567871094,68
452,191,4092524004,4736153268,49.460166931152344,272.8916015625,67
453,204,4092524004,4736153268,58.36772918701172,110.12432098388672,96
454,347,4092524004,4736153268,50.15715408325195,180.3665313720703,43
455,206,4092524004,4736153268,54.613861083984375,65.98870086669922,65
456,390,4092524004,4736153268,57.870052337646484,70.69232940673828,79
457,408,4092524004,4736153268,61.5743408203125,103.17835235595703,69
458,174,4092524004,4736153268,28.895883560180664,129.3647003173828,55
459,223,4092524004,4736153268,66.77471160888672,61.764766693115234,5
460,229,4092524004,4736153268,66.46925354003906,403.4311828613281,3
461,358,4092524004,4736153268,43.717525482177734,130.76585388183594,33
462,3,4092524004,4736153268,62.586055755615234,44.857913970947266,17
463,215,4092524004,4736153268,58.34531021118164,67.26412200927734,57
464,257,4092524004,4736153268,57.545413970947266,80.18038177490234,75
465,478,4092524004,4736153268,61.125038146972656,92.94530487060547,82
466,127,4092524004,4736153268,50.276695251464844,309.59735107421875,62
467,173,4092524004,4736153268,24.002593994140625,104.86865234375,82
468,278,4092524004,4736153268,41.064353942871094,138.6293182373047,60
469,410,4092524004,4736153268,52.233726501464844,257.47467041015625,63
470,498,4092524004,4736153268,57.79731369018555,54.51378631591797,45
471,62,4092524004,4736153268,55.447052001953125,84.72937774658203,74
472,123,4092524004,4736153268,50.04181671142578,455.8570861816406,44
473,221,4092524004,4736153268,67.1863784790039,105.6008071899414,11
474,289,4092524004,4736153268,52.01582717895508,88.57352447509766,43
475,475,4092524004,4736153268,38.550323486328125,280.8599548339844,52
476,142,4092524004,4736153268,60.24398422241211,63.14596176147461,53
477,157,4092524004,4736153268,68.76980590820312,8.449721336364746,2
478,439,4092524004,4736153268,46.5438346862793,,1
479,31,4092524004,4736153268,25.375347137451172,43.38546371459961,64
480,286,4092524004,4736153268,53.09685134887695,67.04804229736328,48
481,354,4092524004,4736153268,53.82267761230469,70.21826934814453,46
482,304,4092524004,4736153268,68.18035888671875,46.91130065917969,2
483,285,4092524004,4736153268,56.86506652832031,76.42607879638672,82
484,310,4092524004,4736153268,65.88803100585938,212.6564178466797,8
485,306,4092524004,4736153268,63.275794982910156,170.1229248046875,7
486,308,4092524004,4736153268,59.14299011230469,112.0879898071289,5
487,19,4092524004,4736153268,44.822208404541016,47.11443328857422,30
488,75,4092524004,4736153268,66.47874450683594,65.44348907470703,20
489,442,4092524004,4736153268,44.57902145385742,,1
490,446,4092524004,4736153268,63.461769104003906,,1
491,298,4092524004,4736153268,67.5979232788086,10.114324569702148,7
492,300,4092524004,4736153268,58.03913497924805,62.88995361328125,2
493,502,4092524004,4736153268,61.15427780151367,45.25442123413086,28
